Suite/Test/Step Name,Browser,Description,Tag,Start time,End time,Duration,Status
Regression Tests,Chrome 89.0.4389.128,,,2021-04-21 09:02:30,2021-04-21 09:09:32,7m - 2.444s,FAILED
,,,,,,,
Test Cases/Draft Board,Chrome 89.0.4389.128,,,2021-04-21 09:02:30,2021-04-21 09:04:34,2m - 3.873s,FAILED
openBrowser(URL),Chrome 89.0.4389.128,,,2021-04-21 09:02:30,2021-04-21 09:02:35,4.462s,PASSED
"setViewPortSize(1440, 841)",Chrome 89.0.4389.128,,,2021-04-21 09:02:35,2021-04-21 09:02:35,0.152s,PASSED
"setText(findTestObject(""Login Page/Email""), email)",Chrome 89.0.4389.128,,,2021-04-21 09:02:35,2021-04-21 09:02:36,0.719s,PASSED
"setText(findTestObject(""Login Page/password""), password)",Chrome 89.0.4389.128,,,2021-04-21 09:02:36,2021-04-21 09:02:36,0.555s,PASSED
"click(findTestObject(""Login Page/Sign In""))",Chrome 89.0.4389.128,,,2021-04-21 09:02:36,2021-04-21 09:02:39,2.627s,PASSED
"waitForElementVisible(findTestObject(""Top Navigation Menu/Dashboard""), 60)",Chrome 89.0.4389.128,,,2021-04-21 09:02:39,2021-04-21 09:02:41,2.024s,PASSED
"enhancedClick(findTestObject(""Top Navigation Menu/Dashboard""))",Chrome 89.0.4389.128,,,2021-04-21 09:02:41,2021-04-21 09:02:45,3.820s,PASSED
delay(3),Chrome 89.0.4389.128,,,2021-04-21 09:02:45,2021-04-21 09:02:48,3.019s,PASSED
"mouseOver(findTestObject(""Dashboard Page/Draft Board (Dashboard)/blank 1-PG on Draft Board (Dashboard)""))",Chrome 89.0.4389.128,,,2021-04-21 09:02:48,2021-04-21 09:02:48,0.554s,PASSED
"enhancedClick(findTestObject(""Dashboard Page/Draft Board (Dashboard)/blank 1-PG on Draft Board (Dashboard)""))",Chrome 89.0.4389.128,,,2021-04-21 09:02:48,2021-04-21 09:02:49,0.312s,PASSED
"enhancedClick(findTestObject(""Dashboard Page/Draft Board (Dashboard)/Draft Board Dropdown Player1""))",Chrome 89.0.4389.128,,,2021-04-21 09:02:49,2021-04-21 09:02:49,0.627s,PASSED
"mouseOver(findTestObject(""Dashboard Page/Draft Board (Dashboard)/1-PG on Draft Board""))",Chrome 89.0.4389.128,,,2021-04-21 09:02:49,2021-04-21 09:02:50,0.739s,PASSED
"enhancedClick(findTestObject(""Dashboard Page/Draft Board (Dashboard)/1-PG on Draft Board""))",Chrome 89.0.4389.128,,,2021-04-21 09:02:50,2021-04-21 09:02:50,0.325s,PASSED
delay(1),Chrome 89.0.4389.128,,,2021-04-21 09:02:50,2021-04-21 09:02:51,1.004s,PASSED
"enhancedClick(findTestObject(""Recruit Profile (view)/Alerts button""))",Chrome 89.0.4389.128,,,2021-04-21 09:02:51,2021-04-21 09:02:52,0.356s,PASSED
"enhancedClick(findTestObject(""Recruit Profile (view)/CLOSE button""))",Chrome 89.0.4389.128,,,2021-04-21 09:02:52,2021-04-21 09:02:52,0.630s,PASSED
"verifyElementVisible(findTestObject(""Dashboard Page/Draft Board (Dashboard)/Alerts bell indicator""))",Chrome 89.0.4389.128,,,2021-04-21 09:02:52,2021-04-21 09:02:52,0.278s,PASSED
"mouseOver(findTestObject(""Dashboard Page/Draft Board (Dashboard)/1-PG on Draft Board""))",Chrome 89.0.4389.128,,,2021-04-21 09:02:52,2021-04-21 09:02:53,0.595s,PASSED
"enhancedClick(findTestObject(""Dashboard Page/Draft Board (Dashboard)/1-PG on Draft Board""))",Chrome 89.0.4389.128,,,2021-04-21 09:02:53,2021-04-21 09:02:54,0.526s,PASSED
"enhancedClick(findTestObject(""Recruit Profile (view)/Alerts button""))",Chrome 89.0.4389.128,,,2021-04-21 09:02:54,2021-04-21 09:02:54,0.494s,PASSED
"mouseOver(findTestObject(""Dashboard Page/Draft Board (Dashboard)/1-PG on Draft Board""))",Chrome 89.0.4389.128,,,2021-04-21 09:02:54,2021-04-21 09:02:54,0.383s,PASSED
"enhancedClick(findTestObject(""Recruit Profile (view)/CLOSE button""))",Chrome 89.0.4389.128,,,2021-04-21 09:02:54,2021-04-21 09:02:55,0.513s,PASSED
delay(1),Chrome 89.0.4389.128,,,2021-04-21 09:02:55,2021-04-21 09:02:56,1.003s,PASSED
"verifyElementNotPresent(findTestObject(""Dashboard Page/Draft Board (Dashboard)/Alerts bell indicator""), 0)",Chrome 89.0.4389.128,,,2021-04-21 09:02:56,2021-04-21 09:02:56,0.310s,PASSED
"mouseOver(findTestObject(""Dashboard Page/Draft Board (Dashboard)/1-PG on Draft Board""))",Chrome 89.0.4389.128,,,2021-04-21 09:02:56,2021-04-21 09:02:57,0.390s,PASSED
"enhancedClick(findTestObject(""Dashboard Page/Draft Board (Dashboard)/Delete 1-PG on Draft Board""))",Chrome 89.0.4389.128,,,2021-04-21 09:02:57,2021-04-21 09:02:57,0.306s,PASSED
"enhancedClick(findTestObject(""Dashboard Page/Draft Board (Dashboard)/Draft Board Season Dropdown""))",Chrome 89.0.4389.128,,,2021-04-21 09:02:57,2021-04-21 09:02:58,0.605s,PASSED
"enhancedClick(findTestObject(""Dashboard Page/Draft Board (Dashboard)/Draft Board Season Dropdown - 2023""))",Chrome 89.0.4389.128,,,2021-04-21 09:02:58,2021-04-21 09:02:58,0.400s,PASSED
"mouseOver(findTestObject(""Dashboard Page/Draft Board (Dashboard)/blank 1-PG on Draft Board (Dashboard)""))",Chrome 89.0.4389.128,,,2021-04-21 09:02:58,2021-04-21 09:02:59,0.590s,PASSED
"enhancedClick(findTestObject(""Dashboard Page/Draft Board (Dashboard)/blank 1-PG on Draft Board (Dashboard)""))",Chrome 89.0.4389.128,,,2021-04-21 09:02:59,2021-04-21 09:02:59,0.287s,PASSED
"enhancedClick(findTestObject(""Dashboard Page/Draft Board (Dashboard)/Draft Board Dropdown Player1""))",Chrome 89.0.4389.128,,,2021-04-21 09:02:59,2021-04-21 09:03:00,0.605s,PASSED
delay(1),Chrome 89.0.4389.128,,,2021-04-21 09:03:00,2021-04-21 09:03:01,1.005s,PASSED
"mouseOver(findTestObject(""Dashboard Page/Draft Board (Dashboard)/blank 2-PG on Draft Board (Dashboard)""))",Chrome 89.0.4389.128,,,2021-04-21 09:03:01,2021-04-21 09:03:01,0.389s,PASSED
"enhancedClick(findTestObject(""Dashboard Page/Draft Board (Dashboard)/blank 2-PG on Draft Board (Dashboard)""))",Chrome 89.0.4389.128,,,2021-04-21 09:03:01,2021-04-21 09:03:01,0.295s,PASSED
"enhancedClick(findTestObject(""Dashboard Page/Draft Board (Dashboard)/Recruit Search field""))",Chrome 89.0.4389.128,,,2021-04-21 09:03:01,2021-04-21 09:03:02,0.609s,PASSED
"sendKeys(findTestObject(""Dashboard Page/Draft Board (Dashboard)/Recruit Search field""), ""Mikey Williams"")",Chrome 89.0.4389.128,,,2021-04-21 09:03:02,2021-04-21 09:03:02,0.301s,PASSED
delay(2),Chrome 89.0.4389.128,,,2021-04-21 09:03:02,2021-04-21 09:03:04,2.007s,PASSED
"enhancedClick(findTestObject(""Dashboard Page/Draft Board (Dashboard)/Draft Board Dropdown Player2""))",Chrome 89.0.4389.128,,,2021-04-21 09:03:04,2021-04-21 09:03:04,0.300s,PASSED
"mouseOver(findTestObject(""Dashboard Page/Draft Board (Dashboard)/2-PG on Draft Board""))",Chrome 89.0.4389.128,,,2021-04-21 09:03:04,2021-04-21 09:03:05,0.703s,PASSED
"enhancedClick(findTestObject(""Dashboard Page/Draft Board (Dashboard)/Delete 2-PG on Draft Board""))",Chrome 89.0.4389.128,,,2021-04-21 09:03:05,2021-04-21 09:03:05,0.304s,PASSED
"mouseOver(findTestObject(""Dashboard Page/Draft Board (Dashboard)/1-PG on Draft Board""))",Chrome 89.0.4389.128,,,2021-04-21 09:03:05,2021-04-21 09:03:06,0.697s,PASSED
"enhancedClick(findTestObject(""Dashboard Page/Draft Board (Dashboard)/Delete 1-PG on Draft Board""))",Chrome 89.0.4389.128,,,2021-04-21 09:03:06,2021-04-21 09:03:07,0.419s,PASSED
"enhancedClick(findTestObject(""Dashboard Page/Draft Board (Dashboard)/Draft Board Link""))",Chrome 89.0.4389.128,,,2021-04-21 09:03:07,2021-04-21 09:03:07,0.640s,PASSED
"mouseOver(findTestObject(""Recruits Page/Draft Board (Recruits)/blank PG1 Draft Board-Recruits""))",Chrome 89.0.4389.128,,,2021-04-21 09:03:07,2021-04-21 09:03:08,0.598s,PASSED
"enhancedClick(findTestObject(""Recruits Page/Draft Board (Recruits)/blank PG1 Draft Board-Recruits""))",Chrome 89.0.4389.128,,,2021-04-21 09:03:08,2021-04-21 09:03:08,0.287s,PASSED
"enhancedClick(findTestObject(""Recruits Page/Draft Board (Recruits)/Draft Board dropdown P1 (Recruits)""))",Chrome 89.0.4389.128,,,2021-04-21 09:03:08,2021-04-21 09:03:09,0.634s,PASSED
"mouseOver(findTestObject(""Dashboard Page/Draft Board (Dashboard)/1-PG on Draft Board""))",Chrome 89.0.4389.128,,,2021-04-21 09:03:09,2021-04-21 09:03:09,0.695s,PASSED
"enhancedClick(findTestObject(""Recruits Page/Draft Board (Recruits)/Draft Board Color Dropper icon""))",Chrome 89.0.4389.128,,,2021-04-21 09:03:09,2021-04-21 09:03:10,0.397s,PASSED
"enhancedClick(findTestObject(""Recruits Page/Draft Board (Recruits)/Yellow Color Draft Board""))",Chrome 89.0.4389.128,,,2021-04-21 09:03:10,2021-04-21 09:03:10,0.401s,PASSED
delay(1),Chrome 89.0.4389.128,,,2021-04-21 09:03:10,2021-04-21 09:03:11,1.002s,PASSED
"verifyElementAttributeValue(findTestObject(""Dashboard Page/Draft Board (Dashboard)/1-PG on Draft Board""), ""class"", ""draft-board-player dashboard-player css-1n2x8eh-DraftBoard"", 0)",Chrome 89.0.4389.128,,,2021-04-21 09:03:11,2021-04-21 09:03:11,0.278s,PASSED
"mouseOver(findTestObject(""Dashboard Page/Draft Board (Dashboard)/1-PG on Draft Board""))",Chrome 89.0.4389.128,,,2021-04-21 09:03:11,2021-04-21 09:03:12,0.579s,PASSED
"enhancedClick(findTestObject(""Recruits Page/Draft Board (Recruits)/Draft Board Color Dropper icon""))",Chrome 89.0.4389.128,,,2021-04-21 09:03:12,2021-04-21 09:03:12,0.384s,PASSED
"enhancedClick(findTestObject(""Recruits Page/Draft Board (Recruits)/Green Color Draft Board""))",Chrome 89.0.4389.128,,,2021-04-21 09:03:12,2021-04-21 09:03:13,0.295s,PASSED
delay(1),Chrome 89.0.4389.128,,,2021-04-21 09:03:13,2021-04-21 09:03:14,1.003s,PASSED
"verifyElementAttributeValue(findTestObject(""Dashboard Page/Draft Board (Dashboard)/1-PG on Draft Board""), ""class"", ""draft-board-player dashboard-player css-15mrb88-DraftBoard"", 0)",Chrome 89.0.4389.128,,,2021-04-21 09:03:14,2021-04-21 09:03:14,0.376s,PASSED
"mouseOver(findTestObject(""Dashboard Page/Draft Board (Dashboard)/1-PG on Draft Board""))",Chrome 89.0.4389.128,,,2021-04-21 09:03:14,2021-04-21 09:03:15,0.498s,PASSED
"enhancedClick(findTestObject(""Recruits Page/Draft Board (Recruits)/Draft Board Color Dropper icon""))",Chrome 89.0.4389.128,,,2021-04-21 09:03:15,2021-04-21 09:03:15,0.289s,PASSED
"enhancedClick(findTestObject(""Recruits Page/Draft Board (Recruits)/Draft Board Color pencil icon""))",Chrome 89.0.4389.128,,,2021-04-21 09:03:15,2021-04-21 09:03:15,0.366s,PASSED
"enhancedClick(findTestObject(""Recruits Page/Draft Board (Recruits)/Add Draft Board Color plus button""))",Chrome 89.0.4389.128,,,2021-04-21 09:03:15,2021-04-21 09:03:16,0.511s,PASSED
"doubleClick(findTestObject(""Recruits Page/Draft Board (Recruits)/Draft Board Color Hex field""))",Chrome 89.0.4389.128,,,2021-04-21 09:03:16,2021-04-21 09:03:16,0.600s,PASSED
"sendKeys(findTestObject(""Recruits Page/Draft Board (Recruits)/Draft Board Color Hex field""), ""4832a8"")",Chrome 89.0.4389.128,,,2021-04-21 09:03:16,2021-04-21 09:03:17,0.389s,PASSED
"enhancedClick(findTestObject(""Recruits Page/Draft Board (Recruits)/Manage Colors Close button""))",Chrome 89.0.4389.128,,,2021-04-21 09:03:17,2021-04-21 09:03:17,0.295s,PASSED
"mouseOver(findTestObject(""Dashboard Page/Draft Board (Dashboard)/1-PG on Draft Board""))",Chrome 89.0.4389.128,,,2021-04-21 09:03:17,2021-04-21 09:03:17,0.388s,PASSED
"enhancedClick(findTestObject(""Recruits Page/Draft Board (Recruits)/Draft Board Color Dropper icon""))",Chrome 89.0.4389.128,,,2021-04-21 09:03:17,2021-04-21 09:03:18,0.381s,PASSED
"enhancedClick(findTestObject(""Recruits Page/Draft Board (Recruits)/My Custom Color Draft Board""))",Chrome 89.0.4389.128,,,2021-04-21 09:03:18,2021-04-21 09:03:18,0.401s,PASSED
delay(1),Chrome 89.0.4389.128,,,2021-04-21 09:03:18,2021-04-21 09:03:19,1.003s,PASSED
"verifyElementAttributeValue(findTestObject(""Dashboard Page/Draft Board (Dashboard)/1-PG on Draft Board""), ""class"", ""draft-board-player dashboard-player css-ms4n7m-DraftBoard"", 0)",Chrome 89.0.4389.128,,,2021-04-21 09:03:19,2021-04-21 09:03:20,0.372s,PASSED
"mouseOver(findTestObject(""Dashboard Page/Draft Board (Dashboard)/1-PG on Draft Board""))",Chrome 89.0.4389.128,,,2021-04-21 09:03:20,2021-04-21 09:03:20,0.378s,PASSED
"enhancedClick(findTestObject(""Recruits Page/Draft Board (Recruits)/Draft Board Color Dropper icon""))",Chrome 89.0.4389.128,,,2021-04-21 09:03:20,2021-04-21 09:03:20,0.475s,PASSED
"enhancedClick(findTestObject(""Recruits Page/Draft Board (Recruits)/Reset Draft Board color""))",Chrome 89.0.4389.128,,,2021-04-21 09:03:20,2021-04-21 09:03:21,0.711s,PASSED
delay(1),Chrome 89.0.4389.128,,,2021-04-21 09:03:21,2021-04-21 09:03:22,1.002s,PASSED
"verifyElementAttributeValue(findTestObject(""Dashboard Page/Draft Board (Dashboard)/1-PG on Draft Board""), ""class"", ""draft-board-player dashboard-player css-g7hzzu-DraftBoard"", 0)",Chrome 89.0.4389.128,,,2021-04-21 09:03:22,2021-04-21 09:03:23,0.474s,PASSED
"mouseOver(findTestObject(""Dashboard Page/Draft Board (Dashboard)/1-PG on Draft Board""))",Chrome 89.0.4389.128,,,2021-04-21 09:03:23,2021-04-21 09:03:23,0.487s,PASSED
"enhancedClick(findTestObject(""Recruits Page/Draft Board (Recruits)/Draft Board Color Dropper icon""))",Chrome 89.0.4389.128,,,2021-04-21 09:03:23,2021-04-21 09:03:23,0.277s,PASSED
"enhancedClick(findTestObject(""Recruits Page/Draft Board (Recruits)/Draft Board Color pencil icon""))",Chrome 89.0.4389.128,,,2021-04-21 09:03:23,2021-04-21 09:03:24,0.704s,PASSED
"mouseOver(findTestObject(""Recruits Page/Draft Board (Recruits)/Manage Colors Custom1""))",Chrome 89.0.4389.128,,,2021-04-21 09:03:24,2021-04-21 09:03:25,0.594s,PASSED
"waitForElementPresent(findTestObject(""Recruits Page/Draft Board (Recruits)/Delete custom color1""), 0)",Chrome 89.0.4389.128,,,2021-04-21 09:03:25,2021-04-21 09:03:59,34.286s,PASSED
"enhancedClick(findTestObject(""Recruits Page/Draft Board (Recruits)/Delete custom color1""))",Chrome 89.0.4389.128,,,2021-04-21 09:03:59,2021-04-21 09:04:34,34.881s,FAILED
,,,,,,,
Test Cases/Depth Chart,Chrome 89.0.4389.128,,,2021-04-21 09:04:34,2021-04-21 09:04:59,24.835s,PASSED
openBrowser(URL),Chrome 89.0.4389.128,,,2021-04-21 09:04:34,2021-04-21 09:04:37,3.270s,PASSED
"setText(findTestObject(""Login Page/Email""), email)",Chrome 89.0.4389.128,,,2021-04-21 09:04:37,2021-04-21 09:04:38,0.573s,PASSED
"setText(findTestObject(""Login Page/password""), password)",Chrome 89.0.4389.128,,,2021-04-21 09:04:38,2021-04-21 09:04:38,0.538s,PASSED
"click(findTestObject(""Login Page/Sign In""))",Chrome 89.0.4389.128,,,2021-04-21 09:04:38,2021-04-21 09:04:41,2.746s,PASSED
"waitForElementVisible(findTestObject(""Top Navigation Menu/Dashboard""), 60)",Chrome 89.0.4389.128,,,2021-04-21 09:04:41,2021-04-21 09:04:43,2.094s,PASSED
"enhancedClick(findTestObject(""Top Navigation Menu/Dashboard""))",Chrome 89.0.4389.128,,,2021-04-21 09:04:43,2021-04-21 09:04:47,3.676s,PASSED
delay(3),Chrome 89.0.4389.128,,,2021-04-21 09:04:47,2021-04-21 09:04:50,3.003s,PASSED
"enhancedClick(findTestObject(""Dashboard Page/Depth Chart/Depth Chart season dropdown""))",Chrome 89.0.4389.128,,,2021-04-21 09:04:50,2021-04-21 09:04:50,0.304s,PASSED
"enhancedClick(findTestObject(""Dashboard Page/Depth Chart/Season Dropdown Index3""))",Chrome 89.0.4389.128,,,2021-04-21 09:04:50,2021-04-21 09:04:51,0.402s,PASSED
"enhancedClick(findTestObject(""Dashboard Page/Depth Chart/Depth Chart season dropdown""))",Chrome 89.0.4389.128,,,2021-04-21 09:04:51,2021-04-21 09:04:51,0.483s,PASSED
"enhancedClick(findTestObject(""Dashboard Page/Depth Chart/Season Dropdown Index2""))",Chrome 89.0.4389.128,,,2021-04-21 09:04:51,2021-04-21 09:04:51,0.306s,PASSED
"enhancedClick(findTestObject(""Dashboard Page/Depth Chart/EDIT Depth Chart""))",Chrome 89.0.4389.128,,,2021-04-21 09:04:51,2021-04-21 09:04:52,0.538s,PASSED
"enhancedClick(findTestObject(""Dashboard Page/Depth Chart/Depth Chart Edit (sr, pg, 1)""))",Chrome 89.0.4389.128,,,2021-04-21 09:04:52,2021-04-21 09:04:52,0.563s,PASSED
"enhancedClick(findTestObject(""Dashboard Page/Depth Chart/SAVE Depth Chart""))",Chrome 89.0.4389.128,,,2021-04-21 09:04:52,2021-04-21 09:04:53,0.516s,PASSED
delay(2),Chrome 89.0.4389.128,,,2021-04-21 09:04:53,2021-04-21 09:04:55,2.002s,PASSED
"verifyTextNotPresent(playerHidden, false)",Chrome 89.0.4389.128,,,2021-04-21 09:04:55,2021-04-21 09:04:55,0.325s,PASSED
"enhancedClick(findTestObject(""Dashboard Page/Depth Chart/EDIT Depth Chart""))",Chrome 89.0.4389.128,,,2021-04-21 09:04:55,2021-04-21 09:04:56,0.303s,PASSED
"enhancedClick(findTestObject(""Dashboard Page/Depth Chart/Depth Chart Edit (sr, pg, 1)""))",Chrome 89.0.4389.128,,,2021-04-21 09:04:56,2021-04-21 09:04:56,0.616s,PASSED
"enhancedClick(findTestObject(""Dashboard Page/Depth Chart/SAVE Depth Chart""))",Chrome 89.0.4389.128,,,2021-04-21 09:04:56,2021-04-21 09:04:57,0.507s,PASSED
"verifyTextPresent(playerHidden, false)",Chrome 89.0.4389.128,,,2021-04-21 09:04:57,2021-04-21 09:04:58,0.839s,PASSED
delay(1),Chrome 89.0.4389.128,,,2021-04-21 09:04:58,2021-04-21 09:04:59,1.002s,PASSED
closeBrowser(),Chrome 89.0.4389.128,,,2021-04-21 09:04:59,2021-04-21 09:04:59,0.103s,PASSED
,,,,,,,
Test Cases/Dashboard Calendar,Chrome 89.0.4389.128,,,2021-04-21 09:04:59,2021-04-21 09:05:42,43.402s,FAILED
openBrowser(URL),Chrome 89.0.4389.128,,,2021-04-21 09:04:59,2021-04-21 09:05:03,4.093s,PASSED
"setText(findTestObject(""Login Page/Email""), email)",Chrome 89.0.4389.128,,,2021-04-21 09:05:03,2021-04-21 09:05:04,0.686s,PASSED
"setText(findTestObject(""Login Page/password""), password)",Chrome 89.0.4389.128,,,2021-04-21 09:05:04,2021-04-21 09:05:04,0.540s,PASSED
"click(findTestObject(""Login Page/Sign In""))",Chrome 89.0.4389.128,,,2021-04-21 09:05:04,2021-04-21 09:05:07,2.530s,PASSED
"waitForElementVisible(findTestObject(""Top Navigation Menu/Dashboard""), 60)",Chrome 89.0.4389.128,,,2021-04-21 09:05:07,2021-04-21 09:05:08,1.244s,PASSED
"enhancedClick(findTestObject(""Top Navigation Menu/Recruits""))",Chrome 89.0.4389.128,,,2021-04-21 09:05:08,2021-04-21 09:05:09,1.250s,PASSED
delay(3),Chrome 89.0.4389.128,,,2021-04-21 09:05:09,2021-04-21 09:05:12,3.004s,PASSED
"enhancedClick(findTestObject(""Top Navigation Menu/Dashboard""))",Chrome 89.0.4389.128,,,2021-04-21 09:05:12,2021-04-21 09:05:13,0.385s,PASSED
delay(3),Chrome 89.0.4389.128,,,2021-04-21 09:05:13,2021-04-21 09:05:16,3.006s,PASSED
"enhancedClick(findTestObject(""Dashboard Page/Calendar (Dashboard)/Toggle Left (Calendar Dashboard)""))",Chrome 89.0.4389.128,,,2021-04-21 09:05:16,2021-04-21 09:05:16,0.319s,PASSED
delay(5),Chrome 89.0.4389.128,,,2021-04-21 09:05:16,2021-04-21 09:05:21,5.002s,PASSED
"enhancedClick(findTestObject(""Dashboard Page/Calendar (Dashboard)/Toggle Right (Calendar Dashboard)""))",Chrome 89.0.4389.128,,,2021-04-21 09:05:21,2021-04-21 09:05:21,0.310s,PASSED
delay(5),Chrome 89.0.4389.128,,,2021-04-21 09:05:21,2021-04-21 09:05:26,5.003s,PASSED
"enhancedClick(findTestObject(""Dashboard Page/Calendar (Dashboard)/Dashboard Calendar SHOW dropdown""))",Chrome 89.0.4389.128,,,2021-04-21 09:05:26,2021-04-21 09:05:27,0.313s,PASSED
"enhancedClick(findTestObject(""Dashboard Page/Calendar (Dashboard)/My Calendar option""))",Chrome 89.0.4389.128,,,2021-04-21 09:05:27,2021-04-21 09:05:27,0.283s,PASSED
"enhancedClick(findTestObject(""Dashboard Page/Calendar (Dashboard)/My Calendar option""))",Chrome 89.0.4389.128,,,2021-04-21 09:05:27,2021-04-21 09:05:27,0.475s,PASSED
"enhancedClick(findTestObject(""Dashboard Page/Calendar (Dashboard)/Team calendar option""))",Chrome 89.0.4389.128,,,2021-04-21 09:05:27,2021-04-21 09:05:28,0.491s,PASSED
"enhancedClick(findTestObject(""Dashboard Page/Calendar (Dashboard)/Team calendar option""))",Chrome 89.0.4389.128,,,2021-04-21 09:05:28,2021-04-21 09:05:28,0.478s,PASSED
"enhancedClick(findTestObject(""Dashboard Page/Calendar (Dashboard)/Tasks calendar option""))",Chrome 89.0.4389.128,,,2021-04-21 09:05:28,2021-04-21 09:05:29,0.490s,PASSED
"enhancedClick(findTestObject(""Dashboard Page/Calendar (Dashboard)/Tasks calendar option""))",Chrome 89.0.4389.128,,,2021-04-21 09:05:29,2021-04-21 09:05:29,0.476s,PASSED
"enhancedClick(findTestObject(""Dashboard Page/Calendar (Dashboard)/NCAA Calendar option""))",Chrome 89.0.4389.128,,,2021-04-21 09:05:29,2021-04-21 09:05:30,0.490s,PASSED
"enhancedClick(findTestObject(""Dashboard Page/Calendar (Dashboard)/NCAA Calendar option""))",Chrome 89.0.4389.128,,,2021-04-21 09:05:30,2021-04-21 09:05:30,0.571s,PASSED
"enhancedClick(findTestObject(""Dashboard Page/Calendar (Dashboard)/My Live Period calendar option""))",Chrome 89.0.4389.128,,,2021-04-21 09:05:30,2021-04-21 09:05:31,0.486s,PASSED
"enhancedClick(findTestObject(""Dashboard Page/Calendar (Dashboard)/My Live Period calendar option""))",Chrome 89.0.4389.128,,,2021-04-21 09:05:31,2021-04-21 09:05:31,0.477s,PASSED
"enhancedClick(findTestObject(""Dashboard Page/Calendar (Dashboard)/Dashboard Calendar SHOW dropdown""))",Chrome 89.0.4389.128,,,2021-04-21 09:05:31,2021-04-21 09:05:32,0.482s,PASSED
"enhancedClick(findTestObject(""Dashboard Page/Calendar (Dashboard)/Dashboard Calendar Add New""))",Chrome 89.0.4389.128,,,2021-04-21 09:05:32,2021-04-21 09:05:32,0.450s,PASSED
"enhancedClick(findTestObject(""Dashboard Page/Calendar (Dashboard)/Add Event modal/Event Name field""))",Chrome 89.0.4389.128,,,2021-04-21 09:05:32,2021-04-21 09:05:33,0.700s,PASSED
"sendKeys(findTestObject(""Dashboard Page/Calendar (Dashboard)/Add Event modal/Event Name field""), ""Test Event1"")",Chrome 89.0.4389.128,,,2021-04-21 09:05:33,2021-04-21 09:05:33,0.285s,PASSED
"enhancedClick(findTestObject(""Dashboard Page/Calendar (Dashboard)/Add Event modal/Event Location field""))",Chrome 89.0.4389.128,,,2021-04-21 09:05:33,2021-04-21 09:05:34,0.305s,PASSED
"sendKeys(findTestObject(""Dashboard Page/Calendar (Dashboard)/Add Event modal/Event Location field""), ""444 N. Michigan Ave"")",Chrome 89.0.4389.128,,,2021-04-21 09:05:34,2021-04-21 09:05:34,0.505s,PASSED
delay(1),Chrome 89.0.4389.128,,,2021-04-21 09:05:34,2021-04-21 09:05:35,1.005s,PASSED
"enhancedClick(findTestObject(""Dashboard Page/Calendar (Dashboard)/Add Event modal/Select searched location""))",Chrome 89.0.4389.128,,,2021-04-21 09:05:35,2021-04-21 09:05:36,1.119s,PASSED
"enhancedClick(findTestObject(""Dashboard Page/Calendar (Dashboard)/Add Event modal/Select Recruits dropdown""))",Chrome 89.0.4389.128,,,2021-04-21 09:05:36,2021-04-21 09:05:37,0.500s,PASSED
"enhancedClick(findTestObject(""Dashboard Page/Calendar (Dashboard)/Add Event modal/Recruit1 in dropdown (Add Event modal)""))",Chrome 89.0.4389.128,,,2021-04-21 09:05:37,2021-04-21 09:05:37,0.502s,PASSED
"enhancedClick(findTestObject(""Dashboard Page/Calendar (Dashboard)/Add Event modal/Add Event Attendees""))",Chrome 89.0.4389.128,,,2021-04-21 09:05:37,2021-04-21 09:05:38,0.501s,PASSED
"enhancedClick(findTestObject(""Dashboard Page/Calendar (Dashboard)/Add Event modal/Recruiters checkbox""))",Chrome 89.0.4389.128,,,2021-04-21 09:05:38,2021-04-21 09:05:38,0.507s,PASSED
"enhancedClick(findTestObject(""Dashboard Page/Calendar (Dashboard)/Add Event modal/Game Note field""))",Chrome 89.0.4389.128,,,2021-04-21 09:05:38,2021-04-21 09:05:38,0.292s,PASSED
"sendKeys(findTestObject(""Dashboard Page/Calendar (Dashboard)/Add Event modal/Game Note field""), ""arrive early"")",Chrome 89.0.4389.128,,,2021-04-21 09:05:38,2021-04-21 09:05:39,0.354s,PASSED
"enhancedClick(findTestObject(""Dashboard Page/Calendar (Dashboard)/Add Event modal/Add Event Save button""))",Chrome 89.0.4389.128,,,2021-04-21 09:05:39,2021-04-21 09:05:39,0.397s,PASSED
delay(2),Chrome 89.0.4389.128,,,2021-04-21 09:05:39,2021-04-21 09:05:41,2.004s,PASSED
"verifyTextPresent(""Test Event1"", false)",Chrome 89.0.4389.128,,,2021-04-21 09:05:41,2021-04-21 09:05:42,0.905s,FAILED
,,,,,,,
Test Cases/Add_Archive_Delete New Recruit,Chrome 89.0.4389.128,,,2021-04-21 09:05:42,2021-04-21 09:06:17,34.766s,PASSED
openBrowser(URL),Chrome 89.0.4389.128,,,2021-04-21 09:05:42,2021-04-21 09:05:45,3.126s,PASSED
"setText(findTestObject(""Login Page/Email""), email)",Chrome 89.0.4389.128,,,2021-04-21 09:05:45,2021-04-21 09:05:46,0.573s,PASSED
"setText(findTestObject(""Login Page/password""), password)",Chrome 89.0.4389.128,,,2021-04-21 09:05:46,2021-04-21 09:05:46,0.539s,PASSED
"click(findTestObject(""Login Page/Sign In""))",Chrome 89.0.4389.128,,,2021-04-21 09:05:46,2021-04-21 09:05:49,2.748s,PASSED
"waitForElementVisible(findTestObject(""Top Navigation Menu/Dashboard""), 60)",Chrome 89.0.4389.128,,,2021-04-21 09:05:49,2021-04-21 09:05:52,2.322s,PASSED
"click(findTestObject(""Top Navigation Menu/Recruits""))",Chrome 89.0.4389.128,,,2021-04-21 09:05:52,2021-04-21 09:05:55,3.428s,PASSED
"click(findTestObject(""Recruits Page/ADD RECRUIT button""))",Chrome 89.0.4389.128,,,2021-04-21 09:05:55,2021-04-21 09:05:56,0.779s,PASSED
"setText(findTestObject(""Recruits Page/Add New Recruit modal/First Name field""), ""Josh"")",Chrome 89.0.4389.128,,,2021-04-21 09:05:56,2021-04-21 09:05:57,0.982s,PASSED
"setText(findTestObject(""Recruits Page/Add New Recruit modal/Last Name field""), ""Allen"")",Chrome 89.0.4389.128,,,2021-04-21 09:05:57,2021-04-21 09:05:57,0.573s,PASSED
"setText(findTestObject(""Recruits Page/Add New Recruit modal/Class field""), ""2023"")",Chrome 89.0.4389.128,,,2021-04-21 09:05:57,2021-04-21 09:05:58,0.670s,PASSED
"click(findTestObject(""Recruits Page/Add New Recruit modal/Height field input""))",Chrome 89.0.4389.128,,,2021-04-21 09:05:58,2021-04-21 09:05:58,0.298s,PASSED
"setText(findTestObject(""Recruits Page/Add New Recruit modal/Height field input""), ""69"")",Chrome 89.0.4389.128,,,2021-04-21 09:05:58,2021-04-21 09:05:59,0.626s,PASSED
"setText(findTestObject(""Recruits Page/Add New Recruit modal/Birthdate field input""), ""1/1/2005"")",Chrome 89.0.4389.128,,,2021-04-21 09:05:59,2021-04-21 09:06:00,0.785s,PASSED
"enhancedClick(findTestObject(""Recruits Page/Add New Recruit modal/Birthdate field Label""))",Chrome 89.0.4389.128,,,2021-04-21 09:06:00,2021-04-21 09:06:00,0.434s,PASSED
"setText(findTestObject(""Recruits Page/Add New Recruit modal/High School field input""), ""highland park"")",Chrome 89.0.4389.128,,,2021-04-21 09:06:00,2021-04-21 09:06:01,0.809s,PASSED
"sendKeys(findTestObject(""Recruits Page/Add New Recruit modal/High School field input""), Keys.chord(DOWN))",Chrome 89.0.4389.128,,,2021-04-21 09:06:01,2021-04-21 09:06:01,0.480s,PASSED
"sendKeys(findTestObject(""Recruits Page/Add New Recruit modal/High School field input""), Keys.chord(ENTER))",Chrome 89.0.4389.128,,,2021-04-21 09:06:01,2021-04-21 09:06:02,0.693s,PASSED
"setText(findTestObject(""Recruits Page/Add New Recruit modal/High School Coach Name field""), ""Coach Miller"")",Chrome 89.0.4389.128,,,2021-04-21 09:06:02,2021-04-21 09:06:03,1.124s,PASSED
"setText(findTestObject(""Recruits Page/Add New Recruit modal/High School Coach Phone field""), ""8474713163"")",Chrome 89.0.4389.128,,,2021-04-21 09:06:03,2021-04-21 09:06:04,0.580s,PASSED
"setText(findTestObject(""Recruits Page/Add New Recruit modal/Club Team field""), ""Mac Irvin Fire"")",Chrome 89.0.4389.128,,,2021-04-21 09:06:04,2021-04-21 09:06:04,0.592s,PASSED
"setText(findTestObject(""Recruits Page/Add New Recruit modal/Club Team Number field""), ""10"")",Chrome 89.0.4389.128,,,2021-04-21 09:06:04,2021-04-21 09:06:05,0.652s,PASSED
"click(findTestObject(""Recruits Page/Add New Recruit modal/SAVE button""))",Chrome 89.0.4389.128,,,2021-04-21 09:06:05,2021-04-21 09:06:05,0.366s,PASSED
"setText(findTestObject(""Recruits Page/Recruit Search Field on Recruits page""), ""josh allen"")",Chrome 89.0.4389.128,,,2021-04-21 09:06:05,2021-04-21 09:06:06,1.008s,PASSED
delay(1),Chrome 89.0.4389.128,,,2021-04-21 09:06:06,2021-04-21 09:06:07,1.005s,PASSED
"enhancedClick(findTestObject(""Recruits Page/Archive recruit""))",Chrome 89.0.4389.128,,,2021-04-21 09:06:07,2021-04-21 09:06:08,0.300s,PASSED
delay(1),Chrome 89.0.4389.128,,,2021-04-21 09:06:08,2021-04-21 09:06:09,1.002s,PASSED
"click(findTestObject(""Recruits Page/All Recruits List selection""))",Chrome 89.0.4389.128,,,2021-04-21 09:06:09,2021-04-21 09:06:09,0.293s,PASSED
delay(1),Chrome 89.0.4389.128,,,2021-04-21 09:06:09,2021-04-21 09:06:10,1.006s,PASSED
"click(findTestObject(""Recruits Page/Archived List selection""))",Chrome 89.0.4389.128,,,2021-04-21 09:06:10,2021-04-21 09:06:11,0.635s,PASSED
delay(1),Chrome 89.0.4389.128,,,2021-04-21 09:06:11,2021-04-21 09:06:12,1.004s,PASSED
"enhancedClick(findTestObject(""Recruits Page/Archived list ellipsis button""))",Chrome 89.0.4389.128,,,2021-04-21 09:06:12,2021-04-21 09:06:12,0.289s,PASSED
delay(1),Chrome 89.0.4389.128,,,2021-04-21 09:06:12,2021-04-21 09:06:13,1.006s,PASSED
"enhancedClick(findTestObject(""Recruits Page/Delete1""))",Chrome 89.0.4389.128,,,2021-04-21 09:06:13,2021-04-21 09:06:13,0.404s,PASSED
delay(1),Chrome 89.0.4389.128,,,2021-04-21 09:06:13,2021-04-21 09:06:14,1.003s,PASSED
"enhancedClick(findTestObject(""Recruits Page/Delete2""))",Chrome 89.0.4389.128,,,2021-04-21 09:06:14,2021-04-21 09:06:15,0.403s,PASSED
delay(2),Chrome 89.0.4389.128,,,2021-04-21 09:06:15,2021-04-21 09:06:17,2.003s,PASSED
closeBrowser(),Chrome 89.0.4389.128,,,2021-04-21 09:06:17,2021-04-21 09:06:17,0.095s,PASSED
,,,,,,,
Test Cases/Tasks,Chrome 89.0.4389.128,,,2021-04-21 09:06:17,2021-04-21 09:06:38,20.961s,PASSED
openBrowser(URL),Chrome 89.0.4389.128,,,2021-04-21 09:06:17,2021-04-21 09:06:20,3.107s,PASSED
"setText(findTestObject(""Login Page/Email""), email)",Chrome 89.0.4389.128,,,2021-04-21 09:06:20,2021-04-21 09:06:21,0.673s,PASSED
"setText(findTestObject(""Login Page/password""), password)",Chrome 89.0.4389.128,,,2021-04-21 09:06:21,2021-04-21 09:06:22,0.747s,PASSED
"click(findTestObject(""Login Page/Sign In""))",Chrome 89.0.4389.128,,,2021-04-21 09:06:22,2021-04-21 09:06:24,2.689s,PASSED
"waitForElementVisible(findTestObject(""Top Navigation Menu/Dashboard""), 60)",Chrome 89.0.4389.128,,,2021-04-21 09:06:24,2021-04-21 09:06:26,2.150s,PASSED
"enhancedClick(findTestObject(""Top Navigation Menu/Recruits""))",Chrome 89.0.4389.128,,,2021-04-21 09:06:26,2021-04-21 09:06:30,3.220s,PASSED
"enhancedClick(findTestObject(""Recruits Page/Tasks tab""))",Chrome 89.0.4389.128,,,2021-04-21 09:06:30,2021-04-21 09:06:30,0.767s,PASSED
"enhancedClick(findTestObject(""Recruits Page/Tasks/Add Task button""))",Chrome 89.0.4389.128,,,2021-04-21 09:06:30,2021-04-21 09:06:31,0.531s,PASSED
"enhancedClick(findTestObject(""Recruits Page/Tasks/Add Task Recruit field""))",Chrome 89.0.4389.128,,,2021-04-21 09:06:31,2021-04-21 09:06:31,0.494s,PASSED
"enhancedClick(findTestObject(""Recruits Page/Tasks/Add Task recruit dropdown1""))",Chrome 89.0.4389.128,,,2021-04-21 09:06:31,2021-04-21 09:06:32,0.493s,PASSED
"enhancedClick(findTestObject(""Recruits Page/Tasks/Add Task Assigned To field""))",Chrome 89.0.4389.128,,,2021-04-21 09:06:32,2021-04-21 09:06:32,0.489s,PASSED
"enhancedClick(findTestObject(""Recruits Page/Tasks/Add Task Assigned To dropdown1""))",Chrome 89.0.4389.128,,,2021-04-21 09:06:32,2021-04-21 09:06:33,0.603s,PASSED
"enhancedClick(findTestObject(""Recruits Page/Tasks/Add Task Instruction field""))",Chrome 89.0.4389.128,,,2021-04-21 09:06:33,2021-04-21 09:06:33,0.485s,PASSED
"setText(findTestObject(""Recruits Page/Tasks/Add Task Instruction field""), ""test task"")",Chrome 89.0.4389.128,,,2021-04-21 09:06:33,2021-04-21 09:06:34,0.866s,PASSED
"enhancedClick(findTestObject(""Recruits Page/Tasks/Save new task""))",Chrome 89.0.4389.128,,,2021-04-21 09:06:34,2021-04-21 09:06:35,0.497s,PASSED
"verifyElementVisible(findTestObject(""Recruits Page/Tasks/Due task1 row""))",Chrome 89.0.4389.128,,,2021-04-21 09:06:35,2021-04-21 09:06:36,0.786s,PASSED
"mouseOver(findTestObject(""Recruits Page/Tasks/Due task1 ellipsis""))",Chrome 89.0.4389.128,,,2021-04-21 09:06:36,2021-04-21 09:06:36,0.497s,PASSED
"enhancedClick(findTestObject(""Recruits Page/Tasks/Due task1 ellipsis""))",Chrome 89.0.4389.128,,,2021-04-21 09:06:36,2021-04-21 09:06:36,0.283s,PASSED
"enhancedClick(findTestObject(""Recruits Page/Tasks/Mark Tasks Completed button""))",Chrome 89.0.4389.128,,,2021-04-21 09:06:36,2021-04-21 09:06:37,0.491s,PASSED
"verifyElementNotPresent(findTestObject(""Recruits Page/Tasks/Due task1 row""), 0)",Chrome 89.0.4389.128,,,2021-04-21 09:06:37,2021-04-21 09:06:38,0.870s,PASSED
closeBrowser(),Chrome 89.0.4389.128,,,2021-04-21 09:06:38,2021-04-21 09:06:38,0.097s,PASSED
,,,,,,,
Test Cases/Features/Link To FastScout,Chrome 89.0.4389.128,,,2021-04-21 09:06:38,2021-04-21 09:07:04,26.560s,PASSED
openBrowser(URL),Chrome 89.0.4389.128,,,2021-04-21 09:06:38,2021-04-21 09:06:41,3.116s,PASSED
"setText(findTestObject(""Login Page/Email""), email)",Chrome 89.0.4389.128,,,2021-04-21 09:06:41,2021-04-21 09:06:42,0.673s,PASSED
"setText(findTestObject(""Login Page/password""), password)",Chrome 89.0.4389.128,,,2021-04-21 09:06:42,2021-04-21 09:06:42,0.641s,PASSED
"click(findTestObject(""Login Page/Sign In""))",Chrome 89.0.4389.128,,,2021-04-21 09:06:42,2021-04-21 09:06:45,2.478s,PASSED
"waitForElementVisible(findTestObject(""Top Navigation Menu/Dashboard""), 60)",Chrome 89.0.4389.128,,,2021-04-21 09:06:45,2021-04-21 09:06:47,2.446s,PASSED
"click(findTestObject(""Top Navigation Menu/Recruits""))",Chrome 89.0.4389.128,,,2021-04-21 09:06:47,2021-04-21 09:06:48,0.340s,PASSED
"click(findTestObject(""Recruits Page/ADD RECRUIT button""))",Chrome 89.0.4389.128,,,2021-04-21 09:06:48,2021-04-21 09:06:49,0.829s,PASSED
"enhancedClick(findTestObject(""Recruits Page/Add New Recruit modal/LinkToFastScout Folder/Link To FastScout button""))",Chrome 89.0.4389.128,,,2021-04-21 09:06:49,2021-04-21 09:06:49,0.730s,PASSED
"enhancedClick(findTestObject(""Recruits Page/Add New Recruit modal/LinkToFastScout Folder/League_Division dropdown""))",Chrome 89.0.4389.128,,,2021-04-21 09:06:49,2021-04-21 09:06:50,0.515s,PASSED
"enhancedClick(findTestObject(""Recruits Page/Add New Recruit modal/LinkToFastScout Folder/D-II League""))",Chrome 89.0.4389.128,,,2021-04-21 09:06:50,2021-04-21 09:06:50,0.506s,PASSED
"enhancedClick(findTestObject(""Recruits Page/Add New Recruit modal/LinkToFastScout Folder/Team dropdown (LFS)""))",Chrome 89.0.4389.128,,,2021-04-21 09:06:50,2021-04-21 09:06:51,0.527s,PASSED
"enhancedClick(findTestObject(""Recruits Page/Add New Recruit modal/LinkToFastScout Folder/Florida Southern (LFS)""))",Chrome 89.0.4389.128,,,2021-04-21 09:06:51,2021-04-21 09:06:51,0.507s,PASSED
"enhancedClick(findTestObject(""Recruits Page/Add New Recruit modal/LinkToFastScout Folder/Player dropdown (LFS)""))",Chrome 89.0.4389.128,,,2021-04-21 09:06:51,2021-04-21 09:06:52,0.500s,PASSED
"enhancedClick(findTestObject(""Recruits Page/Add New Recruit modal/LinkToFastScout Folder/Player10 (LFS)""))",Chrome 89.0.4389.128,,,2021-04-21 09:06:52,2021-04-21 09:06:52,0.604s,PASSED
"click(findTestObject(""Recruits Page/Add New Recruit modal/SAVE button""))",Chrome 89.0.4389.128,,,2021-04-21 09:06:52,2021-04-21 09:06:53,0.578s,PASSED
"setText(findTestObject(""Recruits Page/Recruit Search Field on Recruits page""), ""Wes Bongiorni"")",Chrome 89.0.4389.128,,,2021-04-21 09:06:53,2021-04-21 09:06:54,1.084s,PASSED
delay(1),Chrome 89.0.4389.128,,,2021-04-21 09:06:54,2021-04-21 09:06:55,1.006s,PASSED
"enhancedClick(findTestObject(""Recruits Page/Archive recruit""))",Chrome 89.0.4389.128,,,2021-04-21 09:06:55,2021-04-21 09:06:55,0.299s,PASSED
delay(1),Chrome 89.0.4389.128,,,2021-04-21 09:06:55,2021-04-21 09:06:56,1.004s,PASSED
"click(findTestObject(""Recruits Page/All Recruits List selection""))",Chrome 89.0.4389.128,,,2021-04-21 09:06:56,2021-04-21 09:06:57,0.396s,PASSED
delay(1),Chrome 89.0.4389.128,,,2021-04-21 09:06:57,2021-04-21 09:06:58,1.003s,PASSED
"click(findTestObject(""Recruits Page/Archived List selection""))",Chrome 89.0.4389.128,,,2021-04-21 09:06:58,2021-04-21 09:06:58,0.525s,PASSED
delay(1),Chrome 89.0.4389.128,,,2021-04-21 09:06:58,2021-04-21 09:06:59,1.003s,PASSED
"click(findTestObject(""Recruits Page/Archived list ellipsis button""))",Chrome 89.0.4389.128,,,2021-04-21 09:06:59,2021-04-21 09:07:00,0.293s,PASSED
delay(1),Chrome 89.0.4389.128,,,2021-04-21 09:07:00,2021-04-21 09:07:01,1.004s,PASSED
"click(findTestObject(""Recruits Page/Delete1""))",Chrome 89.0.4389.128,,,2021-04-21 09:07:01,2021-04-21 09:07:01,0.403s,PASSED
delay(1),Chrome 89.0.4389.128,,,2021-04-21 09:07:01,2021-04-21 09:07:02,1.006s,PASSED
"enhancedClick(findTestObject(""Recruits Page/Delete2""))",Chrome 89.0.4389.128,,,2021-04-21 09:07:02,2021-04-21 09:07:02,0.300s,PASSED
delay(2),Chrome 89.0.4389.128,,,2021-04-21 09:07:02,2021-04-21 09:07:04,2.003s,PASSED
closeBrowser(),Chrome 89.0.4389.128,,,2021-04-21 09:07:04,2021-04-21 09:07:04,0.095s,PASSED
,,,,,,,
Test Cases/Features/Video,Chrome 89.0.4389.128,,,2021-04-21 09:07:04,2021-04-21 09:07:20,15.476s,FAILED
openBrowser(URL),Chrome 89.0.4389.128,,,2021-04-21 09:07:05,2021-04-21 09:07:08,3.014s,PASSED
"setText(findTestObject(""Login Page/Email""), email)",Chrome 89.0.4389.128,,,2021-04-21 09:07:08,2021-04-21 09:07:08,0.580s,PASSED
"setText(findTestObject(""Login Page/password""), password)",Chrome 89.0.4389.128,,,2021-04-21 09:07:08,2021-04-21 09:07:09,0.746s,PASSED
"click(findTestObject(""Login Page/Sign In""))",Chrome 89.0.4389.128,,,2021-04-21 09:07:09,2021-04-21 09:07:11,2.551s,PASSED
"waitForElementVisible(findTestObject(""Top Navigation Menu/Dashboard""), 60)",Chrome 89.0.4389.128,,,2021-04-21 09:07:11,2021-04-21 09:07:14,2.306s,PASSED
"enhancedClick(findTestObject(""Top Navigation Menu/Recruits""))",Chrome 89.0.4389.128,,,2021-04-21 09:07:14,2021-04-21 09:07:17,3.316s,PASSED
"enhancedClick(findTestObject(""Recruits Page/Recruit Row1 Name""))",Chrome 89.0.4389.128,,,2021-04-21 09:07:17,2021-04-21 09:07:18,0.831s,PASSED
"enhancedClick(findTestObject(""Recruits Page/Recruit Profile (View)/VIDEOS tab""))",Chrome 89.0.4389.128,,,2021-04-21 09:07:18,2021-04-21 09:07:19,0.820s,PASSED
"uploadFile(findTestObject(""Recruit Profile (view)/Video Upload object""), ""/Users/jefffeldman/Desktop/Vids/NBA Playoffs 2019.mp4"")",Chrome 89.0.4389.128,,,2021-04-21 09:07:19,2021-04-21 09:07:20,1.179s,FAILED
,,,,,,,
Test Cases/Features/FastConnect,Chrome 89.0.4389.128,,,2021-04-21 09:07:20,2021-04-21 09:07:56,35.806s,PASSED
openBrowser(URL),Chrome 89.0.4389.128,,,2021-04-21 09:07:20,2021-04-21 09:07:23,3.159s,PASSED
"setText(findTestObject(""Login Page/Email""), email)",Chrome 89.0.4389.128,,,2021-04-21 09:07:23,2021-04-21 09:07:24,0.682s,PASSED
"setText(findTestObject(""Login Page/password""), password)",Chrome 89.0.4389.128,,,2021-04-21 09:07:24,2021-04-21 09:07:25,0.742s,PASSED
"click(findTestObject(""Login Page/Sign In""))",Chrome 89.0.4389.128,,,2021-04-21 09:07:25,2021-04-21 09:07:28,2.903s,PASSED
"waitForElementVisible(findTestObject(""Top Navigation Menu/Dashboard""), 60)",Chrome 89.0.4389.128,,,2021-04-21 09:07:28,2021-04-21 09:07:30,2.954s,PASSED
"enhancedClick(findTestObject(""Top Navigation Menu/Recruits""))",Chrome 89.0.4389.128,,,2021-04-21 09:07:30,2021-04-21 09:07:31,0.338s,PASSED
"enhancedClick(findTestObject(""Recruits Page/FastConnect tab""))",Chrome 89.0.4389.128,,,2021-04-21 09:07:31,2021-04-21 09:07:32,0.815s,PASSED
"enhancedClick(findTestObject(""Recruits Page/FastConnect/List dropdown""))",Chrome 89.0.4389.128,,,2021-04-21 09:07:32,2021-04-21 09:07:33,0.905s,PASSED
"enhancedClick(findTestObject(""Recruits Page/FastConnect/All Recruits list dropdown""))",Chrome 89.0.4389.128,,,2021-04-21 09:07:33,2021-04-21 09:07:33,0.510s,PASSED
delay(10),Chrome 89.0.4389.128,,,2021-04-21 09:07:33,2021-04-21 09:07:43,10.002s,PASSED
"verifyElementVisible(findTestObject(""Recruits Page/FastConnect/Fastconnect post1""), STOP_ON_FAILURE)",Chrome 89.0.4389.128,,,2021-04-21 09:07:43,2021-04-21 09:07:56,12.576s,PASSED
closeBrowser(),Chrome 89.0.4389.128,,,2021-04-21 09:07:56,2021-04-21 09:07:56,0.098s,PASSED
,,,,,,,
Test Cases/Tourney Workflow,Chrome 89.0.4389.128,,,2021-04-21 09:07:56,2021-04-21 09:08:57,1m - 1.334s,FAILED
openBrowser(URL),Chrome 89.0.4389.128,,,2021-04-21 09:07:56,2021-04-21 09:07:59,2.924s,PASSED
"setText(findTestObject(""Login Page/Email""), email)",Chrome 89.0.4389.128,,,2021-04-21 09:07:59,2021-04-21 09:07:59,0.576s,PASSED
"setText(findTestObject(""Login Page/password""), password)",Chrome 89.0.4389.128,,,2021-04-21 09:07:59,2021-04-21 09:08:00,0.532s,PASSED
"click(findTestObject(""Login Page/Sign In""))",Chrome 89.0.4389.128,,,2021-04-21 09:08:00,2021-04-21 09:08:03,2.653s,PASSED
"waitForElementVisible(findTestObject(""Top Navigation Menu/Dashboard""), 60)",Chrome 89.0.4389.128,,,2021-04-21 09:08:03,2021-04-21 09:08:04,1.246s,PASSED
"enhancedClick(findTestObject(""Top Navigation Menu/Tourneys""))",Chrome 89.0.4389.128,,,2021-04-21 09:08:04,2021-04-21 09:08:10,6.415s,PASSED
"enhancedClick(findTestObject(""Tourneys page/Tourney list dropdown""))",Chrome 89.0.4389.128,,,2021-04-21 09:08:10,2021-04-21 09:08:11,0.861s,PASSED
enhancedClick(tourneySession),Chrome 89.0.4389.128,,,2021-04-21 09:08:11,2021-04-21 09:08:12,0.551s,PASSED
"enhancedClick(findTestObject(""Tourneys page/Tourneys header""))",Chrome 89.0.4389.128,,,2021-04-21 09:08:12,2021-04-21 09:08:12,0.836s,PASSED
"enhancedClick(findTestObject(""Tourneys page/Tourney1 listed""))",Chrome 89.0.4389.128,,,2021-04-21 09:08:12,2021-04-21 09:08:13,0.441s,PASSED
"enhancedClick(findTestObject(""Tourneys page/Assign Staff button""))",Chrome 89.0.4389.128,,,2021-04-21 09:08:13,2021-04-21 09:08:14,1.015s,PASSED
"enhancedClick(findTestObject(""Tourneys page/Assign Staff User1 checkbox""))",Chrome 89.0.4389.128,,,2021-04-21 09:08:14,2021-04-21 09:08:14,0.504s,PASSED
"enhancedClick(findTestObject(""Tourneys page/Assign Staff SAVE button""))",Chrome 89.0.4389.128,,,2021-04-21 09:08:14,2021-04-21 09:08:15,0.592s,PASSED
delay(1),Chrome 89.0.4389.128,,,2021-04-21 09:08:15,2021-04-21 09:08:16,1.003s,PASSED
"enhancedClick(findTestObject(""Tourneys page/Assign Recruits button""))",Chrome 89.0.4389.128,,,2021-04-21 09:08:16,2021-04-21 09:08:16,0.301s,PASSED
"enhancedClick(findTestObject(""Tourneys page/Select Recruits dropdown""))",Chrome 89.0.4389.128,,,2021-04-21 09:08:16,2021-04-21 09:08:17,0.500s,PASSED
"enhancedClick(findTestObject(""Tourneys page/Assign Recruits dropdown list1""))",Chrome 89.0.4389.128,,,2021-04-21 09:08:17,2021-04-21 09:08:17,0.495s,PASSED
"enhancedClick(findTestObject(""Tourneys page/Assign Recruits SAVE button""))",Chrome 89.0.4389.128,,,2021-04-21 09:08:17,2021-04-21 09:08:18,0.501s,PASSED
"enhancedClick(findTestObject(""Tourneys page/Select Tourney Team dropdown""))",Chrome 89.0.4389.128,,,2021-04-21 09:08:18,2021-04-21 09:08:19,0.903s,PASSED
"enhancedClick(findTestObject(""Tourneys page/Select Tourney Team dropdown1""))",Chrome 89.0.4389.128,,,2021-04-21 09:08:19,2021-04-21 09:08:19,0.594s,PASSED
delay(2),Chrome 89.0.4389.128,,,2021-04-21 09:08:19,2021-04-21 09:08:21,2.004s,PASSED
"enhancedClick(findTestObject(""Tourneys page/Tourney GAMES tab""))",Chrome 89.0.4389.128,,,2021-04-21 09:08:21,2021-04-21 09:08:22,0.417s,PASSED
delay(3),Chrome 89.0.4389.128,,,2021-04-21 09:08:22,2021-04-21 09:08:25,3.002s,PASSED
"verifyElementPresent(findTestObject(""Tourneys page/GAMES tab row1""), 0)",Chrome 89.0.4389.128,,,2021-04-21 09:08:25,2021-04-21 09:08:57,32.317s,FAILED
,,,,,,,
Test Cases/Features/Prospects View,Chrome 89.0.4389.128,,,2021-04-21 09:08:57,2021-04-21 09:09:32,34.962s,PASSED
openBrowser(URL),Chrome 89.0.4389.128,,,2021-04-21 09:08:57,2021-04-21 09:09:00,3.152s,PASSED
"setText(findTestObject(""Login Page/Email""), email2)",Chrome 89.0.4389.128,,,2021-04-21 09:09:00,2021-04-21 09:09:01,0.573s,PASSED
"setText(findTestObject(""Login Page/password""), password)",Chrome 89.0.4389.128,,,2021-04-21 09:09:01,2021-04-21 09:09:02,0.629s,PASSED
"click(findTestObject(""Login Page/Sign In""))",Chrome 89.0.4389.128,,,2021-04-21 09:09:02,2021-04-21 09:09:04,2.741s,PASSED
"waitForElementVisible(findTestObject(""Top Navigation Menu/Dashboard""), 60)",Chrome 89.0.4389.128,,,2021-04-21 09:09:04,2021-04-21 09:09:06,2.037s,PASSED
"enhancedClick(findTestObject(""Prospects View/Add Prospect button""))",Chrome 89.0.4389.128,,,2021-04-21 09:09:06,2021-04-21 09:09:07,0.424s,PASSED
"enhancedClick(findTestObject(""Prospects View/Link Player Stats button""))",Chrome 89.0.4389.128,,,2021-04-21 09:09:07,2021-04-21 09:09:07,0.616s,PASSED
"enhancedClick(findTestObject(""Recruits Page/Add New Recruit modal/LinkToFastScout Folder/League_Division dropdown""))",Chrome 89.0.4389.128,,,2021-04-21 09:09:07,2021-04-21 09:09:08,0.517s,PASSED
"enhancedClick(findTestObject(""Recruits Page/Add New Recruit modal/LinkToFastScout Folder/D-II League""))",Chrome 89.0.4389.128,,,2021-04-21 09:09:08,2021-04-21 09:09:08,0.502s,PASSED
"enhancedClick(findTestObject(""Prospects View/Link Player Stats Team dropdown (Prospects)""))",Chrome 89.0.4389.128,,,2021-04-21 09:09:08,2021-04-21 09:09:09,0.519s,PASSED
"enhancedClick(findTestObject(""Recruits Page/Add New Recruit modal/LinkToFastScout Folder/Florida Southern (LFS)""))",Chrome 89.0.4389.128,,,2021-04-21 09:09:09,2021-04-21 09:09:09,0.506s,PASSED
"enhancedClick(findTestObject(""Prospects View/Link Player Stats Player dropdown (Prospects)""))",Chrome 89.0.4389.128,,,2021-04-21 09:09:09,2021-04-21 09:09:10,0.495s,PASSED
"enhancedClick(findTestObject(""Recruits Page/Add New Recruit modal/LinkToFastScout Folder/Player10 (LFS)""))",Chrome 89.0.4389.128,,,2021-04-21 09:09:10,2021-04-21 09:09:10,0.499s,PASSED
"click(findTestObject(""Recruits Page/Add New Recruit modal/SAVE button""))",Chrome 89.0.4389.128,,,2021-04-21 09:09:10,2021-04-21 09:09:11,0.532s,PASSED
"mouseOver(findTestObject(""Prospects View/Select Existing Prospect""))",Chrome 89.0.4389.128,,,2021-04-21 09:09:11,2021-04-21 09:09:12,0.906s,PASSED
"enhancedClick(findTestObject(""Prospects View/Select Existing Prospect""))",Chrome 89.0.4389.128,,,2021-04-21 09:09:12,2021-04-21 09:09:12,0.321s,PASSED
"enhancedClick(findTestObject(""Prospects View/FastScout Team Link (Prospect Profile)""))",Chrome 89.0.4389.128,,,2021-04-21 09:09:12,2021-04-21 09:09:13,0.739s,PASSED
switchToWindowIndex(1),Chrome 89.0.4389.128,,,2021-04-21 09:09:13,2021-04-21 09:09:13,0.015s,PASSED
delay(7),Chrome 89.0.4389.128,,,2021-04-21 09:09:13,2021-04-21 09:09:20,7.007s,PASSED
scoutURL = getUrl(),Chrome 89.0.4389.128,,,2021-04-21 09:09:20,2021-04-21 09:09:20,0.022s,PASSED
"assert scoutURL.contains(""league=NCAAB-II"")",Chrome 89.0.4389.128,,,2021-04-21 09:09:20,2021-04-21 09:09:20,0.001s,PASSED
switchToWindowIndex(0),Chrome 89.0.4389.128,,,2021-04-21 09:09:20,2021-04-21 09:09:20,0.013s,PASSED
delay(1),Chrome 89.0.4389.128,,,2021-04-21 09:09:20,2021-04-21 09:09:21,1.007s,PASSED
"enhancedClick(findTestObject(""Recruit Profile (view)/CLOSE button - Copy2""))",Chrome 89.0.4389.128,,,2021-04-21 09:09:21,2021-04-21 09:09:21,0.418s,PASSED
delay(1),Chrome 89.0.4389.128,,,2021-04-21 09:09:21,2021-04-21 09:09:22,1.004s,PASSED
"click(findTestObject(""Prospects View/Archive Prospect button""))",Chrome 89.0.4389.128,,,2021-04-21 09:09:22,2021-04-21 09:09:23,0.291s,PASSED
delay(1),Chrome 89.0.4389.128,,,2021-04-21 09:09:23,2021-04-21 09:09:24,1.005s,PASSED
"click(findTestObject(""Prospects View/All Prospects List selection""))",Chrome 89.0.4389.128,,,2021-04-21 09:09:24,2021-04-21 09:09:24,0.292s,PASSED
delay(1),Chrome 89.0.4389.128,,,2021-04-21 09:09:24,2021-04-21 09:09:25,1.005s,PASSED
"click(findTestObject(""Recruits Page/Archived List selection""))",Chrome 89.0.4389.128,,,2021-04-21 09:09:25,2021-04-21 09:09:26,0.616s,PASSED
delay(1),Chrome 89.0.4389.128,,,2021-04-21 09:09:26,2021-04-21 09:09:27,1.005s,PASSED
"enhancedClick(findTestObject(""Prospects View/Archived List ellipsis (Prospects)""))",Chrome 89.0.4389.128,,,2021-04-21 09:09:27,2021-04-21 09:09:27,0.396s,PASSED
delay(1),Chrome 89.0.4389.128,,,2021-04-21 09:09:27,2021-04-21 09:09:28,1.002s,PASSED
"enhancedClick(findTestObject(""Prospects View/Delete1 (Prospects)""))",Chrome 89.0.4389.128,,,2021-04-21 09:09:28,2021-04-21 09:09:28,0.487s,PASSED
delay(1),Chrome 89.0.4389.128,,,2021-04-21 09:09:28,2021-04-21 09:09:29,1.002s,PASSED
"enhancedClick(findTestObject(""Prospects View/Delete2 (Prospects)""))",Chrome 89.0.4389.128,,,2021-04-21 09:09:29,2021-04-21 09:09:30,0.403s,PASSED
delay(2),Chrome 89.0.4389.128,,,2021-04-21 09:09:30,2021-04-21 09:09:32,2.003s,PASSED
closeBrowser(),Chrome 89.0.4389.128,,,2021-04-21 09:09:32,2021-04-21 09:09:32,0.119s,PASSED
