Suite/Test/Step Name,Browser,Description,Tag,Start time,End time,Duration,Status
Regression Tests,Chrome 88.0.4324.150,,,2021-02-11 11:09:38,2021-02-11 11:13:08,3m - 29.542s,FAILED
,,,,,,,
Test Cases/Draft Board,Chrome 88.0.4324.150,,,2021-02-11 11:09:39,2021-02-11 11:09:58,19.565s,PASSED
openBrowser(URL),Chrome 88.0.4324.150,,,2021-02-11 11:09:39,2021-02-11 11:09:42,3.698s,PASSED
"setText(findTestObject(""Login Page/Email""), email)",Chrome 88.0.4324.150,,,2021-02-11 11:09:42,2021-02-11 11:09:43,0.206s,PASSED
"setText(findTestObject(""Login Page/password""), password)",Chrome 88.0.4324.150,,,2021-02-11 11:09:43,2021-02-11 11:09:43,0.118s,PASSED
"click(findTestObject(""Login Page/Sign In""))",Chrome 88.0.4324.150,,,2021-02-11 11:09:43,2021-02-11 11:09:45,2.514s,PASSED
"waitForElementVisible(findTestObject(""Top Navigation Menu/Dashboard""), 60)",Chrome 88.0.4324.150,,,2021-02-11 11:09:45,2021-02-11 11:09:46,0.652s,PASSED
"enhancedClick(findTestObject(""Top Navigation Menu/Dashboard""))",Chrome 88.0.4324.150,,,2021-02-11 11:09:46,2021-02-11 11:09:46,0.087s,PASSED
delay(3),Chrome 88.0.4324.150,,,2021-02-11 11:09:46,2021-02-11 11:09:49,3.019s,PASSED
"mouseOver(findTestObject(""Dashboard Page/Draft Board (Dashboard)/blank 1-PG on Draft Board (Dashboard)""))",Chrome 88.0.4324.150,,,2021-02-11 11:09:49,2021-02-11 11:09:49,0.240s,PASSED
"enhancedClick(findTestObject(""Dashboard Page/Draft Board (Dashboard)/blank 1-PG on Draft Board (Dashboard)""))",Chrome 88.0.4324.150,,,2021-02-11 11:09:49,2021-02-11 11:09:49,0.143s,PASSED
"enhancedClick(findTestObject(""Dashboard Page/Draft Board (Dashboard)/Draft Board Dropdown Player1""))",Chrome 88.0.4324.150,,,2021-02-11 11:09:49,2021-02-11 11:09:50,0.192s,PASSED
"mouseOver(findTestObject(""Dashboard Page/Draft Board (Dashboard)/1-PG on Draft Board""))",Chrome 88.0.4324.150,,,2021-02-11 11:09:50,2021-02-11 11:09:50,0.291s,PASSED
"enhancedClick(findTestObject(""Dashboard Page/Draft Board (Dashboard)/1-PG on Draft Board""))",Chrome 88.0.4324.150,,,2021-02-11 11:09:50,2021-02-11 11:09:50,0.109s,PASSED
delay(1),Chrome 88.0.4324.150,,,2021-02-11 11:09:50,2021-02-11 11:09:51,1.007s,PASSED
"enhancedClick(findTestObject(""Recruit Profile (view)/Alerts button""))",Chrome 88.0.4324.150,,,2021-02-11 11:09:51,2021-02-11 11:09:51,0.090s,PASSED
"enhancedClick(findTestObject(""Recruit Profile (view)/CLOSE button""))",Chrome 88.0.4324.150,,,2021-02-11 11:09:51,2021-02-11 11:09:51,0.097s,PASSED
"verifyElementAttributeValue(findTestObject(""Dashboard Page/Draft Board (Dashboard)/1-PG on Draft Board""), ""class"", ""draft-board-player css-1ydqi8h-DraftBoard"", 0)",Chrome 88.0.4324.150,,,2021-02-11 11:09:51,2021-02-11 11:09:51,0.079s,PASSED
"mouseOver(findTestObject(""Dashboard Page/Draft Board (Dashboard)/1-PG on Draft Board""))",Chrome 88.0.4324.150,,,2021-02-11 11:09:51,2021-02-11 11:09:52,0.219s,PASSED
"enhancedClick(findTestObject(""Dashboard Page/Draft Board (Dashboard)/1-PG on Draft Board""))",Chrome 88.0.4324.150,,,2021-02-11 11:09:52,2021-02-11 11:09:52,0.098s,PASSED
"enhancedClick(findTestObject(""Recruit Profile (view)/Alerts button""))",Chrome 88.0.4324.150,,,2021-02-11 11:09:52,2021-02-11 11:09:52,0.088s,PASSED
"enhancedClick(findTestObject(""Recruit Profile (view)/CLOSE button""))",Chrome 88.0.4324.150,,,2021-02-11 11:09:52,2021-02-11 11:09:52,0.090s,PASSED
delay(1),Chrome 88.0.4324.150,,,2021-02-11 11:09:52,2021-02-11 11:09:53,1.008s,PASSED
"verifyElementAttributeValue(findTestObject(""Dashboard Page/Draft Board (Dashboard)/1-PG on Draft Board""), ""class"", ""draft-board-player css-1xcfrz7-DraftBoard"", 0)",Chrome 88.0.4324.150,,,2021-02-11 11:09:53,2021-02-11 11:09:53,0.058s,PASSED
"mouseOver(findTestObject(""Dashboard Page/Draft Board (Dashboard)/1-PG on Draft Board""))",Chrome 88.0.4324.150,,,2021-02-11 11:09:53,2021-02-11 11:09:53,0.168s,PASSED
"enhancedClick(findTestObject(""Dashboard Page/Draft Board (Dashboard)/Delete 1-PG on Draft Board""))",Chrome 88.0.4324.150,,,2021-02-11 11:09:53,2021-02-11 11:09:53,0.083s,PASSED
"enhancedClick(findTestObject(""Dashboard Page/Draft Board (Dashboard)/Draft Board Season Dropdown""))",Chrome 88.0.4324.150,,,2021-02-11 11:09:53,2021-02-11 11:09:53,0.111s,PASSED
"enhancedClick(findTestObject(""Dashboard Page/Draft Board (Dashboard)/Draft Board Season Dropdown - 2023""))",Chrome 88.0.4324.150,,,2021-02-11 11:09:53,2021-02-11 11:09:53,0.098s,PASSED
"mouseOver(findTestObject(""Dashboard Page/Draft Board (Dashboard)/blank 1-PG on Draft Board (Dashboard)""))",Chrome 88.0.4324.150,,,2021-02-11 11:09:53,2021-02-11 11:09:53,0.168s,PASSED
"enhancedClick(findTestObject(""Dashboard Page/Draft Board (Dashboard)/blank 1-PG on Draft Board (Dashboard)""))",Chrome 88.0.4324.150,,,2021-02-11 11:09:53,2021-02-11 11:09:54,0.070s,PASSED
"enhancedClick(findTestObject(""Dashboard Page/Draft Board (Dashboard)/Draft Board Dropdown Player1""))",Chrome 88.0.4324.150,,,2021-02-11 11:09:54,2021-02-11 11:09:54,0.169s,PASSED
delay(1),Chrome 88.0.4324.150,,,2021-02-11 11:09:54,2021-02-11 11:09:55,1.007s,PASSED
"mouseOver(findTestObject(""Dashboard Page/Draft Board (Dashboard)/blank 2-PG on Draft Board (Dashboard)""))",Chrome 88.0.4324.150,,,2021-02-11 11:09:55,2021-02-11 11:09:55,0.179s,PASSED
"enhancedClick(findTestObject(""Dashboard Page/Draft Board (Dashboard)/blank 2-PG on Draft Board (Dashboard)""))",Chrome 88.0.4324.150,,,2021-02-11 11:09:55,2021-02-11 11:09:55,0.074s,PASSED
"enhancedClick(findTestObject(""Dashboard Page/Draft Board (Dashboard)/Recruit Search field""))",Chrome 88.0.4324.150,,,2021-02-11 11:09:55,2021-02-11 11:09:55,0.079s,PASSED
"sendKeys(findTestObject(""Dashboard Page/Draft Board (Dashboard)/Recruit Search field""), ""Mikey Williams"")",Chrome 88.0.4324.150,,,2021-02-11 11:09:55,2021-02-11 11:09:55,0.084s,PASSED
delay(2),Chrome 88.0.4324.150,,,2021-02-11 11:09:55,2021-02-11 11:09:57,2.007s,PASSED
"enhancedClick(findTestObject(""Dashboard Page/Draft Board (Dashboard)/Draft Board Dropdown Player2""))",Chrome 88.0.4324.150,,,2021-02-11 11:09:57,2021-02-11 11:09:57,0.085s,PASSED
"mouseOver(findTestObject(""Dashboard Page/Draft Board (Dashboard)/2-PG on Draft Board""))",Chrome 88.0.4324.150,,,2021-02-11 11:09:57,2021-02-11 11:09:58,0.260s,PASSED
"enhancedClick(findTestObject(""Dashboard Page/Draft Board (Dashboard)/Delete 2-PG on Draft Board""))",Chrome 88.0.4324.150,,,2021-02-11 11:09:58,2021-02-11 11:09:58,0.088s,PASSED
"mouseOver(findTestObject(""Dashboard Page/Draft Board (Dashboard)/1-PG on Draft Board""))",Chrome 88.0.4324.150,,,2021-02-11 11:09:58,2021-02-11 11:09:58,0.187s,PASSED
"enhancedClick(findTestObject(""Dashboard Page/Draft Board (Dashboard)/Delete 1-PG on Draft Board""))",Chrome 88.0.4324.150,,,2021-02-11 11:09:58,2021-02-11 11:09:58,0.078s,PASSED
"enhancedClick(findTestObject(""Dashboard Page/Draft Board (Dashboard)/Draft Board Link""))",Chrome 88.0.4324.150,,,2021-02-11 11:09:58,2021-02-11 11:09:58,0.122s,PASSED
closeBrowser(),Chrome 88.0.4324.150,,,2021-02-11 11:09:58,2021-02-11 11:09:58,0.087s,PASSED
,,,,,,,
Test Cases/Depth Chart,Chrome 88.0.4324.150,,,2021-02-11 11:09:58,2021-02-11 11:11:13,1m - 14.874s,PASSED
openBrowser(URL),Chrome 88.0.4324.150,,,2021-02-11 11:09:58,2021-02-11 11:10:00,1.973s,PASSED
"setText(findTestObject(""Login Page/Email""), email)",Chrome 88.0.4324.150,,,2021-02-11 11:10:00,2021-02-11 11:10:00,0.180s,PASSED
"setText(findTestObject(""Login Page/password""), password)",Chrome 88.0.4324.150,,,2021-02-11 11:10:00,2021-02-11 11:10:00,0.125s,PASSED
"click(findTestObject(""Login Page/Sign In""))",Chrome 88.0.4324.150,,,2021-02-11 11:10:00,2021-02-11 11:10:04,3.057s,PASSED
"waitForElementVisible(findTestObject(""Top Navigation Menu/Dashboard""), 60)",Chrome 88.0.4324.150,,,2021-02-11 11:10:04,2021-02-11 11:10:04,0.542s,PASSED
"enhancedClick(findTestObject(""Top Navigation Menu/Dashboard""))",Chrome 88.0.4324.150,,,2021-02-11 11:10:04,2021-02-11 11:10:04,0.078s,PASSED
delay(3),Chrome 88.0.4324.150,,,2021-02-11 11:10:04,2021-02-11 11:10:07,3.007s,PASSED
"enhancedClick(findTestObject(""Dashboard Page/Depth Chart/Depth Chart season dropdown""))",Chrome 88.0.4324.150,,,2021-02-11 11:10:07,2021-02-11 11:10:07,0.099s,PASSED
"enhancedClick(findTestObject(""Dashboard Page/Depth Chart/Season Dropdown Index3""))",Chrome 88.0.4324.150,,,2021-02-11 11:10:07,2021-02-11 11:10:09,1.271s,PASSED
"enhancedClick(findTestObject(""Dashboard Page/Depth Chart/Depth Chart season dropdown""))",Chrome 88.0.4324.150,,,2021-02-11 11:10:09,2021-02-11 11:10:09,0.064s,PASSED
"enhancedClick(findTestObject(""Dashboard Page/Depth Chart/Season Dropdown Index2""))",Chrome 88.0.4324.150,,,2021-02-11 11:10:09,2021-02-11 11:10:09,0.088s,PASSED
"enhancedClick(findTestObject(""Dashboard Page/Depth Chart/EDIT Depth Chart""))",Chrome 88.0.4324.150,,,2021-02-11 11:10:09,2021-02-11 11:10:09,0.144s,PASSED
"enhancedClick(findTestObject(""Dashboard Page/Depth Chart/Depth Chart Edit (sr, pg, 1)""))",Chrome 88.0.4324.150,,,2021-02-11 11:10:09,2021-02-11 11:10:40,30.766s,PASSED
"enhancedClick(findTestObject(""Dashboard Page/Depth Chart/SAVE Depth Chart""))",Chrome 88.0.4324.150,,,2021-02-11 11:10:40,2021-02-11 11:10:40,0.096s,PASSED
delay(2),Chrome 88.0.4324.150,,,2021-02-11 11:10:40,2021-02-11 11:10:42,2.007s,PASSED
"verifyTextNotPresent(playerHidden, false)",Chrome 88.0.4324.150,,,2021-02-11 11:10:42,2021-02-11 11:10:42,0.134s,PASSED
"enhancedClick(findTestObject(""Dashboard Page/Depth Chart/EDIT Depth Chart""))",Chrome 88.0.4324.150,,,2021-02-11 11:10:42,2021-02-11 11:10:42,0.126s,PASSED
"enhancedClick(findTestObject(""Dashboard Page/Depth Chart/Depth Chart Edit (sr, pg, 1)""))",Chrome 88.0.4324.150,,,2021-02-11 11:10:42,2021-02-11 11:11:13,30.672s,PASSED
"enhancedClick(findTestObject(""Dashboard Page/Depth Chart/SAVE Depth Chart""))",Chrome 88.0.4324.150,,,2021-02-11 11:11:13,2021-02-11 11:11:13,0.083s,PASSED
"verifyTextPresent(playerHidden, false)",Chrome 88.0.4324.150,,,2021-02-11 11:11:13,2021-02-11 11:11:13,0.221s,PASSED
,,,,,,,
Test Cases/Dashboard Calendar,Chrome 88.0.4324.150,,,2021-02-11 11:11:13,2021-02-11 11:11:41,28.366s,FAILED
openBrowser(URL),Chrome 88.0.4324.150,,,2021-02-11 11:11:13,2021-02-11 11:11:16,2.647s,PASSED
"setText(findTestObject(""Login Page/Email""), email)",Chrome 88.0.4324.150,,,2021-02-11 11:11:16,2021-02-11 11:11:16,0.158s,PASSED
"setText(findTestObject(""Login Page/password""), password)",Chrome 88.0.4324.150,,,2021-02-11 11:11:16,2021-02-11 11:11:16,0.106s,PASSED
"click(findTestObject(""Login Page/Sign In""))",Chrome 88.0.4324.150,,,2021-02-11 11:11:16,2021-02-11 11:11:19,2.490s,PASSED
"waitForElementVisible(findTestObject(""Top Navigation Menu/Dashboard""), 60)",Chrome 88.0.4324.150,,,2021-02-11 11:11:19,2021-02-11 11:11:20,1.269s,PASSED
"enhancedClick(findTestObject(""Top Navigation Menu/Recruits""))",Chrome 88.0.4324.150,,,2021-02-11 11:11:20,2021-02-11 11:11:20,0.123s,PASSED
delay(3),Chrome 88.0.4324.150,,,2021-02-11 11:11:20,2021-02-11 11:11:23,3.007s,PASSED
"enhancedClick(findTestObject(""Top Navigation Menu/Dashboard""))",Chrome 88.0.4324.150,,,2021-02-11 11:11:23,2021-02-11 11:11:23,0.171s,PASSED
delay(3),Chrome 88.0.4324.150,,,2021-02-11 11:11:23,2021-02-11 11:11:26,3.007s,PASSED
"enhancedClick(findTestObject(""Dashboard Page/Calendar (Dashboard)/Toggle Left (Calendar Dashboard)""))",Chrome 88.0.4324.150,,,2021-02-11 11:11:26,2021-02-11 11:11:26,0.110s,PASSED
delay(5),Chrome 88.0.4324.150,,,2021-02-11 11:11:26,2021-02-11 11:11:31,5.006s,PASSED
"enhancedClick(findTestObject(""Dashboard Page/Calendar (Dashboard)/Toggle Right (Calendar Dashboard)""))",Chrome 88.0.4324.150,,,2021-02-11 11:11:31,2021-02-11 11:11:31,0.095s,PASSED
delay(5),Chrome 88.0.4324.150,,,2021-02-11 11:11:31,2021-02-11 11:11:36,5.007s,PASSED
"enhancedClick(findTestObject(""Dashboard Page/Calendar (Dashboard)/Dashboard Calendar SHOW dropdown""))",Chrome 88.0.4324.150,,,2021-02-11 11:11:36,2021-02-11 11:11:36,0.085s,PASSED
"enhancedClick(findTestObject(""Dashboard Page/Calendar (Dashboard)/My Calendar option""))",Chrome 88.0.4324.150,,,2021-02-11 11:11:36,2021-02-11 11:11:36,0.081s,PASSED
"enhancedClick(findTestObject(""Dashboard Page/Calendar (Dashboard)/My Calendar option""))",Chrome 88.0.4324.150,,,2021-02-11 11:11:36,2021-02-11 11:11:37,0.061s,PASSED
"enhancedClick(findTestObject(""Dashboard Page/Calendar (Dashboard)/Team calendar option""))",Chrome 88.0.4324.150,,,2021-02-11 11:11:37,2021-02-11 11:11:37,0.068s,PASSED
"enhancedClick(findTestObject(""Dashboard Page/Calendar (Dashboard)/Team calendar option""))",Chrome 88.0.4324.150,,,2021-02-11 11:11:37,2021-02-11 11:11:37,0.055s,PASSED
"enhancedClick(findTestObject(""Dashboard Page/Calendar (Dashboard)/Tasks calendar option""))",Chrome 88.0.4324.150,,,2021-02-11 11:11:37,2021-02-11 11:11:37,0.071s,PASSED
"enhancedClick(findTestObject(""Dashboard Page/Calendar (Dashboard)/Tasks calendar option""))",Chrome 88.0.4324.150,,,2021-02-11 11:11:37,2021-02-11 11:11:37,0.061s,PASSED
"enhancedClick(findTestObject(""Dashboard Page/Calendar (Dashboard)/NCAA Calendar option""))",Chrome 88.0.4324.150,,,2021-02-11 11:11:37,2021-02-11 11:11:37,0.072s,PASSED
"enhancedClick(findTestObject(""Dashboard Page/Calendar (Dashboard)/NCAA Calendar option""))",Chrome 88.0.4324.150,,,2021-02-11 11:11:37,2021-02-11 11:11:37,0.056s,PASSED
"enhancedClick(findTestObject(""Dashboard Page/Calendar (Dashboard)/My Live Period calendar option""))",Chrome 88.0.4324.150,,,2021-02-11 11:11:37,2021-02-11 11:11:37,0.070s,PASSED
"enhancedClick(findTestObject(""Dashboard Page/Calendar (Dashboard)/My Live Period calendar option""))",Chrome 88.0.4324.150,,,2021-02-11 11:11:37,2021-02-11 11:11:37,0.070s,PASSED
"enhancedClick(findTestObject(""Dashboard Page/Calendar (Dashboard)/Dashboard Calendar SHOW dropdown""))",Chrome 88.0.4324.150,,,2021-02-11 11:11:37,2021-02-11 11:11:37,0.073s,PASSED
"enhancedClick(findTestObject(""Dashboard Page/Calendar (Dashboard)/Dashboard Calendar Add New""))",Chrome 88.0.4324.150,,,2021-02-11 11:11:37,2021-02-11 11:11:37,0.151s,PASSED
"enhancedClick(findTestObject(""Dashboard Page/Calendar (Dashboard)/Add Event modal/Event Name field""))",Chrome 88.0.4324.150,,,2021-02-11 11:11:37,2021-02-11 11:11:37,0.108s,PASSED
"sendKeys(findTestObject(""Dashboard Page/Calendar (Dashboard)/Add Event modal/Event Name field""), ""Test Event1"")",Chrome 88.0.4324.150,,,2021-02-11 11:11:37,2021-02-11 11:11:38,0.107s,PASSED
"enhancedClick(findTestObject(""Dashboard Page/Calendar (Dashboard)/Add Event modal/Event Location field""))",Chrome 88.0.4324.150,,,2021-02-11 11:11:38,2021-02-11 11:11:38,0.094s,PASSED
"sendKeys(findTestObject(""Dashboard Page/Calendar (Dashboard)/Add Event modal/Event Location field""), ""444 N. Michigan Ave"")",Chrome 88.0.4324.150,,,2021-02-11 11:11:38,2021-02-11 11:11:38,0.095s,PASSED
"enhancedClick(findTestObject(""Dashboard Page/Calendar (Dashboard)/Add Event modal/Select searched location""), STOP_ON_FAILURE)",Chrome 88.0.4324.150,,,2021-02-11 11:11:38,2021-02-11 11:11:38,0.079s,PASSED
"enhancedClick(findTestObject(""Dashboard Page/Calendar (Dashboard)/Add Event modal/Select Recruits dropdown""))",Chrome 88.0.4324.150,,,2021-02-11 11:11:38,2021-02-11 11:11:38,0.072s,PASSED
"enhancedClick(findTestObject(""Dashboard Page/Calendar (Dashboard)/Add Event modal/Recruit1 in dropdown (Add Event modal)""))",Chrome 88.0.4324.150,,,2021-02-11 11:11:38,2021-02-11 11:11:38,0.085s,PASSED
"enhancedClick(findTestObject(""Dashboard Page/Calendar (Dashboard)/Add Event modal/Add Event Attendees""))",Chrome 88.0.4324.150,,,2021-02-11 11:11:38,2021-02-11 11:11:38,0.079s,PASSED
"enhancedClick(findTestObject(""Dashboard Page/Calendar (Dashboard)/Add Event modal/Recruiters checkbox""))",Chrome 88.0.4324.150,,,2021-02-11 11:11:38,2021-02-11 11:11:38,0.097s,PASSED
"enhancedClick(findTestObject(""Dashboard Page/Calendar (Dashboard)/Add Event modal/Game Note field""))",Chrome 88.0.4324.150,,,2021-02-11 11:11:38,2021-02-11 11:11:38,0.083s,PASSED
"sendKeys(findTestObject(""Dashboard Page/Calendar (Dashboard)/Add Event modal/Game Note field""), ""arrive early"")",Chrome 88.0.4324.150,,,2021-02-11 11:11:38,2021-02-11 11:11:38,0.141s,PASSED
"enhancedClick(findTestObject(""Dashboard Page/Calendar (Dashboard)/Add Event modal/Add Event Save button""))",Chrome 88.0.4324.150,,,2021-02-11 11:11:38,2021-02-11 11:11:38,0.074s,PASSED
delay(2),Chrome 88.0.4324.150,,,2021-02-11 11:11:38,2021-02-11 11:11:40,2.007s,PASSED
"verifyTextPresent(""Test Event1"", false)",Chrome 88.0.4324.150,,,2021-02-11 11:11:40,2021-02-11 11:11:41,0.894s,FAILED
,,,,,,,
Test Cases/Add_Archive_Delete New Recruit,Chrome 88.0.4324.150,,,2021-02-11 11:11:41,2021-02-11 11:12:00,19.036s,PASSED
openBrowser(URL),Chrome 88.0.4324.150,,,2021-02-11 11:11:41,2021-02-11 11:11:45,3.815s,PASSED
"setText(findTestObject(""Login Page/Email""), email)",Chrome 88.0.4324.150,,,2021-02-11 11:11:45,2021-02-11 11:11:45,0.157s,PASSED
"setText(findTestObject(""Login Page/password""), password)",Chrome 88.0.4324.150,,,2021-02-11 11:11:45,2021-02-11 11:11:46,0.102s,PASSED
"click(findTestObject(""Login Page/Sign In""))",Chrome 88.0.4324.150,,,2021-02-11 11:11:46,2021-02-11 11:11:48,2.201s,PASSED
"waitForElementVisible(findTestObject(""Top Navigation Menu/Dashboard""), 60)",Chrome 88.0.4324.150,,,2021-02-11 11:11:48,2021-02-11 11:11:48,0.516s,PASSED
"click(findTestObject(""Top Navigation Menu/Recruits""))",Chrome 88.0.4324.150,,,2021-02-11 11:11:48,2021-02-11 11:11:48,0.124s,PASSED
"click(findTestObject(""Recruits Page/ADD RECRUIT button""))",Chrome 88.0.4324.150,,,2021-02-11 11:11:48,2021-02-11 11:11:49,0.129s,PASSED
"setText(findTestObject(""Recruits Page/Add New Recruit modal/First Name field""), ""Josh"")",Chrome 88.0.4324.150,,,2021-02-11 11:11:49,2021-02-11 11:11:50,1.169s,PASSED
"setText(findTestObject(""Recruits Page/Add New Recruit modal/Last Name field""), ""Allen"")",Chrome 88.0.4324.150,,,2021-02-11 11:11:50,2021-02-11 11:11:50,0.145s,PASSED
"setText(findTestObject(""Recruits Page/Add New Recruit modal/Class field""), ""2023"")",Chrome 88.0.4324.150,,,2021-02-11 11:11:50,2021-02-11 11:11:50,0.124s,PASSED
"click(findTestObject(""Recruits Page/Add New Recruit modal/Height field input""))",Chrome 88.0.4324.150,,,2021-02-11 11:11:50,2021-02-11 11:11:50,0.079s,PASSED
"setText(findTestObject(""Recruits Page/Add New Recruit modal/Height field input""), ""69"")",Chrome 88.0.4324.150,,,2021-02-11 11:11:50,2021-02-11 11:11:50,0.091s,PASSED
"setText(findTestObject(""Recruits Page/Add New Recruit modal/Birthdate field input""), ""1/1/2005"")",Chrome 88.0.4324.150,,,2021-02-11 11:11:50,2021-02-11 11:11:50,0.237s,PASSED
"enhancedClick(findTestObject(""Recruits Page/Add New Recruit modal/Birthdate field Label""))",Chrome 88.0.4324.150,,,2021-02-11 11:11:50,2021-02-11 11:11:50,0.122s,PASSED
"setText(findTestObject(""Recruits Page/Add New Recruit modal/High School field input""), ""highland park"")",Chrome 88.0.4324.150,,,2021-02-11 11:11:50,2021-02-11 11:11:51,0.141s,PASSED
"sendKeys(findTestObject(""Recruits Page/Add New Recruit modal/High School field input""), Keys.chord(DOWN))",Chrome 88.0.4324.150,,,2021-02-11 11:11:51,2021-02-11 11:11:51,0.058s,PASSED
"sendKeys(findTestObject(""Recruits Page/Add New Recruit modal/High School field input""), Keys.chord(ENTER))",Chrome 88.0.4324.150,,,2021-02-11 11:11:51,2021-02-11 11:11:51,0.055s,PASSED
"setText(findTestObject(""Recruits Page/Add New Recruit modal/High School Coach Name field""), ""Coach Miller"")",Chrome 88.0.4324.150,,,2021-02-11 11:11:51,2021-02-11 11:11:51,0.160s,PASSED
"setText(findTestObject(""Recruits Page/Add New Recruit modal/High School Coach Phone field""), ""8474713163"")",Chrome 88.0.4324.150,,,2021-02-11 11:11:51,2021-02-11 11:11:51,0.151s,PASSED
"setText(findTestObject(""Recruits Page/Add New Recruit modal/Club Team field""), ""Mac Irvin Fire"")",Chrome 88.0.4324.150,,,2021-02-11 11:11:51,2021-02-11 11:11:51,0.173s,PASSED
"setText(findTestObject(""Recruits Page/Add New Recruit modal/Club Team Number field""), ""10"")",Chrome 88.0.4324.150,,,2021-02-11 11:11:51,2021-02-11 11:11:51,0.126s,PASSED
"click(findTestObject(""Recruits Page/Add New Recruit modal/SAVE button""))",Chrome 88.0.4324.150,,,2021-02-11 11:11:51,2021-02-11 11:11:51,0.140s,PASSED
"setText(findTestObject(""Recruits Page/Recruit Search Field on Recruits page""), ""josh allen"")",Chrome 88.0.4324.150,,,2021-02-11 11:11:51,2021-02-11 11:11:52,0.205s,PASSED
delay(1),Chrome 88.0.4324.150,,,2021-02-11 11:11:52,2021-02-11 11:11:53,1.006s,PASSED
"click(findTestObject(""Recruits Page/Archive recruit""))",Chrome 88.0.4324.150,,,2021-02-11 11:11:53,2021-02-11 11:11:53,0.083s,PASSED
delay(1),Chrome 88.0.4324.150,,,2021-02-11 11:11:53,2021-02-11 11:11:54,1.006s,PASSED
"click(findTestObject(""Recruits Page/All Recruits List selection""))",Chrome 88.0.4324.150,,,2021-02-11 11:11:54,2021-02-11 11:11:54,0.078s,PASSED
delay(1),Chrome 88.0.4324.150,,,2021-02-11 11:11:54,2021-02-11 11:11:55,1.005s,PASSED
"click(findTestObject(""Recruits Page/Archived List selection""))",Chrome 88.0.4324.150,,,2021-02-11 11:11:55,2021-02-11 11:11:55,0.108s,PASSED
delay(1),Chrome 88.0.4324.150,,,2021-02-11 11:11:55,2021-02-11 11:11:56,1.006s,PASSED
"click(findTestObject(""Recruits Page/Archived list ellipsis button""))",Chrome 88.0.4324.150,,,2021-02-11 11:11:56,2021-02-11 11:11:56,0.088s,PASSED
delay(1),Chrome 88.0.4324.150,,,2021-02-11 11:11:56,2021-02-11 11:11:57,1.006s,PASSED
"click(findTestObject(""Recruits Page/Delete1""))",Chrome 88.0.4324.150,,,2021-02-11 11:11:57,2021-02-11 11:11:57,0.103s,PASSED
delay(1),Chrome 88.0.4324.150,,,2021-02-11 11:11:57,2021-02-11 11:11:58,1.007s,PASSED
"enhancedClick(findTestObject(""Recruits Page/Delete2""))",Chrome 88.0.4324.150,,,2021-02-11 11:11:58,2021-02-11 11:11:58,0.088s,PASSED
delay(2),Chrome 88.0.4324.150,,,2021-02-11 11:11:58,2021-02-11 11:12:00,2.007s,PASSED
closeBrowser(),Chrome 88.0.4324.150,,,2021-02-11 11:12:00,2021-02-11 11:12:00,0.080s,PASSED
,,,,,,,
Test Cases/Tasks,Chrome 88.0.4324.150,,,2021-02-11 11:12:00,2021-02-11 11:12:09,8.805s,PASSED
openBrowser(URL),Chrome 88.0.4324.150,,,2021-02-11 11:12:01,2021-02-11 11:12:02,1.852s,PASSED
"setText(findTestObject(""Login Page/Email""), email)",Chrome 88.0.4324.150,,,2021-02-11 11:12:02,2021-02-11 11:12:03,0.558s,PASSED
"setText(findTestObject(""Login Page/password""), password)",Chrome 88.0.4324.150,,,2021-02-11 11:12:03,2021-02-11 11:12:03,0.107s,PASSED
"click(findTestObject(""Login Page/Sign In""))",Chrome 88.0.4324.150,,,2021-02-11 11:12:03,2021-02-11 11:12:05,2.421s,PASSED
"waitForElementVisible(findTestObject(""Top Navigation Menu/Dashboard""), 60)",Chrome 88.0.4324.150,,,2021-02-11 11:12:05,2021-02-11 11:12:06,0.563s,PASSED
"enhancedClick(findTestObject(""Top Navigation Menu/Recruits""))",Chrome 88.0.4324.150,,,2021-02-11 11:12:06,2021-02-11 11:12:06,0.117s,PASSED
"enhancedClick(findTestObject(""Recruits Page/Tasks tab""))",Chrome 88.0.4324.150,,,2021-02-11 11:12:06,2021-02-11 11:12:06,0.102s,PASSED
"enhancedClick(findTestObject(""Recruits Page/Tasks/Add Task button""))",Chrome 88.0.4324.150,,,2021-02-11 11:12:06,2021-02-11 11:12:06,0.139s,PASSED
"enhancedClick(findTestObject(""Recruits Page/Tasks/Add Task Recruit field""))",Chrome 88.0.4324.150,,,2021-02-11 11:12:06,2021-02-11 11:12:07,0.851s,PASSED
"enhancedClick(findTestObject(""Recruits Page/Tasks/Add Task recruit dropdown1""))",Chrome 88.0.4324.150,,,2021-02-11 11:12:07,2021-02-11 11:12:07,0.113s,PASSED
"enhancedClick(findTestObject(""Recruits Page/Tasks/Add Task Assigned To field""))",Chrome 88.0.4324.150,,,2021-02-11 11:12:07,2021-02-11 11:12:07,0.070s,PASSED
"enhancedClick(findTestObject(""Recruits Page/Tasks/Add Task Assigned To dropdown1""))",Chrome 88.0.4324.150,,,2021-02-11 11:12:07,2021-02-11 11:12:08,0.117s,PASSED
"enhancedClick(findTestObject(""Recruits Page/Tasks/Add Task Instruction field""))",Chrome 88.0.4324.150,,,2021-02-11 11:12:08,2021-02-11 11:12:08,0.079s,PASSED
"setText(findTestObject(""Recruits Page/Tasks/Add Task Instruction field""), ""test task"")",Chrome 88.0.4324.150,,,2021-02-11 11:12:08,2021-02-11 11:12:08,0.134s,PASSED
"enhancedClick(findTestObject(""Recruits Page/Tasks/Save new task""))",Chrome 88.0.4324.150,,,2021-02-11 11:12:08,2021-02-11 11:12:08,0.084s,PASSED
"verifyElementVisible(findTestObject(""Recruits Page/Tasks/Due task1 row""))",Chrome 88.0.4324.150,,,2021-02-11 11:12:08,2021-02-11 11:12:08,0.351s,PASSED
"mouseOver(findTestObject(""Recruits Page/Tasks/Due task1 ellipsis""))",Chrome 88.0.4324.150,,,2021-02-11 11:12:08,2021-02-11 11:12:08,0.182s,PASSED
"enhancedClick(findTestObject(""Recruits Page/Tasks/Due task1 ellipsis""))",Chrome 88.0.4324.150,,,2021-02-11 11:12:08,2021-02-11 11:12:08,0.068s,PASSED
"enhancedClick(findTestObject(""Recruits Page/Tasks/Mark Tasks Completed button""))",Chrome 88.0.4324.150,,,2021-02-11 11:12:08,2021-02-11 11:12:09,0.084s,PASSED
"verifyElementNotPresent(findTestObject(""Recruits Page/Tasks/Due task1 row""), 0)",Chrome 88.0.4324.150,,,2021-02-11 11:12:09,2021-02-11 11:12:09,0.584s,PASSED
closeBrowser(),Chrome 88.0.4324.150,,,2021-02-11 11:12:09,2021-02-11 11:12:09,0.079s,PASSED
,,,,,,,
Test Cases/Features/Video,Chrome 88.0.4324.150,,,2021-02-11 11:12:09,2021-02-11 11:12:20,10.591s,PASSED
openBrowser(URL),Chrome 88.0.4324.150,,,2021-02-11 11:12:09,2021-02-11 11:12:11,2.152s,PASSED
"setText(findTestObject(""Login Page/Email""), email)",Chrome 88.0.4324.150,,,2021-02-11 11:12:11,2021-02-11 11:12:12,0.164s,PASSED
"setText(findTestObject(""Login Page/password""), password)",Chrome 88.0.4324.150,,,2021-02-11 11:12:12,2021-02-11 11:12:12,0.102s,PASSED
"click(findTestObject(""Login Page/Sign In""))",Chrome 88.0.4324.150,,,2021-02-11 11:12:12,2021-02-11 11:12:14,2.157s,PASSED
"waitForElementVisible(findTestObject(""Top Navigation Menu/Dashboard""), 60)",Chrome 88.0.4324.150,,,2021-02-11 11:12:14,2021-02-11 11:12:14,0.538s,PASSED
"enhancedClick(findTestObject(""Top Navigation Menu/Recruits""))",Chrome 88.0.4324.150,,,2021-02-11 11:12:14,2021-02-11 11:12:15,0.119s,PASSED
"enhancedClick(findTestObject(""Recruits Page/Recruit Row1 Name""))",Chrome 88.0.4324.150,,,2021-02-11 11:12:15,2021-02-11 11:12:16,1.322s,PASSED
"enhancedClick(findTestObject(""Recruits Page/Recruit Profile (View)/VIDEOS tab""))",Chrome 88.0.4324.150,,,2021-02-11 11:12:16,2021-02-11 11:12:16,0.108s,PASSED
"uploadFile(findTestObject(""Recruit Profile (view)/Video Upload object""), ""/Users/jefffeldman/Desktop/Vids/NBA Playoffs 2019.mp4"")",Chrome 88.0.4324.150,,,2021-02-11 11:12:16,2021-02-11 11:12:16,0.097s,PASSED
"verifyElementPresent(findTestObject(""Recruit Profile (view)/Recruit Video row1""), 0)",Chrome 88.0.4324.150,,,2021-02-11 11:12:16,2021-02-11 11:12:17,0.504s,PASSED
delay(2),Chrome 88.0.4324.150,,,2021-02-11 11:12:17,2021-02-11 11:12:19,2.006s,PASSED
"mouseOver(findTestObject(""Recruit Profile (view)/Recruit Video row1""))",Chrome 88.0.4324.150,,,2021-02-11 11:12:19,2021-02-11 11:12:19,0.170s,PASSED
"enhancedClick(findTestObject(""Recruit Profile (view)/Delete Video Row1""))",Chrome 88.0.4324.150,,,2021-02-11 11:12:19,2021-02-11 11:12:19,0.100s,PASSED
"enhancedClick(findTestObject(""Recruit Profile (view)/Confirm Delete Video""))",Chrome 88.0.4324.150,,,2021-02-11 11:12:19,2021-02-11 11:12:19,0.100s,PASSED
"verifyElementNotPresent(findTestObject(""Recruit Profile (view)/Recruit Video row1""), 0)",Chrome 88.0.4324.150,,,2021-02-11 11:12:19,2021-02-11 11:12:20,0.573s,PASSED
"enhancedClick(findTestObject(""Recruit Profile (view)/CLOSE button""))",Chrome 88.0.4324.150,,,2021-02-11 11:12:20,2021-02-11 11:12:20,0.162s,PASSED
closeBrowser(),Chrome 88.0.4324.150,,,2021-02-11 11:12:20,2021-02-11 11:12:20,0.085s,PASSED
,,,,,,,
Test Cases/Features/FastConnect,Chrome 88.0.4324.150,,,2021-02-11 11:12:20,2021-02-11 11:12:49,29.184s,PASSED
openBrowser(URL),Chrome 88.0.4324.150,,,2021-02-11 11:12:20,2021-02-11 11:12:22,2.246s,PASSED
"setText(findTestObject(""Login Page/Email""), email)",Chrome 88.0.4324.150,,,2021-02-11 11:12:22,2021-02-11 11:12:22,0.145s,PASSED
"setText(findTestObject(""Login Page/password""), password)",Chrome 88.0.4324.150,,,2021-02-11 11:12:22,2021-02-11 11:12:22,0.098s,PASSED
"click(findTestObject(""Login Page/Sign In""))",Chrome 88.0.4324.150,,,2021-02-11 11:12:22,2021-02-11 11:12:25,2.424s,PASSED
"waitForElementVisible(findTestObject(""Top Navigation Menu/Dashboard""), 60)",Chrome 88.0.4324.150,,,2021-02-11 11:12:25,2021-02-11 11:12:25,0.566s,PASSED
"enhancedClick(findTestObject(""Top Navigation Menu/Recruits""))",Chrome 88.0.4324.150,,,2021-02-11 11:12:25,2021-02-11 11:12:25,0.116s,PASSED
"enhancedClick(findTestObject(""Recruits Page/FastConnect tab""))",Chrome 88.0.4324.150,,,2021-02-11 11:12:25,2021-02-11 11:12:26,0.115s,PASSED
"enhancedClick(findTestObject(""Recruits Page/FastConnect/List dropdown""))",Chrome 88.0.4324.150,,,2021-02-11 11:12:26,2021-02-11 11:12:26,0.084s,PASSED
"enhancedClick(findTestObject(""Recruits Page/FastConnect/All Recruits list dropdown""))",Chrome 88.0.4324.150,,,2021-02-11 11:12:26,2021-02-11 11:12:26,0.638s,PASSED
delay(10),Chrome 88.0.4324.150,,,2021-02-11 11:12:26,2021-02-11 11:12:36,10.004s,PASSED
"verifyElementVisible(findTestObject(""Recruits Page/FastConnect/Fastconnect post1""), STOP_ON_FAILURE)",Chrome 88.0.4324.150,,,2021-02-11 11:12:36,2021-02-11 11:12:49,12.611s,PASSED
,,,,,,,
Test Cases/Tourney Workflow,Chrome 88.0.4324.150,,,2021-02-11 11:12:49,2021-02-11 11:13:08,18.669s,PASSED
openBrowser(URL),Chrome 88.0.4324.150,,,2021-02-11 11:12:49,2021-02-11 11:12:52,2.483s,PASSED
"setText(findTestObject(""Login Page/Email""), email)",Chrome 88.0.4324.150,,,2021-02-11 11:12:52,2021-02-11 11:12:52,0.153s,PASSED
"setText(findTestObject(""Login Page/password""), password)",Chrome 88.0.4324.150,,,2021-02-11 11:12:52,2021-02-11 11:12:52,0.094s,PASSED
"click(findTestObject(""Login Page/Sign In""))",Chrome 88.0.4324.150,,,2021-02-11 11:12:52,2021-02-11 11:12:54,2.199s,PASSED
"waitForElementVisible(findTestObject(""Top Navigation Menu/Dashboard""), 60)",Chrome 88.0.4324.150,,,2021-02-11 11:12:54,2021-02-11 11:12:55,0.536s,PASSED
"enhancedClick(findTestObject(""Top Navigation Menu/Tourneys""))",Chrome 88.0.4324.150,,,2021-02-11 11:12:55,2021-02-11 11:12:55,0.100s,PASSED
"enhancedClick(findTestObject(""Tourneys page/Tourney list dropdown""))",Chrome 88.0.4324.150,,,2021-02-11 11:12:55,2021-02-11 11:12:55,0.753s,PASSED
enhancedClick(tourneySession),Chrome 88.0.4324.150,,,2021-02-11 11:12:55,2021-02-11 11:12:55,0.071s,PASSED
"enhancedClick(findTestObject(""Tourneys page/Tourneys header""))",Chrome 88.0.4324.150,,,2021-02-11 11:12:55,2021-02-11 11:12:56,0.127s,PASSED
"enhancedClick(findTestObject(""Tourneys page/Tourney1 listed""))",Chrome 88.0.4324.150,,,2021-02-11 11:12:56,2021-02-11 11:12:56,0.114s,PASSED
"enhancedClick(findTestObject(""Tourneys page/Assign Staff button""))",Chrome 88.0.4324.150,,,2021-02-11 11:12:56,2021-02-11 11:12:56,0.254s,PASSED
"enhancedClick(findTestObject(""Tourneys page/Assign Staff User1 checkbox""))",Chrome 88.0.4324.150,,,2021-02-11 11:12:56,2021-02-11 11:12:56,0.097s,PASSED
"enhancedClick(findTestObject(""Tourneys page/Assign Staff SAVE button""))",Chrome 88.0.4324.150,,,2021-02-11 11:12:56,2021-02-11 11:12:56,0.082s,PASSED
delay(1),Chrome 88.0.4324.150,,,2021-02-11 11:12:56,2021-02-11 11:12:57,1.006s,PASSED
"enhancedClick(findTestObject(""Tourneys page/Assign Recruits button""))",Chrome 88.0.4324.150,,,2021-02-11 11:12:57,2021-02-11 11:12:57,0.104s,PASSED
"enhancedClick(findTestObject(""Tourneys page/Select Recruits dropdown""))",Chrome 88.0.4324.150,,,2021-02-11 11:12:57,2021-02-11 11:12:58,0.517s,PASSED
"enhancedClick(findTestObject(""Tourneys page/Assign Recruits dropdown list1""))",Chrome 88.0.4324.150,,,2021-02-11 11:12:58,2021-02-11 11:12:58,0.079s,PASSED
"enhancedClick(findTestObject(""Tourneys page/Assign Recruits SAVE button""))",Chrome 88.0.4324.150,,,2021-02-11 11:12:58,2021-02-11 11:12:58,0.072s,PASSED
"enhancedClick(findTestObject(""Tourneys page/Select Tourney Team dropdown""))",Chrome 88.0.4324.150,,,2021-02-11 11:12:58,2021-02-11 11:12:58,0.287s,PASSED
"enhancedClick(findTestObject(""Tourneys page/Select Tourney Team dropdown1""))",Chrome 88.0.4324.150,,,2021-02-11 11:12:58,2021-02-11 11:12:58,0.078s,PASSED
delay(2),Chrome 88.0.4324.150,,,2021-02-11 11:12:58,2021-02-11 11:13:00,2.006s,PASSED
"enhancedClick(findTestObject(""Tourneys page/Tourney GAMES tab""))",Chrome 88.0.4324.150,,,2021-02-11 11:13:00,2021-02-11 11:13:00,0.103s,PASSED
delay(3),Chrome 88.0.4324.150,,,2021-02-11 11:13:00,2021-02-11 11:13:03,3.007s,PASSED
"verifyElementPresent(findTestObject(""Tourneys page/GAMES tab row1""), 0)",Chrome 88.0.4324.150,,,2021-02-11 11:13:03,2021-02-11 11:13:03,0.047s,PASSED
"gameDate = getText(findTestObject(""Tourneys page/GAMES tab row1 Date""))",Chrome 88.0.4324.150,,,2021-02-11 11:13:03,2021-02-11 11:13:04,0.057s,PASSED
"enhancedClick(findTestObject(""Top Navigation Menu/Schedule""))",Chrome 88.0.4324.150,,,2021-02-11 11:13:04,2021-02-11 11:13:04,0.133s,PASSED
"enhancedClick(findTestObject(""Schedule Page/Calendar from date filter""))",Chrome 88.0.4324.150,,,2021-02-11 11:13:04,2021-02-11 11:13:04,0.120s,PASSED
"sendKeys(findTestObject(""Schedule Page/Calendar from date filter""), Keys.chord(BACK_SPACE))",Chrome 88.0.4324.150,,,2021-02-11 11:13:04,2021-02-11 11:13:04,0.073s,PASSED
"sendKeys(findTestObject(""Schedule Page/Calendar from date filter""), Keys.chord(BACK_SPACE))",Chrome 88.0.4324.150,,,2021-02-11 11:13:04,2021-02-11 11:13:04,0.068s,PASSED
"sendKeys(findTestObject(""Schedule Page/Calendar from date filter""), Keys.chord(BACK_SPACE))",Chrome 88.0.4324.150,,,2021-02-11 11:13:04,2021-02-11 11:13:04,0.062s,PASSED
"sendKeys(findTestObject(""Schedule Page/Calendar from date filter""), Keys.chord(BACK_SPACE))",Chrome 88.0.4324.150,,,2021-02-11 11:13:04,2021-02-11 11:13:04,0.060s,PASSED
"sendKeys(findTestObject(""Schedule Page/Calendar from date filter""), Keys.chord(BACK_SPACE))",Chrome 88.0.4324.150,,,2021-02-11 11:13:04,2021-02-11 11:13:04,0.068s,PASSED
"sendKeys(findTestObject(""Schedule Page/Calendar from date filter""), Keys.chord(BACK_SPACE))",Chrome 88.0.4324.150,,,2021-02-11 11:13:04,2021-02-11 11:13:04,0.061s,PASSED
"sendKeys(findTestObject(""Schedule Page/Calendar from date filter""), Keys.chord(BACK_SPACE))",Chrome 88.0.4324.150,,,2021-02-11 11:13:04,2021-02-11 11:13:04,0.061s,PASSED
"sendKeys(findTestObject(""Schedule Page/Calendar from date filter""), Keys.chord(BACK_SPACE))",Chrome 88.0.4324.150,,,2021-02-11 11:13:04,2021-02-11 11:13:04,0.060s,PASSED
"sendKeys(findTestObject(""Schedule Page/Calendar from date filter""), Keys.chord(BACK_SPACE))",Chrome 88.0.4324.150,,,2021-02-11 11:13:04,2021-02-11 11:13:04,0.062s,PASSED
"setText(findTestObject(""Schedule Page/Calendar from date filter""), gameDate)",Chrome 88.0.4324.150,,,2021-02-11 11:13:04,2021-02-11 11:13:05,0.190s,PASSED
"sendKeys(findTestObject(""Schedule Page/Calendar from date filter""), Keys.chord(ENTER))",Chrome 88.0.4324.150,,,2021-02-11 11:13:05,2021-02-11 11:13:05,0.080s,PASSED
"verifyElementPresent(findTestObject(""Schedule Page/Row1 on Schedule List""), 0)",Chrome 88.0.4324.150,,,2021-02-11 11:13:05,2021-02-11 11:13:05,0.562s,PASSED
"enhancedClick(findTestObject(""Top Navigation Menu/Tourneys""))",Chrome 88.0.4324.150,,,2021-02-11 11:13:05,2021-02-11 11:13:05,0.081s,PASSED
"enhancedClick(findTestObject(""Tourneys page/Tourney list dropdown""))",Chrome 88.0.4324.150,,,2021-02-11 11:13:05,2021-02-11 11:13:06,0.504s,PASSED
enhancedClick(tourneySession),Chrome 88.0.4324.150,,,2021-02-11 11:13:06,2021-02-11 11:13:06,0.083s,PASSED
"enhancedClick(findTestObject(""Tourneys page/Tourneys header""))",Chrome 88.0.4324.150,,,2021-02-11 11:13:06,2021-02-11 11:13:06,0.083s,PASSED
"enhancedClick(findTestObject(""Tourneys page/Tourney1 listed""))",Chrome 88.0.4324.150,,,2021-02-11 11:13:06,2021-02-11 11:13:06,0.096s,PASSED
"enhancedClick(findTestObject(""Tourneys page/Edit Assign Staff Pencil""))",Chrome 88.0.4324.150,,,2021-02-11 11:13:06,2021-02-11 11:13:06,0.170s,PASSED
"enhancedClick(findTestObject(""Tourneys page/Assign Staff User1 checkbox""))",Chrome 88.0.4324.150,,,2021-02-11 11:13:06,2021-02-11 11:13:06,0.080s,PASSED
"enhancedClick(findTestObject(""Tourneys page/Assign Staff SAVE button""))",Chrome 88.0.4324.150,,,2021-02-11 11:13:06,2021-02-11 11:13:06,0.074s,PASSED
delay(1),Chrome 88.0.4324.150,,,2021-02-11 11:13:06,2021-02-11 11:13:07,1.007s,PASSED
"enhancedClick(findTestObject(""Tourneys page/Delete Attending Recruit1""))",Chrome 88.0.4324.150,,,2021-02-11 11:13:07,2021-02-11 11:13:07,0.078s,PASSED
"enhancedClick(findTestObject(""Tourneys page/Confirm Delete Attending Recruit1""))",Chrome 88.0.4324.150,,,2021-02-11 11:13:07,2021-02-11 11:13:08,0.089s,PASSED
closeBrowser(),Chrome 88.0.4324.150,,,2021-02-11 11:13:08,2021-02-11 11:13:08,0.081s,PASSED
