Suite/Test/Step Name,Browser,Description,Tag,Start time,End time,Duration,Status
Regression Tests,Chrome 89.0.4389.114,,,2021-04-02 15:54:47,2021-04-02 16:00:47,5m - 59.864s,FAILED
,,,,,,,
Test Cases/Draft Board,Chrome 89.0.4389.114,,,2021-04-02 15:54:47,2021-04-02 15:56:58,2m - 10.454s,FAILED
openBrowser(URL),Chrome 89.0.4389.114,,,2021-04-02 15:54:48,2021-04-02 15:54:50,2.467s,PASSED
"setViewPortSize(1440, 841)",Chrome 89.0.4389.114,,,2021-04-02 15:54:50,2021-04-02 15:54:50,0.493s,PASSED
"setText(findTestObject(""Login Page/Email""), email)",Chrome 89.0.4389.114,,,2021-04-02 15:54:50,2021-04-02 15:54:51,0.201s,PASSED
"setText(findTestObject(""Login Page/password""), password)",Chrome 89.0.4389.114,,,2021-04-02 15:54:51,2021-04-02 15:54:51,0.110s,PASSED
"click(findTestObject(""Login Page/Sign In""))",Chrome 89.0.4389.114,,,2021-04-02 15:54:51,2021-04-02 15:54:52,1.592s,PASSED
"waitForElementVisible(findTestObject(""Top Navigation Menu/Dashboard""), 60)",Chrome 89.0.4389.114,,,2021-04-02 15:54:52,2021-04-02 15:54:53,0.541s,PASSED
"enhancedClick(findTestObject(""Top Navigation Menu/Dashboard""))",Chrome 89.0.4389.114,,,2021-04-02 15:54:53,2021-04-02 15:54:53,0.094s,PASSED
delay(3),Chrome 89.0.4389.114,,,2021-04-02 15:54:53,2021-04-02 15:54:56,3.090s,PASSED
"mouseOver(findTestObject(""Dashboard Page/Draft Board (Dashboard)/blank 1-PG on Draft Board (Dashboard)""))",Chrome 89.0.4389.114,,,2021-04-02 15:54:56,2021-04-02 15:54:56,0.222s,PASSED
"enhancedClick(findTestObject(""Dashboard Page/Draft Board (Dashboard)/blank 1-PG on Draft Board (Dashboard)""))",Chrome 89.0.4389.114,,,2021-04-02 15:54:56,2021-04-02 15:54:56,0.084s,PASSED
"enhancedClick(findTestObject(""Dashboard Page/Draft Board (Dashboard)/Draft Board Dropdown Player1""))",Chrome 89.0.4389.114,,,2021-04-02 15:54:56,2021-04-02 15:54:57,0.150s,PASSED
"mouseOver(findTestObject(""Dashboard Page/Draft Board (Dashboard)/1-PG on Draft Board""))",Chrome 89.0.4389.114,,,2021-04-02 15:54:57,2021-04-02 15:54:57,0.295s,PASSED
"enhancedClick(findTestObject(""Dashboard Page/Draft Board (Dashboard)/1-PG on Draft Board""))",Chrome 89.0.4389.114,,,2021-04-02 15:54:57,2021-04-02 15:54:57,0.105s,PASSED
delay(1),Chrome 89.0.4389.114,,,2021-04-02 15:54:57,2021-04-02 15:54:58,1.004s,PASSED
"enhancedClick(findTestObject(""Recruit Profile (view)/Alerts button""))",Chrome 89.0.4389.114,,,2021-04-02 15:54:58,2021-04-02 15:54:58,0.087s,PASSED
"enhancedClick(findTestObject(""Recruit Profile (view)/CLOSE button""))",Chrome 89.0.4389.114,,,2021-04-02 15:54:58,2021-04-02 15:54:58,0.093s,PASSED
"verifyElementVisible(findTestObject(""Dashboard Page/Draft Board (Dashboard)/Alerts bell indicator""))",Chrome 89.0.4389.114,,,2021-04-02 15:54:58,2021-04-02 15:54:58,0.098s,PASSED
"mouseOver(findTestObject(""Dashboard Page/Draft Board (Dashboard)/1-PG on Draft Board""))",Chrome 89.0.4389.114,,,2021-04-02 15:54:58,2021-04-02 15:54:58,0.184s,PASSED
"enhancedClick(findTestObject(""Dashboard Page/Draft Board (Dashboard)/1-PG on Draft Board""))",Chrome 89.0.4389.114,,,2021-04-02 15:54:58,2021-04-02 15:54:59,0.108s,PASSED
"enhancedClick(findTestObject(""Recruit Profile (view)/Alerts button""))",Chrome 89.0.4389.114,,,2021-04-02 15:54:59,2021-04-02 15:54:59,0.099s,PASSED
"mouseOver(findTestObject(""Dashboard Page/Draft Board (Dashboard)/1-PG on Draft Board""))",Chrome 89.0.4389.114,,,2021-04-02 15:54:59,2021-04-02 15:54:59,0.272s,PASSED
"enhancedClick(findTestObject(""Recruit Profile (view)/CLOSE button""))",Chrome 89.0.4389.114,,,2021-04-02 15:54:59,2021-04-02 15:54:59,0.167s,PASSED
delay(1),Chrome 89.0.4389.114,,,2021-04-02 15:54:59,2021-04-02 15:55:00,1.007s,PASSED
"verifyElementNotPresent(findTestObject(""Dashboard Page/Draft Board (Dashboard)/Alerts bell indicator""), 0)",Chrome 89.0.4389.114,,,2021-04-02 15:55:00,2021-04-02 15:55:00,0.105s,PASSED
"mouseOver(findTestObject(""Dashboard Page/Draft Board (Dashboard)/1-PG on Draft Board""))",Chrome 89.0.4389.114,,,2021-04-02 15:55:00,2021-04-02 15:55:00,0.187s,PASSED
"enhancedClick(findTestObject(""Dashboard Page/Draft Board (Dashboard)/Delete 1-PG on Draft Board""))",Chrome 89.0.4389.114,,,2021-04-02 15:55:00,2021-04-02 15:55:01,0.119s,PASSED
"enhancedClick(findTestObject(""Dashboard Page/Draft Board (Dashboard)/Draft Board Season Dropdown""))",Chrome 89.0.4389.114,,,2021-04-02 15:55:01,2021-04-02 15:55:01,0.115s,PASSED
"enhancedClick(findTestObject(""Dashboard Page/Draft Board (Dashboard)/Draft Board Season Dropdown - 2023""))",Chrome 89.0.4389.114,,,2021-04-02 15:55:01,2021-04-02 15:55:01,0.114s,PASSED
"mouseOver(findTestObject(""Dashboard Page/Draft Board (Dashboard)/blank 1-PG on Draft Board (Dashboard)""))",Chrome 89.0.4389.114,,,2021-04-02 15:55:01,2021-04-02 15:55:01,0.176s,PASSED
"enhancedClick(findTestObject(""Dashboard Page/Draft Board (Dashboard)/blank 1-PG on Draft Board (Dashboard)""))",Chrome 89.0.4389.114,,,2021-04-02 15:55:01,2021-04-02 15:55:01,0.077s,PASSED
"enhancedClick(findTestObject(""Dashboard Page/Draft Board (Dashboard)/Draft Board Dropdown Player1""))",Chrome 89.0.4389.114,,,2021-04-02 15:55:01,2021-04-02 15:55:01,0.199s,PASSED
delay(1),Chrome 89.0.4389.114,,,2021-04-02 15:55:01,2021-04-02 15:55:02,1.003s,PASSED
"mouseOver(findTestObject(""Dashboard Page/Draft Board (Dashboard)/blank 2-PG on Draft Board (Dashboard)""))",Chrome 89.0.4389.114,,,2021-04-02 15:55:02,2021-04-02 15:55:02,0.176s,PASSED
"enhancedClick(findTestObject(""Dashboard Page/Draft Board (Dashboard)/blank 2-PG on Draft Board (Dashboard)""))",Chrome 89.0.4389.114,,,2021-04-02 15:55:02,2021-04-02 15:55:02,0.085s,PASSED
"enhancedClick(findTestObject(""Dashboard Page/Draft Board (Dashboard)/Recruit Search field""))",Chrome 89.0.4389.114,,,2021-04-02 15:55:02,2021-04-02 15:55:03,0.081s,PASSED
"sendKeys(findTestObject(""Dashboard Page/Draft Board (Dashboard)/Recruit Search field""), ""Mikey Williams"")",Chrome 89.0.4389.114,,,2021-04-02 15:55:03,2021-04-02 15:55:03,0.085s,PASSED
delay(2),Chrome 89.0.4389.114,,,2021-04-02 15:55:03,2021-04-02 15:55:05,2.005s,PASSED
"enhancedClick(findTestObject(""Dashboard Page/Draft Board (Dashboard)/Draft Board Dropdown Player2""))",Chrome 89.0.4389.114,,,2021-04-02 15:55:05,2021-04-02 15:55:05,0.094s,PASSED
"mouseOver(findTestObject(""Dashboard Page/Draft Board (Dashboard)/2-PG on Draft Board""))",Chrome 89.0.4389.114,,,2021-04-02 15:55:05,2021-04-02 15:55:05,0.230s,PASSED
"enhancedClick(findTestObject(""Dashboard Page/Draft Board (Dashboard)/Delete 2-PG on Draft Board""))",Chrome 89.0.4389.114,,,2021-04-02 15:55:05,2021-04-02 15:55:05,0.095s,PASSED
"mouseOver(findTestObject(""Dashboard Page/Draft Board (Dashboard)/1-PG on Draft Board""))",Chrome 89.0.4389.114,,,2021-04-02 15:55:05,2021-04-02 15:55:05,0.187s,PASSED
"enhancedClick(findTestObject(""Dashboard Page/Draft Board (Dashboard)/Delete 1-PG on Draft Board""))",Chrome 89.0.4389.114,,,2021-04-02 15:55:05,2021-04-02 15:55:05,0.096s,PASSED
"enhancedClick(findTestObject(""Dashboard Page/Draft Board (Dashboard)/Draft Board Link""))",Chrome 89.0.4389.114,,,2021-04-02 15:55:05,2021-04-02 15:55:05,0.133s,PASSED
"mouseOver(findTestObject(""Recruits Page/Draft Board (Recruits)/blank PG1 Draft Board-Recruits""))",Chrome 89.0.4389.114,,,2021-04-02 15:55:05,2021-04-02 15:55:06,0.189s,PASSED
"enhancedClick(findTestObject(""Recruits Page/Draft Board (Recruits)/blank PG1 Draft Board-Recruits""))",Chrome 89.0.4389.114,,,2021-04-02 15:55:06,2021-04-02 15:55:06,0.081s,PASSED
"enhancedClick(findTestObject(""Recruits Page/Draft Board (Recruits)/Draft Board dropdown P1 (Recruits)""))",Chrome 89.0.4389.114,,,2021-04-02 15:55:06,2021-04-02 15:55:06,0.166s,PASSED
"mouseOver(findTestObject(""Dashboard Page/Draft Board (Dashboard)/1-PG on Draft Board""))",Chrome 89.0.4389.114,,,2021-04-02 15:55:06,2021-04-02 15:55:06,0.211s,PASSED
"enhancedClick(findTestObject(""Recruits Page/Draft Board (Recruits)/Draft Board Color Dropper icon""))",Chrome 89.0.4389.114,,,2021-04-02 15:55:06,2021-04-02 15:55:06,0.094s,PASSED
"enhancedClick(findTestObject(""Recruits Page/Draft Board (Recruits)/Yellow Color Draft Board""))",Chrome 89.0.4389.114,,,2021-04-02 15:55:06,2021-04-02 15:55:06,0.110s,PASSED
delay(1),Chrome 89.0.4389.114,,,2021-04-02 15:55:06,2021-04-02 15:55:07,1.006s,PASSED
"verifyElementAttributeValue(findTestObject(""Dashboard Page/Draft Board (Dashboard)/1-PG on Draft Board""), ""class"", ""draft-board-player dashboard-player css-1n2x8eh-DraftBoard"", 0)",Chrome 89.0.4389.114,,,2021-04-02 15:55:07,2021-04-02 15:55:07,0.068s,PASSED
"mouseOver(findTestObject(""Dashboard Page/Draft Board (Dashboard)/1-PG on Draft Board""))",Chrome 89.0.4389.114,,,2021-04-02 15:55:07,2021-04-02 15:55:08,0.170s,PASSED
"enhancedClick(findTestObject(""Recruits Page/Draft Board (Recruits)/Draft Board Color Dropper icon""))",Chrome 89.0.4389.114,,,2021-04-02 15:55:08,2021-04-02 15:55:08,0.066s,PASSED
"enhancedClick(findTestObject(""Recruits Page/Draft Board (Recruits)/Green Color Draft Board""))",Chrome 89.0.4389.114,,,2021-04-02 15:55:08,2021-04-02 15:55:10,2.215s,PASSED
delay(1),Chrome 89.0.4389.114,,,2021-04-02 15:55:10,2021-04-02 15:55:11,1.008s,PASSED
"verifyElementAttributeValue(findTestObject(""Dashboard Page/Draft Board (Dashboard)/1-PG on Draft Board""), ""class"", ""draft-board-player dashboard-player css-15mrb88-DraftBoard"", 0)",Chrome 89.0.4389.114,,,2021-04-02 15:55:11,2021-04-02 15:55:11,0.065s,PASSED
"mouseOver(findTestObject(""Dashboard Page/Draft Board (Dashboard)/1-PG on Draft Board""))",Chrome 89.0.4389.114,,,2021-04-02 15:55:11,2021-04-02 15:55:11,0.172s,PASSED
"enhancedClick(findTestObject(""Recruits Page/Draft Board (Recruits)/Draft Board Color Dropper icon""))",Chrome 89.0.4389.114,,,2021-04-02 15:55:11,2021-04-02 15:55:11,0.066s,PASSED
"enhancedClick(findTestObject(""Recruits Page/Draft Board (Recruits)/Draft Board Color pencil icon""))",Chrome 89.0.4389.114,,,2021-04-02 15:55:11,2021-04-02 15:55:12,0.661s,PASSED
"enhancedClick(findTestObject(""Recruits Page/Draft Board (Recruits)/Add Draft Board Color plus button""))",Chrome 89.0.4389.114,,,2021-04-02 15:55:12,2021-04-02 15:55:12,0.112s,PASSED
"doubleClick(findTestObject(""Recruits Page/Draft Board (Recruits)/Draft Board Color Hex field""))",Chrome 89.0.4389.114,,,2021-04-02 15:55:12,2021-04-02 15:55:12,0.215s,PASSED
"sendKeys(findTestObject(""Recruits Page/Draft Board (Recruits)/Draft Board Color Hex field""), ""4832a8"")",Chrome 89.0.4389.114,,,2021-04-02 15:55:12,2021-04-02 15:55:12,0.078s,PASSED
"enhancedClick(findTestObject(""Recruits Page/Draft Board (Recruits)/Manage Colors Close button""))",Chrome 89.0.4389.114,,,2021-04-02 15:55:12,2021-04-02 15:55:12,0.095s,PASSED
"mouseOver(findTestObject(""Dashboard Page/Draft Board (Dashboard)/1-PG on Draft Board""))",Chrome 89.0.4389.114,,,2021-04-02 15:55:12,2021-04-02 15:55:13,0.221s,PASSED
"enhancedClick(findTestObject(""Recruits Page/Draft Board (Recruits)/Draft Board Color Dropper icon""))",Chrome 89.0.4389.114,,,2021-04-02 15:55:13,2021-04-02 15:55:43,30.692s,PASSED
"enhancedClick(findTestObject(""Recruits Page/Draft Board (Recruits)/My Custom Color Draft Board""))",Chrome 89.0.4389.114,,,2021-04-02 15:55:43,2021-04-02 15:55:43,0.092s,PASSED
delay(1),Chrome 89.0.4389.114,,,2021-04-02 15:55:43,2021-04-02 15:55:44,1.006s,PASSED
"verifyElementAttributeValue(findTestObject(""Dashboard Page/Draft Board (Dashboard)/1-PG on Draft Board""), ""class"", ""draft-board-player dashboard-player css-ms4n7m-DraftBoard"", 0)",Chrome 89.0.4389.114,,,2021-04-02 15:55:44,2021-04-02 15:55:44,0.074s,PASSED
"mouseOver(findTestObject(""Dashboard Page/Draft Board (Dashboard)/1-PG on Draft Board""))",Chrome 89.0.4389.114,,,2021-04-02 15:55:44,2021-04-02 15:55:45,0.168s,PASSED
"enhancedClick(findTestObject(""Recruits Page/Draft Board (Recruits)/Draft Board Color Dropper icon""))",Chrome 89.0.4389.114,,,2021-04-02 15:55:45,2021-04-02 15:55:45,0.071s,PASSED
"enhancedClick(findTestObject(""Recruits Page/Draft Board (Recruits)/Reset Draft Board color""))",Chrome 89.0.4389.114,,,2021-04-02 15:55:45,2021-04-02 15:55:47,2.182s,PASSED
delay(1),Chrome 89.0.4389.114,,,2021-04-02 15:55:47,2021-04-02 15:55:48,1.005s,PASSED
"verifyElementAttributeValue(findTestObject(""Dashboard Page/Draft Board (Dashboard)/1-PG on Draft Board""), ""class"", ""draft-board-player dashboard-player css-g7hzzu-DraftBoard"", 0)",Chrome 89.0.4389.114,,,2021-04-02 15:55:48,2021-04-02 15:55:48,0.062s,PASSED
"mouseOver(findTestObject(""Dashboard Page/Draft Board (Dashboard)/1-PG on Draft Board""))",Chrome 89.0.4389.114,,,2021-04-02 15:55:48,2021-04-02 15:55:48,0.171s,PASSED
"enhancedClick(findTestObject(""Recruits Page/Draft Board (Recruits)/Draft Board Color Dropper icon""))",Chrome 89.0.4389.114,,,2021-04-02 15:55:48,2021-04-02 15:55:48,0.070s,PASSED
"enhancedClick(findTestObject(""Recruits Page/Draft Board (Recruits)/Draft Board Color pencil icon""))",Chrome 89.0.4389.114,,,2021-04-02 15:55:48,2021-04-02 15:55:49,0.652s,PASSED
"mouseOver(findTestObject(""Recruits Page/Draft Board (Recruits)/Manage Colors Custom1""))",Chrome 89.0.4389.114,,,2021-04-02 15:55:49,2021-04-02 15:55:49,0.244s,PASSED
"waitForElementPresent(findTestObject(""Recruits Page/Draft Board (Recruits)/Delete custom color1""), 0)",Chrome 89.0.4389.114,,,2021-04-02 15:55:49,2021-04-02 15:56:23,34.075s,PASSED
"enhancedClick(findTestObject(""Recruits Page/Draft Board (Recruits)/Delete custom color1""))",Chrome 89.0.4389.114,,,2021-04-02 15:56:23,2021-04-02 15:56:58,34.574s,FAILED
,,,,,,,
Test Cases/Depth Chart,Chrome 89.0.4389.114,,,2021-04-02 15:56:58,2021-04-02 15:57:11,12.990s,PASSED
openBrowser(URL),Chrome 89.0.4389.114,,,2021-04-02 15:56:58,2021-04-02 15:57:00,2.019s,PASSED
"setText(findTestObject(""Login Page/Email""), email)",Chrome 89.0.4389.114,,,2021-04-02 15:57:00,2021-04-02 15:57:00,0.192s,PASSED
"setText(findTestObject(""Login Page/password""), password)",Chrome 89.0.4389.114,,,2021-04-02 15:57:00,2021-04-02 15:57:00,0.123s,PASSED
"click(findTestObject(""Login Page/Sign In""))",Chrome 89.0.4389.114,,,2021-04-02 15:57:00,2021-04-02 15:57:02,2.022s,PASSED
"waitForElementVisible(findTestObject(""Top Navigation Menu/Dashboard""), 60)",Chrome 89.0.4389.114,,,2021-04-02 15:57:02,2021-04-02 15:57:03,0.495s,PASSED
"enhancedClick(findTestObject(""Top Navigation Menu/Dashboard""))",Chrome 89.0.4389.114,,,2021-04-02 15:57:03,2021-04-02 15:57:03,0.088s,PASSED
delay(3),Chrome 89.0.4389.114,,,2021-04-02 15:57:03,2021-04-02 15:57:06,3.002s,PASSED
"enhancedClick(findTestObject(""Dashboard Page/Depth Chart/Depth Chart season dropdown""))",Chrome 89.0.4389.114,,,2021-04-02 15:57:06,2021-04-02 15:57:06,0.105s,PASSED
"enhancedClick(findTestObject(""Dashboard Page/Depth Chart/Season Dropdown Index3""))",Chrome 89.0.4389.114,,,2021-04-02 15:57:06,2021-04-02 15:57:06,0.102s,PASSED
"enhancedClick(findTestObject(""Dashboard Page/Depth Chart/Depth Chart season dropdown""))",Chrome 89.0.4389.114,,,2021-04-02 15:57:06,2021-04-02 15:57:06,0.072s,PASSED
"enhancedClick(findTestObject(""Dashboard Page/Depth Chart/Season Dropdown Index2""))",Chrome 89.0.4389.114,,,2021-04-02 15:57:06,2021-04-02 15:57:06,0.102s,PASSED
"enhancedClick(findTestObject(""Dashboard Page/Depth Chart/EDIT Depth Chart""))",Chrome 89.0.4389.114,,,2021-04-02 15:57:06,2021-04-02 15:57:06,0.143s,PASSED
"enhancedClick(findTestObject(""Dashboard Page/Depth Chart/Depth Chart Edit (sr, pg, 1)""))",Chrome 89.0.4389.114,,,2021-04-02 15:57:06,2021-04-02 15:57:06,0.149s,PASSED
"enhancedClick(findTestObject(""Dashboard Page/Depth Chart/SAVE Depth Chart""))",Chrome 89.0.4389.114,,,2021-04-02 15:57:06,2021-04-02 15:57:07,0.096s,PASSED
delay(2),Chrome 89.0.4389.114,,,2021-04-02 15:57:07,2021-04-02 15:57:09,2.004s,PASSED
"verifyTextNotPresent(playerHidden, false)",Chrome 89.0.4389.114,,,2021-04-02 15:57:09,2021-04-02 15:57:09,0.387s,PASSED
"enhancedClick(findTestObject(""Dashboard Page/Depth Chart/EDIT Depth Chart""))",Chrome 89.0.4389.114,,,2021-04-02 15:57:09,2021-04-02 15:57:09,0.141s,PASSED
"enhancedClick(findTestObject(""Dashboard Page/Depth Chart/Depth Chart Edit (sr, pg, 1)""))",Chrome 89.0.4389.114,,,2021-04-02 15:57:09,2021-04-02 15:57:09,0.128s,PASSED
"enhancedClick(findTestObject(""Dashboard Page/Depth Chart/SAVE Depth Chart""))",Chrome 89.0.4389.114,,,2021-04-02 15:57:09,2021-04-02 15:57:09,0.107s,PASSED
"verifyTextPresent(playerHidden, false)",Chrome 89.0.4389.114,,,2021-04-02 15:57:09,2021-04-02 15:57:10,0.270s,PASSED
delay(1),Chrome 89.0.4389.114,,,2021-04-02 15:57:10,2021-04-02 15:57:11,1.003s,PASSED
closeBrowser(),Chrome 89.0.4389.114,,,2021-04-02 15:57:11,2021-04-02 15:57:11,0.088s,PASSED
,,,,,,,
Test Cases/Dashboard Calendar,Chrome 89.0.4389.114,,,2021-04-02 15:57:11,2021-04-02 15:57:38,27.014s,PASSED
openBrowser(URL),Chrome 89.0.4389.114,,,2021-04-02 15:57:11,2021-04-02 15:57:13,1.707s,PASSED
"setText(findTestObject(""Login Page/Email""), email)",Chrome 89.0.4389.114,,,2021-04-02 15:57:13,2021-04-02 15:57:13,0.155s,PASSED
"setText(findTestObject(""Login Page/password""), password)",Chrome 89.0.4389.114,,,2021-04-02 15:57:13,2021-04-02 15:57:13,0.107s,PASSED
"click(findTestObject(""Login Page/Sign In""))",Chrome 89.0.4389.114,,,2021-04-02 15:57:13,2021-04-02 15:57:14,1.615s,PASSED
"waitForElementVisible(findTestObject(""Top Navigation Menu/Dashboard""), 60)",Chrome 89.0.4389.114,,,2021-04-02 15:57:14,2021-04-02 15:57:15,0.532s,PASSED
"enhancedClick(findTestObject(""Top Navigation Menu/Recruits""))",Chrome 89.0.4389.114,,,2021-04-02 15:57:15,2021-04-02 15:57:15,0.130s,PASSED
delay(3),Chrome 89.0.4389.114,,,2021-04-02 15:57:15,2021-04-02 15:57:18,3.003s,PASSED
"enhancedClick(findTestObject(""Top Navigation Menu/Dashboard""))",Chrome 89.0.4389.114,,,2021-04-02 15:57:18,2021-04-02 15:57:18,0.210s,PASSED
delay(3),Chrome 89.0.4389.114,,,2021-04-02 15:57:18,2021-04-02 15:57:21,3.003s,PASSED
"enhancedClick(findTestObject(""Dashboard Page/Calendar (Dashboard)/Toggle Left (Calendar Dashboard)""))",Chrome 89.0.4389.114,,,2021-04-02 15:57:21,2021-04-02 15:57:21,0.112s,PASSED
delay(5),Chrome 89.0.4389.114,,,2021-04-02 15:57:21,2021-04-02 15:57:26,5.004s,PASSED
"enhancedClick(findTestObject(""Dashboard Page/Calendar (Dashboard)/Toggle Right (Calendar Dashboard)""))",Chrome 89.0.4389.114,,,2021-04-02 15:57:26,2021-04-02 15:57:27,0.812s,PASSED
delay(5),Chrome 89.0.4389.114,,,2021-04-02 15:57:27,2021-04-02 15:57:32,5.003s,PASSED
"enhancedClick(findTestObject(""Dashboard Page/Calendar (Dashboard)/Dashboard Calendar SHOW dropdown""))",Chrome 89.0.4389.114,,,2021-04-02 15:57:32,2021-04-02 15:57:32,0.109s,PASSED
"enhancedClick(findTestObject(""Dashboard Page/Calendar (Dashboard)/My Calendar option""))",Chrome 89.0.4389.114,,,2021-04-02 15:57:32,2021-04-02 15:57:32,0.091s,PASSED
"enhancedClick(findTestObject(""Dashboard Page/Calendar (Dashboard)/My Calendar option""))",Chrome 89.0.4389.114,,,2021-04-02 15:57:32,2021-04-02 15:57:33,0.074s,PASSED
"enhancedClick(findTestObject(""Dashboard Page/Calendar (Dashboard)/Team calendar option""))",Chrome 89.0.4389.114,,,2021-04-02 15:57:33,2021-04-02 15:57:33,0.085s,PASSED
"enhancedClick(findTestObject(""Dashboard Page/Calendar (Dashboard)/Team calendar option""))",Chrome 89.0.4389.114,,,2021-04-02 15:57:33,2021-04-02 15:57:33,0.063s,PASSED
"enhancedClick(findTestObject(""Dashboard Page/Calendar (Dashboard)/Tasks calendar option""))",Chrome 89.0.4389.114,,,2021-04-02 15:57:33,2021-04-02 15:57:33,0.076s,PASSED
"enhancedClick(findTestObject(""Dashboard Page/Calendar (Dashboard)/Tasks calendar option""))",Chrome 89.0.4389.114,,,2021-04-02 15:57:33,2021-04-02 15:57:33,0.077s,PASSED
"enhancedClick(findTestObject(""Dashboard Page/Calendar (Dashboard)/NCAA Calendar option""))",Chrome 89.0.4389.114,,,2021-04-02 15:57:33,2021-04-02 15:57:33,0.076s,PASSED
"enhancedClick(findTestObject(""Dashboard Page/Calendar (Dashboard)/NCAA Calendar option""))",Chrome 89.0.4389.114,,,2021-04-02 15:57:33,2021-04-02 15:57:33,0.060s,PASSED
"enhancedClick(findTestObject(""Dashboard Page/Calendar (Dashboard)/My Live Period calendar option""))",Chrome 89.0.4389.114,,,2021-04-02 15:57:33,2021-04-02 15:57:33,0.080s,PASSED
"enhancedClick(findTestObject(""Dashboard Page/Calendar (Dashboard)/My Live Period calendar option""))",Chrome 89.0.4389.114,,,2021-04-02 15:57:33,2021-04-02 15:57:33,0.059s,PASSED
"enhancedClick(findTestObject(""Dashboard Page/Calendar (Dashboard)/Dashboard Calendar SHOW dropdown""))",Chrome 89.0.4389.114,,,2021-04-02 15:57:33,2021-04-02 15:57:33,0.060s,PASSED
"enhancedClick(findTestObject(""Dashboard Page/Calendar (Dashboard)/Dashboard Calendar Add New""))",Chrome 89.0.4389.114,,,2021-04-02 15:57:33,2021-04-02 15:57:33,0.137s,PASSED
"enhancedClick(findTestObject(""Dashboard Page/Calendar (Dashboard)/Add Event modal/Event Name field""))",Chrome 89.0.4389.114,,,2021-04-02 15:57:33,2021-04-02 15:57:33,0.131s,PASSED
"sendKeys(findTestObject(""Dashboard Page/Calendar (Dashboard)/Add Event modal/Event Name field""), ""Test Event1"")",Chrome 89.0.4389.114,,,2021-04-02 15:57:33,2021-04-02 15:57:34,0.088s,PASSED
"enhancedClick(findTestObject(""Dashboard Page/Calendar (Dashboard)/Add Event modal/Event Location field""))",Chrome 89.0.4389.114,,,2021-04-02 15:57:34,2021-04-02 15:57:34,0.103s,PASSED
"sendKeys(findTestObject(""Dashboard Page/Calendar (Dashboard)/Add Event modal/Event Location field""), ""444 N. Michigan Ave"")",Chrome 89.0.4389.114,,,2021-04-02 15:57:34,2021-04-02 15:57:34,0.110s,PASSED
delay(1),Chrome 89.0.4389.114,,,2021-04-02 15:57:34,2021-04-02 15:57:35,1.005s,PASSED
"enhancedClick(findTestObject(""Dashboard Page/Calendar (Dashboard)/Add Event modal/Select searched location""))",Chrome 89.0.4389.114,,,2021-04-02 15:57:35,2021-04-02 15:57:35,0.078s,PASSED
"enhancedClick(findTestObject(""Dashboard Page/Calendar (Dashboard)/Add Event modal/Select Recruits dropdown""))",Chrome 89.0.4389.114,,,2021-04-02 15:57:35,2021-04-02 15:57:35,0.083s,PASSED
"enhancedClick(findTestObject(""Dashboard Page/Calendar (Dashboard)/Add Event modal/Recruit1 in dropdown (Add Event modal)""))",Chrome 89.0.4389.114,,,2021-04-02 15:57:35,2021-04-02 15:57:35,0.085s,PASSED
"enhancedClick(findTestObject(""Dashboard Page/Calendar (Dashboard)/Add Event modal/Add Event Attendees""))",Chrome 89.0.4389.114,,,2021-04-02 15:57:35,2021-04-02 15:57:35,0.082s,PASSED
"enhancedClick(findTestObject(""Dashboard Page/Calendar (Dashboard)/Add Event modal/Recruiters checkbox""))",Chrome 89.0.4389.114,,,2021-04-02 15:57:35,2021-04-02 15:57:35,0.097s,PASSED
"enhancedClick(findTestObject(""Dashboard Page/Calendar (Dashboard)/Add Event modal/Game Note field""))",Chrome 89.0.4389.114,,,2021-04-02 15:57:35,2021-04-02 15:57:35,0.091s,PASSED
"sendKeys(findTestObject(""Dashboard Page/Calendar (Dashboard)/Add Event modal/Game Note field""), ""arrive early"")",Chrome 89.0.4389.114,,,2021-04-02 15:57:35,2021-04-02 15:57:35,0.152s,PASSED
"enhancedClick(findTestObject(""Dashboard Page/Calendar (Dashboard)/Add Event modal/Add Event Save button""))",Chrome 89.0.4389.114,,,2021-04-02 15:57:35,2021-04-02 15:57:35,0.079s,PASSED
delay(2),Chrome 89.0.4389.114,,,2021-04-02 15:57:35,2021-04-02 15:57:37,2.003s,PASSED
"verifyTextPresent(""Test Event1"", false)",Chrome 89.0.4389.114,,,2021-04-02 15:57:37,2021-04-02 15:57:38,0.213s,PASSED
,,,,,,,
Test Cases/Add_Archive_Delete New Recruit,Chrome 89.0.4389.114,,,2021-04-02 15:57:38,2021-04-02 15:57:55,16.842s,PASSED
openBrowser(URL),Chrome 89.0.4389.114,,,2021-04-02 15:57:38,2021-04-02 15:57:40,1.910s,PASSED
"setText(findTestObject(""Login Page/Email""), email)",Chrome 89.0.4389.114,,,2021-04-02 15:57:40,2021-04-02 15:57:40,0.184s,PASSED
"setText(findTestObject(""Login Page/password""), password)",Chrome 89.0.4389.114,,,2021-04-02 15:57:40,2021-04-02 15:57:40,0.110s,PASSED
"click(findTestObject(""Login Page/Sign In""))",Chrome 89.0.4389.114,,,2021-04-02 15:57:40,2021-04-02 15:57:42,1.559s,PASSED
"waitForElementVisible(findTestObject(""Top Navigation Menu/Dashboard""), 60)",Chrome 89.0.4389.114,,,2021-04-02 15:57:42,2021-04-02 15:57:42,0.502s,PASSED
"click(findTestObject(""Top Navigation Menu/Recruits""))",Chrome 89.0.4389.114,,,2021-04-02 15:57:42,2021-04-02 15:57:42,0.134s,PASSED
"click(findTestObject(""Recruits Page/ADD RECRUIT button""))",Chrome 89.0.4389.114,,,2021-04-02 15:57:42,2021-04-02 15:57:43,0.206s,PASSED
"setText(findTestObject(""Recruits Page/Add New Recruit modal/First Name field""), ""Josh"")",Chrome 89.0.4389.114,,,2021-04-02 15:57:43,2021-04-02 15:57:44,1.067s,PASSED
"setText(findTestObject(""Recruits Page/Add New Recruit modal/Last Name field""), ""Allen"")",Chrome 89.0.4389.114,,,2021-04-02 15:57:44,2021-04-02 15:57:44,0.141s,PASSED
"setText(findTestObject(""Recruits Page/Add New Recruit modal/Class field""), ""2023"")",Chrome 89.0.4389.114,,,2021-04-02 15:57:44,2021-04-02 15:57:44,0.127s,PASSED
"click(findTestObject(""Recruits Page/Add New Recruit modal/Height field input""))",Chrome 89.0.4389.114,,,2021-04-02 15:57:44,2021-04-02 15:57:44,0.089s,PASSED
"setText(findTestObject(""Recruits Page/Add New Recruit modal/Height field input""), ""69"")",Chrome 89.0.4389.114,,,2021-04-02 15:57:44,2021-04-02 15:57:44,0.101s,PASSED
"setText(findTestObject(""Recruits Page/Add New Recruit modal/Birthdate field input""), ""1/1/2005"")",Chrome 89.0.4389.114,,,2021-04-02 15:57:44,2021-04-02 15:57:44,0.247s,PASSED
"enhancedClick(findTestObject(""Recruits Page/Add New Recruit modal/Birthdate field Label""))",Chrome 89.0.4389.114,,,2021-04-02 15:57:44,2021-04-02 15:57:45,0.120s,PASSED
"setText(findTestObject(""Recruits Page/Add New Recruit modal/High School field input""), ""highland park"")",Chrome 89.0.4389.114,,,2021-04-02 15:57:45,2021-04-02 15:57:45,0.175s,PASSED
"sendKeys(findTestObject(""Recruits Page/Add New Recruit modal/High School field input""), Keys.chord(DOWN))",Chrome 89.0.4389.114,,,2021-04-02 15:57:45,2021-04-02 15:57:45,0.066s,PASSED
"sendKeys(findTestObject(""Recruits Page/Add New Recruit modal/High School field input""), Keys.chord(ENTER))",Chrome 89.0.4389.114,,,2021-04-02 15:57:45,2021-04-02 15:57:45,0.060s,PASSED
"setText(findTestObject(""Recruits Page/Add New Recruit modal/High School Coach Name field""), ""Coach Miller"")",Chrome 89.0.4389.114,,,2021-04-02 15:57:45,2021-04-02 15:57:45,0.165s,PASSED
"setText(findTestObject(""Recruits Page/Add New Recruit modal/High School Coach Phone field""), ""8474713163"")",Chrome 89.0.4389.114,,,2021-04-02 15:57:45,2021-04-02 15:57:45,0.163s,PASSED
"setText(findTestObject(""Recruits Page/Add New Recruit modal/Club Team field""), ""Mac Irvin Fire"")",Chrome 89.0.4389.114,,,2021-04-02 15:57:45,2021-04-02 15:57:45,0.166s,PASSED
"setText(findTestObject(""Recruits Page/Add New Recruit modal/Club Team Number field""), ""10"")",Chrome 89.0.4389.114,,,2021-04-02 15:57:45,2021-04-02 15:57:45,0.121s,PASSED
"click(findTestObject(""Recruits Page/Add New Recruit modal/SAVE button""))",Chrome 89.0.4389.114,,,2021-04-02 15:57:45,2021-04-02 15:57:46,0.145s,PASSED
"setText(findTestObject(""Recruits Page/Recruit Search Field on Recruits page""), ""josh allen"")",Chrome 89.0.4389.114,,,2021-04-02 15:57:46,2021-04-02 15:57:46,0.238s,PASSED
delay(1),Chrome 89.0.4389.114,,,2021-04-02 15:57:46,2021-04-02 15:57:47,1.004s,PASSED
"enhancedClick(findTestObject(""Recruits Page/Archive recruit""))",Chrome 89.0.4389.114,,,2021-04-02 15:57:47,2021-04-02 15:57:47,0.088s,PASSED
delay(1),Chrome 89.0.4389.114,,,2021-04-02 15:57:47,2021-04-02 15:57:48,1.006s,PASSED
"click(findTestObject(""Recruits Page/All Recruits List selection""))",Chrome 89.0.4389.114,,,2021-04-02 15:57:48,2021-04-02 15:57:48,0.082s,PASSED
delay(1),Chrome 89.0.4389.114,,,2021-04-02 15:57:48,2021-04-02 15:57:49,1.005s,PASSED
"click(findTestObject(""Recruits Page/Archived List selection""))",Chrome 89.0.4389.114,,,2021-04-02 15:57:49,2021-04-02 15:57:49,0.116s,PASSED
delay(1),Chrome 89.0.4389.114,,,2021-04-02 15:57:49,2021-04-02 15:57:50,1.004s,PASSED
"enhancedClick(findTestObject(""Recruits Page/Archived list ellipsis button""))",Chrome 89.0.4389.114,,,2021-04-02 15:57:50,2021-04-02 15:57:50,0.102s,PASSED
delay(1),Chrome 89.0.4389.114,,,2021-04-02 15:57:50,2021-04-02 15:57:51,1.002s,PASSED
"enhancedClick(findTestObject(""Recruits Page/Delete1""))",Chrome 89.0.4389.114,,,2021-04-02 15:57:51,2021-04-02 15:57:51,0.117s,PASSED
delay(1),Chrome 89.0.4389.114,,,2021-04-02 15:57:51,2021-04-02 15:57:52,1.003s,PASSED
"enhancedClick(findTestObject(""Recruits Page/Delete2""))",Chrome 89.0.4389.114,,,2021-04-02 15:57:52,2021-04-02 15:57:52,0.101s,PASSED
delay(2),Chrome 89.0.4389.114,,,2021-04-02 15:57:52,2021-04-02 15:57:54,2.002s,PASSED
closeBrowser(),Chrome 89.0.4389.114,,,2021-04-02 15:57:54,2021-04-02 15:57:55,0.083s,PASSED
,,,,,,,
Test Cases/Tasks,Chrome 89.0.4389.114,,,2021-04-02 15:57:55,2021-04-02 15:58:02,7.237s,PASSED
openBrowser(URL),Chrome 89.0.4389.114,,,2021-04-02 15:57:55,2021-04-02 15:57:57,1.901s,PASSED
"setText(findTestObject(""Login Page/Email""), email)",Chrome 89.0.4389.114,,,2021-04-02 15:57:57,2021-04-02 15:57:57,0.162s,PASSED
"setText(findTestObject(""Login Page/password""), password)",Chrome 89.0.4389.114,,,2021-04-02 15:57:57,2021-04-02 15:57:57,0.113s,PASSED
"click(findTestObject(""Login Page/Sign In""))",Chrome 89.0.4389.114,,,2021-04-02 15:57:57,2021-04-02 15:57:59,1.674s,PASSED
"waitForElementVisible(findTestObject(""Top Navigation Menu/Dashboard""), 60)",Chrome 89.0.4389.114,,,2021-04-02 15:57:59,2021-04-02 15:57:59,0.482s,PASSED
"enhancedClick(findTestObject(""Top Navigation Menu/Recruits""))",Chrome 89.0.4389.114,,,2021-04-02 15:57:59,2021-04-02 15:57:59,0.129s,PASSED
"enhancedClick(findTestObject(""Recruits Page/Tasks tab""))",Chrome 89.0.4389.114,,,2021-04-02 15:57:59,2021-04-02 15:57:59,0.177s,PASSED
"enhancedClick(findTestObject(""Recruits Page/Tasks/Add Task button""))",Chrome 89.0.4389.114,,,2021-04-02 15:57:59,2021-04-02 15:57:59,0.141s,PASSED
"enhancedClick(findTestObject(""Recruits Page/Tasks/Add Task Recruit field""))",Chrome 89.0.4389.114,,,2021-04-02 15:57:59,2021-04-02 15:58:00,0.543s,PASSED
"enhancedClick(findTestObject(""Recruits Page/Tasks/Add Task recruit dropdown1""))",Chrome 89.0.4389.114,,,2021-04-02 15:58:00,2021-04-02 15:58:00,0.091s,PASSED
"enhancedClick(findTestObject(""Recruits Page/Tasks/Add Task Assigned To field""))",Chrome 89.0.4389.114,,,2021-04-02 15:58:00,2021-04-02 15:58:00,0.077s,PASSED
"enhancedClick(findTestObject(""Recruits Page/Tasks/Add Task Assigned To dropdown1""))",Chrome 89.0.4389.114,,,2021-04-02 15:58:00,2021-04-02 15:58:00,0.073s,PASSED
"enhancedClick(findTestObject(""Recruits Page/Tasks/Add Task Instruction field""))",Chrome 89.0.4389.114,,,2021-04-02 15:58:00,2021-04-02 15:58:00,0.072s,PASSED
"setText(findTestObject(""Recruits Page/Tasks/Add Task Instruction field""), ""test task"")",Chrome 89.0.4389.114,,,2021-04-02 15:58:00,2021-04-02 15:58:00,0.134s,PASSED
"enhancedClick(findTestObject(""Recruits Page/Tasks/Save new task""))",Chrome 89.0.4389.114,,,2021-04-02 15:58:00,2021-04-02 15:58:01,0.081s,PASSED
"verifyElementVisible(findTestObject(""Recruits Page/Tasks/Due task1 row""))",Chrome 89.0.4389.114,,,2021-04-02 15:58:01,2021-04-02 15:58:01,0.171s,PASSED
"mouseOver(findTestObject(""Recruits Page/Tasks/Due task1 ellipsis""))",Chrome 89.0.4389.114,,,2021-04-02 15:58:01,2021-04-02 15:58:01,0.228s,PASSED
"enhancedClick(findTestObject(""Recruits Page/Tasks/Due task1 ellipsis""))",Chrome 89.0.4389.114,,,2021-04-02 15:58:01,2021-04-02 15:58:01,0.082s,PASSED
"enhancedClick(findTestObject(""Recruits Page/Tasks/Mark Tasks Completed button""))",Chrome 89.0.4389.114,,,2021-04-02 15:58:01,2021-04-02 15:58:01,0.099s,PASSED
"verifyElementNotPresent(findTestObject(""Recruits Page/Tasks/Due task1 row""), 0)",Chrome 89.0.4389.114,,,2021-04-02 15:58:01,2021-04-02 15:58:02,0.566s,PASSED
closeBrowser(),Chrome 89.0.4389.114,,,2021-04-02 15:58:02,2021-04-02 15:58:02,0.081s,PASSED
,,,,,,,
Test Cases/Features/Link To FastScout,Chrome 89.0.4389.114,,,2021-04-02 15:58:02,2021-04-02 15:58:40,38.080s,FAILED
openBrowser(URL),Chrome 89.0.4389.114,,,2021-04-02 15:58:02,2021-04-02 15:58:04,2.031s,PASSED
"setText(findTestObject(""Login Page/Email""), email)",Chrome 89.0.4389.114,,,2021-04-02 15:58:04,2021-04-02 15:58:04,0.159s,PASSED
"setText(findTestObject(""Login Page/password""), password)",Chrome 89.0.4389.114,,,2021-04-02 15:58:04,2021-04-02 15:58:04,0.133s,PASSED
"click(findTestObject(""Login Page/Sign In""))",Chrome 89.0.4389.114,,,2021-04-02 15:58:04,2021-04-02 15:58:06,1.684s,PASSED
"waitForElementVisible(findTestObject(""Top Navigation Menu/Dashboard""), 60)",Chrome 89.0.4389.114,,,2021-04-02 15:58:06,2021-04-02 15:58:06,0.499s,PASSED
"click(findTestObject(""Top Navigation Menu/Recruits""))",Chrome 89.0.4389.114,,,2021-04-02 15:58:06,2021-04-02 15:58:07,0.126s,PASSED
"click(findTestObject(""Recruits Page/ADD RECRUIT button""))",Chrome 89.0.4389.114,,,2021-04-02 15:58:07,2021-04-02 15:58:07,0.204s,PASSED
"enhancedClick(findTestObject(""Recruits Page/Add New Recruit modal/LinkToFastScout Folder/Link To FastScout button""))",Chrome 89.0.4389.114,,,2021-04-02 15:58:07,2021-04-02 15:58:08,0.939s,PASSED
"enhancedClick(findTestObject(""Recruits Page/Add New Recruit modal/LinkToFastScout Folder/League_Division dropdown""))",Chrome 89.0.4389.114,,,2021-04-02 15:58:08,2021-04-02 15:58:08,0.136s,PASSED
"enhancedClick(findTestObject(""Recruits Page/Add New Recruit modal/LinkToFastScout Folder/D-II League""))",Chrome 89.0.4389.114,,,2021-04-02 15:58:08,2021-04-02 15:58:08,0.090s,PASSED
"enhancedClick(findTestObject(""Recruits Page/Add New Recruit modal/LinkToFastScout Folder/Team dropdown (LFS)""))",Chrome 89.0.4389.114,,,2021-04-02 15:58:08,2021-04-02 15:58:40,31.879s,FAILED
,,,,,,,
Test Cases/Features/Video,Chrome 89.0.4389.114,,,2021-04-02 15:58:40,2021-04-02 15:59:18,37.688s,FAILED
openBrowser(URL),Chrome 89.0.4389.114,,,2021-04-02 15:58:40,2021-04-02 15:58:42,2.008s,PASSED
"setText(findTestObject(""Login Page/Email""), email)",Chrome 89.0.4389.114,,,2021-04-02 15:58:42,2021-04-02 15:58:42,0.163s,PASSED
"setText(findTestObject(""Login Page/password""), password)",Chrome 89.0.4389.114,,,2021-04-02 15:58:42,2021-04-02 15:58:42,0.117s,PASSED
"click(findTestObject(""Login Page/Sign In""))",Chrome 89.0.4389.114,,,2021-04-02 15:58:42,2021-04-02 15:58:44,1.593s,PASSED
"waitForElementVisible(findTestObject(""Top Navigation Menu/Dashboard""), 60)",Chrome 89.0.4389.114,,,2021-04-02 15:58:44,2021-04-02 15:58:44,0.504s,PASSED
"enhancedClick(findTestObject(""Top Navigation Menu/Recruits""))",Chrome 89.0.4389.114,,,2021-04-02 15:58:44,2021-04-02 15:58:45,0.138s,PASSED
"enhancedClick(findTestObject(""Recruits Page/Recruit Row1 Name""))",Chrome 89.0.4389.114,,,2021-04-02 15:58:45,2021-04-02 15:58:46,1.173s,PASSED
"enhancedClick(findTestObject(""Recruits Page/Recruit Profile (View)/VIDEOS tab""))",Chrome 89.0.4389.114,,,2021-04-02 15:58:46,2021-04-02 15:59:18,31.832s,FAILED
,,,,,,,
Test Cases/Features/FastConnect,Chrome 89.0.4389.114,,,2021-04-02 15:59:18,2021-04-02 15:59:52,34.190s,PASSED
openBrowser(URL),Chrome 89.0.4389.114,,,2021-04-02 15:59:18,2021-04-02 15:59:27,8.874s,PASSED
"setText(findTestObject(""Login Page/Email""), email)",Chrome 89.0.4389.114,,,2021-04-02 15:59:27,2021-04-02 15:59:27,0.183s,PASSED
"setText(findTestObject(""Login Page/password""), password)",Chrome 89.0.4389.114,,,2021-04-02 15:59:27,2021-04-02 15:59:27,0.118s,PASSED
"click(findTestObject(""Login Page/Sign In""))",Chrome 89.0.4389.114,,,2021-04-02 15:59:27,2021-04-02 15:59:28,1.444s,PASSED
"waitForElementVisible(findTestObject(""Top Navigation Menu/Dashboard""), 60)",Chrome 89.0.4389.114,,,2021-04-02 15:59:28,2021-04-02 15:59:29,0.508s,PASSED
"enhancedClick(findTestObject(""Top Navigation Menu/Recruits""))",Chrome 89.0.4389.114,,,2021-04-02 15:59:29,2021-04-02 15:59:29,0.132s,PASSED
"enhancedClick(findTestObject(""Recruits Page/FastConnect tab""))",Chrome 89.0.4389.114,,,2021-04-02 15:59:29,2021-04-02 15:59:29,0.211s,PASSED
"enhancedClick(findTestObject(""Recruits Page/FastConnect/List dropdown""))",Chrome 89.0.4389.114,,,2021-04-02 15:59:29,2021-04-02 15:59:29,0.137s,PASSED
"enhancedClick(findTestObject(""Recruits Page/FastConnect/All Recruits list dropdown""))",Chrome 89.0.4389.114,,,2021-04-02 15:59:29,2021-04-02 15:59:30,0.506s,PASSED
delay(10),Chrome 89.0.4389.114,,,2021-04-02 15:59:30,2021-04-02 15:59:40,10.003s,PASSED
"verifyElementVisible(findTestObject(""Recruits Page/FastConnect/Fastconnect post1""), STOP_ON_FAILURE)",Chrome 89.0.4389.114,,,2021-04-02 15:59:40,2021-04-02 15:59:52,11.855s,PASSED
closeBrowser(),Chrome 89.0.4389.114,,,2021-04-02 15:59:52,2021-04-02 15:59:52,0.087s,PASSED
,,,,,,,
Test Cases/Tourney Workflow,Chrome 89.0.4389.114,,,2021-04-02 15:59:52,2021-04-02 16:00:09,17.371s,PASSED
openBrowser(URL),Chrome 89.0.4389.114,,,2021-04-02 15:59:52,2021-04-02 15:59:54,1.829s,PASSED
"setText(findTestObject(""Login Page/Email""), email)",Chrome 89.0.4389.114,,,2021-04-02 15:59:54,2021-04-02 15:59:54,0.158s,PASSED
"setText(findTestObject(""Login Page/password""), password)",Chrome 89.0.4389.114,,,2021-04-02 15:59:54,2021-04-02 15:59:54,0.106s,PASSED
"click(findTestObject(""Login Page/Sign In""))",Chrome 89.0.4389.114,,,2021-04-02 15:59:54,2021-04-02 15:59:56,1.681s,PASSED
"waitForElementVisible(findTestObject(""Top Navigation Menu/Dashboard""), 60)",Chrome 89.0.4389.114,,,2021-04-02 15:59:56,2021-04-02 15:59:56,0.494s,PASSED
"enhancedClick(findTestObject(""Top Navigation Menu/Tourneys""))",Chrome 89.0.4389.114,,,2021-04-02 15:59:56,2021-04-02 15:59:56,0.107s,PASSED
"enhancedClick(findTestObject(""Tourneys page/Tourney list dropdown""))",Chrome 89.0.4389.114,,,2021-04-02 15:59:56,2021-04-02 15:59:57,0.758s,PASSED
enhancedClick(tourneySession),Chrome 89.0.4389.114,,,2021-04-02 15:59:57,2021-04-02 15:59:57,0.241s,PASSED
"enhancedClick(findTestObject(""Tourneys page/Tourneys header""))",Chrome 89.0.4389.114,,,2021-04-02 15:59:57,2021-04-02 15:59:57,0.128s,PASSED
"enhancedClick(findTestObject(""Tourneys page/Tourney1 listed""))",Chrome 89.0.4389.114,,,2021-04-02 15:59:57,2021-04-02 15:59:58,0.133s,PASSED
"enhancedClick(findTestObject(""Tourneys page/Assign Staff button""))",Chrome 89.0.4389.114,,,2021-04-02 15:59:58,2021-04-02 15:59:58,0.189s,PASSED
"enhancedClick(findTestObject(""Tourneys page/Assign Staff User1 checkbox""))",Chrome 89.0.4389.114,,,2021-04-02 15:59:58,2021-04-02 15:59:58,0.135s,PASSED
"enhancedClick(findTestObject(""Tourneys page/Assign Staff SAVE button""))",Chrome 89.0.4389.114,,,2021-04-02 15:59:58,2021-04-02 15:59:58,0.098s,PASSED
delay(1),Chrome 89.0.4389.114,,,2021-04-02 15:59:58,2021-04-02 15:59:59,1.003s,PASSED
"enhancedClick(findTestObject(""Tourneys page/Assign Recruits button""))",Chrome 89.0.4389.114,,,2021-04-02 15:59:59,2021-04-02 15:59:59,0.109s,PASSED
"enhancedClick(findTestObject(""Tourneys page/Select Recruits dropdown""))",Chrome 89.0.4389.114,,,2021-04-02 15:59:59,2021-04-02 16:00:00,0.522s,PASSED
"enhancedClick(findTestObject(""Tourneys page/Assign Recruits dropdown list1""))",Chrome 89.0.4389.114,,,2021-04-02 16:00:00,2021-04-02 16:00:00,0.090s,PASSED
"enhancedClick(findTestObject(""Tourneys page/Assign Recruits SAVE button""))",Chrome 89.0.4389.114,,,2021-04-02 16:00:00,2021-04-02 16:00:00,0.083s,PASSED
"enhancedClick(findTestObject(""Tourneys page/Select Tourney Team dropdown""))",Chrome 89.0.4389.114,,,2021-04-02 16:00:00,2021-04-02 16:00:00,0.243s,PASSED
"enhancedClick(findTestObject(""Tourneys page/Select Tourney Team dropdown1""))",Chrome 89.0.4389.114,,,2021-04-02 16:00:00,2021-04-02 16:00:00,0.084s,PASSED
delay(2),Chrome 89.0.4389.114,,,2021-04-02 16:00:00,2021-04-02 16:00:02,2.006s,PASSED
"enhancedClick(findTestObject(""Tourneys page/Tourney GAMES tab""))",Chrome 89.0.4389.114,,,2021-04-02 16:00:02,2021-04-02 16:00:02,0.108s,PASSED
delay(3),Chrome 89.0.4389.114,,,2021-04-02 16:00:02,2021-04-02 16:00:05,3.003s,PASSED
"verifyElementPresent(findTestObject(""Tourneys page/GAMES tab row1""), 0)",Chrome 89.0.4389.114,,,2021-04-02 16:00:05,2021-04-02 16:00:05,0.056s,PASSED
"gameDate = getText(findTestObject(""Tourneys page/GAMES tab row1 Date""))",Chrome 89.0.4389.114,,,2021-04-02 16:00:05,2021-04-02 16:00:05,0.060s,PASSED
"enhancedClick(findTestObject(""Top Navigation Menu/Schedule""))",Chrome 89.0.4389.114,,,2021-04-02 16:00:05,2021-04-02 16:00:06,0.159s,PASSED
"enhancedClick(findTestObject(""Schedule Page/Calendar from date filter""))",Chrome 89.0.4389.114,,,2021-04-02 16:00:06,2021-04-02 16:00:06,0.111s,PASSED
"sendKeys(findTestObject(""Schedule Page/Calendar from date filter""), Keys.chord(BACK_SPACE))",Chrome 89.0.4389.114,,,2021-04-02 16:00:06,2021-04-02 16:00:06,0.084s,PASSED
"sendKeys(findTestObject(""Schedule Page/Calendar from date filter""), Keys.chord(BACK_SPACE))",Chrome 89.0.4389.114,,,2021-04-02 16:00:06,2021-04-02 16:00:06,0.078s,PASSED
"sendKeys(findTestObject(""Schedule Page/Calendar from date filter""), Keys.chord(BACK_SPACE))",Chrome 89.0.4389.114,,,2021-04-02 16:00:06,2021-04-02 16:00:06,0.086s,PASSED
"sendKeys(findTestObject(""Schedule Page/Calendar from date filter""), Keys.chord(BACK_SPACE))",Chrome 89.0.4389.114,,,2021-04-02 16:00:06,2021-04-02 16:00:06,0.075s,PASSED
"sendKeys(findTestObject(""Schedule Page/Calendar from date filter""), Keys.chord(BACK_SPACE))",Chrome 89.0.4389.114,,,2021-04-02 16:00:06,2021-04-02 16:00:06,0.069s,PASSED
"sendKeys(findTestObject(""Schedule Page/Calendar from date filter""), Keys.chord(BACK_SPACE))",Chrome 89.0.4389.114,,,2021-04-02 16:00:06,2021-04-02 16:00:06,0.069s,PASSED
"sendKeys(findTestObject(""Schedule Page/Calendar from date filter""), Keys.chord(BACK_SPACE))",Chrome 89.0.4389.114,,,2021-04-02 16:00:06,2021-04-02 16:00:06,0.072s,PASSED
"sendKeys(findTestObject(""Schedule Page/Calendar from date filter""), Keys.chord(BACK_SPACE))",Chrome 89.0.4389.114,,,2021-04-02 16:00:06,2021-04-02 16:00:06,0.068s,PASSED
"sendKeys(findTestObject(""Schedule Page/Calendar from date filter""), Keys.chord(BACK_SPACE))",Chrome 89.0.4389.114,,,2021-04-02 16:00:06,2021-04-02 16:00:06,0.083s,PASSED
"setText(findTestObject(""Schedule Page/Calendar from date filter""), gameDate)",Chrome 89.0.4389.114,,,2021-04-02 16:00:06,2021-04-02 16:00:07,0.188s,PASSED
"sendKeys(findTestObject(""Schedule Page/Calendar from date filter""), Keys.chord(ENTER))",Chrome 89.0.4389.114,,,2021-04-02 16:00:07,2021-04-02 16:00:07,0.101s,PASSED
"verifyElementPresent(findTestObject(""Schedule Page/Row1 on Schedule List""), 0)",Chrome 89.0.4389.114,,,2021-04-02 16:00:07,2021-04-02 16:00:07,0.043s,PASSED
"enhancedClick(findTestObject(""Top Navigation Menu/Tourneys""))",Chrome 89.0.4389.114,,,2021-04-02 16:00:07,2021-04-02 16:00:07,0.091s,PASSED
"enhancedClick(findTestObject(""Tourneys page/Tourney list dropdown""))",Chrome 89.0.4389.114,,,2021-04-02 16:00:07,2021-04-02 16:00:07,0.494s,PASSED
enhancedClick(tourneySession),Chrome 89.0.4389.114,,,2021-04-02 16:00:07,2021-04-02 16:00:07,0.082s,PASSED
"enhancedClick(findTestObject(""Tourneys page/Tourneys header""))",Chrome 89.0.4389.114,,,2021-04-02 16:00:07,2021-04-02 16:00:07,0.079s,PASSED
"enhancedClick(findTestObject(""Tourneys page/Tourney1 listed""))",Chrome 89.0.4389.114,,,2021-04-02 16:00:07,2021-04-02 16:00:08,0.093s,PASSED
"enhancedClick(findTestObject(""Tourneys page/Edit Assign Staff Pencil""))",Chrome 89.0.4389.114,,,2021-04-02 16:00:08,2021-04-02 16:00:08,0.156s,PASSED
"enhancedClick(findTestObject(""Tourneys page/Assign Staff User1 checkbox""))",Chrome 89.0.4389.114,,,2021-04-02 16:00:08,2021-04-02 16:00:08,0.084s,PASSED
"enhancedClick(findTestObject(""Tourneys page/Assign Staff SAVE button""))",Chrome 89.0.4389.114,,,2021-04-02 16:00:08,2021-04-02 16:00:08,0.099s,PASSED
delay(1),Chrome 89.0.4389.114,,,2021-04-02 16:00:08,2021-04-02 16:00:09,1.006s,PASSED
"enhancedClick(findTestObject(""Tourneys page/Delete Attending Recruit1""))",Chrome 89.0.4389.114,,,2021-04-02 16:00:09,2021-04-02 16:00:09,0.083s,PASSED
"enhancedClick(findTestObject(""Tourneys page/Confirm Delete Attending Recruit1""))",Chrome 89.0.4389.114,,,2021-04-02 16:00:09,2021-04-02 16:00:09,0.086s,PASSED
closeBrowser(),Chrome 89.0.4389.114,,,2021-04-02 16:00:09,2021-04-02 16:00:09,0.079s,PASSED
,,,,,,,
Test Cases/Features/Prospects View,Chrome 89.0.4389.114,,,2021-04-02 16:00:09,2021-04-02 16:00:47,37.559s,FAILED
openBrowser(URL),Chrome 89.0.4389.114,,,2021-04-02 16:00:09,2021-04-02 16:00:11,1.983s,PASSED
"setText(findTestObject(""Login Page/Email""), email2)",Chrome 89.0.4389.114,,,2021-04-02 16:00:11,2021-04-02 16:00:11,0.158s,PASSED
"setText(findTestObject(""Login Page/password""), password)",Chrome 89.0.4389.114,,,2021-04-02 16:00:11,2021-04-02 16:00:12,0.111s,PASSED
"click(findTestObject(""Login Page/Sign In""))",Chrome 89.0.4389.114,,,2021-04-02 16:00:12,2021-04-02 16:00:13,1.696s,PASSED
"waitForElementVisible(findTestObject(""Top Navigation Menu/Dashboard""), 60)",Chrome 89.0.4389.114,,,2021-04-02 16:00:13,2021-04-02 16:00:14,0.508s,PASSED
"enhancedClick(findTestObject(""Prospects View/Add Prospect button""))",Chrome 89.0.4389.114,,,2021-04-02 16:00:14,2021-04-02 16:00:14,0.094s,PASSED
"enhancedClick(findTestObject(""Prospects View/Link Player Stats button""))",Chrome 89.0.4389.114,,,2021-04-02 16:00:14,2021-04-02 16:00:15,0.837s,PASSED
"enhancedClick(findTestObject(""Recruits Page/Add New Recruit modal/LinkToFastScout Folder/League_Division dropdown""))",Chrome 89.0.4389.114,,,2021-04-02 16:00:15,2021-04-02 16:00:15,0.145s,PASSED
"enhancedClick(findTestObject(""Recruits Page/Add New Recruit modal/LinkToFastScout Folder/D-II League""))",Chrome 89.0.4389.114,,,2021-04-02 16:00:15,2021-04-02 16:00:15,0.082s,PASSED
"enhancedClick(findTestObject(""Prospects View/Link Player Stats Team dropdown (Prospects)""))",Chrome 89.0.4389.114,,,2021-04-02 16:00:15,2021-04-02 16:00:47,31.780s,FAILED
