Suite/Test/Step Name,Browser,Description,Tag,Start time,End time,Duration,Status
Regression Tests,Chrome 87.0.4280.141,,,2021-01-14 13:34:08,2021-01-14 13:35:34,1m - 25.891s,FAILED
,,,,,,,
Test Cases/Draft Board,Chrome 87.0.4280.141,,,2021-01-14 13:34:08,2021-01-14 13:34:53,45.155s,FAILED
openBrowser(URL),Chrome 87.0.4280.141,,,2021-01-14 13:34:08,2021-01-14 13:34:11,2.750s,PASSED
"setText(findTestObject(""Login Page/Email""), email)",Chrome 87.0.4280.141,,,2021-01-14 13:34:11,2021-01-14 13:34:11,0.234s,PASSED
"setText(findTestObject(""Login Page/password""), password)",Chrome 87.0.4280.141,,,2021-01-14 13:34:11,2021-01-14 13:34:12,0.129s,PASSED
"click(findTestObject(""Login Page/Sign In""))",Chrome 87.0.4280.141,,,2021-01-14 13:34:12,2021-01-14 13:34:14,2.310s,PASSED
"waitForElementVisible(findTestObject(""Top Navigation Menu/Dashboard""), 60)",Chrome 87.0.4280.141,,,2021-01-14 13:34:14,2021-01-14 13:34:15,0.591s,PASSED
"enhancedClick(findTestObject(""Top Navigation Menu/Dashboard""))",Chrome 87.0.4280.141,,,2021-01-14 13:34:15,2021-01-14 13:34:15,0.105s,PASSED
delay(3),Chrome 87.0.4280.141,,,2021-01-14 13:34:15,2021-01-14 13:34:18,3.021s,PASSED
"mouseOver(findTestObject(""Dashboard Page/Draft Board (Dashboard)/blank 1-PG on Draft Board (Dashboard)""))",Chrome 87.0.4280.141,,,2021-01-14 13:34:18,2021-01-14 13:34:18,0.211s,PASSED
"enhancedClick(findTestObject(""Dashboard Page/Draft Board (Dashboard)/blank 1-PG on Draft Board (Dashboard)""))",Chrome 87.0.4280.141,,,2021-01-14 13:34:18,2021-01-14 13:34:18,0.079s,PASSED
"enhancedClick(findTestObject(""Dashboard Page/Draft Board (Dashboard)/Draft Board Dropdown Player1""))",Chrome 87.0.4280.141,,,2021-01-14 13:34:18,2021-01-14 13:34:18,0.192s,PASSED
"mouseOver(findTestObject(""Dashboard Page/Draft Board (Dashboard)/1-PG on Draft Board""))",Chrome 87.0.4280.141,,,2021-01-14 13:34:18,2021-01-14 13:34:18,0.293s,PASSED
"enhancedClick(findTestObject(""Dashboard Page/Draft Board (Dashboard)/1-PG on Draft Board""))",Chrome 87.0.4280.141,,,2021-01-14 13:34:18,2021-01-14 13:34:19,0.095s,PASSED
delay(1),Chrome 87.0.4280.141,,,2021-01-14 13:34:19,2021-01-14 13:34:20,1.007s,PASSED
"enhancedClick(findTestObject(""Recruit Profile/Alerts button""))",Chrome 87.0.4280.141,,,2021-01-14 13:34:20,2021-01-14 13:34:20,0.075s,PASSED
"enhancedClick(findTestObject(""Recruit Profile/CLOSE button""))",Chrome 87.0.4280.141,,,2021-01-14 13:34:20,2021-01-14 13:34:20,0.097s,PASSED
"verifyElementAttributeValue(findTestObject(""Dashboard Page/Draft Board (Dashboard)/1-PG on Draft Board""), ""class"", ""draft-board-player css-1ydqi8h-DraftBoard"", 0)",Chrome 87.0.4280.141,,,2021-01-14 13:34:20,2021-01-14 13:34:20,0.077s,PASSED
"mouseOver(findTestObject(""Dashboard Page/Draft Board (Dashboard)/1-PG on Draft Board""))",Chrome 87.0.4280.141,,,2021-01-14 13:34:20,2021-01-14 13:34:20,0.190s,PASSED
"enhancedClick(findTestObject(""Dashboard Page/Draft Board (Dashboard)/1-PG on Draft Board""))",Chrome 87.0.4280.141,,,2021-01-14 13:34:20,2021-01-14 13:34:20,0.110s,PASSED
"enhancedClick(findTestObject(""Recruit Profile/Alerts button""))",Chrome 87.0.4280.141,,,2021-01-14 13:34:20,2021-01-14 13:34:20,0.110s,PASSED
"enhancedClick(findTestObject(""Recruit Profile/CLOSE button""))",Chrome 87.0.4280.141,,,2021-01-14 13:34:20,2021-01-14 13:34:20,0.099s,PASSED
"verifyElementAttributeValue(findTestObject(""Dashboard Page/Draft Board (Dashboard)/1-PG on Draft Board""), ""class"", ""draft-board-player css-1xcfrz7-DraftBoard"", 0)",Chrome 87.0.4280.141,,,2021-01-14 13:34:20,2021-01-14 13:34:20,0.086s,PASSED
"mouseOver(findTestObject(""Dashboard Page/Draft Board (Dashboard)/1-PG on Draft Board""))",Chrome 87.0.4280.141,,,2021-01-14 13:34:20,2021-01-14 13:34:21,0.222s,PASSED
"enhancedClick(findTestObject(""Dashboard Page/Draft Board (Dashboard)/Delete 1-PG on Draft Board""))",Chrome 87.0.4280.141,,,2021-01-14 13:34:21,2021-01-14 13:34:21,0.106s,PASSED
"enhancedClick(findTestObject(""Dashboard Page/Draft Board (Dashboard)/Draft Board Season Dropdown""))",Chrome 87.0.4280.141,,,2021-01-14 13:34:21,2021-01-14 13:34:21,0.113s,PASSED
"enhancedClick(findTestObject(""Dashboard Page/Draft Board (Dashboard)/Draft Board Season Dropdown - 2023""))",Chrome 87.0.4280.141,,,2021-01-14 13:34:21,2021-01-14 13:34:21,0.092s,PASSED
"mouseOver(findTestObject(""Dashboard Page/Draft Board (Dashboard)/blank 1-PG on Draft Board (Dashboard)""))",Chrome 87.0.4280.141,,,2021-01-14 13:34:21,2021-01-14 13:34:21,0.176s,PASSED
"enhancedClick(findTestObject(""Dashboard Page/Draft Board (Dashboard)/blank 1-PG on Draft Board (Dashboard)""))",Chrome 87.0.4280.141,,,2021-01-14 13:34:21,2021-01-14 13:34:21,0.064s,PASSED
"enhancedClick(findTestObject(""Dashboard Page/Draft Board (Dashboard)/Draft Board Dropdown Player1""))",Chrome 87.0.4280.141,,,2021-01-14 13:34:21,2021-01-14 13:34:21,0.158s,PASSED
"mouseOver(findTestObject(""Dashboard Page/Draft Board (Dashboard)/blank 2-PG on Draft Board (Dashboard)""))",Chrome 87.0.4280.141,,,2021-01-14 13:34:21,2021-01-14 13:34:22,0.205s,PASSED
"enhancedClick(findTestObject(""Dashboard Page/Draft Board (Dashboard)/blank 2-PG on Draft Board (Dashboard)""))",Chrome 87.0.4280.141,,,2021-01-14 13:34:22,2021-01-14 13:34:22,0.078s,PASSED
"enhancedClick(findTestObject(""Dashboard Page/Draft Board (Dashboard)/Recruit Search field""))",Chrome 87.0.4280.141,,,2021-01-14 13:34:22,2021-01-14 13:34:22,0.086s,PASSED
"sendKeys(findTestObject(""Dashboard Page/Draft Board (Dashboard)/Recruit Search field""), ""Mikey Williams"")",Chrome 87.0.4280.141,,,2021-01-14 13:34:22,2021-01-14 13:34:53,31.739s,FAILED
,,,,,,,
Test Cases/Depth Chart,Chrome 87.0.4280.141,,,2021-01-14 13:34:53,2021-01-14 13:35:34,40.293s,FAILED
openBrowser(URL),Chrome 87.0.4280.141,,,2021-01-14 13:34:54,2021-01-14 13:34:56,2.086s,PASSED
"setText(findTestObject(""Login Page/Email""), email)",Chrome 87.0.4280.141,,,2021-01-14 13:34:56,2021-01-14 13:34:56,0.149s,PASSED
"setText(findTestObject(""Login Page/password""), password)",Chrome 87.0.4280.141,,,2021-01-14 13:34:56,2021-01-14 13:34:56,0.107s,PASSED
"click(findTestObject(""Login Page/Sign In""))",Chrome 87.0.4280.141,,,2021-01-14 13:34:56,2021-01-14 13:34:58,2.471s,PASSED
"waitForElementVisible(findTestObject(""Top Navigation Menu/Dashboard""), 60)",Chrome 87.0.4280.141,,,2021-01-14 13:34:58,2021-01-14 13:34:59,0.549s,PASSED
"enhancedClick(findTestObject(""Top Navigation Menu/Dashboard""))",Chrome 87.0.4280.141,,,2021-01-14 13:34:59,2021-01-14 13:34:59,0.092s,PASSED
delay(3),Chrome 87.0.4280.141,,,2021-01-14 13:34:59,2021-01-14 13:35:02,3.010s,PASSED
"enhancedClick(findTestObject(""Dashboard Page/Depth Chart/Depth Chart season dropdown""))",Chrome 87.0.4280.141,,,2021-01-14 13:35:02,2021-01-14 13:35:34,31.739s,FAILED
