Suite/Test/Step Name,Browser,Description,Tag,Start time,End time,Duration,Status
Regression Tests,Chrome 88.0.4324.192,,,2021-03-09 08:47:35,2021-03-09 08:51:14,3m - 38.334s,FAILED
,,,,,,,
Test Cases/Draft Board,Chrome 88.0.4324.192,,,2021-03-09 08:47:36,2021-03-09 08:47:58,22.248s,FAILED
openBrowser(URL),Chrome 88.0.4324.192,,,2021-03-09 08:47:36,2021-03-09 08:47:39,2.599s,PASSED
"setText(findTestObject(""Login Page/Email""), email)",Chrome 88.0.4324.192,,,2021-03-09 08:47:39,2021-03-09 08:47:39,0.521s,PASSED
"setText(findTestObject(""Login Page/password""), password)",Chrome 88.0.4324.192,,,2021-03-09 08:47:39,2021-03-09 08:47:39,0.114s,PASSED
"click(findTestObject(""Login Page/Sign In""))",Chrome 88.0.4324.192,,,2021-03-09 08:47:39,2021-03-09 08:47:42,2.391s,PASSED
"waitForElementVisible(findTestObject(""Top Navigation Menu/Dashboard""), 60)",Chrome 88.0.4324.192,,,2021-03-09 08:47:42,2021-03-09 08:47:42,0.645s,PASSED
"enhancedClick(findTestObject(""Top Navigation Menu/Dashboard""))",Chrome 88.0.4324.192,,,2021-03-09 08:47:42,2021-03-09 08:47:42,0.098s,PASSED
delay(3),Chrome 88.0.4324.192,,,2021-03-09 08:47:42,2021-03-09 08:47:46,3.081s,PASSED
"mouseOver(findTestObject(""Dashboard Page/Draft Board (Dashboard)/blank 1-PG on Draft Board (Dashboard)""))",Chrome 88.0.4324.192,,,2021-03-09 08:47:46,2021-03-09 08:47:46,0.232s,PASSED
"enhancedClick(findTestObject(""Dashboard Page/Draft Board (Dashboard)/blank 1-PG on Draft Board (Dashboard)""))",Chrome 88.0.4324.192,,,2021-03-09 08:47:46,2021-03-09 08:47:46,0.085s,PASSED
"enhancedClick(findTestObject(""Dashboard Page/Draft Board (Dashboard)/Draft Board Dropdown Player1""))",Chrome 88.0.4324.192,,,2021-03-09 08:47:46,2021-03-09 08:47:46,0.181s,PASSED
"mouseOver(findTestObject(""Dashboard Page/Draft Board (Dashboard)/1-PG on Draft Board""))",Chrome 88.0.4324.192,,,2021-03-09 08:47:46,2021-03-09 08:47:46,0.256s,PASSED
"enhancedClick(findTestObject(""Dashboard Page/Draft Board (Dashboard)/1-PG on Draft Board""))",Chrome 88.0.4324.192,,,2021-03-09 08:47:46,2021-03-09 08:47:46,0.091s,PASSED
delay(1),Chrome 88.0.4324.192,,,2021-03-09 08:47:46,2021-03-09 08:47:47,1.007s,PASSED
"enhancedClick(findTestObject(""Recruit Profile (view)/Alerts button""))",Chrome 88.0.4324.192,,,2021-03-09 08:47:47,2021-03-09 08:47:48,0.080s,PASSED
"enhancedClick(findTestObject(""Recruit Profile (view)/CLOSE button""))",Chrome 88.0.4324.192,,,2021-03-09 08:47:48,2021-03-09 08:47:48,0.090s,PASSED
"verifyElementVisible(findTestObject(""Dashboard Page/Draft Board (Dashboard)/Alerts bell indicator""))",Chrome 88.0.4324.192,,,2021-03-09 08:47:48,2021-03-09 08:47:48,0.078s,PASSED
"mouseOver(findTestObject(""Dashboard Page/Draft Board (Dashboard)/1-PG on Draft Board""))",Chrome 88.0.4324.192,,,2021-03-09 08:47:48,2021-03-09 08:47:48,0.222s,PASSED
"enhancedClick(findTestObject(""Dashboard Page/Draft Board (Dashboard)/1-PG on Draft Board""))",Chrome 88.0.4324.192,,,2021-03-09 08:47:48,2021-03-09 08:47:48,0.115s,PASSED
"enhancedClick(findTestObject(""Recruit Profile (view)/Alerts button""))",Chrome 88.0.4324.192,,,2021-03-09 08:47:48,2021-03-09 08:47:48,0.097s,PASSED
"mouseOver(findTestObject(""Dashboard Page/Draft Board (Dashboard)/1-PG on Draft Board""))",Chrome 88.0.4324.192,,,2021-03-09 08:47:48,2021-03-09 08:47:48,0.231s,PASSED
"enhancedClick(findTestObject(""Recruit Profile (view)/CLOSE button""))",Chrome 88.0.4324.192,,,2021-03-09 08:47:48,2021-03-09 08:47:48,0.105s,PASSED
delay(1),Chrome 88.0.4324.192,,,2021-03-09 08:47:48,2021-03-09 08:47:49,1.006s,PASSED
"verifyElementNotPresent(findTestObject(""Dashboard Page/Draft Board (Dashboard)/Alerts bell indicator""), 0)",Chrome 88.0.4324.192,,,2021-03-09 08:47:49,2021-03-09 08:47:50,0.094s,PASSED
"mouseOver(findTestObject(""Dashboard Page/Draft Board (Dashboard)/1-PG on Draft Board""))",Chrome 88.0.4324.192,,,2021-03-09 08:47:50,2021-03-09 08:47:50,0.173s,PASSED
"enhancedClick(findTestObject(""Dashboard Page/Draft Board (Dashboard)/Delete 1-PG on Draft Board""))",Chrome 88.0.4324.192,,,2021-03-09 08:47:50,2021-03-09 08:47:50,0.103s,PASSED
"enhancedClick(findTestObject(""Dashboard Page/Draft Board (Dashboard)/Draft Board Season Dropdown""))",Chrome 88.0.4324.192,,,2021-03-09 08:47:50,2021-03-09 08:47:50,0.107s,PASSED
"enhancedClick(findTestObject(""Dashboard Page/Draft Board (Dashboard)/Draft Board Season Dropdown - 2023""))",Chrome 88.0.4324.192,,,2021-03-09 08:47:50,2021-03-09 08:47:50,0.090s,PASSED
"mouseOver(findTestObject(""Dashboard Page/Draft Board (Dashboard)/blank 1-PG on Draft Board (Dashboard)""))",Chrome 88.0.4324.192,,,2021-03-09 08:47:50,2021-03-09 08:47:50,0.173s,PASSED
"enhancedClick(findTestObject(""Dashboard Page/Draft Board (Dashboard)/blank 1-PG on Draft Board (Dashboard)""))",Chrome 88.0.4324.192,,,2021-03-09 08:47:50,2021-03-09 08:47:50,0.077s,PASSED
"enhancedClick(findTestObject(""Dashboard Page/Draft Board (Dashboard)/Draft Board Dropdown Player1""))",Chrome 88.0.4324.192,,,2021-03-09 08:47:50,2021-03-09 08:47:50,0.148s,PASSED
delay(1),Chrome 88.0.4324.192,,,2021-03-09 08:47:50,2021-03-09 08:47:51,1.005s,PASSED
"mouseOver(findTestObject(""Dashboard Page/Draft Board (Dashboard)/blank 2-PG on Draft Board (Dashboard)""))",Chrome 88.0.4324.192,,,2021-03-09 08:47:51,2021-03-09 08:47:52,0.172s,PASSED
"enhancedClick(findTestObject(""Dashboard Page/Draft Board (Dashboard)/blank 2-PG on Draft Board (Dashboard)""))",Chrome 88.0.4324.192,,,2021-03-09 08:47:52,2021-03-09 08:47:52,0.076s,PASSED
"enhancedClick(findTestObject(""Dashboard Page/Draft Board (Dashboard)/Recruit Search field""))",Chrome 88.0.4324.192,,,2021-03-09 08:47:52,2021-03-09 08:47:52,0.083s,PASSED
"sendKeys(findTestObject(""Dashboard Page/Draft Board (Dashboard)/Recruit Search field""), ""Mikey Williams"")",Chrome 88.0.4324.192,,,2021-03-09 08:47:52,2021-03-09 08:47:52,0.080s,PASSED
delay(2),Chrome 88.0.4324.192,,,2021-03-09 08:47:52,2021-03-09 08:47:54,2.007s,PASSED
"enhancedClick(findTestObject(""Dashboard Page/Draft Board (Dashboard)/Draft Board Dropdown Player2""))",Chrome 88.0.4324.192,,,2021-03-09 08:47:54,2021-03-09 08:47:54,0.086s,PASSED
"mouseOver(findTestObject(""Dashboard Page/Draft Board (Dashboard)/2-PG on Draft Board""))",Chrome 88.0.4324.192,,,2021-03-09 08:47:54,2021-03-09 08:47:54,0.246s,PASSED
"enhancedClick(findTestObject(""Dashboard Page/Draft Board (Dashboard)/Delete 2-PG on Draft Board""))",Chrome 88.0.4324.192,,,2021-03-09 08:47:54,2021-03-09 08:47:54,0.090s,PASSED
"mouseOver(findTestObject(""Dashboard Page/Draft Board (Dashboard)/1-PG on Draft Board""))",Chrome 88.0.4324.192,,,2021-03-09 08:47:54,2021-03-09 08:47:54,0.179s,PASSED
"enhancedClick(findTestObject(""Dashboard Page/Draft Board (Dashboard)/Delete 1-PG on Draft Board""))",Chrome 88.0.4324.192,,,2021-03-09 08:47:54,2021-03-09 08:47:55,0.084s,PASSED
"enhancedClick(findTestObject(""Dashboard Page/Draft Board (Dashboard)/Draft Board Link""))",Chrome 88.0.4324.192,,,2021-03-09 08:47:55,2021-03-09 08:47:55,0.128s,PASSED
"mouseOver(findTestObject(""Recruits Page/Draft Board (Recruits)/blank PG1 Draft Board-Recruits""))",Chrome 88.0.4324.192,,,2021-03-09 08:47:55,2021-03-09 08:47:55,0.190s,PASSED
"enhancedClick(findTestObject(""Recruits Page/Draft Board (Recruits)/blank PG1 Draft Board-Recruits""))",Chrome 88.0.4324.192,,,2021-03-09 08:47:55,2021-03-09 08:47:55,0.081s,PASSED
"enhancedClick(findTestObject(""Recruits Page/Draft Board (Recruits)/Draft Board dropdown P1 (Recruits)""))",Chrome 88.0.4324.192,,,2021-03-09 08:47:55,2021-03-09 08:47:55,0.121s,PASSED
"mouseOver(findTestObject(""Dashboard Page/Draft Board (Dashboard)/1-PG on Draft Board""))",Chrome 88.0.4324.192,,,2021-03-09 08:47:55,2021-03-09 08:47:55,0.226s,PASSED
"enhancedClick(findTestObject(""Recruits Page/Draft Board (Recruits)/Draft Board Color Dropper icon""))",Chrome 88.0.4324.192,,,2021-03-09 08:47:55,2021-03-09 08:47:55,0.079s,PASSED
"enhancedClick(findTestObject(""Recruits Page/Draft Board (Recruits)/Yellow Color Draft Board""))",Chrome 88.0.4324.192,,,2021-03-09 08:47:55,2021-03-09 08:47:57,1.269s,PASSED
"verifyElementAttributeValue(findTestObject(""Dashboard Page/Draft Board (Dashboard)/1-PG on Draft Board""), ""class"", ""draft-board-player dashboard-player css-1n2x8eh-DraftBoard"", 0)",Chrome 88.0.4324.192,,,2021-03-09 08:47:57,2021-03-09 08:47:58,1.392s,FAILED
,,,,,,,
Test Cases/Depth Chart,Chrome 88.0.4324.192,,,2021-03-09 08:47:58,2021-03-09 08:48:13,14.592s,PASSED
openBrowser(URL),Chrome 88.0.4324.192,,,2021-03-09 08:47:58,2021-03-09 08:48:00,1.640s,PASSED
"setText(findTestObject(""Login Page/Email""), email)",Chrome 88.0.4324.192,,,2021-03-09 08:48:00,2021-03-09 08:48:00,0.442s,PASSED
"setText(findTestObject(""Login Page/password""), password)",Chrome 88.0.4324.192,,,2021-03-09 08:48:00,2021-03-09 08:48:00,0.105s,PASSED
"click(findTestObject(""Login Page/Sign In""))",Chrome 88.0.4324.192,,,2021-03-09 08:48:00,2021-03-09 08:48:03,2.857s,PASSED
"waitForElementVisible(findTestObject(""Top Navigation Menu/Dashboard""), 60)",Chrome 88.0.4324.192,,,2021-03-09 08:48:03,2021-03-09 08:48:04,0.590s,PASSED
"enhancedClick(findTestObject(""Top Navigation Menu/Dashboard""))",Chrome 88.0.4324.192,,,2021-03-09 08:48:04,2021-03-09 08:48:04,0.077s,PASSED
delay(3),Chrome 88.0.4324.192,,,2021-03-09 08:48:04,2021-03-09 08:48:07,3.008s,PASSED
"enhancedClick(findTestObject(""Dashboard Page/Depth Chart/Depth Chart season dropdown""))",Chrome 88.0.4324.192,,,2021-03-09 08:48:07,2021-03-09 08:48:07,0.106s,PASSED
"enhancedClick(findTestObject(""Dashboard Page/Depth Chart/Season Dropdown Index3""))",Chrome 88.0.4324.192,,,2021-03-09 08:48:07,2021-03-09 08:48:08,1.288s,PASSED
"enhancedClick(findTestObject(""Dashboard Page/Depth Chart/Depth Chart season dropdown""))",Chrome 88.0.4324.192,,,2021-03-09 08:48:08,2021-03-09 08:48:08,0.075s,PASSED
"enhancedClick(findTestObject(""Dashboard Page/Depth Chart/Season Dropdown Index2""))",Chrome 88.0.4324.192,,,2021-03-09 08:48:08,2021-03-09 08:48:08,0.099s,PASSED
"enhancedClick(findTestObject(""Dashboard Page/Depth Chart/EDIT Depth Chart""))",Chrome 88.0.4324.192,,,2021-03-09 08:48:08,2021-03-09 08:48:09,0.145s,PASSED
"enhancedClick(findTestObject(""Dashboard Page/Depth Chart/Depth Chart Edit (sr, pg, 1)""))",Chrome 88.0.4324.192,,,2021-03-09 08:48:09,2021-03-09 08:48:09,0.158s,PASSED
"enhancedClick(findTestObject(""Dashboard Page/Depth Chart/SAVE Depth Chart""))",Chrome 88.0.4324.192,,,2021-03-09 08:48:09,2021-03-09 08:48:09,0.097s,PASSED
delay(2),Chrome 88.0.4324.192,,,2021-03-09 08:48:09,2021-03-09 08:48:11,2.005s,PASSED
"verifyTextNotPresent(playerHidden, false)",Chrome 88.0.4324.192,,,2021-03-09 08:48:11,2021-03-09 08:48:11,0.145s,PASSED
"enhancedClick(findTestObject(""Dashboard Page/Depth Chart/EDIT Depth Chart""))",Chrome 88.0.4324.192,,,2021-03-09 08:48:11,2021-03-09 08:48:11,0.103s,PASSED
"enhancedClick(findTestObject(""Dashboard Page/Depth Chart/Depth Chart Edit (sr, pg, 1)""))",Chrome 88.0.4324.192,,,2021-03-09 08:48:11,2021-03-09 08:48:11,0.110s,PASSED
"enhancedClick(findTestObject(""Dashboard Page/Depth Chart/SAVE Depth Chart""))",Chrome 88.0.4324.192,,,2021-03-09 08:48:11,2021-03-09 08:48:11,0.089s,PASSED
"verifyTextPresent(playerHidden, false)",Chrome 88.0.4324.192,,,2021-03-09 08:48:11,2021-03-09 08:48:12,0.242s,PASSED
delay(1),Chrome 88.0.4324.192,,,2021-03-09 08:48:12,2021-03-09 08:48:13,1.004s,PASSED
closeBrowser(),Chrome 88.0.4324.192,,,2021-03-09 08:48:13,2021-03-09 08:48:13,0.085s,PASSED
,,,,,,,
Test Cases/Dashboard Calendar,Chrome 88.0.4324.192,,,2021-03-09 08:48:13,2021-03-09 08:48:40,27.281s,PASSED
openBrowser(URL),Chrome 88.0.4324.192,,,2021-03-09 08:48:13,2021-03-09 08:48:14,1.513s,PASSED
"setText(findTestObject(""Login Page/Email""), email)",Chrome 88.0.4324.192,,,2021-03-09 08:48:14,2021-03-09 08:48:15,0.456s,PASSED
"setText(findTestObject(""Login Page/password""), password)",Chrome 88.0.4324.192,,,2021-03-09 08:48:15,2021-03-09 08:48:15,0.102s,PASSED
"click(findTestObject(""Login Page/Sign In""))",Chrome 88.0.4324.192,,,2021-03-09 08:48:15,2021-03-09 08:48:18,2.685s,PASSED
"waitForElementVisible(findTestObject(""Top Navigation Menu/Dashboard""), 60)",Chrome 88.0.4324.192,,,2021-03-09 08:48:18,2021-03-09 08:48:18,0.617s,PASSED
"enhancedClick(findTestObject(""Top Navigation Menu/Recruits""))",Chrome 88.0.4324.192,,,2021-03-09 08:48:18,2021-03-09 08:48:18,0.119s,PASSED
delay(3),Chrome 88.0.4324.192,,,2021-03-09 08:48:18,2021-03-09 08:48:21,3.004s,PASSED
"enhancedClick(findTestObject(""Top Navigation Menu/Dashboard""))",Chrome 88.0.4324.192,,,2021-03-09 08:48:21,2021-03-09 08:48:21,0.176s,PASSED
delay(3),Chrome 88.0.4324.192,,,2021-03-09 08:48:21,2021-03-09 08:48:24,3.005s,PASSED
"enhancedClick(findTestObject(""Dashboard Page/Calendar (Dashboard)/Toggle Left (Calendar Dashboard)""))",Chrome 88.0.4324.192,,,2021-03-09 08:48:24,2021-03-09 08:48:25,0.126s,PASSED
delay(5),Chrome 88.0.4324.192,,,2021-03-09 08:48:25,2021-03-09 08:48:30,5.007s,PASSED
"enhancedClick(findTestObject(""Dashboard Page/Calendar (Dashboard)/Toggle Right (Calendar Dashboard)""))",Chrome 88.0.4324.192,,,2021-03-09 08:48:30,2021-03-09 08:48:30,0.097s,PASSED
delay(5),Chrome 88.0.4324.192,,,2021-03-09 08:48:30,2021-03-09 08:48:35,5.007s,PASSED
"enhancedClick(findTestObject(""Dashboard Page/Calendar (Dashboard)/Dashboard Calendar SHOW dropdown""))",Chrome 88.0.4324.192,,,2021-03-09 08:48:35,2021-03-09 08:48:35,0.105s,PASSED
"enhancedClick(findTestObject(""Dashboard Page/Calendar (Dashboard)/My Calendar option""))",Chrome 88.0.4324.192,,,2021-03-09 08:48:35,2021-03-09 08:48:35,0.093s,PASSED
"enhancedClick(findTestObject(""Dashboard Page/Calendar (Dashboard)/My Calendar option""))",Chrome 88.0.4324.192,,,2021-03-09 08:48:35,2021-03-09 08:48:35,0.065s,PASSED
"enhancedClick(findTestObject(""Dashboard Page/Calendar (Dashboard)/Team calendar option""))",Chrome 88.0.4324.192,,,2021-03-09 08:48:35,2021-03-09 08:48:35,0.075s,PASSED
"enhancedClick(findTestObject(""Dashboard Page/Calendar (Dashboard)/Team calendar option""))",Chrome 88.0.4324.192,,,2021-03-09 08:48:35,2021-03-09 08:48:35,0.057s,PASSED
"enhancedClick(findTestObject(""Dashboard Page/Calendar (Dashboard)/Tasks calendar option""))",Chrome 88.0.4324.192,,,2021-03-09 08:48:35,2021-03-09 08:48:35,0.070s,PASSED
"enhancedClick(findTestObject(""Dashboard Page/Calendar (Dashboard)/Tasks calendar option""))",Chrome 88.0.4324.192,,,2021-03-09 08:48:35,2021-03-09 08:48:35,0.067s,PASSED
"enhancedClick(findTestObject(""Dashboard Page/Calendar (Dashboard)/NCAA Calendar option""))",Chrome 88.0.4324.192,,,2021-03-09 08:48:35,2021-03-09 08:48:35,0.074s,PASSED
"enhancedClick(findTestObject(""Dashboard Page/Calendar (Dashboard)/NCAA Calendar option""))",Chrome 88.0.4324.192,,,2021-03-09 08:48:35,2021-03-09 08:48:35,0.054s,PASSED
"enhancedClick(findTestObject(""Dashboard Page/Calendar (Dashboard)/My Live Period calendar option""))",Chrome 88.0.4324.192,,,2021-03-09 08:48:35,2021-03-09 08:48:35,0.067s,PASSED
"enhancedClick(findTestObject(""Dashboard Page/Calendar (Dashboard)/My Live Period calendar option""))",Chrome 88.0.4324.192,,,2021-03-09 08:48:35,2021-03-09 08:48:35,0.060s,PASSED
"enhancedClick(findTestObject(""Dashboard Page/Calendar (Dashboard)/Dashboard Calendar SHOW dropdown""))",Chrome 88.0.4324.192,,,2021-03-09 08:48:35,2021-03-09 08:48:36,0.058s,PASSED
"enhancedClick(findTestObject(""Dashboard Page/Calendar (Dashboard)/Dashboard Calendar Add New""))",Chrome 88.0.4324.192,,,2021-03-09 08:48:36,2021-03-09 08:48:36,0.141s,PASSED
"enhancedClick(findTestObject(""Dashboard Page/Calendar (Dashboard)/Add Event modal/Event Name field""))",Chrome 88.0.4324.192,,,2021-03-09 08:48:36,2021-03-09 08:48:36,0.091s,PASSED
"sendKeys(findTestObject(""Dashboard Page/Calendar (Dashboard)/Add Event modal/Event Name field""), ""Test Event1"")",Chrome 88.0.4324.192,,,2021-03-09 08:48:36,2021-03-09 08:48:36,0.075s,PASSED
"enhancedClick(findTestObject(""Dashboard Page/Calendar (Dashboard)/Add Event modal/Event Location field""))",Chrome 88.0.4324.192,,,2021-03-09 08:48:36,2021-03-09 08:48:36,0.093s,PASSED
"sendKeys(findTestObject(""Dashboard Page/Calendar (Dashboard)/Add Event modal/Event Location field""), ""444 N. Michigan Ave"")",Chrome 88.0.4324.192,,,2021-03-09 08:48:36,2021-03-09 08:48:36,0.099s,PASSED
delay(1),Chrome 88.0.4324.192,,,2021-03-09 08:48:36,2021-03-09 08:48:37,1.007s,PASSED
"enhancedClick(findTestObject(""Dashboard Page/Calendar (Dashboard)/Add Event modal/Select searched location""))",Chrome 88.0.4324.192,,,2021-03-09 08:48:37,2021-03-09 08:48:37,0.091s,PASSED
"enhancedClick(findTestObject(""Dashboard Page/Calendar (Dashboard)/Add Event modal/Select Recruits dropdown""))",Chrome 88.0.4324.192,,,2021-03-09 08:48:37,2021-03-09 08:48:37,0.079s,PASSED
"enhancedClick(findTestObject(""Dashboard Page/Calendar (Dashboard)/Add Event modal/Recruit1 in dropdown (Add Event modal)""))",Chrome 88.0.4324.192,,,2021-03-09 08:48:37,2021-03-09 08:48:37,0.081s,PASSED
"enhancedClick(findTestObject(""Dashboard Page/Calendar (Dashboard)/Add Event modal/Add Event Attendees""))",Chrome 88.0.4324.192,,,2021-03-09 08:48:37,2021-03-09 08:48:37,0.076s,PASSED
"enhancedClick(findTestObject(""Dashboard Page/Calendar (Dashboard)/Add Event modal/Recruiters checkbox""))",Chrome 88.0.4324.192,,,2021-03-09 08:48:37,2021-03-09 08:48:37,0.095s,PASSED
"enhancedClick(findTestObject(""Dashboard Page/Calendar (Dashboard)/Add Event modal/Game Note field""))",Chrome 88.0.4324.192,,,2021-03-09 08:48:37,2021-03-09 08:48:38,0.084s,PASSED
"sendKeys(findTestObject(""Dashboard Page/Calendar (Dashboard)/Add Event modal/Game Note field""), ""arrive early"")",Chrome 88.0.4324.192,,,2021-03-09 08:48:38,2021-03-09 08:48:38,0.144s,PASSED
"enhancedClick(findTestObject(""Dashboard Page/Calendar (Dashboard)/Add Event modal/Add Event Save button""))",Chrome 88.0.4324.192,,,2021-03-09 08:48:38,2021-03-09 08:48:38,0.084s,PASSED
delay(2),Chrome 88.0.4324.192,,,2021-03-09 08:48:38,2021-03-09 08:48:40,2.007s,PASSED
"verifyTextPresent(""Test Event1"", false)",Chrome 88.0.4324.192,,,2021-03-09 08:48:40,2021-03-09 08:48:40,0.133s,PASSED
,,,,,,,
Test Cases/Add_Archive_Delete New Recruit,Chrome 88.0.4324.192,,,2021-03-09 08:48:40,2021-03-09 08:48:57,17.308s,PASSED
openBrowser(URL),Chrome 88.0.4324.192,,,2021-03-09 08:48:40,2021-03-09 08:48:42,1.626s,PASSED
"setText(findTestObject(""Login Page/Email""), email)",Chrome 88.0.4324.192,,,2021-03-09 08:48:42,2021-03-09 08:48:42,0.458s,PASSED
"setText(findTestObject(""Login Page/password""), password)",Chrome 88.0.4324.192,,,2021-03-09 08:48:42,2021-03-09 08:48:42,0.104s,PASSED
"click(findTestObject(""Login Page/Sign In""))",Chrome 88.0.4324.192,,,2021-03-09 08:48:42,2021-03-09 08:48:45,2.295s,PASSED
"waitForElementVisible(findTestObject(""Top Navigation Menu/Dashboard""), 60)",Chrome 88.0.4324.192,,,2021-03-09 08:48:45,2021-03-09 08:48:45,0.612s,PASSED
"click(findTestObject(""Top Navigation Menu/Recruits""))",Chrome 88.0.4324.192,,,2021-03-09 08:48:45,2021-03-09 08:48:45,0.121s,PASSED
"click(findTestObject(""Recruits Page/ADD RECRUIT button""))",Chrome 88.0.4324.192,,,2021-03-09 08:48:45,2021-03-09 08:48:45,0.118s,PASSED
"setText(findTestObject(""Recruits Page/Add New Recruit modal/First Name field""), ""Josh"")",Chrome 88.0.4324.192,,,2021-03-09 08:48:45,2021-03-09 08:48:47,1.158s,PASSED
"setText(findTestObject(""Recruits Page/Add New Recruit modal/Last Name field""), ""Allen"")",Chrome 88.0.4324.192,,,2021-03-09 08:48:47,2021-03-09 08:48:47,0.127s,PASSED
"setText(findTestObject(""Recruits Page/Add New Recruit modal/Class field""), ""2023"")",Chrome 88.0.4324.192,,,2021-03-09 08:48:47,2021-03-09 08:48:47,0.123s,PASSED
"click(findTestObject(""Recruits Page/Add New Recruit modal/Height field input""))",Chrome 88.0.4324.192,,,2021-03-09 08:48:47,2021-03-09 08:48:47,0.080s,PASSED
"setText(findTestObject(""Recruits Page/Add New Recruit modal/Height field input""), ""69"")",Chrome 88.0.4324.192,,,2021-03-09 08:48:47,2021-03-09 08:48:47,0.094s,PASSED
"setText(findTestObject(""Recruits Page/Add New Recruit modal/Birthdate field input""), ""1/1/2005"")",Chrome 88.0.4324.192,,,2021-03-09 08:48:47,2021-03-09 08:48:47,0.225s,PASSED
"enhancedClick(findTestObject(""Recruits Page/Add New Recruit modal/Birthdate field Label""))",Chrome 88.0.4324.192,,,2021-03-09 08:48:47,2021-03-09 08:48:47,0.117s,PASSED
"setText(findTestObject(""Recruits Page/Add New Recruit modal/High School field input""), ""highland park"")",Chrome 88.0.4324.192,,,2021-03-09 08:48:47,2021-03-09 08:48:47,0.155s,PASSED
"sendKeys(findTestObject(""Recruits Page/Add New Recruit modal/High School field input""), Keys.chord(DOWN))",Chrome 88.0.4324.192,,,2021-03-09 08:48:47,2021-03-09 08:48:48,0.067s,PASSED
"sendKeys(findTestObject(""Recruits Page/Add New Recruit modal/High School field input""), Keys.chord(ENTER))",Chrome 88.0.4324.192,,,2021-03-09 08:48:48,2021-03-09 08:48:48,0.056s,PASSED
"setText(findTestObject(""Recruits Page/Add New Recruit modal/High School Coach Name field""), ""Coach Miller"")",Chrome 88.0.4324.192,,,2021-03-09 08:48:48,2021-03-09 08:48:48,0.159s,PASSED
"setText(findTestObject(""Recruits Page/Add New Recruit modal/High School Coach Phone field""), ""8474713163"")",Chrome 88.0.4324.192,,,2021-03-09 08:48:48,2021-03-09 08:48:48,0.147s,PASSED
"setText(findTestObject(""Recruits Page/Add New Recruit modal/Club Team field""), ""Mac Irvin Fire"")",Chrome 88.0.4324.192,,,2021-03-09 08:48:48,2021-03-09 08:48:48,0.162s,PASSED
"setText(findTestObject(""Recruits Page/Add New Recruit modal/Club Team Number field""), ""10"")",Chrome 88.0.4324.192,,,2021-03-09 08:48:48,2021-03-09 08:48:48,0.108s,PASSED
"click(findTestObject(""Recruits Page/Add New Recruit modal/SAVE button""))",Chrome 88.0.4324.192,,,2021-03-09 08:48:48,2021-03-09 08:48:48,0.138s,PASSED
"setText(findTestObject(""Recruits Page/Recruit Search Field on Recruits page""), ""josh allen"")",Chrome 88.0.4324.192,,,2021-03-09 08:48:48,2021-03-09 08:48:49,0.191s,PASSED
delay(1),Chrome 88.0.4324.192,,,2021-03-09 08:48:49,2021-03-09 08:48:50,1.002s,PASSED
"click(findTestObject(""Recruits Page/Archive recruit""))",Chrome 88.0.4324.192,,,2021-03-09 08:48:50,2021-03-09 08:48:50,0.087s,PASSED
delay(1),Chrome 88.0.4324.192,,,2021-03-09 08:48:50,2021-03-09 08:48:51,1.007s,PASSED
"click(findTestObject(""Recruits Page/All Recruits List selection""))",Chrome 88.0.4324.192,,,2021-03-09 08:48:51,2021-03-09 08:48:51,0.081s,PASSED
delay(1),Chrome 88.0.4324.192,,,2021-03-09 08:48:51,2021-03-09 08:48:52,1.006s,PASSED
"click(findTestObject(""Recruits Page/Archived List selection""))",Chrome 88.0.4324.192,,,2021-03-09 08:48:52,2021-03-09 08:48:52,0.112s,PASSED
delay(1),Chrome 88.0.4324.192,,,2021-03-09 08:48:52,2021-03-09 08:48:53,1.002s,PASSED
"click(findTestObject(""Recruits Page/Archived list ellipsis button""))",Chrome 88.0.4324.192,,,2021-03-09 08:48:53,2021-03-09 08:48:53,0.087s,PASSED
delay(1),Chrome 88.0.4324.192,,,2021-03-09 08:48:53,2021-03-09 08:48:54,1.003s,PASSED
"click(findTestObject(""Recruits Page/Delete1""))",Chrome 88.0.4324.192,,,2021-03-09 08:48:54,2021-03-09 08:48:54,0.111s,PASSED
delay(1),Chrome 88.0.4324.192,,,2021-03-09 08:48:54,2021-03-09 08:48:55,1.003s,PASSED
"enhancedClick(findTestObject(""Recruits Page/Delete2""))",Chrome 88.0.4324.192,,,2021-03-09 08:48:55,2021-03-09 08:48:55,0.103s,PASSED
delay(2),Chrome 88.0.4324.192,,,2021-03-09 08:48:55,2021-03-09 08:48:57,2.003s,PASSED
closeBrowser(),Chrome 88.0.4324.192,,,2021-03-09 08:48:57,2021-03-09 08:48:57,0.081s,PASSED
,,,,,,,
Test Cases/Tasks,Chrome 88.0.4324.192,,,2021-03-09 08:48:57,2021-03-09 08:49:06,8.665s,PASSED
openBrowser(URL),Chrome 88.0.4324.192,,,2021-03-09 08:48:57,2021-03-09 08:48:59,1.547s,PASSED
"setText(findTestObject(""Login Page/Email""), email)",Chrome 88.0.4324.192,,,2021-03-09 08:48:59,2021-03-09 08:48:59,0.473s,PASSED
"setText(findTestObject(""Login Page/password""), password)",Chrome 88.0.4324.192,,,2021-03-09 08:48:59,2021-03-09 08:48:59,0.103s,PASSED
"click(findTestObject(""Login Page/Sign In""))",Chrome 88.0.4324.192,,,2021-03-09 08:48:59,2021-03-09 08:49:02,2.397s,PASSED
"waitForElementVisible(findTestObject(""Top Navigation Menu/Dashboard""), 60)",Chrome 88.0.4324.192,,,2021-03-09 08:49:02,2021-03-09 08:49:02,0.626s,PASSED
"enhancedClick(findTestObject(""Top Navigation Menu/Recruits""))",Chrome 88.0.4324.192,,,2021-03-09 08:49:02,2021-03-09 08:49:03,0.119s,PASSED
"enhancedClick(findTestObject(""Recruits Page/Tasks tab""))",Chrome 88.0.4324.192,,,2021-03-09 08:49:03,2021-03-09 08:49:03,0.103s,PASSED
"enhancedClick(findTestObject(""Recruits Page/Tasks/Add Task button""))",Chrome 88.0.4324.192,,,2021-03-09 08:49:03,2021-03-09 08:49:03,0.132s,PASSED
"enhancedClick(findTestObject(""Recruits Page/Tasks/Add Task Recruit field""))",Chrome 88.0.4324.192,,,2021-03-09 08:49:03,2021-03-09 08:49:04,1.339s,PASSED
"enhancedClick(findTestObject(""Recruits Page/Tasks/Add Task recruit dropdown1""))",Chrome 88.0.4324.192,,,2021-03-09 08:49:04,2021-03-09 08:49:04,0.082s,PASSED
"enhancedClick(findTestObject(""Recruits Page/Tasks/Add Task Assigned To field""))",Chrome 88.0.4324.192,,,2021-03-09 08:49:04,2021-03-09 08:49:04,0.069s,PASSED
"enhancedClick(findTestObject(""Recruits Page/Tasks/Add Task Assigned To dropdown1""))",Chrome 88.0.4324.192,,,2021-03-09 08:49:04,2021-03-09 08:49:04,0.071s,PASSED
"enhancedClick(findTestObject(""Recruits Page/Tasks/Add Task Instruction field""))",Chrome 88.0.4324.192,,,2021-03-09 08:49:04,2021-03-09 08:49:04,0.075s,PASSED
"setText(findTestObject(""Recruits Page/Tasks/Add Task Instruction field""), ""test task"")",Chrome 88.0.4324.192,,,2021-03-09 08:49:04,2021-03-09 08:49:05,0.131s,PASSED
"enhancedClick(findTestObject(""Recruits Page/Tasks/Save new task""))",Chrome 88.0.4324.192,,,2021-03-09 08:49:05,2021-03-09 08:49:05,0.078s,PASSED
"verifyElementVisible(findTestObject(""Recruits Page/Tasks/Due task1 row""))",Chrome 88.0.4324.192,,,2021-03-09 08:49:05,2021-03-09 08:49:05,0.174s,PASSED
"mouseOver(findTestObject(""Recruits Page/Tasks/Due task1 ellipsis""))",Chrome 88.0.4324.192,,,2021-03-09 08:49:05,2021-03-09 08:49:05,0.205s,PASSED
"enhancedClick(findTestObject(""Recruits Page/Tasks/Due task1 ellipsis""))",Chrome 88.0.4324.192,,,2021-03-09 08:49:05,2021-03-09 08:49:05,0.076s,PASSED
"enhancedClick(findTestObject(""Recruits Page/Tasks/Mark Tasks Completed button""))",Chrome 88.0.4324.192,,,2021-03-09 08:49:05,2021-03-09 08:49:05,0.090s,PASSED
"verifyElementNotPresent(findTestObject(""Recruits Page/Tasks/Due task1 row""), 0)",Chrome 88.0.4324.192,,,2021-03-09 08:49:05,2021-03-09 08:49:06,0.568s,PASSED
closeBrowser(),Chrome 88.0.4324.192,,,2021-03-09 08:49:06,2021-03-09 08:49:06,0.079s,PASSED
,,,,,,,
Test Cases/Features/Link To FastScout,Chrome 88.0.4324.192,,,2021-03-09 08:49:06,2021-03-09 08:49:22,16.257s,PASSED
openBrowser(URL),Chrome 88.0.4324.192,,,2021-03-09 08:49:06,2021-03-09 08:49:07,1.447s,PASSED
"setText(findTestObject(""Login Page/Email""), email)",Chrome 88.0.4324.192,,,2021-03-09 08:49:07,2021-03-09 08:49:08,0.446s,PASSED
"setText(findTestObject(""Login Page/password""), password)",Chrome 88.0.4324.192,,,2021-03-09 08:49:08,2021-03-09 08:49:08,0.102s,PASSED
"click(findTestObject(""Login Page/Sign In""))",Chrome 88.0.4324.192,,,2021-03-09 08:49:08,2021-03-09 08:49:10,2.293s,PASSED
"waitForElementVisible(findTestObject(""Top Navigation Menu/Dashboard""), 60)",Chrome 88.0.4324.192,,,2021-03-09 08:49:10,2021-03-09 08:49:11,0.623s,PASSED
"click(findTestObject(""Top Navigation Menu/Recruits""))",Chrome 88.0.4324.192,,,2021-03-09 08:49:11,2021-03-09 08:49:11,0.117s,PASSED
"click(findTestObject(""Recruits Page/ADD RECRUIT button""))",Chrome 88.0.4324.192,,,2021-03-09 08:49:11,2021-03-09 08:49:11,0.111s,PASSED
"enhancedClick(findTestObject(""Recruits Page/Add New Recruit modal/LinkToFastScout Folder/Link To FastScout button""))",Chrome 88.0.4324.192,,,2021-03-09 08:49:11,2021-03-09 08:49:12,1.251s,PASSED
"enhancedClick(findTestObject(""Recruits Page/Add New Recruit modal/LinkToFastScout Folder/League_Division dropdown""))",Chrome 88.0.4324.192,,,2021-03-09 08:49:12,2021-03-09 08:49:13,0.114s,PASSED
"enhancedClick(findTestObject(""Recruits Page/Add New Recruit modal/LinkToFastScout Folder/D-II League""))",Chrome 88.0.4324.192,,,2021-03-09 08:49:13,2021-03-09 08:49:13,0.084s,PASSED
"enhancedClick(findTestObject(""Recruits Page/Add New Recruit modal/LinkToFastScout Folder/Team dropdown (LFS)""))",Chrome 88.0.4324.192,,,2021-03-09 08:49:13,2021-03-09 08:49:13,0.098s,PASSED
"enhancedClick(findTestObject(""Recruits Page/Add New Recruit modal/LinkToFastScout Folder/Florida Southern (LFS)""))",Chrome 88.0.4324.192,,,2021-03-09 08:49:13,2021-03-09 08:49:13,0.105s,PASSED
"enhancedClick(findTestObject(""Recruits Page/Add New Recruit modal/LinkToFastScout Folder/Player dropdown (LFS)""))",Chrome 88.0.4324.192,,,2021-03-09 08:49:13,2021-03-09 08:49:13,0.099s,PASSED
"enhancedClick(findTestObject(""Recruits Page/Add New Recruit modal/LinkToFastScout Folder/Player10 (LFS)""))",Chrome 88.0.4324.192,,,2021-03-09 08:49:13,2021-03-09 08:49:13,0.090s,PASSED
"click(findTestObject(""Recruits Page/Add New Recruit modal/SAVE button""))",Chrome 88.0.4324.192,,,2021-03-09 08:49:13,2021-03-09 08:49:13,0.171s,PASSED
"setText(findTestObject(""Recruits Page/Recruit Search Field on Recruits page""), ""Wes Bongiorni"")",Chrome 88.0.4324.192,,,2021-03-09 08:49:13,2021-03-09 08:49:13,0.174s,PASSED
delay(1),Chrome 88.0.4324.192,,,2021-03-09 08:49:13,2021-03-09 08:49:14,1.006s,PASSED
"enhancedClick(findTestObject(""Recruits Page/Archive recruit""))",Chrome 88.0.4324.192,,,2021-03-09 08:49:14,2021-03-09 08:49:14,0.084s,PASSED
delay(1),Chrome 88.0.4324.192,,,2021-03-09 08:49:14,2021-03-09 08:49:15,1.006s,PASSED
"click(findTestObject(""Recruits Page/All Recruits List selection""))",Chrome 88.0.4324.192,,,2021-03-09 08:49:15,2021-03-09 08:49:16,0.081s,PASSED
delay(1),Chrome 88.0.4324.192,,,2021-03-09 08:49:16,2021-03-09 08:49:17,1.006s,PASSED
"click(findTestObject(""Recruits Page/Archived List selection""))",Chrome 88.0.4324.192,,,2021-03-09 08:49:17,2021-03-09 08:49:17,0.119s,PASSED
delay(1),Chrome 88.0.4324.192,,,2021-03-09 08:49:17,2021-03-09 08:49:18,1.006s,PASSED
"click(findTestObject(""Recruits Page/Archived list ellipsis button""))",Chrome 88.0.4324.192,,,2021-03-09 08:49:18,2021-03-09 08:49:18,0.146s,PASSED
delay(1),Chrome 88.0.4324.192,,,2021-03-09 08:49:18,2021-03-09 08:49:19,1.006s,PASSED
"click(findTestObject(""Recruits Page/Delete1""))",Chrome 88.0.4324.192,,,2021-03-09 08:49:19,2021-03-09 08:49:19,0.110s,PASSED
delay(1),Chrome 88.0.4324.192,,,2021-03-09 08:49:19,2021-03-09 08:49:20,1.005s,PASSED
"enhancedClick(findTestObject(""Recruits Page/Delete2""))",Chrome 88.0.4324.192,,,2021-03-09 08:49:20,2021-03-09 08:49:20,0.109s,PASSED
delay(2),Chrome 88.0.4324.192,,,2021-03-09 08:49:20,2021-03-09 08:49:22,2.002s,PASSED
closeBrowser(),Chrome 88.0.4324.192,,,2021-03-09 08:49:22,2021-03-09 08:49:22,0.085s,PASSED
,,,,,,,
Test Cases/Features/Video,Chrome 88.0.4324.192,,,2021-03-09 08:49:22,2021-03-09 08:49:34,11.568s,PASSED
openBrowser(URL),Chrome 88.0.4324.192,,,2021-03-09 08:49:22,2021-03-09 08:49:24,1.567s,PASSED
"setText(findTestObject(""Login Page/Email""), email)",Chrome 88.0.4324.192,,,2021-03-09 08:49:24,2021-03-09 08:49:24,0.462s,PASSED
"setText(findTestObject(""Login Page/password""), password)",Chrome 88.0.4324.192,,,2021-03-09 08:49:24,2021-03-09 08:49:24,0.101s,PASSED
"click(findTestObject(""Login Page/Sign In""))",Chrome 88.0.4324.192,,,2021-03-09 08:49:24,2021-03-09 08:49:27,2.388s,PASSED
"waitForElementVisible(findTestObject(""Top Navigation Menu/Dashboard""), 60)",Chrome 88.0.4324.192,,,2021-03-09 08:49:27,2021-03-09 08:49:27,0.624s,PASSED
"enhancedClick(findTestObject(""Top Navigation Menu/Recruits""))",Chrome 88.0.4324.192,,,2021-03-09 08:49:27,2021-03-09 08:49:28,0.128s,PASSED
"enhancedClick(findTestObject(""Recruits Page/Recruit Row1 Name""))",Chrome 88.0.4324.192,,,2021-03-09 08:49:28,2021-03-09 08:49:29,1.339s,PASSED
"enhancedClick(findTestObject(""Recruits Page/Recruit Profile (View)/VIDEOS tab""))",Chrome 88.0.4324.192,,,2021-03-09 08:49:29,2021-03-09 08:49:29,0.108s,PASSED
"uploadFile(findTestObject(""Recruit Profile (view)/Video Upload object""), ""/Users/jefffeldman/Desktop/Vids/NBA Playoffs 2019.mp4"")",Chrome 88.0.4324.192,,,2021-03-09 08:49:29,2021-03-09 08:49:29,0.112s,PASSED
"verifyElementPresent(findTestObject(""Recruit Profile (view)/Recruit Video row1""), 0)",Chrome 88.0.4324.192,,,2021-03-09 08:49:29,2021-03-09 08:49:30,0.485s,PASSED
delay(2),Chrome 88.0.4324.192,,,2021-03-09 08:49:30,2021-03-09 08:49:32,2.006s,PASSED
"mouseOver(findTestObject(""Recruit Profile (view)/Recruit Video row1""))",Chrome 88.0.4324.192,,,2021-03-09 08:49:32,2021-03-09 08:49:33,1.074s,PASSED
"enhancedClick(findTestObject(""Recruit Profile (view)/Delete Video Row1""))",Chrome 88.0.4324.192,,,2021-03-09 08:49:33,2021-03-09 08:49:33,0.109s,PASSED
"enhancedClick(findTestObject(""Recruit Profile (view)/Confirm Delete Video""))",Chrome 88.0.4324.192,,,2021-03-09 08:49:33,2021-03-09 08:49:33,0.134s,PASSED
"verifyElementNotPresent(findTestObject(""Recruit Profile (view)/Recruit Video row1""), 0)",Chrome 88.0.4324.192,,,2021-03-09 08:49:33,2021-03-09 08:49:33,0.567s,PASSED
"enhancedClick(findTestObject(""Recruit Profile (view)/CLOSE button""))",Chrome 88.0.4324.192,,,2021-03-09 08:49:33,2021-03-09 08:49:34,0.147s,PASSED
closeBrowser(),Chrome 88.0.4324.192,,,2021-03-09 08:49:34,2021-03-09 08:49:34,0.085s,PASSED
,,,,,,,
Test Cases/Features/FastConnect,Chrome 88.0.4324.192,,,2021-03-09 08:49:34,2021-03-09 08:50:04,30.233s,PASSED
openBrowser(URL),Chrome 88.0.4324.192,,,2021-03-09 08:49:34,2021-03-09 08:49:35,1.441s,PASSED
"setText(findTestObject(""Login Page/Email""), email)",Chrome 88.0.4324.192,,,2021-03-09 08:49:35,2021-03-09 08:49:36,0.451s,PASSED
"setText(findTestObject(""Login Page/password""), password)",Chrome 88.0.4324.192,,,2021-03-09 08:49:36,2021-03-09 08:49:36,0.104s,PASSED
"click(findTestObject(""Login Page/Sign In""))",Chrome 88.0.4324.192,,,2021-03-09 08:49:36,2021-03-09 08:49:38,2.364s,PASSED
"waitForElementVisible(findTestObject(""Top Navigation Menu/Dashboard""), 60)",Chrome 88.0.4324.192,,,2021-03-09 08:49:38,2021-03-09 08:49:39,0.605s,PASSED
"enhancedClick(findTestObject(""Top Navigation Menu/Recruits""))",Chrome 88.0.4324.192,,,2021-03-09 08:49:39,2021-03-09 08:49:39,0.116s,PASSED
"enhancedClick(findTestObject(""Recruits Page/FastConnect tab""))",Chrome 88.0.4324.192,,,2021-03-09 08:49:39,2021-03-09 08:49:39,0.116s,PASSED
"enhancedClick(findTestObject(""Recruits Page/FastConnect/List dropdown""))",Chrome 88.0.4324.192,,,2021-03-09 08:49:39,2021-03-09 08:49:39,0.082s,PASSED
"enhancedClick(findTestObject(""Recruits Page/FastConnect/All Recruits list dropdown""))",Chrome 88.0.4324.192,,,2021-03-09 08:49:39,2021-03-09 08:49:40,0.608s,PASSED
delay(10),Chrome 88.0.4324.192,,,2021-03-09 08:49:40,2021-03-09 08:49:50,10.005s,PASSED
"verifyElementVisible(findTestObject(""Recruits Page/FastConnect/Fastconnect post1""), STOP_ON_FAILURE)",Chrome 88.0.4324.192,,,2021-03-09 08:49:50,2021-03-09 08:50:04,14.198s,PASSED
,,,,,,,
Test Cases/Tourney Workflow,Chrome 88.0.4324.192,,,2021-03-09 08:50:04,2021-03-09 08:50:23,19.404s,PASSED
openBrowser(URL),Chrome 88.0.4324.192,,,2021-03-09 08:50:04,2021-03-09 08:50:06,2.026s,PASSED
"setText(findTestObject(""Login Page/Email""), email)",Chrome 88.0.4324.192,,,2021-03-09 08:50:06,2021-03-09 08:50:07,0.480s,PASSED
"setText(findTestObject(""Login Page/password""), password)",Chrome 88.0.4324.192,,,2021-03-09 08:50:07,2021-03-09 08:50:07,0.103s,PASSED
"click(findTestObject(""Login Page/Sign In""))",Chrome 88.0.4324.192,,,2021-03-09 08:50:07,2021-03-09 08:50:09,2.339s,PASSED
"waitForElementVisible(findTestObject(""Top Navigation Menu/Dashboard""), 60)",Chrome 88.0.4324.192,,,2021-03-09 08:50:09,2021-03-09 08:50:10,0.667s,PASSED
"enhancedClick(findTestObject(""Top Navigation Menu/Tourneys""))",Chrome 88.0.4324.192,,,2021-03-09 08:50:10,2021-03-09 08:50:10,0.101s,PASSED
"enhancedClick(findTestObject(""Tourneys page/Tourney list dropdown""))",Chrome 88.0.4324.192,,,2021-03-09 08:50:10,2021-03-09 08:50:11,1.293s,PASSED
enhancedClick(tourneySession),Chrome 88.0.4324.192,,,2021-03-09 08:50:11,2021-03-09 08:50:11,0.084s,PASSED
"enhancedClick(findTestObject(""Tourneys page/Tourneys header""))",Chrome 88.0.4324.192,,,2021-03-09 08:50:11,2021-03-09 08:50:11,0.112s,PASSED
"enhancedClick(findTestObject(""Tourneys page/Tourney1 listed""))",Chrome 88.0.4324.192,,,2021-03-09 08:50:11,2021-03-09 08:50:11,0.116s,PASSED
"enhancedClick(findTestObject(""Tourneys page/Assign Staff button""))",Chrome 88.0.4324.192,,,2021-03-09 08:50:11,2021-03-09 08:50:12,0.295s,PASSED
"enhancedClick(findTestObject(""Tourneys page/Assign Staff User1 checkbox""))",Chrome 88.0.4324.192,,,2021-03-09 08:50:12,2021-03-09 08:50:12,0.115s,PASSED
"enhancedClick(findTestObject(""Tourneys page/Assign Staff SAVE button""))",Chrome 88.0.4324.192,,,2021-03-09 08:50:12,2021-03-09 08:50:12,0.079s,PASSED
delay(1),Chrome 88.0.4324.192,,,2021-03-09 08:50:12,2021-03-09 08:50:13,1.005s,PASSED
"enhancedClick(findTestObject(""Tourneys page/Assign Recruits button""))",Chrome 88.0.4324.192,,,2021-03-09 08:50:13,2021-03-09 08:50:13,0.091s,PASSED
"enhancedClick(findTestObject(""Tourneys page/Select Recruits dropdown""))",Chrome 88.0.4324.192,,,2021-03-09 08:50:13,2021-03-09 08:50:14,0.528s,PASSED
"enhancedClick(findTestObject(""Tourneys page/Assign Recruits dropdown list1""))",Chrome 88.0.4324.192,,,2021-03-09 08:50:14,2021-03-09 08:50:14,0.083s,PASSED
"enhancedClick(findTestObject(""Tourneys page/Assign Recruits SAVE button""))",Chrome 88.0.4324.192,,,2021-03-09 08:50:14,2021-03-09 08:50:14,0.076s,PASSED
"enhancedClick(findTestObject(""Tourneys page/Select Tourney Team dropdown""))",Chrome 88.0.4324.192,,,2021-03-09 08:50:14,2021-03-09 08:50:14,0.288s,PASSED
"enhancedClick(findTestObject(""Tourneys page/Select Tourney Team dropdown1""))",Chrome 88.0.4324.192,,,2021-03-09 08:50:14,2021-03-09 08:50:14,0.079s,PASSED
delay(2),Chrome 88.0.4324.192,,,2021-03-09 08:50:14,2021-03-09 08:50:16,2.005s,PASSED
"enhancedClick(findTestObject(""Tourneys page/Tourney GAMES tab""))",Chrome 88.0.4324.192,,,2021-03-09 08:50:16,2021-03-09 08:50:16,0.098s,PASSED
delay(3),Chrome 88.0.4324.192,,,2021-03-09 08:50:16,2021-03-09 08:50:19,3.007s,PASSED
"verifyElementPresent(findTestObject(""Tourneys page/GAMES tab row1""), 0)",Chrome 88.0.4324.192,,,2021-03-09 08:50:19,2021-03-09 08:50:19,0.049s,PASSED
"gameDate = getText(findTestObject(""Tourneys page/GAMES tab row1 Date""))",Chrome 88.0.4324.192,,,2021-03-09 08:50:19,2021-03-09 08:50:19,0.057s,PASSED
"enhancedClick(findTestObject(""Top Navigation Menu/Schedule""))",Chrome 88.0.4324.192,,,2021-03-09 08:50:19,2021-03-09 08:50:19,0.134s,PASSED
"enhancedClick(findTestObject(""Schedule Page/Calendar from date filter""))",Chrome 88.0.4324.192,,,2021-03-09 08:50:19,2021-03-09 08:50:20,0.107s,PASSED
"sendKeys(findTestObject(""Schedule Page/Calendar from date filter""), Keys.chord(BACK_SPACE))",Chrome 88.0.4324.192,,,2021-03-09 08:50:20,2021-03-09 08:50:20,0.084s,PASSED
"sendKeys(findTestObject(""Schedule Page/Calendar from date filter""), Keys.chord(BACK_SPACE))",Chrome 88.0.4324.192,,,2021-03-09 08:50:20,2021-03-09 08:50:20,0.066s,PASSED
"sendKeys(findTestObject(""Schedule Page/Calendar from date filter""), Keys.chord(BACK_SPACE))",Chrome 88.0.4324.192,,,2021-03-09 08:50:20,2021-03-09 08:50:20,0.065s,PASSED
"sendKeys(findTestObject(""Schedule Page/Calendar from date filter""), Keys.chord(BACK_SPACE))",Chrome 88.0.4324.192,,,2021-03-09 08:50:20,2021-03-09 08:50:20,0.064s,PASSED
"sendKeys(findTestObject(""Schedule Page/Calendar from date filter""), Keys.chord(BACK_SPACE))",Chrome 88.0.4324.192,,,2021-03-09 08:50:20,2021-03-09 08:50:20,0.061s,PASSED
"sendKeys(findTestObject(""Schedule Page/Calendar from date filter""), Keys.chord(BACK_SPACE))",Chrome 88.0.4324.192,,,2021-03-09 08:50:20,2021-03-09 08:50:20,0.063s,PASSED
"sendKeys(findTestObject(""Schedule Page/Calendar from date filter""), Keys.chord(BACK_SPACE))",Chrome 88.0.4324.192,,,2021-03-09 08:50:20,2021-03-09 08:50:20,0.063s,PASSED
"sendKeys(findTestObject(""Schedule Page/Calendar from date filter""), Keys.chord(BACK_SPACE))",Chrome 88.0.4324.192,,,2021-03-09 08:50:20,2021-03-09 08:50:20,0.065s,PASSED
"sendKeys(findTestObject(""Schedule Page/Calendar from date filter""), Keys.chord(BACK_SPACE))",Chrome 88.0.4324.192,,,2021-03-09 08:50:20,2021-03-09 08:50:20,0.092s,PASSED
"setText(findTestObject(""Schedule Page/Calendar from date filter""), gameDate)",Chrome 88.0.4324.192,,,2021-03-09 08:50:20,2021-03-09 08:50:20,0.177s,PASSED
"sendKeys(findTestObject(""Schedule Page/Calendar from date filter""), Keys.chord(ENTER))",Chrome 88.0.4324.192,,,2021-03-09 08:50:20,2021-03-09 08:50:20,0.086s,PASSED
"verifyElementPresent(findTestObject(""Schedule Page/Row1 on Schedule List""), 0)",Chrome 88.0.4324.192,,,2021-03-09 08:50:20,2021-03-09 08:50:20,0.042s,PASSED
"enhancedClick(findTestObject(""Top Navigation Menu/Tourneys""))",Chrome 88.0.4324.192,,,2021-03-09 08:50:20,2021-03-09 08:50:21,0.104s,PASSED
"enhancedClick(findTestObject(""Tourneys page/Tourney list dropdown""))",Chrome 88.0.4324.192,,,2021-03-09 08:50:21,2021-03-09 08:50:21,0.657s,PASSED
enhancedClick(tourneySession),Chrome 88.0.4324.192,,,2021-03-09 08:50:21,2021-03-09 08:50:21,0.080s,PASSED
"enhancedClick(findTestObject(""Tourneys page/Tourneys header""))",Chrome 88.0.4324.192,,,2021-03-09 08:50:21,2021-03-09 08:50:21,0.114s,PASSED
"enhancedClick(findTestObject(""Tourneys page/Tourney1 listed""))",Chrome 88.0.4324.192,,,2021-03-09 08:50:21,2021-03-09 08:50:22,0.112s,PASSED
"enhancedClick(findTestObject(""Tourneys page/Edit Assign Staff Pencil""))",Chrome 88.0.4324.192,,,2021-03-09 08:50:22,2021-03-09 08:50:22,0.211s,PASSED
"enhancedClick(findTestObject(""Tourneys page/Assign Staff User1 checkbox""))",Chrome 88.0.4324.192,,,2021-03-09 08:50:22,2021-03-09 08:50:22,0.182s,PASSED
"enhancedClick(findTestObject(""Tourneys page/Assign Staff SAVE button""))",Chrome 88.0.4324.192,,,2021-03-09 08:50:22,2021-03-09 08:50:22,0.139s,PASSED
delay(1),Chrome 88.0.4324.192,,,2021-03-09 08:50:22,2021-03-09 08:50:23,1.007s,PASSED
"enhancedClick(findTestObject(""Tourneys page/Delete Attending Recruit1""))",Chrome 88.0.4324.192,,,2021-03-09 08:50:23,2021-03-09 08:50:23,0.087s,PASSED
"enhancedClick(findTestObject(""Tourneys page/Confirm Delete Attending Recruit1""))",Chrome 88.0.4324.192,,,2021-03-09 08:50:23,2021-03-09 08:50:23,0.122s,PASSED
closeBrowser(),Chrome 88.0.4324.192,,,2021-03-09 08:50:23,2021-03-09 08:50:23,0.081s,PASSED
,,,,,,,
Test Cases/Features/Prospects View,Chrome 88.0.4324.192,,,2021-03-09 08:50:23,2021-03-09 08:50:49,25.502s,PASSED
openBrowser(URL),Chrome 88.0.4324.192,,,2021-03-09 08:50:24,2021-03-09 08:50:25,1.804s,PASSED
"setText(findTestObject(""Login Page/Email""), email2)",Chrome 88.0.4324.192,,,2021-03-09 08:50:25,2021-03-09 08:50:26,0.494s,PASSED
"setText(findTestObject(""Login Page/password""), password)",Chrome 88.0.4324.192,,,2021-03-09 08:50:26,2021-03-09 08:50:26,0.117s,PASSED
"click(findTestObject(""Login Page/Sign In""))",Chrome 88.0.4324.192,,,2021-03-09 08:50:26,2021-03-09 08:50:28,2.480s,PASSED
"waitForElementVisible(findTestObject(""Top Navigation Menu/Dashboard""), 60)",Chrome 88.0.4324.192,,,2021-03-09 08:50:28,2021-03-09 08:50:29,0.609s,PASSED
"enhancedClick(findTestObject(""Prospects View/Add Prospect button""))",Chrome 88.0.4324.192,,,2021-03-09 08:50:29,2021-03-09 08:50:29,0.122s,PASSED
"enhancedClick(findTestObject(""Prospects View/Link Player Stats button""))",Chrome 88.0.4324.192,,,2021-03-09 08:50:29,2021-03-09 08:50:30,1.292s,PASSED
"enhancedClick(findTestObject(""Recruits Page/Add New Recruit modal/LinkToFastScout Folder/League_Division dropdown""))",Chrome 88.0.4324.192,,,2021-03-09 08:50:30,2021-03-09 08:50:31,0.114s,PASSED
"enhancedClick(findTestObject(""Recruits Page/Add New Recruit modal/LinkToFastScout Folder/D-II League""))",Chrome 88.0.4324.192,,,2021-03-09 08:50:31,2021-03-09 08:50:31,0.094s,PASSED
"enhancedClick(findTestObject(""Prospects View/Link Player Stats Team dropdown (Prospects)""))",Chrome 88.0.4324.192,,,2021-03-09 08:50:31,2021-03-09 08:50:31,0.103s,PASSED
"enhancedClick(findTestObject(""Recruits Page/Add New Recruit modal/LinkToFastScout Folder/Florida Southern (LFS)""))",Chrome 88.0.4324.192,,,2021-03-09 08:50:31,2021-03-09 08:50:31,0.094s,PASSED
"enhancedClick(findTestObject(""Prospects View/Link Player Stats Player dropdown (Prospects)""))",Chrome 88.0.4324.192,,,2021-03-09 08:50:31,2021-03-09 08:50:31,0.088s,PASSED
"enhancedClick(findTestObject(""Recruits Page/Add New Recruit modal/LinkToFastScout Folder/Player10 (LFS)""))",Chrome 88.0.4324.192,,,2021-03-09 08:50:31,2021-03-09 08:50:31,0.145s,PASSED
"click(findTestObject(""Recruits Page/Add New Recruit modal/SAVE button""))",Chrome 88.0.4324.192,,,2021-03-09 08:50:31,2021-03-09 08:50:31,0.126s,PASSED
"enhancedClick(findTestObject(""Prospects View/Select Existing Prospect""))",Chrome 88.0.4324.192,,,2021-03-09 08:50:31,2021-03-09 08:50:32,0.373s,PASSED
"enhancedClick(findTestObject(""Prospects View/FastScout Team Link (Prospect Profile)""))",Chrome 88.0.4324.192,,,2021-03-09 08:50:32,2021-03-09 08:50:32,0.110s,PASSED
switchToWindowIndex(1),Chrome 88.0.4324.192,,,2021-03-09 08:50:32,2021-03-09 08:50:32,0.295s,PASSED
delay(7),Chrome 88.0.4324.192,,,2021-03-09 08:50:32,2021-03-09 08:50:39,7.007s,PASSED
scoutURL = getUrl(),Chrome 88.0.4324.192,,,2021-03-09 08:50:39,2021-03-09 08:50:39,0.021s,PASSED
"assert scoutURL.contains(""league=NCAAB-II"")",Chrome 88.0.4324.192,,,2021-03-09 08:50:39,2021-03-09 08:50:39,0.001s,PASSED
switchToWindowIndex(0),Chrome 88.0.4324.192,,,2021-03-09 08:50:39,2021-03-09 08:50:39,0.009s,PASSED
delay(1),Chrome 88.0.4324.192,,,2021-03-09 08:50:39,2021-03-09 08:50:40,1.006s,PASSED
"enhancedClick(findTestObject(""Recruit Profile (view)/CLOSE button - Copy2""))",Chrome 88.0.4324.192,,,2021-03-09 08:50:40,2021-03-09 08:50:40,0.120s,PASSED
delay(1),Chrome 88.0.4324.192,,,2021-03-09 08:50:40,2021-03-09 08:50:41,1.004s,PASSED
"click(findTestObject(""Prospects View/Archive Prospect button""))",Chrome 88.0.4324.192,,,2021-03-09 08:50:41,2021-03-09 08:50:41,0.071s,PASSED
delay(1),Chrome 88.0.4324.192,,,2021-03-09 08:50:41,2021-03-09 08:50:42,1.021s,PASSED
"click(findTestObject(""Prospects View/All Prospects List selection""))",Chrome 88.0.4324.192,,,2021-03-09 08:50:42,2021-03-09 08:50:42,0.082s,PASSED
delay(1),Chrome 88.0.4324.192,,,2021-03-09 08:50:42,2021-03-09 08:50:43,1.006s,PASSED
"click(findTestObject(""Recruits Page/Archived List selection""))",Chrome 88.0.4324.192,,,2021-03-09 08:50:43,2021-03-09 08:50:43,0.116s,PASSED
delay(1),Chrome 88.0.4324.192,,,2021-03-09 08:50:43,2021-03-09 08:50:44,1.006s,PASSED
"enhancedClick(findTestObject(""Prospects View/Archived List ellipsis (Prospects)""))",Chrome 88.0.4324.192,,,2021-03-09 08:50:44,2021-03-09 08:50:45,0.087s,PASSED
delay(1),Chrome 88.0.4324.192,,,2021-03-09 08:50:45,2021-03-09 08:50:46,1.005s,PASSED
"enhancedClick(findTestObject(""Prospects View/Delete1 (Prospects)""))",Chrome 88.0.4324.192,,,2021-03-09 08:50:46,2021-03-09 08:50:46,0.095s,PASSED
delay(1),Chrome 88.0.4324.192,,,2021-03-09 08:50:46,2021-03-09 08:50:47,1.006s,PASSED
"enhancedClick(findTestObject(""Prospects View/Delete2 (Prospects)""))",Chrome 88.0.4324.192,,,2021-03-09 08:50:47,2021-03-09 08:50:47,0.086s,PASSED
delay(2),Chrome 88.0.4324.192,,,2021-03-09 08:50:47,2021-03-09 08:50:49,2.008s,PASSED
closeBrowser(),Chrome 88.0.4324.192,,,2021-03-09 08:50:49,2021-03-09 08:50:49,0.117s,PASSED
,,,,,,,
Test Cases/Features/Prospects View,Chrome 88.0.4324.192,,,2021-03-09 08:50:49,2021-03-09 08:51:14,24.693s,PASSED
openBrowser(URL),Chrome 88.0.4324.192,,,2021-03-09 08:50:49,2021-03-09 08:50:51,1.942s,PASSED
"setText(findTestObject(""Login Page/Email""), email2)",Chrome 88.0.4324.192,,,2021-03-09 08:50:51,2021-03-09 08:50:51,0.440s,PASSED
"setText(findTestObject(""Login Page/password""), password)",Chrome 88.0.4324.192,,,2021-03-09 08:50:51,2021-03-09 08:50:51,0.096s,PASSED
"click(findTestObject(""Login Page/Sign In""))",Chrome 88.0.4324.192,,,2021-03-09 08:50:51,2021-03-09 08:50:54,2.391s,PASSED
"waitForElementVisible(findTestObject(""Top Navigation Menu/Dashboard""), 60)",Chrome 88.0.4324.192,,,2021-03-09 08:50:54,2021-03-09 08:50:54,0.626s,PASSED
"enhancedClick(findTestObject(""Prospects View/Add Prospect button""))",Chrome 88.0.4324.192,,,2021-03-09 08:50:54,2021-03-09 08:50:54,0.096s,PASSED
"enhancedClick(findTestObject(""Prospects View/Link Player Stats button""))",Chrome 88.0.4324.192,,,2021-03-09 08:50:54,2021-03-09 08:50:55,0.845s,PASSED
"enhancedClick(findTestObject(""Recruits Page/Add New Recruit modal/LinkToFastScout Folder/League_Division dropdown""))",Chrome 88.0.4324.192,,,2021-03-09 08:50:55,2021-03-09 08:50:55,0.100s,PASSED
"enhancedClick(findTestObject(""Recruits Page/Add New Recruit modal/LinkToFastScout Folder/D-II League""))",Chrome 88.0.4324.192,,,2021-03-09 08:50:55,2021-03-09 08:50:55,0.094s,PASSED
"enhancedClick(findTestObject(""Prospects View/Link Player Stats Team dropdown (Prospects)""))",Chrome 88.0.4324.192,,,2021-03-09 08:50:55,2021-03-09 08:50:56,0.148s,PASSED
"enhancedClick(findTestObject(""Recruits Page/Add New Recruit modal/LinkToFastScout Folder/Florida Southern (LFS)""))",Chrome 88.0.4324.192,,,2021-03-09 08:50:56,2021-03-09 08:50:56,0.104s,PASSED
"enhancedClick(findTestObject(""Prospects View/Link Player Stats Player dropdown (Prospects)""))",Chrome 88.0.4324.192,,,2021-03-09 08:50:56,2021-03-09 08:50:56,0.079s,PASSED
"enhancedClick(findTestObject(""Recruits Page/Add New Recruit modal/LinkToFastScout Folder/Player10 (LFS)""))",Chrome 88.0.4324.192,,,2021-03-09 08:50:56,2021-03-09 08:50:56,0.172s,PASSED
"click(findTestObject(""Recruits Page/Add New Recruit modal/SAVE button""))",Chrome 88.0.4324.192,,,2021-03-09 08:50:56,2021-03-09 08:50:56,0.119s,PASSED
"enhancedClick(findTestObject(""Prospects View/Select Existing Prospect""))",Chrome 88.0.4324.192,,,2021-03-09 08:50:56,2021-03-09 08:50:56,0.367s,PASSED
"enhancedClick(findTestObject(""Prospects View/FastScout Team Link (Prospect Profile)""))",Chrome 88.0.4324.192,,,2021-03-09 08:50:56,2021-03-09 08:50:57,0.095s,PASSED
switchToWindowIndex(1),Chrome 88.0.4324.192,,,2021-03-09 08:50:57,2021-03-09 08:50:57,0.138s,PASSED
delay(7),Chrome 88.0.4324.192,,,2021-03-09 08:50:57,2021-03-09 08:51:04,7.007s,PASSED
scoutURL = getUrl(),Chrome 88.0.4324.192,,,2021-03-09 08:51:04,2021-03-09 08:51:04,0.016s,PASSED
"assert scoutURL.contains(""league=NCAAB-II"")",Chrome 88.0.4324.192,,,2021-03-09 08:51:04,2021-03-09 08:51:04,0.000s,PASSED
switchToWindowIndex(0),Chrome 88.0.4324.192,,,2021-03-09 08:51:04,2021-03-09 08:51:04,0.010s,PASSED
delay(1),Chrome 88.0.4324.192,,,2021-03-09 08:51:04,2021-03-09 08:51:05,1.001s,PASSED
"enhancedClick(findTestObject(""Recruit Profile (view)/CLOSE button - Copy2""))",Chrome 88.0.4324.192,,,2021-03-09 08:51:05,2021-03-09 08:51:05,0.120s,PASSED
delay(1),Chrome 88.0.4324.192,,,2021-03-09 08:51:05,2021-03-09 08:51:06,1.005s,PASSED
"click(findTestObject(""Prospects View/Archive Prospect button""))",Chrome 88.0.4324.192,,,2021-03-09 08:51:06,2021-03-09 08:51:06,0.069s,PASSED
delay(1),Chrome 88.0.4324.192,,,2021-03-09 08:51:06,2021-03-09 08:51:07,1.006s,PASSED
"click(findTestObject(""Prospects View/All Prospects List selection""))",Chrome 88.0.4324.192,,,2021-03-09 08:51:07,2021-03-09 08:51:07,0.079s,PASSED
delay(1),Chrome 88.0.4324.192,,,2021-03-09 08:51:07,2021-03-09 08:51:08,1.006s,PASSED
"click(findTestObject(""Recruits Page/Archived List selection""))",Chrome 88.0.4324.192,,,2021-03-09 08:51:08,2021-03-09 08:51:08,0.108s,PASSED
delay(1),Chrome 88.0.4324.192,,,2021-03-09 08:51:08,2021-03-09 08:51:09,1.003s,PASSED
"enhancedClick(findTestObject(""Prospects View/Archived List ellipsis (Prospects)""))",Chrome 88.0.4324.192,,,2021-03-09 08:51:09,2021-03-09 08:51:09,0.080s,PASSED
delay(1),Chrome 88.0.4324.192,,,2021-03-09 08:51:09,2021-03-09 08:51:10,1.004s,PASSED
"enhancedClick(findTestObject(""Prospects View/Delete1 (Prospects)""))",Chrome 88.0.4324.192,,,2021-03-09 08:51:10,2021-03-09 08:51:10,0.085s,PASSED
delay(1),Chrome 88.0.4324.192,,,2021-03-09 08:51:10,2021-03-09 08:51:11,1.006s,PASSED
"enhancedClick(findTestObject(""Prospects View/Delete2 (Prospects)""))",Chrome 88.0.4324.192,,,2021-03-09 08:51:11,2021-03-09 08:51:11,0.107s,PASSED
delay(2),Chrome 88.0.4324.192,,,2021-03-09 08:51:11,2021-03-09 08:51:13,2.006s,PASSED
closeBrowser(),Chrome 88.0.4324.192,,,2021-03-09 08:51:13,2021-03-09 08:51:14,0.114s,PASSED
