Suite/Test/Step Name,Browser,Description,Tag,Start time,End time,Duration,Status
Regression Tests,Chrome 90.0.4430.93,,,2021-05-03 11:26:56,2021-05-03 11:32:15,5m - 19.228s,FAILED
,,,,,,,
Test Cases/Draft Board,Chrome 90.0.4430.93,,,2021-05-03 11:26:56,2021-05-03 11:29:08,2m - 11.459s,FAILED
openBrowser(URL),Chrome 90.0.4430.93,,,2021-05-03 11:26:56,2021-05-03 11:27:00,3.370s,PASSED
"setViewPortSize(1440, 841)",Chrome 90.0.4430.93,,,2021-05-03 11:27:00,2021-05-03 11:27:00,0.632s,PASSED
"setText(findTestObject(""Login Page/Email""), email)",Chrome 90.0.4430.93,,,2021-05-03 11:27:00,2021-05-03 11:27:01,0.210s,PASSED
"setText(findTestObject(""Login Page/password""), password)",Chrome 90.0.4430.93,,,2021-05-03 11:27:01,2021-05-03 11:27:01,0.117s,PASSED
"click(findTestObject(""Login Page/Sign In""))",Chrome 90.0.4430.93,,,2021-05-03 11:27:01,2021-05-03 11:27:04,2.818s,PASSED
"waitForElementVisible(findTestObject(""Top Navigation Menu/Dashboard""), 60)",Chrome 90.0.4430.93,,,2021-05-03 11:27:04,2021-05-03 11:27:04,0.606s,PASSED
"enhancedClick(findTestObject(""Top Navigation Menu/Dashboard""))",Chrome 90.0.4430.93,,,2021-05-03 11:27:04,2021-05-03 11:27:04,0.099s,PASSED
delay(3),Chrome 90.0.4430.93,,,2021-05-03 11:27:04,2021-05-03 11:27:07,3.093s,PASSED
"mouseOver(findTestObject(""Dashboard Page/Draft Board (Dashboard)/blank 1-PG on Draft Board (Dashboard)""))",Chrome 90.0.4430.93,,,2021-05-03 11:27:07,2021-05-03 11:27:08,0.242s,PASSED
"enhancedClick(findTestObject(""Dashboard Page/Draft Board (Dashboard)/blank 1-PG on Draft Board (Dashboard)""))",Chrome 90.0.4430.93,,,2021-05-03 11:27:08,2021-05-03 11:27:08,0.087s,PASSED
"enhancedClick(findTestObject(""Dashboard Page/Draft Board (Dashboard)/Draft Board Dropdown Player1""))",Chrome 90.0.4430.93,,,2021-05-03 11:27:08,2021-05-03 11:27:08,0.183s,PASSED
"mouseOver(findTestObject(""Dashboard Page/Draft Board (Dashboard)/1-PG on Draft Board""))",Chrome 90.0.4430.93,,,2021-05-03 11:27:08,2021-05-03 11:27:08,0.594s,PASSED
"enhancedClick(findTestObject(""Dashboard Page/Draft Board (Dashboard)/1-PG on Draft Board""))",Chrome 90.0.4430.93,,,2021-05-03 11:27:08,2021-05-03 11:27:09,0.119s,PASSED
delay(1),Chrome 90.0.4430.93,,,2021-05-03 11:27:09,2021-05-03 11:27:10,1.003s,PASSED
"enhancedClick(findTestObject(""Recruit Profile (view)/Alerts button""))",Chrome 90.0.4430.93,,,2021-05-03 11:27:10,2021-05-03 11:27:10,0.085s,PASSED
"enhancedClick(findTestObject(""Recruit Profile (view)/CLOSE button""))",Chrome 90.0.4430.93,,,2021-05-03 11:27:10,2021-05-03 11:27:10,0.096s,PASSED
"verifyElementVisible(findTestObject(""Dashboard Page/Draft Board (Dashboard)/Alerts bell indicator""))",Chrome 90.0.4430.93,,,2021-05-03 11:27:10,2021-05-03 11:27:10,0.320s,PASSED
"mouseOver(findTestObject(""Dashboard Page/Draft Board (Dashboard)/1-PG on Draft Board""))",Chrome 90.0.4430.93,,,2021-05-03 11:27:10,2021-05-03 11:27:10,0.191s,PASSED
"enhancedClick(findTestObject(""Dashboard Page/Draft Board (Dashboard)/1-PG on Draft Board""))",Chrome 90.0.4430.93,,,2021-05-03 11:27:10,2021-05-03 11:27:10,0.116s,PASSED
"enhancedClick(findTestObject(""Recruit Profile (view)/Alerts button""))",Chrome 90.0.4430.93,,,2021-05-03 11:27:10,2021-05-03 11:27:11,0.127s,PASSED
"mouseOver(findTestObject(""Dashboard Page/Draft Board (Dashboard)/1-PG on Draft Board""))",Chrome 90.0.4430.93,,,2021-05-03 11:27:11,2021-05-03 11:27:11,0.218s,PASSED
"enhancedClick(findTestObject(""Recruit Profile (view)/CLOSE button""))",Chrome 90.0.4430.93,,,2021-05-03 11:27:11,2021-05-03 11:27:11,0.105s,PASSED
delay(1),Chrome 90.0.4430.93,,,2021-05-03 11:27:11,2021-05-03 11:27:12,1.004s,PASSED
"verifyElementNotPresent(findTestObject(""Dashboard Page/Draft Board (Dashboard)/Alerts bell indicator""), 0)",Chrome 90.0.4430.93,,,2021-05-03 11:27:12,2021-05-03 11:27:12,0.087s,PASSED
"mouseOver(findTestObject(""Dashboard Page/Draft Board (Dashboard)/1-PG on Draft Board""))",Chrome 90.0.4430.93,,,2021-05-03 11:27:12,2021-05-03 11:27:12,0.177s,PASSED
"enhancedClick(findTestObject(""Dashboard Page/Draft Board (Dashboard)/Delete 1-PG on Draft Board""))",Chrome 90.0.4430.93,,,2021-05-03 11:27:12,2021-05-03 11:27:12,0.099s,PASSED
"enhancedClick(findTestObject(""Dashboard Page/Draft Board (Dashboard)/Draft Board Season Dropdown""))",Chrome 90.0.4430.93,,,2021-05-03 11:27:12,2021-05-03 11:27:12,0.076s,PASSED
"enhancedClick(findTestObject(""Dashboard Page/Draft Board (Dashboard)/Draft Board Season Dropdown - 2023""))",Chrome 90.0.4430.93,,,2021-05-03 11:27:12,2021-05-03 11:27:14,1.283s,PASSED
"mouseOver(findTestObject(""Dashboard Page/Draft Board (Dashboard)/blank 1-PG on Draft Board (Dashboard)""))",Chrome 90.0.4430.93,,,2021-05-03 11:27:14,2021-05-03 11:27:14,0.168s,PASSED
"enhancedClick(findTestObject(""Dashboard Page/Draft Board (Dashboard)/blank 1-PG on Draft Board (Dashboard)""))",Chrome 90.0.4430.93,,,2021-05-03 11:27:14,2021-05-03 11:27:14,0.072s,PASSED
"enhancedClick(findTestObject(""Dashboard Page/Draft Board (Dashboard)/Draft Board Dropdown Player1""))",Chrome 90.0.4430.93,,,2021-05-03 11:27:14,2021-05-03 11:27:14,0.177s,PASSED
delay(1),Chrome 90.0.4430.93,,,2021-05-03 11:27:14,2021-05-03 11:27:15,1.007s,PASSED
"mouseOver(findTestObject(""Dashboard Page/Draft Board (Dashboard)/blank 2-PG on Draft Board (Dashboard)""))",Chrome 90.0.4430.93,,,2021-05-03 11:27:15,2021-05-03 11:27:15,0.173s,PASSED
"enhancedClick(findTestObject(""Dashboard Page/Draft Board (Dashboard)/blank 2-PG on Draft Board (Dashboard)""))",Chrome 90.0.4430.93,,,2021-05-03 11:27:15,2021-05-03 11:27:15,0.067s,PASSED
"enhancedClick(findTestObject(""Dashboard Page/Draft Board (Dashboard)/Recruit Search field""))",Chrome 90.0.4430.93,,,2021-05-03 11:27:15,2021-05-03 11:27:15,0.097s,PASSED
"sendKeys(findTestObject(""Dashboard Page/Draft Board (Dashboard)/Recruit Search field""), ""Mikey Williams"")",Chrome 90.0.4430.93,,,2021-05-03 11:27:15,2021-05-03 11:27:15,0.098s,PASSED
delay(2),Chrome 90.0.4430.93,,,2021-05-03 11:27:15,2021-05-03 11:27:17,2.005s,PASSED
"enhancedClick(findTestObject(""Dashboard Page/Draft Board (Dashboard)/Draft Board Dropdown Player2""))",Chrome 90.0.4430.93,,,2021-05-03 11:27:17,2021-05-03 11:27:18,0.086s,PASSED
"mouseOver(findTestObject(""Dashboard Page/Draft Board (Dashboard)/2-PG on Draft Board""))",Chrome 90.0.4430.93,,,2021-05-03 11:27:18,2021-05-03 11:27:18,0.278s,PASSED
"enhancedClick(findTestObject(""Dashboard Page/Draft Board (Dashboard)/Delete 2-PG on Draft Board""))",Chrome 90.0.4430.93,,,2021-05-03 11:27:18,2021-05-03 11:27:18,0.082s,PASSED
"mouseOver(findTestObject(""Dashboard Page/Draft Board (Dashboard)/1-PG on Draft Board""))",Chrome 90.0.4430.93,,,2021-05-03 11:27:18,2021-05-03 11:27:18,0.175s,PASSED
"enhancedClick(findTestObject(""Dashboard Page/Draft Board (Dashboard)/Delete 1-PG on Draft Board""))",Chrome 90.0.4430.93,,,2021-05-03 11:27:18,2021-05-03 11:27:18,0.088s,PASSED
"enhancedClick(findTestObject(""Dashboard Page/Draft Board (Dashboard)/Draft Board Link""))",Chrome 90.0.4430.93,,,2021-05-03 11:27:18,2021-05-03 11:27:18,0.117s,PASSED
"mouseOver(findTestObject(""Recruits Page/Draft Board (Recruits)/blank PG1 Draft Board-Recruits""))",Chrome 90.0.4430.93,,,2021-05-03 11:27:18,2021-05-03 11:27:18,0.195s,PASSED
"enhancedClick(findTestObject(""Recruits Page/Draft Board (Recruits)/blank PG1 Draft Board-Recruits""))",Chrome 90.0.4430.93,,,2021-05-03 11:27:18,2021-05-03 11:27:19,0.075s,PASSED
"enhancedClick(findTestObject(""Recruits Page/Draft Board (Recruits)/Draft Board dropdown P1 (Recruits)""))",Chrome 90.0.4430.93,,,2021-05-03 11:27:19,2021-05-03 11:27:19,0.223s,PASSED
"mouseOver(findTestObject(""Dashboard Page/Draft Board (Dashboard)/1-PG on Draft Board""))",Chrome 90.0.4430.93,,,2021-05-03 11:27:19,2021-05-03 11:27:19,0.266s,PASSED
"enhancedClick(findTestObject(""Recruits Page/Draft Board (Recruits)/Draft Board Color Dropper icon""))",Chrome 90.0.4430.93,,,2021-05-03 11:27:19,2021-05-03 11:27:19,0.077s,PASSED
"enhancedClick(findTestObject(""Recruits Page/Draft Board (Recruits)/Yellow Color Draft Board""))",Chrome 90.0.4430.93,,,2021-05-03 11:27:19,2021-05-03 11:27:19,0.089s,PASSED
delay(1),Chrome 90.0.4430.93,,,2021-05-03 11:27:19,2021-05-03 11:27:20,1.003s,PASSED
"verifyElementAttributeValue(findTestObject(""Dashboard Page/Draft Board (Dashboard)/1-PG on Draft Board""), ""class"", ""draft-board-player dashboard-player css-1n2x8eh-DraftBoard"", 0)",Chrome 90.0.4430.93,,,2021-05-03 11:27:20,2021-05-03 11:27:20,0.061s,PASSED
"mouseOver(findTestObject(""Dashboard Page/Draft Board (Dashboard)/1-PG on Draft Board""))",Chrome 90.0.4430.93,,,2021-05-03 11:27:20,2021-05-03 11:27:20,0.171s,PASSED
"enhancedClick(findTestObject(""Recruits Page/Draft Board (Recruits)/Draft Board Color Dropper icon""))",Chrome 90.0.4430.93,,,2021-05-03 11:27:20,2021-05-03 11:27:20,0.065s,PASSED
"enhancedClick(findTestObject(""Recruits Page/Draft Board (Recruits)/Green Color Draft Board""))",Chrome 90.0.4430.93,,,2021-05-03 11:27:20,2021-05-03 11:27:52,31.615s,PASSED
delay(1),Chrome 90.0.4430.93,,,2021-05-03 11:27:52,2021-05-03 11:27:53,1.002s,PASSED
"verifyElementAttributeValue(findTestObject(""Dashboard Page/Draft Board (Dashboard)/1-PG on Draft Board""), ""class"", ""draft-board-player dashboard-player css-15mrb88-DraftBoard"", 0)",Chrome 90.0.4430.93,,,2021-05-03 11:27:53,2021-05-03 11:27:53,0.066s,PASSED
"mouseOver(findTestObject(""Dashboard Page/Draft Board (Dashboard)/1-PG on Draft Board""))",Chrome 90.0.4430.93,,,2021-05-03 11:27:53,2021-05-03 11:27:53,0.170s,PASSED
"enhancedClick(findTestObject(""Recruits Page/Draft Board (Recruits)/Draft Board Color Dropper icon""))",Chrome 90.0.4430.93,,,2021-05-03 11:27:53,2021-05-03 11:27:53,0.075s,PASSED
"enhancedClick(findTestObject(""Recruits Page/Draft Board (Recruits)/Draft Board Color pencil icon""))",Chrome 90.0.4430.93,,,2021-05-03 11:27:53,2021-05-03 11:27:54,0.656s,PASSED
"enhancedClick(findTestObject(""Recruits Page/Draft Board (Recruits)/Add Draft Board Color plus button""))",Chrome 90.0.4430.93,,,2021-05-03 11:27:54,2021-05-03 11:27:54,0.109s,PASSED
"doubleClick(findTestObject(""Recruits Page/Draft Board (Recruits)/Draft Board Color Hex field""))",Chrome 90.0.4430.93,,,2021-05-03 11:27:54,2021-05-03 11:27:54,0.215s,PASSED
"sendKeys(findTestObject(""Recruits Page/Draft Board (Recruits)/Draft Board Color Hex field""), ""4832a8"")",Chrome 90.0.4430.93,,,2021-05-03 11:27:54,2021-05-03 11:27:54,0.095s,PASSED
"enhancedClick(findTestObject(""Recruits Page/Draft Board (Recruits)/Manage Colors Close button""))",Chrome 90.0.4430.93,,,2021-05-03 11:27:54,2021-05-03 11:27:55,0.108s,PASSED
"mouseOver(findTestObject(""Dashboard Page/Draft Board (Dashboard)/1-PG on Draft Board""))",Chrome 90.0.4430.93,,,2021-05-03 11:27:55,2021-05-03 11:27:55,0.186s,PASSED
"enhancedClick(findTestObject(""Recruits Page/Draft Board (Recruits)/Draft Board Color Dropper icon""))",Chrome 90.0.4430.93,,,2021-05-03 11:27:55,2021-05-03 11:27:55,0.622s,PASSED
"enhancedClick(findTestObject(""Recruits Page/Draft Board (Recruits)/My Custom Color Draft Board""))",Chrome 90.0.4430.93,,,2021-05-03 11:27:55,2021-05-03 11:27:56,0.116s,PASSED
delay(1),Chrome 90.0.4430.93,,,2021-05-03 11:27:56,2021-05-03 11:27:57,1.005s,PASSED
"verifyElementAttributeValue(findTestObject(""Dashboard Page/Draft Board (Dashboard)/1-PG on Draft Board""), ""class"", ""draft-board-player dashboard-player css-ms4n7m-DraftBoard"", 0)",Chrome 90.0.4430.93,,,2021-05-03 11:27:57,2021-05-03 11:27:57,0.058s,PASSED
"mouseOver(findTestObject(""Dashboard Page/Draft Board (Dashboard)/1-PG on Draft Board""))",Chrome 90.0.4430.93,,,2021-05-03 11:27:57,2021-05-03 11:27:57,0.164s,PASSED
"enhancedClick(findTestObject(""Recruits Page/Draft Board (Recruits)/Draft Board Color Dropper icon""))",Chrome 90.0.4430.93,,,2021-05-03 11:27:57,2021-05-03 11:27:57,0.058s,PASSED
"enhancedClick(findTestObject(""Recruits Page/Draft Board (Recruits)/Reset Draft Board color""))",Chrome 90.0.4430.93,,,2021-05-03 11:27:57,2021-05-03 11:27:57,0.632s,PASSED
delay(1),Chrome 90.0.4430.93,,,2021-05-03 11:27:57,2021-05-03 11:27:58,1.003s,PASSED
"verifyElementAttributeValue(findTestObject(""Dashboard Page/Draft Board (Dashboard)/1-PG on Draft Board""), ""class"", ""draft-board-player dashboard-player css-g7hzzu-DraftBoard"", 0)",Chrome 90.0.4430.93,,,2021-05-03 11:27:58,2021-05-03 11:27:59,0.069s,PASSED
"mouseOver(findTestObject(""Dashboard Page/Draft Board (Dashboard)/1-PG on Draft Board""))",Chrome 90.0.4430.93,,,2021-05-03 11:27:59,2021-05-03 11:27:59,0.185s,PASSED
"enhancedClick(findTestObject(""Recruits Page/Draft Board (Recruits)/Draft Board Color Dropper icon""))",Chrome 90.0.4430.93,,,2021-05-03 11:27:59,2021-05-03 11:27:59,0.066s,PASSED
"enhancedClick(findTestObject(""Recruits Page/Draft Board (Recruits)/Draft Board Color pencil icon""))",Chrome 90.0.4430.93,,,2021-05-03 11:27:59,2021-05-03 11:27:59,0.094s,PASSED
"mouseOver(findTestObject(""Recruits Page/Draft Board (Recruits)/Manage Colors Custom1""))",Chrome 90.0.4430.93,,,2021-05-03 11:27:59,2021-05-03 11:27:59,0.190s,PASSED
"waitForElementPresent(findTestObject(""Recruits Page/Draft Board (Recruits)/Delete custom color1""), 0)",Chrome 90.0.4430.93,,,2021-05-03 11:27:59,2021-05-03 11:28:33,34.094s,PASSED
"enhancedClick(findTestObject(""Recruits Page/Draft Board (Recruits)/Delete custom color1""))",Chrome 90.0.4430.93,,,2021-05-03 11:28:33,2021-05-03 11:29:08,34.420s,FAILED
,,,,,,,
Test Cases/Depth Chart,Chrome 90.0.4430.93,,,2021-05-03 11:29:08,2021-05-03 11:29:22,14.739s,PASSED
openBrowser(URL),Chrome 90.0.4430.93,,,2021-05-03 11:29:08,2021-05-03 11:29:10,2.569s,PASSED
"setText(findTestObject(""Login Page/Email""), email)",Chrome 90.0.4430.93,,,2021-05-03 11:29:10,2021-05-03 11:29:10,0.160s,PASSED
"setText(findTestObject(""Login Page/password""), password)",Chrome 90.0.4430.93,,,2021-05-03 11:29:10,2021-05-03 11:29:11,0.119s,PASSED
"click(findTestObject(""Login Page/Sign In""))",Chrome 90.0.4430.93,,,2021-05-03 11:29:11,2021-05-03 11:29:13,2.421s,PASSED
"waitForElementVisible(findTestObject(""Top Navigation Menu/Dashboard""), 60)",Chrome 90.0.4430.93,,,2021-05-03 11:29:13,2021-05-03 11:29:14,0.566s,PASSED
"enhancedClick(findTestObject(""Top Navigation Menu/Dashboard""))",Chrome 90.0.4430.93,,,2021-05-03 11:29:14,2021-05-03 11:29:14,0.072s,PASSED
delay(3),Chrome 90.0.4430.93,,,2021-05-03 11:29:14,2021-05-03 11:29:17,3.004s,PASSED
"enhancedClick(findTestObject(""Dashboard Page/Depth Chart/Depth Chart season dropdown""))",Chrome 90.0.4430.93,,,2021-05-03 11:29:17,2021-05-03 11:29:17,0.094s,PASSED
"enhancedClick(findTestObject(""Dashboard Page/Depth Chart/Season Dropdown Index3""))",Chrome 90.0.4430.93,,,2021-05-03 11:29:17,2021-05-03 11:29:18,1.257s,PASSED
"enhancedClick(findTestObject(""Dashboard Page/Depth Chart/Depth Chart season dropdown""))",Chrome 90.0.4430.93,,,2021-05-03 11:29:18,2021-05-03 11:29:18,0.080s,PASSED
"enhancedClick(findTestObject(""Dashboard Page/Depth Chart/Season Dropdown Index2""))",Chrome 90.0.4430.93,,,2021-05-03 11:29:18,2021-05-03 11:29:18,0.085s,PASSED
"enhancedClick(findTestObject(""Dashboard Page/Depth Chart/EDIT Depth Chart""))",Chrome 90.0.4430.93,,,2021-05-03 11:29:18,2021-05-03 11:29:18,0.142s,PASSED
"enhancedClick(findTestObject(""Dashboard Page/Depth Chart/Depth Chart Edit (sr, pg, 1)""))",Chrome 90.0.4430.93,,,2021-05-03 11:29:18,2021-05-03 11:29:18,0.161s,PASSED
"enhancedClick(findTestObject(""Dashboard Page/Depth Chart/SAVE Depth Chart""))",Chrome 90.0.4430.93,,,2021-05-03 11:29:18,2021-05-03 11:29:19,0.100s,PASSED
delay(2),Chrome 90.0.4430.93,,,2021-05-03 11:29:19,2021-05-03 11:29:21,2.004s,PASSED
"verifyTextNotPresent(playerHidden, false)",Chrome 90.0.4430.93,,,2021-05-03 11:29:21,2021-05-03 11:29:21,0.124s,PASSED
"enhancedClick(findTestObject(""Dashboard Page/Depth Chart/EDIT Depth Chart""))",Chrome 90.0.4430.93,,,2021-05-03 11:29:21,2021-05-03 11:29:21,0.096s,PASSED
"enhancedClick(findTestObject(""Dashboard Page/Depth Chart/Depth Chart Edit (sr, pg, 1)""))",Chrome 90.0.4430.93,,,2021-05-03 11:29:21,2021-05-03 11:29:21,0.113s,PASSED
"enhancedClick(findTestObject(""Dashboard Page/Depth Chart/SAVE Depth Chart""))",Chrome 90.0.4430.93,,,2021-05-03 11:29:21,2021-05-03 11:29:21,0.077s,PASSED
"verifyTextPresent(playerHidden, false)",Chrome 90.0.4430.93,,,2021-05-03 11:29:21,2021-05-03 11:29:21,0.233s,PASSED
delay(1),Chrome 90.0.4430.93,,,2021-05-03 11:29:21,2021-05-03 11:29:22,1.002s,PASSED
closeBrowser(),Chrome 90.0.4430.93,,,2021-05-03 11:29:22,2021-05-03 11:29:22,0.091s,PASSED
,,,,,,,
Test Cases/Dashboard Calendar,Chrome 90.0.4430.93,,,2021-05-03 11:29:22,2021-05-03 11:29:50,27.491s,FAILED
openBrowser(URL),Chrome 90.0.4430.93,,,2021-05-03 11:29:22,2021-05-03 11:29:24,1.866s,PASSED
"setText(findTestObject(""Login Page/Email""), email)",Chrome 90.0.4430.93,,,2021-05-03 11:29:24,2021-05-03 11:29:25,0.159s,PASSED
"setText(findTestObject(""Login Page/password""), password)",Chrome 90.0.4430.93,,,2021-05-03 11:29:25,2021-05-03 11:29:25,0.115s,PASSED
"click(findTestObject(""Login Page/Sign In""))",Chrome 90.0.4430.93,,,2021-05-03 11:29:25,2021-05-03 11:29:27,2.469s,PASSED
"waitForElementVisible(findTestObject(""Top Navigation Menu/Dashboard""), 60)",Chrome 90.0.4430.93,,,2021-05-03 11:29:27,2021-05-03 11:29:28,0.544s,PASSED
"enhancedClick(findTestObject(""Top Navigation Menu/Recruits""))",Chrome 90.0.4430.93,,,2021-05-03 11:29:28,2021-05-03 11:29:28,0.115s,PASSED
delay(3),Chrome 90.0.4430.93,,,2021-05-03 11:29:28,2021-05-03 11:29:31,3.007s,PASSED
"enhancedClick(findTestObject(""Top Navigation Menu/Dashboard""))",Chrome 90.0.4430.93,,,2021-05-03 11:29:31,2021-05-03 11:29:31,0.171s,PASSED
delay(3),Chrome 90.0.4430.93,,,2021-05-03 11:29:31,2021-05-03 11:29:34,3.003s,PASSED
"enhancedClick(findTestObject(""Dashboard Page/Calendar (Dashboard)/Toggle Left (Calendar Dashboard)""))",Chrome 90.0.4430.93,,,2021-05-03 11:29:34,2021-05-03 11:29:34,0.111s,PASSED
delay(5),Chrome 90.0.4430.93,,,2021-05-03 11:29:34,2021-05-03 11:29:39,5.006s,PASSED
"enhancedClick(findTestObject(""Dashboard Page/Calendar (Dashboard)/Toggle Right (Calendar Dashboard)""))",Chrome 90.0.4430.93,,,2021-05-03 11:29:39,2021-05-03 11:29:39,0.093s,PASSED
delay(5),Chrome 90.0.4430.93,,,2021-05-03 11:29:39,2021-05-03 11:29:44,5.002s,PASSED
"enhancedClick(findTestObject(""Dashboard Page/Calendar (Dashboard)/Dashboard Calendar SHOW dropdown""))",Chrome 90.0.4430.93,,,2021-05-03 11:29:44,2021-05-03 11:29:44,0.100s,PASSED
"enhancedClick(findTestObject(""Dashboard Page/Calendar (Dashboard)/My Calendar option""))",Chrome 90.0.4430.93,,,2021-05-03 11:29:44,2021-05-03 11:29:44,0.080s,PASSED
"enhancedClick(findTestObject(""Dashboard Page/Calendar (Dashboard)/My Calendar option""))",Chrome 90.0.4430.93,,,2021-05-03 11:29:44,2021-05-03 11:29:44,0.060s,PASSED
"enhancedClick(findTestObject(""Dashboard Page/Calendar (Dashboard)/Team calendar option""))",Chrome 90.0.4430.93,,,2021-05-03 11:29:44,2021-05-03 11:29:44,0.067s,PASSED
"enhancedClick(findTestObject(""Dashboard Page/Calendar (Dashboard)/Team calendar option""))",Chrome 90.0.4430.93,,,2021-05-03 11:29:44,2021-05-03 11:29:45,0.056s,PASSED
"enhancedClick(findTestObject(""Dashboard Page/Calendar (Dashboard)/Tasks calendar option""))",Chrome 90.0.4430.93,,,2021-05-03 11:29:45,2021-05-03 11:29:45,0.067s,PASSED
"enhancedClick(findTestObject(""Dashboard Page/Calendar (Dashboard)/Tasks calendar option""))",Chrome 90.0.4430.93,,,2021-05-03 11:29:45,2021-05-03 11:29:45,0.056s,PASSED
"enhancedClick(findTestObject(""Dashboard Page/Calendar (Dashboard)/NCAA Calendar option""))",Chrome 90.0.4430.93,,,2021-05-03 11:29:45,2021-05-03 11:29:45,0.068s,PASSED
"enhancedClick(findTestObject(""Dashboard Page/Calendar (Dashboard)/NCAA Calendar option""))",Chrome 90.0.4430.93,,,2021-05-03 11:29:45,2021-05-03 11:29:45,0.060s,PASSED
"enhancedClick(findTestObject(""Dashboard Page/Calendar (Dashboard)/My Live Period calendar option""))",Chrome 90.0.4430.93,,,2021-05-03 11:29:45,2021-05-03 11:29:45,0.068s,PASSED
"enhancedClick(findTestObject(""Dashboard Page/Calendar (Dashboard)/My Live Period calendar option""))",Chrome 90.0.4430.93,,,2021-05-03 11:29:45,2021-05-03 11:29:45,0.057s,PASSED
"enhancedClick(findTestObject(""Dashboard Page/Calendar (Dashboard)/Dashboard Calendar SHOW dropdown""))",Chrome 90.0.4430.93,,,2021-05-03 11:29:45,2021-05-03 11:29:45,0.058s,PASSED
"enhancedClick(findTestObject(""Dashboard Page/Calendar (Dashboard)/Dashboard Calendar Add New""))",Chrome 90.0.4430.93,,,2021-05-03 11:29:45,2021-05-03 11:29:45,0.138s,PASSED
"enhancedClick(findTestObject(""Dashboard Page/Calendar (Dashboard)/Add Event modal/Event Name field""))",Chrome 90.0.4430.93,,,2021-05-03 11:29:45,2021-05-03 11:29:45,0.092s,PASSED
"sendKeys(findTestObject(""Dashboard Page/Calendar (Dashboard)/Add Event modal/Event Name field""), ""Test Event1"")",Chrome 90.0.4430.93,,,2021-05-03 11:29:45,2021-05-03 11:29:45,0.081s,PASSED
"enhancedClick(findTestObject(""Dashboard Page/Calendar (Dashboard)/Add Event modal/Event Location field""))",Chrome 90.0.4430.93,,,2021-05-03 11:29:45,2021-05-03 11:29:45,0.089s,PASSED
"sendKeys(findTestObject(""Dashboard Page/Calendar (Dashboard)/Add Event modal/Event Location field""), ""444 N. Michigan Ave"")",Chrome 90.0.4430.93,,,2021-05-03 11:29:45,2021-05-03 11:29:45,0.093s,PASSED
delay(1),Chrome 90.0.4430.93,,,2021-05-03 11:29:45,2021-05-03 11:29:46,1.006s,PASSED
"enhancedClick(findTestObject(""Dashboard Page/Calendar (Dashboard)/Add Event modal/Select searched location""))",Chrome 90.0.4430.93,,,2021-05-03 11:29:46,2021-05-03 11:29:47,0.077s,PASSED
"enhancedClick(findTestObject(""Dashboard Page/Calendar (Dashboard)/Add Event modal/Select Recruits dropdown""))",Chrome 90.0.4430.93,,,2021-05-03 11:29:47,2021-05-03 11:29:47,0.075s,PASSED
"enhancedClick(findTestObject(""Dashboard Page/Calendar (Dashboard)/Add Event modal/Recruit1 in dropdown (Add Event modal)""))",Chrome 90.0.4430.93,,,2021-05-03 11:29:47,2021-05-03 11:29:47,0.083s,PASSED
"enhancedClick(findTestObject(""Dashboard Page/Calendar (Dashboard)/Add Event modal/Add Event Attendees""))",Chrome 90.0.4430.93,,,2021-05-03 11:29:47,2021-05-03 11:29:47,0.078s,PASSED
"enhancedClick(findTestObject(""Dashboard Page/Calendar (Dashboard)/Add Event modal/Recruiters checkbox""))",Chrome 90.0.4430.93,,,2021-05-03 11:29:47,2021-05-03 11:29:47,0.086s,PASSED
"enhancedClick(findTestObject(""Dashboard Page/Calendar (Dashboard)/Add Event modal/Game Note field""))",Chrome 90.0.4430.93,,,2021-05-03 11:29:47,2021-05-03 11:29:47,0.073s,PASSED
"sendKeys(findTestObject(""Dashboard Page/Calendar (Dashboard)/Add Event modal/Game Note field""), ""arrive early"")",Chrome 90.0.4430.93,,,2021-05-03 11:29:47,2021-05-03 11:29:47,0.140s,PASSED
"enhancedClick(findTestObject(""Dashboard Page/Calendar (Dashboard)/Add Event modal/Add Event Save button""))",Chrome 90.0.4430.93,,,2021-05-03 11:29:47,2021-05-03 11:29:47,0.071s,PASSED
delay(2),Chrome 90.0.4430.93,,,2021-05-03 11:29:47,2021-05-03 11:29:49,2.002s,PASSED
"verifyTextPresent(""Test Event1"", false)",Chrome 90.0.4430.93,,,2021-05-03 11:29:49,2021-05-03 11:29:50,0.690s,FAILED
,,,,,,,
Test Cases/Add_Archive_Delete New Recruit,Chrome 90.0.4430.93,,,2021-05-03 11:29:50,2021-05-03 11:30:08,18.002s,PASSED
openBrowser(URL),Chrome 90.0.4430.93,,,2021-05-03 11:29:50,2021-05-03 11:29:52,2.012s,PASSED
"setText(findTestObject(""Login Page/Email""), email)",Chrome 90.0.4430.93,,,2021-05-03 11:29:52,2021-05-03 11:29:52,0.145s,PASSED
"setText(findTestObject(""Login Page/password""), password)",Chrome 90.0.4430.93,,,2021-05-03 11:29:52,2021-05-03 11:29:52,0.099s,PASSED
"click(findTestObject(""Login Page/Sign In""))",Chrome 90.0.4430.93,,,2021-05-03 11:29:52,2021-05-03 11:29:54,2.240s,PASSED
"waitForElementVisible(findTestObject(""Top Navigation Menu/Dashboard""), 60)",Chrome 90.0.4430.93,,,2021-05-03 11:29:54,2021-05-03 11:29:55,0.592s,PASSED
"click(findTestObject(""Top Navigation Menu/Recruits""))",Chrome 90.0.4430.93,,,2021-05-03 11:29:55,2021-05-03 11:29:55,0.128s,PASSED
"click(findTestObject(""Recruits Page/ADD RECRUIT button""))",Chrome 90.0.4430.93,,,2021-05-03 11:29:55,2021-05-03 11:29:55,0.184s,PASSED
"setText(findTestObject(""Recruits Page/Add New Recruit modal/First Name field""), ""Josh"")",Chrome 90.0.4430.93,,,2021-05-03 11:29:55,2021-05-03 11:29:57,1.601s,PASSED
"setText(findTestObject(""Recruits Page/Add New Recruit modal/Last Name field""), ""Allen"")",Chrome 90.0.4430.93,,,2021-05-03 11:29:57,2021-05-03 11:29:57,0.164s,PASSED
"setText(findTestObject(""Recruits Page/Add New Recruit modal/Class field""), ""2023"")",Chrome 90.0.4430.93,,,2021-05-03 11:29:57,2021-05-03 11:29:57,0.122s,PASSED
"click(findTestObject(""Recruits Page/Add New Recruit modal/Height field input""))",Chrome 90.0.4430.93,,,2021-05-03 11:29:57,2021-05-03 11:29:57,0.080s,PASSED
"setText(findTestObject(""Recruits Page/Add New Recruit modal/Height field input""), ""69"")",Chrome 90.0.4430.93,,,2021-05-03 11:29:57,2021-05-03 11:29:57,0.083s,PASSED
"setText(findTestObject(""Recruits Page/Add New Recruit modal/Birthdate field input""), ""1/1/2005"")",Chrome 90.0.4430.93,,,2021-05-03 11:29:57,2021-05-03 11:29:58,0.240s,PASSED
"enhancedClick(findTestObject(""Recruits Page/Add New Recruit modal/Birthdate field Label""))",Chrome 90.0.4430.93,,,2021-05-03 11:29:58,2021-05-03 11:29:58,0.135s,PASSED
"setText(findTestObject(""Recruits Page/Add New Recruit modal/High School field input""), ""highland park"")",Chrome 90.0.4430.93,,,2021-05-03 11:29:58,2021-05-03 11:29:58,0.180s,PASSED
"sendKeys(findTestObject(""Recruits Page/Add New Recruit modal/High School field input""), Keys.chord(DOWN))",Chrome 90.0.4430.93,,,2021-05-03 11:29:58,2021-05-03 11:29:58,0.067s,PASSED
"sendKeys(findTestObject(""Recruits Page/Add New Recruit modal/High School field input""), Keys.chord(ENTER))",Chrome 90.0.4430.93,,,2021-05-03 11:29:58,2021-05-03 11:29:58,0.065s,PASSED
"setText(findTestObject(""Recruits Page/Add New Recruit modal/High School Coach Name field""), ""Coach Miller"")",Chrome 90.0.4430.93,,,2021-05-03 11:29:58,2021-05-03 11:29:58,0.157s,PASSED
"setText(findTestObject(""Recruits Page/Add New Recruit modal/High School Coach Phone field""), ""8474713163"")",Chrome 90.0.4430.93,,,2021-05-03 11:29:58,2021-05-03 11:29:58,0.140s,PASSED
"setText(findTestObject(""Recruits Page/Add New Recruit modal/Club Team field""), ""Mac Irvin Fire"")",Chrome 90.0.4430.93,,,2021-05-03 11:29:58,2021-05-03 11:29:59,0.147s,PASSED
"setText(findTestObject(""Recruits Page/Add New Recruit modal/Club Team Number field""), ""10"")",Chrome 90.0.4430.93,,,2021-05-03 11:29:59,2021-05-03 11:29:59,0.113s,PASSED
"click(findTestObject(""Recruits Page/Add New Recruit modal/SAVE button""))",Chrome 90.0.4430.93,,,2021-05-03 11:29:59,2021-05-03 11:29:59,0.167s,PASSED
"setText(findTestObject(""Recruits Page/Recruit Search Field on Recruits page""), ""josh allen"")",Chrome 90.0.4430.93,,,2021-05-03 11:29:59,2021-05-03 11:29:59,0.230s,PASSED
delay(1),Chrome 90.0.4430.93,,,2021-05-03 11:29:59,2021-05-03 11:30:00,1.005s,PASSED
"enhancedClick(findTestObject(""Recruits Page/Archive recruit""))",Chrome 90.0.4430.93,,,2021-05-03 11:30:00,2021-05-03 11:30:00,0.172s,PASSED
delay(1),Chrome 90.0.4430.93,,,2021-05-03 11:30:00,2021-05-03 11:30:01,1.007s,PASSED
"click(findTestObject(""Recruits Page/All Recruits List selection""))",Chrome 90.0.4430.93,,,2021-05-03 11:30:01,2021-05-03 11:30:01,0.089s,PASSED
delay(1),Chrome 90.0.4430.93,,,2021-05-03 11:30:01,2021-05-03 11:30:02,1.006s,PASSED
"click(findTestObject(""Recruits Page/Archived List selection""))",Chrome 90.0.4430.93,,,2021-05-03 11:30:02,2021-05-03 11:30:02,0.132s,PASSED
delay(1),Chrome 90.0.4430.93,,,2021-05-03 11:30:02,2021-05-03 11:30:03,1.003s,PASSED
"enhancedClick(findTestObject(""Recruits Page/Archived list ellipsis button""))",Chrome 90.0.4430.93,,,2021-05-03 11:30:03,2021-05-03 11:30:04,0.085s,PASSED
delay(1),Chrome 90.0.4430.93,,,2021-05-03 11:30:04,2021-05-03 11:30:05,1.002s,PASSED
"enhancedClick(findTestObject(""Recruits Page/Delete1""))",Chrome 90.0.4430.93,,,2021-05-03 11:30:05,2021-05-03 11:30:05,0.096s,PASSED
delay(1),Chrome 90.0.4430.93,,,2021-05-03 11:30:05,2021-05-03 11:30:06,1.003s,PASSED
"enhancedClick(findTestObject(""Recruits Page/Delete2""))",Chrome 90.0.4430.93,,,2021-05-03 11:30:06,2021-05-03 11:30:06,0.087s,PASSED
delay(2),Chrome 90.0.4430.93,,,2021-05-03 11:30:06,2021-05-03 11:30:08,2.007s,PASSED
closeBrowser(),Chrome 90.0.4430.93,,,2021-05-03 11:30:08,2021-05-03 11:30:08,0.083s,PASSED
,,,,,,,
Test Cases/Tasks,Chrome 90.0.4430.93,,,2021-05-03 11:30:08,2021-05-03 11:30:18,9.959s,PASSED
openBrowser(URL),Chrome 90.0.4430.93,,,2021-05-03 11:30:08,2021-05-03 11:30:10,2.133s,PASSED
"setText(findTestObject(""Login Page/Email""), email)",Chrome 90.0.4430.93,,,2021-05-03 11:30:10,2021-05-03 11:30:10,0.139s,PASSED
"setText(findTestObject(""Login Page/password""), password)",Chrome 90.0.4430.93,,,2021-05-03 11:30:10,2021-05-03 11:30:10,0.093s,PASSED
"click(findTestObject(""Login Page/Sign In""))",Chrome 90.0.4430.93,,,2021-05-03 11:30:10,2021-05-03 11:30:13,2.822s,PASSED
"waitForElementVisible(findTestObject(""Top Navigation Menu/Dashboard""), 60)",Chrome 90.0.4430.93,,,2021-05-03 11:30:13,2021-05-03 11:30:14,0.629s,PASSED
"enhancedClick(findTestObject(""Top Navigation Menu/Recruits""))",Chrome 90.0.4430.93,,,2021-05-03 11:30:14,2021-05-03 11:30:14,0.118s,PASSED
"enhancedClick(findTestObject(""Recruits Page/Tasks tab""))",Chrome 90.0.4430.93,,,2021-05-03 11:30:14,2021-05-03 11:30:14,0.104s,PASSED
"enhancedClick(findTestObject(""Recruits Page/Tasks/Add Task button""))",Chrome 90.0.4430.93,,,2021-05-03 11:30:14,2021-05-03 11:30:14,0.171s,PASSED
"enhancedClick(findTestObject(""Recruits Page/Tasks/Add Task Recruit field""))",Chrome 90.0.4430.93,,,2021-05-03 11:30:14,2021-05-03 11:30:15,0.756s,PASSED
"enhancedClick(findTestObject(""Recruits Page/Tasks/Add Task recruit dropdown1""))",Chrome 90.0.4430.93,,,2021-05-03 11:30:15,2021-05-03 11:30:15,0.095s,PASSED
"enhancedClick(findTestObject(""Recruits Page/Tasks/Add Task Assigned To field""))",Chrome 90.0.4430.93,,,2021-05-03 11:30:15,2021-05-03 11:30:15,0.069s,PASSED
"enhancedClick(findTestObject(""Recruits Page/Tasks/Add Task Assigned To dropdown1""))",Chrome 90.0.4430.93,,,2021-05-03 11:30:15,2021-05-03 11:30:15,0.071s,PASSED
"enhancedClick(findTestObject(""Recruits Page/Tasks/Add Task Instruction field""))",Chrome 90.0.4430.93,,,2021-05-03 11:30:15,2021-05-03 11:30:15,0.070s,PASSED
"setText(findTestObject(""Recruits Page/Tasks/Add Task Instruction field""), ""test task"")",Chrome 90.0.4430.93,,,2021-05-03 11:30:15,2021-05-03 11:30:15,0.124s,PASSED
"enhancedClick(findTestObject(""Recruits Page/Tasks/Save new task""))",Chrome 90.0.4430.93,,,2021-05-03 11:30:15,2021-05-03 11:30:15,0.076s,PASSED
"verifyElementVisible(findTestObject(""Recruits Page/Tasks/Due task1 row""))",Chrome 90.0.4430.93,,,2021-05-03 11:30:15,2021-05-03 11:30:16,0.191s,PASSED
"mouseOver(findTestObject(""Recruits Page/Tasks/Due task1 ellipsis""))",Chrome 90.0.4430.93,,,2021-05-03 11:30:16,2021-05-03 11:30:16,0.172s,PASSED
"enhancedClick(findTestObject(""Recruits Page/Tasks/Due task1 ellipsis""))",Chrome 90.0.4430.93,,,2021-05-03 11:30:16,2021-05-03 11:30:16,0.067s,PASSED
"enhancedClick(findTestObject(""Recruits Page/Tasks/Mark Tasks Completed button""))",Chrome 90.0.4430.93,,,2021-05-03 11:30:16,2021-05-03 11:30:17,1.254s,PASSED
"verifyElementNotPresent(findTestObject(""Recruits Page/Tasks/Due task1 row""), 0)",Chrome 90.0.4430.93,,,2021-05-03 11:30:17,2021-05-03 11:30:18,0.582s,PASSED
closeBrowser(),Chrome 90.0.4430.93,,,2021-05-03 11:30:18,2021-05-03 11:30:18,0.078s,PASSED
,,,,,,,
Test Cases/Features/Link To FastScout,Chrome 90.0.4430.93,,,2021-05-03 11:30:18,2021-05-03 11:30:35,16.771s,PASSED
openBrowser(URL),Chrome 90.0.4430.93,,,2021-05-03 11:30:18,2021-05-03 11:30:20,1.946s,PASSED
"setText(findTestObject(""Login Page/Email""), email)",Chrome 90.0.4430.93,,,2021-05-03 11:30:20,2021-05-03 11:30:20,0.148s,PASSED
"setText(findTestObject(""Login Page/password""), password)",Chrome 90.0.4430.93,,,2021-05-03 11:30:20,2021-05-03 11:30:20,0.103s,PASSED
"click(findTestObject(""Login Page/Sign In""))",Chrome 90.0.4430.93,,,2021-05-03 11:30:20,2021-05-03 11:30:23,2.814s,PASSED
"waitForElementVisible(findTestObject(""Top Navigation Menu/Dashboard""), 60)",Chrome 90.0.4430.93,,,2021-05-03 11:30:23,2021-05-03 11:30:24,0.622s,PASSED
"click(findTestObject(""Top Navigation Menu/Recruits""))",Chrome 90.0.4430.93,,,2021-05-03 11:30:24,2021-05-03 11:30:24,0.133s,PASSED
"click(findTestObject(""Recruits Page/ADD RECRUIT button""))",Chrome 90.0.4430.93,,,2021-05-03 11:30:24,2021-05-03 11:30:24,0.177s,PASSED
"enhancedClick(findTestObject(""Recruits Page/Add New Recruit modal/LinkToFastScout Folder/Link To FastScout button""))",Chrome 90.0.4430.93,,,2021-05-03 11:30:24,2021-05-03 11:30:25,1.063s,PASSED
"enhancedClick(findTestObject(""Recruits Page/Add New Recruit modal/LinkToFastScout Folder/League_Division dropdown""))",Chrome 90.0.4430.93,,,2021-05-03 11:30:25,2021-05-03 11:30:25,0.123s,PASSED
"enhancedClick(findTestObject(""Recruits Page/Add New Recruit modal/LinkToFastScout Folder/D-II League""))",Chrome 90.0.4430.93,,,2021-05-03 11:30:25,2021-05-03 11:30:25,0.079s,PASSED
"enhancedClick(findTestObject(""Recruits Page/Add New Recruit modal/LinkToFastScout Folder/Team dropdown (LFS)""))",Chrome 90.0.4430.93,,,2021-05-03 11:30:25,2021-05-03 11:30:25,0.093s,PASSED
"enhancedClick(findTestObject(""Recruits Page/Add New Recruit modal/LinkToFastScout Folder/Florida Southern (LFS)""))",Chrome 90.0.4430.93,,,2021-05-03 11:30:25,2021-05-03 11:30:25,0.083s,PASSED
"enhancedClick(findTestObject(""Recruits Page/Add New Recruit modal/LinkToFastScout Folder/Player dropdown (LFS)""))",Chrome 90.0.4430.93,,,2021-05-03 11:30:25,2021-05-03 11:30:25,0.082s,PASSED
"enhancedClick(findTestObject(""Recruits Page/Add New Recruit modal/LinkToFastScout Folder/Player10 (LFS)""))",Chrome 90.0.4430.93,,,2021-05-03 11:30:25,2021-05-03 11:30:26,0.146s,PASSED
"click(findTestObject(""Recruits Page/Add New Recruit modal/SAVE button""))",Chrome 90.0.4430.93,,,2021-05-03 11:30:26,2021-05-03 11:30:26,0.152s,PASSED
"setText(findTestObject(""Recruits Page/Recruit Search Field on Recruits page""), ""Wes Bongiorni"")",Chrome 90.0.4430.93,,,2021-05-03 11:30:26,2021-05-03 11:30:26,0.150s,PASSED
delay(1),Chrome 90.0.4430.93,,,2021-05-03 11:30:26,2021-05-03 11:30:27,1.004s,PASSED
"enhancedClick(findTestObject(""Recruits Page/Archive recruit""))",Chrome 90.0.4430.93,,,2021-05-03 11:30:27,2021-05-03 11:30:27,0.086s,PASSED
delay(1),Chrome 90.0.4430.93,,,2021-05-03 11:30:27,2021-05-03 11:30:28,1.002s,PASSED
"click(findTestObject(""Recruits Page/All Recruits List selection""))",Chrome 90.0.4430.93,,,2021-05-03 11:30:28,2021-05-03 11:30:28,0.078s,PASSED
delay(1),Chrome 90.0.4430.93,,,2021-05-03 11:30:28,2021-05-03 11:30:29,1.004s,PASSED
"click(findTestObject(""Recruits Page/Archived List selection""))",Chrome 90.0.4430.93,,,2021-05-03 11:30:29,2021-05-03 11:30:29,0.117s,PASSED
delay(1),Chrome 90.0.4430.93,,,2021-05-03 11:30:29,2021-05-03 11:30:30,1.006s,PASSED
"click(findTestObject(""Recruits Page/Archived list ellipsis button""))",Chrome 90.0.4430.93,,,2021-05-03 11:30:30,2021-05-03 11:30:30,0.081s,PASSED
delay(1),Chrome 90.0.4430.93,,,2021-05-03 11:30:30,2021-05-03 11:30:31,1.004s,PASSED
"click(findTestObject(""Recruits Page/Delete1""))",Chrome 90.0.4430.93,,,2021-05-03 11:30:31,2021-05-03 11:30:31,0.096s,PASSED
delay(1),Chrome 90.0.4430.93,,,2021-05-03 11:30:31,2021-05-03 11:30:32,1.005s,PASSED
"enhancedClick(findTestObject(""Recruits Page/Delete2""))",Chrome 90.0.4430.93,,,2021-05-03 11:30:32,2021-05-03 11:30:32,0.084s,PASSED
delay(2),Chrome 90.0.4430.93,,,2021-05-03 11:30:32,2021-05-03 11:30:34,2.002s,PASSED
closeBrowser(),Chrome 90.0.4430.93,,,2021-05-03 11:30:34,2021-05-03 11:30:35,0.083s,PASSED
,,,,,,,
Test Cases/Features/Video,Chrome 90.0.4430.93,,,2021-05-03 11:30:35,2021-05-03 11:30:43,8.532s,FAILED
openBrowser(URL),Chrome 90.0.4430.93,,,2021-05-03 11:30:35,2021-05-03 11:30:37,2.408s,PASSED
"setText(findTestObject(""Login Page/Email""), email)",Chrome 90.0.4430.93,,,2021-05-03 11:30:37,2021-05-03 11:30:37,0.156s,PASSED
"setText(findTestObject(""Login Page/password""), password)",Chrome 90.0.4430.93,,,2021-05-03 11:30:37,2021-05-03 11:30:37,0.097s,PASSED
"click(findTestObject(""Login Page/Sign In""))",Chrome 90.0.4430.93,,,2021-05-03 11:30:37,2021-05-03 11:30:40,2.401s,PASSED
"waitForElementVisible(findTestObject(""Top Navigation Menu/Dashboard""), 60)",Chrome 90.0.4430.93,,,2021-05-03 11:30:40,2021-05-03 11:30:40,0.614s,PASSED
"enhancedClick(findTestObject(""Top Navigation Menu/Recruits""))",Chrome 90.0.4430.93,,,2021-05-03 11:30:40,2021-05-03 11:30:40,0.109s,PASSED
"enhancedClick(findTestObject(""Recruits Page/Recruit Row1 Name""))",Chrome 90.0.4430.93,,,2021-05-03 11:30:40,2021-05-03 11:30:42,1.657s,PASSED
"enhancedClick(findTestObject(""Recruits Page/Recruit Profile (View)/VIDEOS tab""))",Chrome 90.0.4430.93,,,2021-05-03 11:30:42,2021-05-03 11:30:42,0.100s,PASSED
"uploadFile(findTestObject(""Recruit Profile (view)/Video Upload object""), ""/Users/jefffeldman/Desktop/Vids/NBA Playoffs 2019.mp4"")",Chrome 90.0.4430.93,,,2021-05-03 11:30:42,2021-05-03 11:30:43,0.868s,FAILED
,,,,,,,
Test Cases/Features/FastConnect,Chrome 90.0.4430.93,,,2021-05-03 11:30:43,2021-05-03 11:31:11,28.231s,PASSED
openBrowser(URL),Chrome 90.0.4430.93,,,2021-05-03 11:30:43,2021-05-03 11:30:45,1.875s,PASSED
"setText(findTestObject(""Login Page/Email""), email)",Chrome 90.0.4430.93,,,2021-05-03 11:30:45,2021-05-03 11:30:45,0.146s,PASSED
"setText(findTestObject(""Login Page/password""), password)",Chrome 90.0.4430.93,,,2021-05-03 11:30:45,2021-05-03 11:30:45,0.090s,PASSED
"click(findTestObject(""Login Page/Sign In""))",Chrome 90.0.4430.93,,,2021-05-03 11:30:45,2021-05-03 11:30:48,2.411s,PASSED
"waitForElementVisible(findTestObject(""Top Navigation Menu/Dashboard""), 60)",Chrome 90.0.4430.93,,,2021-05-03 11:30:48,2021-05-03 11:30:48,0.561s,PASSED
"enhancedClick(findTestObject(""Top Navigation Menu/Recruits""))",Chrome 90.0.4430.93,,,2021-05-03 11:30:48,2021-05-03 11:30:48,0.111s,PASSED
"enhancedClick(findTestObject(""Recruits Page/FastConnect tab""))",Chrome 90.0.4430.93,,,2021-05-03 11:30:48,2021-05-03 11:30:49,0.115s,PASSED
"enhancedClick(findTestObject(""Recruits Page/FastConnect/List dropdown""))",Chrome 90.0.4430.93,,,2021-05-03 11:30:49,2021-05-03 11:30:49,0.120s,PASSED
"enhancedClick(findTestObject(""Recruits Page/FastConnect/All Recruits list dropdown""))",Chrome 90.0.4430.93,,,2021-05-03 11:30:49,2021-05-03 11:30:49,0.535s,PASSED
delay(10),Chrome 90.0.4430.93,,,2021-05-03 11:30:49,2021-05-03 11:30:59,10.005s,PASSED
"verifyElementVisible(findTestObject(""Recruits Page/FastConnect/Fastconnect post1""), STOP_ON_FAILURE)",Chrome 90.0.4430.93,,,2021-05-03 11:30:59,2021-05-03 11:31:11,12.062s,PASSED
closeBrowser(),Chrome 90.0.4430.93,,,2021-05-03 11:31:11,2021-05-03 11:31:11,0.087s,PASSED
,,,,,,,
Test Cases/Tourney Workflow,Chrome 90.0.4430.93,,,2021-05-03 11:31:11,2021-05-03 11:31:50,38.449s,FAILED
openBrowser(URL),Chrome 90.0.4430.93,,,2021-05-03 11:31:11,2021-05-03 11:31:13,1.769s,PASSED
"setText(findTestObject(""Login Page/Email""), email)",Chrome 90.0.4430.93,,,2021-05-03 11:31:13,2021-05-03 11:31:13,0.141s,PASSED
"setText(findTestObject(""Login Page/password""), password)",Chrome 90.0.4430.93,,,2021-05-03 11:31:13,2021-05-03 11:31:13,0.094s,PASSED
"click(findTestObject(""Login Page/Sign In""))",Chrome 90.0.4430.93,,,2021-05-03 11:31:13,2021-05-03 11:31:16,2.403s,PASSED
"waitForElementVisible(findTestObject(""Top Navigation Menu/Dashboard""), 60)",Chrome 90.0.4430.93,,,2021-05-03 11:31:16,2021-05-03 11:31:16,0.564s,PASSED
"enhancedClick(findTestObject(""Top Navigation Menu/Tourneys""))",Chrome 90.0.4430.93,,,2021-05-03 11:31:16,2021-05-03 11:31:17,0.090s,PASSED
"enhancedClick(findTestObject(""Tourneys page/Tourney list dropdown""))",Chrome 90.0.4430.93,,,2021-05-03 11:31:17,2021-05-03 11:31:18,1.227s,PASSED
enhancedClick(tourneySession),Chrome 90.0.4430.93,,,2021-05-03 11:31:18,2021-05-03 11:31:18,0.081s,PASSED
"enhancedClick(findTestObject(""Tourneys page/Tourneys header""))",Chrome 90.0.4430.93,,,2021-05-03 11:31:18,2021-05-03 11:31:18,0.067s,PASSED
"enhancedClick(findTestObject(""Tourneys page/Tourney1 listed""))",Chrome 90.0.4430.93,,,2021-05-03 11:31:18,2021-05-03 11:31:18,0.354s,PASSED
"enhancedClick(findTestObject(""Tourneys page/Assign Staff button""))",Chrome 90.0.4430.93,,,2021-05-03 11:31:18,2021-05-03 11:31:50,31.510s,FAILED
,,,,,,,
Test Cases/Features/Prospects View,Chrome 90.0.4430.93,,,2021-05-03 11:31:50,2021-05-03 11:32:15,25.094s,PASSED
openBrowser(URL),Chrome 90.0.4430.93,,,2021-05-03 11:31:50,2021-05-03 11:31:52,2.065s,PASSED
"setText(findTestObject(""Login Page/Email""), email2)",Chrome 90.0.4430.93,,,2021-05-03 11:31:52,2021-05-03 11:31:52,0.144s,PASSED
"setText(findTestObject(""Login Page/password""), password)",Chrome 90.0.4430.93,,,2021-05-03 11:31:52,2021-05-03 11:31:52,0.093s,PASSED
"click(findTestObject(""Login Page/Sign In""))",Chrome 90.0.4430.93,,,2021-05-03 11:31:52,2021-05-03 11:31:55,2.486s,PASSED
"waitForElementVisible(findTestObject(""Top Navigation Menu/Dashboard""), 60)",Chrome 90.0.4430.93,,,2021-05-03 11:31:55,2021-05-03 11:31:55,0.544s,PASSED
"enhancedClick(findTestObject(""Prospects View/Add Prospect button""))",Chrome 90.0.4430.93,,,2021-05-03 11:31:55,2021-05-03 11:31:55,0.085s,PASSED
"enhancedClick(findTestObject(""Prospects View/Link Player Stats button""))",Chrome 90.0.4430.93,,,2021-05-03 11:31:55,2021-05-03 11:31:57,1.416s,PASSED
"enhancedClick(findTestObject(""Recruits Page/Add New Recruit modal/LinkToFastScout Folder/League_Division dropdown""))",Chrome 90.0.4430.93,,,2021-05-03 11:31:57,2021-05-03 11:31:57,0.092s,PASSED
"enhancedClick(findTestObject(""Recruits Page/Add New Recruit modal/LinkToFastScout Folder/D-II League""))",Chrome 90.0.4430.93,,,2021-05-03 11:31:57,2021-05-03 11:31:57,0.071s,PASSED
"enhancedClick(findTestObject(""Prospects View/Link Player Stats Team dropdown (Prospects)""))",Chrome 90.0.4430.93,,,2021-05-03 11:31:57,2021-05-03 11:31:57,0.090s,PASSED
"enhancedClick(findTestObject(""Recruits Page/Add New Recruit modal/LinkToFastScout Folder/Florida Southern (LFS)""))",Chrome 90.0.4430.93,,,2021-05-03 11:31:57,2021-05-03 11:31:57,0.082s,PASSED
"enhancedClick(findTestObject(""Prospects View/Link Player Stats Player dropdown (Prospects)""))",Chrome 90.0.4430.93,,,2021-05-03 11:31:57,2021-05-03 11:31:57,0.075s,PASSED
"enhancedClick(findTestObject(""Recruits Page/Add New Recruit modal/LinkToFastScout Folder/Player10 (LFS)""))",Chrome 90.0.4430.93,,,2021-05-03 11:31:57,2021-05-03 11:31:57,0.078s,PASSED
"click(findTestObject(""Recruits Page/Add New Recruit modal/SAVE button""))",Chrome 90.0.4430.93,,,2021-05-03 11:31:57,2021-05-03 11:31:57,0.112s,PASSED
"mouseOver(findTestObject(""Prospects View/Select Existing Prospect""))",Chrome 90.0.4430.93,,,2021-05-03 11:31:57,2021-05-03 11:31:58,0.195s,PASSED
"enhancedClick(findTestObject(""Prospects View/Select Existing Prospect""))",Chrome 90.0.4430.93,,,2021-05-03 11:31:58,2021-05-03 11:31:58,0.160s,PASSED
"enhancedClick(findTestObject(""Prospects View/FastScout Team Link (Prospect Profile)""))",Chrome 90.0.4430.93,,,2021-05-03 11:31:58,2021-05-03 11:31:58,0.087s,PASSED
switchToWindowIndex(1),Chrome 90.0.4430.93,,,2021-05-03 11:31:58,2021-05-03 11:31:58,0.281s,PASSED
delay(7),Chrome 90.0.4430.93,,,2021-05-03 11:31:58,2021-05-03 11:32:05,7.003s,PASSED
scoutURL = getUrl(),Chrome 90.0.4430.93,,,2021-05-03 11:32:05,2021-05-03 11:32:05,0.019s,PASSED
"assert scoutURL.contains(""league=NCAAB-II"")",Chrome 90.0.4430.93,,,2021-05-03 11:32:05,2021-05-03 11:32:05,0.002s,PASSED
switchToWindowIndex(0),Chrome 90.0.4430.93,,,2021-05-03 11:32:05,2021-05-03 11:32:05,0.009s,PASSED
delay(1),Chrome 90.0.4430.93,,,2021-05-03 11:32:05,2021-05-03 11:32:06,1.001s,PASSED
"enhancedClick(findTestObject(""Recruit Profile (view)/CLOSE button - Copy2""))",Chrome 90.0.4430.93,,,2021-05-03 11:32:06,2021-05-03 11:32:06,0.110s,PASSED
delay(1),Chrome 90.0.4430.93,,,2021-05-03 11:32:06,2021-05-03 11:32:07,1.007s,PASSED
"click(findTestObject(""Prospects View/Archive Prospect button""))",Chrome 90.0.4430.93,,,2021-05-03 11:32:07,2021-05-03 11:32:07,0.088s,PASSED
delay(1),Chrome 90.0.4430.93,,,2021-05-03 11:32:07,2021-05-03 11:32:08,1.006s,PASSED
"click(findTestObject(""Prospects View/All Prospects List selection""))",Chrome 90.0.4430.93,,,2021-05-03 11:32:08,2021-05-03 11:32:08,0.078s,PASSED
delay(1),Chrome 90.0.4430.93,,,2021-05-03 11:32:08,2021-05-03 11:32:09,1.003s,PASSED
"click(findTestObject(""Recruits Page/Archived List selection""))",Chrome 90.0.4430.93,,,2021-05-03 11:32:09,2021-05-03 11:32:09,0.108s,PASSED
delay(1),Chrome 90.0.4430.93,,,2021-05-03 11:32:09,2021-05-03 11:32:10,1.004s,PASSED
"enhancedClick(findTestObject(""Prospects View/Archived List ellipsis (Prospects)""))",Chrome 90.0.4430.93,,,2021-05-03 11:32:10,2021-05-03 11:32:11,0.078s,PASSED
delay(1),Chrome 90.0.4430.93,,,2021-05-03 11:32:11,2021-05-03 11:32:12,1.005s,PASSED
"enhancedClick(findTestObject(""Prospects View/Delete1 (Prospects)""))",Chrome 90.0.4430.93,,,2021-05-03 11:32:12,2021-05-03 11:32:12,0.103s,PASSED
delay(1),Chrome 90.0.4430.93,,,2021-05-03 11:32:12,2021-05-03 11:32:13,1.006s,PASSED
"enhancedClick(findTestObject(""Prospects View/Delete2 (Prospects)""))",Chrome 90.0.4430.93,,,2021-05-03 11:32:13,2021-05-03 11:32:13,0.082s,PASSED
delay(2),Chrome 90.0.4430.93,,,2021-05-03 11:32:13,2021-05-03 11:32:15,2.005s,PASSED
closeBrowser(),Chrome 90.0.4430.93,,,2021-05-03 11:32:15,2021-05-03 11:32:15,0.100s,PASSED
