Suite/Test/Step Name,Browser,Description,Tag,Start time,End time,Duration,Status
Regression Tests,Chrome 88.0.4324.182,,,2021-02-19 10:49:42,2021-02-19 10:55:32,5m - 49.596s,FAILED
,,,,,,,
Test Cases/Draft Board,Chrome 88.0.4324.182,,,2021-02-19 10:49:43,2021-02-19 10:50:20,37.026s,PASSED
openBrowser(URL),Chrome 88.0.4324.182,,,2021-02-19 10:49:43,2021-02-19 10:49:47,4.019s,PASSED
"setText(findTestObject(""Login Page/Email""), email)",Chrome 88.0.4324.182,,,2021-02-19 10:49:47,2021-02-19 10:49:48,0.973s,PASSED
"setText(findTestObject(""Login Page/password""), password)",Chrome 88.0.4324.182,,,2021-02-19 10:49:48,2021-02-19 10:49:49,0.553s,PASSED
"click(findTestObject(""Login Page/Sign In""))",Chrome 88.0.4324.182,,,2021-02-19 10:49:49,2021-02-19 10:49:51,2.445s,PASSED
"waitForElementVisible(findTestObject(""Top Navigation Menu/Dashboard""), 60)",Chrome 88.0.4324.182,,,2021-02-19 10:49:51,2021-02-19 10:49:52,1.043s,PASSED
"enhancedClick(findTestObject(""Top Navigation Menu/Dashboard""))",Chrome 88.0.4324.182,,,2021-02-19 10:49:52,2021-02-19 10:49:57,4.687s,PASSED
delay(3),Chrome 88.0.4324.182,,,2021-02-19 10:49:57,2021-02-19 10:50:00,3.019s,PASSED
"mouseOver(findTestObject(""Dashboard Page/Draft Board (Dashboard)/blank 1-PG on Draft Board (Dashboard)""))",Chrome 88.0.4324.182,,,2021-02-19 10:50:00,2021-02-19 10:50:00,0.444s,PASSED
"enhancedClick(findTestObject(""Dashboard Page/Draft Board (Dashboard)/blank 1-PG on Draft Board (Dashboard)""))",Chrome 88.0.4324.182,,,2021-02-19 10:50:00,2021-02-19 10:50:01,0.415s,PASSED
"enhancedClick(findTestObject(""Dashboard Page/Draft Board (Dashboard)/Draft Board Dropdown Player1""))",Chrome 88.0.4324.182,,,2021-02-19 10:50:01,2021-02-19 10:50:01,0.626s,PASSED
"mouseOver(findTestObject(""Dashboard Page/Draft Board (Dashboard)/1-PG on Draft Board""))",Chrome 88.0.4324.182,,,2021-02-19 10:50:01,2021-02-19 10:50:02,0.813s,PASSED
"enhancedClick(findTestObject(""Dashboard Page/Draft Board (Dashboard)/1-PG on Draft Board""))",Chrome 88.0.4324.182,,,2021-02-19 10:50:02,2021-02-19 10:50:02,0.368s,PASSED
delay(1),Chrome 88.0.4324.182,,,2021-02-19 10:50:02,2021-02-19 10:50:03,1.004s,PASSED
"enhancedClick(findTestObject(""Recruit Profile (view)/Alerts button""))",Chrome 88.0.4324.182,,,2021-02-19 10:50:03,2021-02-19 10:50:04,0.303s,PASSED
"enhancedClick(findTestObject(""Recruit Profile (view)/CLOSE button""))",Chrome 88.0.4324.182,,,2021-02-19 10:50:04,2021-02-19 10:50:04,0.628s,PASSED
"verifyElementAttributeValue(findTestObject(""Dashboard Page/Draft Board (Dashboard)/1-PG on Draft Board""), ""class"", ""draft-board-player css-1ydqi8h-DraftBoard"", 0)",Chrome 88.0.4324.182,,,2021-02-19 10:50:04,2021-02-19 10:50:05,0.748s,PASSED
"mouseOver(findTestObject(""Dashboard Page/Draft Board (Dashboard)/1-PG on Draft Board""))",Chrome 88.0.4324.182,,,2021-02-19 10:50:05,2021-02-19 10:50:06,0.401s,PASSED
"enhancedClick(findTestObject(""Dashboard Page/Draft Board (Dashboard)/1-PG on Draft Board""))",Chrome 88.0.4324.182,,,2021-02-19 10:50:06,2021-02-19 10:50:06,0.322s,PASSED
"enhancedClick(findTestObject(""Recruit Profile (view)/Alerts button""))",Chrome 88.0.4324.182,,,2021-02-19 10:50:06,2021-02-19 10:50:06,0.601s,PASSED
"enhancedClick(findTestObject(""Recruit Profile (view)/CLOSE button""))",Chrome 88.0.4324.182,,,2021-02-19 10:50:06,2021-02-19 10:50:07,0.709s,PASSED
delay(1),Chrome 88.0.4324.182,,,2021-02-19 10:50:07,2021-02-19 10:50:08,1.004s,PASSED
"verifyElementAttributeValue(findTestObject(""Dashboard Page/Draft Board (Dashboard)/1-PG on Draft Board""), ""class"", ""draft-board-player css-1xcfrz7-DraftBoard"", 0)",Chrome 88.0.4324.182,,,2021-02-19 10:50:08,2021-02-19 10:50:08,0.268s,PASSED
"mouseOver(findTestObject(""Dashboard Page/Draft Board (Dashboard)/1-PG on Draft Board""))",Chrome 88.0.4324.182,,,2021-02-19 10:50:08,2021-02-19 10:50:09,0.387s,PASSED
"enhancedClick(findTestObject(""Dashboard Page/Draft Board (Dashboard)/Delete 1-PG on Draft Board""))",Chrome 88.0.4324.182,,,2021-02-19 10:50:09,2021-02-19 10:50:09,0.306s,PASSED
"enhancedClick(findTestObject(""Dashboard Page/Draft Board (Dashboard)/Draft Board Season Dropdown""))",Chrome 88.0.4324.182,,,2021-02-19 10:50:09,2021-02-19 10:50:10,0.602s,PASSED
"enhancedClick(findTestObject(""Dashboard Page/Draft Board (Dashboard)/Draft Board Season Dropdown - 2023""))",Chrome 88.0.4324.182,,,2021-02-19 10:50:10,2021-02-19 10:50:10,0.299s,PASSED
"mouseOver(findTestObject(""Dashboard Page/Draft Board (Dashboard)/blank 1-PG on Draft Board (Dashboard)""))",Chrome 88.0.4324.182,,,2021-02-19 10:50:10,2021-02-19 10:50:11,0.602s,PASSED
"enhancedClick(findTestObject(""Dashboard Page/Draft Board (Dashboard)/blank 1-PG on Draft Board (Dashboard)""))",Chrome 88.0.4324.182,,,2021-02-19 10:50:11,2021-02-19 10:50:11,0.292s,PASSED
"enhancedClick(findTestObject(""Dashboard Page/Draft Board (Dashboard)/Draft Board Dropdown Player1""))",Chrome 88.0.4324.182,,,2021-02-19 10:50:11,2021-02-19 10:50:12,0.710s,PASSED
delay(1),Chrome 88.0.4324.182,,,2021-02-19 10:50:12,2021-02-19 10:50:13,1.005s,PASSED
"mouseOver(findTestObject(""Dashboard Page/Draft Board (Dashboard)/blank 2-PG on Draft Board (Dashboard)""))",Chrome 88.0.4324.182,,,2021-02-19 10:50:13,2021-02-19 10:50:13,0.388s,PASSED
"enhancedClick(findTestObject(""Dashboard Page/Draft Board (Dashboard)/blank 2-PG on Draft Board (Dashboard)""))",Chrome 88.0.4324.182,,,2021-02-19 10:50:13,2021-02-19 10:50:13,0.393s,PASSED
"enhancedClick(findTestObject(""Dashboard Page/Draft Board (Dashboard)/Recruit Search field""))",Chrome 88.0.4324.182,,,2021-02-19 10:50:13,2021-02-19 10:50:14,0.818s,PASSED
"sendKeys(findTestObject(""Dashboard Page/Draft Board (Dashboard)/Recruit Search field""), ""Mikey Williams"")",Chrome 88.0.4324.182,,,2021-02-19 10:50:14,2021-02-19 10:50:15,0.417s,PASSED
delay(2),Chrome 88.0.4324.182,,,2021-02-19 10:50:15,2021-02-19 10:50:17,2.004s,PASSED
"enhancedClick(findTestObject(""Dashboard Page/Draft Board (Dashboard)/Draft Board Dropdown Player2""))",Chrome 88.0.4324.182,,,2021-02-19 10:50:17,2021-02-19 10:50:17,0.308s,PASSED
"mouseOver(findTestObject(""Dashboard Page/Draft Board (Dashboard)/2-PG on Draft Board""))",Chrome 88.0.4324.182,,,2021-02-19 10:50:17,2021-02-19 10:50:18,0.707s,PASSED
"enhancedClick(findTestObject(""Dashboard Page/Draft Board (Dashboard)/Delete 2-PG on Draft Board""))",Chrome 88.0.4324.182,,,2021-02-19 10:50:18,2021-02-19 10:50:18,0.307s,PASSED
"mouseOver(findTestObject(""Dashboard Page/Draft Board (Dashboard)/1-PG on Draft Board""))",Chrome 88.0.4324.182,,,2021-02-19 10:50:18,2021-02-19 10:50:19,0.689s,PASSED
"enhancedClick(findTestObject(""Dashboard Page/Draft Board (Dashboard)/Delete 1-PG on Draft Board""))",Chrome 88.0.4324.182,,,2021-02-19 10:50:19,2021-02-19 10:50:19,0.403s,PASSED
"enhancedClick(findTestObject(""Dashboard Page/Draft Board (Dashboard)/Draft Board Link""))",Chrome 88.0.4324.182,,,2021-02-19 10:50:19,2021-02-19 10:50:20,0.635s,PASSED
closeBrowser(),Chrome 88.0.4324.182,,,2021-02-19 10:50:20,2021-02-19 10:50:20,0.109s,PASSED
,,,,,,,
Test Cases/Depth Chart,Chrome 88.0.4324.182,,,2021-02-19 10:50:20,2021-02-19 10:51:46,1m - 26.336s,PASSED
openBrowser(URL),Chrome 88.0.4324.182,,,2021-02-19 10:50:20,2021-02-19 10:50:23,2.823s,PASSED
"setText(findTestObject(""Login Page/Email""), email)",Chrome 88.0.4324.182,,,2021-02-19 10:50:23,2021-02-19 10:50:24,0.921s,PASSED
"setText(findTestObject(""Login Page/password""), password)",Chrome 88.0.4324.182,,,2021-02-19 10:50:24,2021-02-19 10:50:24,0.548s,PASSED
"click(findTestObject(""Login Page/Sign In""))",Chrome 88.0.4324.182,,,2021-02-19 10:50:24,2021-02-19 10:50:27,2.570s,PASSED
"waitForElementVisible(findTestObject(""Top Navigation Menu/Dashboard""), 60)",Chrome 88.0.4324.182,,,2021-02-19 10:50:27,2021-02-19 10:50:28,1.081s,PASSED
"enhancedClick(findTestObject(""Top Navigation Menu/Dashboard""))",Chrome 88.0.4324.182,,,2021-02-19 10:50:28,2021-02-19 10:50:34,6.025s,PASSED
delay(3),Chrome 88.0.4324.182,,,2021-02-19 10:50:34,2021-02-19 10:50:37,3.007s,PASSED
"enhancedClick(findTestObject(""Dashboard Page/Depth Chart/Depth Chart season dropdown""))",Chrome 88.0.4324.182,,,2021-02-19 10:50:37,2021-02-19 10:50:37,0.296s,PASSED
"enhancedClick(findTestObject(""Dashboard Page/Depth Chart/Season Dropdown Index3""))",Chrome 88.0.4324.182,,,2021-02-19 10:50:37,2021-02-19 10:50:38,0.417s,PASSED
"enhancedClick(findTestObject(""Dashboard Page/Depth Chart/Depth Chart season dropdown""))",Chrome 88.0.4324.182,,,2021-02-19 10:50:38,2021-02-19 10:50:38,0.484s,PASSED
"enhancedClick(findTestObject(""Dashboard Page/Depth Chart/Season Dropdown Index2""))",Chrome 88.0.4324.182,,,2021-02-19 10:50:38,2021-02-19 10:50:38,0.309s,PASSED
"enhancedClick(findTestObject(""Dashboard Page/Depth Chart/EDIT Depth Chart""))",Chrome 88.0.4324.182,,,2021-02-19 10:50:38,2021-02-19 10:50:39,0.651s,PASSED
"enhancedClick(findTestObject(""Dashboard Page/Depth Chart/Depth Chart Edit (sr, pg, 1)""))",Chrome 88.0.4324.182,,,2021-02-19 10:50:39,2021-02-19 10:51:10,31.193s,PASSED
"enhancedClick(findTestObject(""Dashboard Page/Depth Chart/SAVE Depth Chart""))",Chrome 88.0.4324.182,,,2021-02-19 10:51:10,2021-02-19 10:51:11,0.524s,PASSED
delay(2),Chrome 88.0.4324.182,,,2021-02-19 10:51:11,2021-02-19 10:51:13,2.005s,PASSED
"verifyTextNotPresent(playerHidden, false)",Chrome 88.0.4324.182,,,2021-02-19 10:51:13,2021-02-19 10:51:13,0.339s,PASSED
"enhancedClick(findTestObject(""Dashboard Page/Depth Chart/EDIT Depth Chart""))",Chrome 88.0.4324.182,,,2021-02-19 10:51:13,2021-02-19 10:51:14,0.536s,PASSED
"enhancedClick(findTestObject(""Dashboard Page/Depth Chart/Depth Chart Edit (sr, pg, 1)""))",Chrome 88.0.4324.182,,,2021-02-19 10:51:14,2021-02-19 10:51:45,31.112s,PASSED
"enhancedClick(findTestObject(""Dashboard Page/Depth Chart/SAVE Depth Chart""))",Chrome 88.0.4324.182,,,2021-02-19 10:51:45,2021-02-19 10:51:45,0.508s,PASSED
"verifyTextPresent(playerHidden, false)",Chrome 88.0.4324.182,,,2021-02-19 10:51:45,2021-02-19 10:51:46,0.849s,PASSED
,,,,,,,
Test Cases/Dashboard Calendar,Chrome 88.0.4324.182,,,2021-02-19 10:51:46,2021-02-19 10:52:33,47.110s,FAILED
openBrowser(URL),Chrome 88.0.4324.182,,,2021-02-19 10:51:46,2021-02-19 10:51:49,3.015s,PASSED
"setText(findTestObject(""Login Page/Email""), email)",Chrome 88.0.4324.182,,,2021-02-19 10:51:49,2021-02-19 10:51:50,0.589s,PASSED
"setText(findTestObject(""Login Page/password""), password)",Chrome 88.0.4324.182,,,2021-02-19 10:51:50,2021-02-19 10:51:51,0.644s,PASSED
"click(findTestObject(""Login Page/Sign In""))",Chrome 88.0.4324.182,,,2021-02-19 10:51:51,2021-02-19 10:51:53,2.674s,PASSED
"waitForElementVisible(findTestObject(""Top Navigation Menu/Dashboard""), 60)",Chrome 88.0.4324.182,,,2021-02-19 10:51:53,2021-02-19 10:51:54,0.976s,PASSED
"enhancedClick(findTestObject(""Top Navigation Menu/Recruits""))",Chrome 88.0.4324.182,,,2021-02-19 10:51:54,2021-02-19 10:52:00,5.842s,PASSED
delay(3),Chrome 88.0.4324.182,,,2021-02-19 10:52:00,2021-02-19 10:52:03,3.005s,PASSED
"enhancedClick(findTestObject(""Top Navigation Menu/Dashboard""))",Chrome 88.0.4324.182,,,2021-02-19 10:52:03,2021-02-19 10:52:04,0.470s,PASSED
delay(3),Chrome 88.0.4324.182,,,2021-02-19 10:52:04,2021-02-19 10:52:07,3.003s,PASSED
"enhancedClick(findTestObject(""Dashboard Page/Calendar (Dashboard)/Toggle Left (Calendar Dashboard)""))",Chrome 88.0.4324.182,,,2021-02-19 10:52:07,2021-02-19 10:52:08,1.253s,PASSED
delay(5),Chrome 88.0.4324.182,,,2021-02-19 10:52:08,2021-02-19 10:52:13,5.008s,PASSED
"enhancedClick(findTestObject(""Dashboard Page/Calendar (Dashboard)/Toggle Right (Calendar Dashboard)""))",Chrome 88.0.4324.182,,,2021-02-19 10:52:13,2021-02-19 10:52:13,0.319s,PASSED
delay(5),Chrome 88.0.4324.182,,,2021-02-19 10:52:13,2021-02-19 10:52:18,5.002s,PASSED
"enhancedClick(findTestObject(""Dashboard Page/Calendar (Dashboard)/Dashboard Calendar SHOW dropdown""))",Chrome 88.0.4324.182,,,2021-02-19 10:52:18,2021-02-19 10:52:18,0.307s,PASSED
"enhancedClick(findTestObject(""Dashboard Page/Calendar (Dashboard)/My Calendar option""))",Chrome 88.0.4324.182,,,2021-02-19 10:52:18,2021-02-19 10:52:19,0.298s,PASSED
"enhancedClick(findTestObject(""Dashboard Page/Calendar (Dashboard)/My Calendar option""))",Chrome 88.0.4324.182,,,2021-02-19 10:52:19,2021-02-19 10:52:19,0.595s,PASSED
"enhancedClick(findTestObject(""Dashboard Page/Calendar (Dashboard)/Team calendar option""))",Chrome 88.0.4324.182,,,2021-02-19 10:52:19,2021-02-19 10:52:20,0.509s,PASSED
"enhancedClick(findTestObject(""Dashboard Page/Calendar (Dashboard)/Team calendar option""))",Chrome 88.0.4324.182,,,2021-02-19 10:52:20,2021-02-19 10:52:20,0.483s,PASSED
"enhancedClick(findTestObject(""Dashboard Page/Calendar (Dashboard)/Tasks calendar option""))",Chrome 88.0.4324.182,,,2021-02-19 10:52:20,2021-02-19 10:52:21,0.497s,PASSED
"enhancedClick(findTestObject(""Dashboard Page/Calendar (Dashboard)/Tasks calendar option""))",Chrome 88.0.4324.182,,,2021-02-19 10:52:21,2021-02-19 10:52:21,0.484s,PASSED
"enhancedClick(findTestObject(""Dashboard Page/Calendar (Dashboard)/NCAA Calendar option""))",Chrome 88.0.4324.182,,,2021-02-19 10:52:21,2021-02-19 10:52:22,0.495s,PASSED
"enhancedClick(findTestObject(""Dashboard Page/Calendar (Dashboard)/NCAA Calendar option""))",Chrome 88.0.4324.182,,,2021-02-19 10:52:22,2021-02-19 10:52:22,0.483s,PASSED
"enhancedClick(findTestObject(""Dashboard Page/Calendar (Dashboard)/My Live Period calendar option""))",Chrome 88.0.4324.182,,,2021-02-19 10:52:22,2021-02-19 10:52:23,0.597s,PASSED
"enhancedClick(findTestObject(""Dashboard Page/Calendar (Dashboard)/My Live Period calendar option""))",Chrome 88.0.4324.182,,,2021-02-19 10:52:23,2021-02-19 10:52:23,0.479s,PASSED
"enhancedClick(findTestObject(""Dashboard Page/Calendar (Dashboard)/Dashboard Calendar SHOW dropdown""))",Chrome 88.0.4324.182,,,2021-02-19 10:52:23,2021-02-19 10:52:24,0.483s,PASSED
"enhancedClick(findTestObject(""Dashboard Page/Calendar (Dashboard)/Dashboard Calendar Add New""))",Chrome 88.0.4324.182,,,2021-02-19 10:52:24,2021-02-19 10:52:24,0.357s,PASSED
"enhancedClick(findTestObject(""Dashboard Page/Calendar (Dashboard)/Add Event modal/Event Name field""))",Chrome 88.0.4324.182,,,2021-02-19 10:52:24,2021-02-19 10:52:25,0.814s,PASSED
"sendKeys(findTestObject(""Dashboard Page/Calendar (Dashboard)/Add Event modal/Event Name field""), ""Test Event1"")",Chrome 88.0.4324.182,,,2021-02-19 10:52:25,2021-02-19 10:52:25,0.285s,PASSED
"enhancedClick(findTestObject(""Dashboard Page/Calendar (Dashboard)/Add Event modal/Event Location field""))",Chrome 88.0.4324.182,,,2021-02-19 10:52:25,2021-02-19 10:52:26,0.302s,PASSED
"sendKeys(findTestObject(""Dashboard Page/Calendar (Dashboard)/Add Event modal/Event Location field""), ""444 N. Michigan Ave"")",Chrome 88.0.4324.182,,,2021-02-19 10:52:26,2021-02-19 10:52:26,0.507s,PASSED
"enhancedClick(findTestObject(""Dashboard Page/Calendar (Dashboard)/Add Event modal/Select searched location""), STOP_ON_FAILURE)",Chrome 88.0.4324.182,,,2021-02-19 10:52:26,2021-02-19 10:52:27,0.922s,PASSED
"enhancedClick(findTestObject(""Dashboard Page/Calendar (Dashboard)/Add Event modal/Select Recruits dropdown""))",Chrome 88.0.4324.182,,,2021-02-19 10:52:27,2021-02-19 10:52:27,0.503s,PASSED
"enhancedClick(findTestObject(""Dashboard Page/Calendar (Dashboard)/Add Event modal/Recruit1 in dropdown (Add Event modal)""))",Chrome 88.0.4324.182,,,2021-02-19 10:52:27,2021-02-19 10:52:28,0.505s,PASSED
"enhancedClick(findTestObject(""Dashboard Page/Calendar (Dashboard)/Add Event modal/Add Event Attendees""))",Chrome 88.0.4324.182,,,2021-02-19 10:52:28,2021-02-19 10:52:29,0.503s,PASSED
"enhancedClick(findTestObject(""Dashboard Page/Calendar (Dashboard)/Add Event modal/Recruiters checkbox""))",Chrome 88.0.4324.182,,,2021-02-19 10:52:29,2021-02-19 10:52:29,0.623s,PASSED
"enhancedClick(findTestObject(""Dashboard Page/Calendar (Dashboard)/Add Event modal/Game Note field""))",Chrome 88.0.4324.182,,,2021-02-19 10:52:29,2021-02-19 10:52:29,0.293s,PASSED
"sendKeys(findTestObject(""Dashboard Page/Calendar (Dashboard)/Add Event modal/Game Note field""), ""arrive early"")",Chrome 88.0.4324.182,,,2021-02-19 10:52:29,2021-02-19 10:52:30,0.449s,PASSED
"enhancedClick(findTestObject(""Dashboard Page/Calendar (Dashboard)/Add Event modal/Add Event Save button""))",Chrome 88.0.4324.182,,,2021-02-19 10:52:30,2021-02-19 10:52:30,0.305s,PASSED
delay(2),Chrome 88.0.4324.182,,,2021-02-19 10:52:30,2021-02-19 10:52:32,2.003s,PASSED
"verifyTextPresent(""Test Event1"", false)",Chrome 88.0.4324.182,,,2021-02-19 10:52:32,2021-02-19 10:52:33,1.083s,FAILED
,,,,,,,
Test Cases/Add_Archive_Delete New Recruit,Chrome 88.0.4324.182,,,2021-02-19 10:52:33,2021-02-19 10:53:08,34.728s,PASSED
openBrowser(URL),Chrome 88.0.4324.182,,,2021-02-19 10:52:33,2021-02-19 10:52:36,2.984s,PASSED
"setText(findTestObject(""Login Page/Email""), email)",Chrome 88.0.4324.182,,,2021-02-19 10:52:36,2021-02-19 10:52:37,0.591s,PASSED
"setText(findTestObject(""Login Page/password""), password)",Chrome 88.0.4324.182,,,2021-02-19 10:52:37,2021-02-19 10:52:38,0.550s,PASSED
"click(findTestObject(""Login Page/Sign In""))",Chrome 88.0.4324.182,,,2021-02-19 10:52:38,2021-02-19 10:52:40,2.474s,PASSED
"waitForElementVisible(findTestObject(""Top Navigation Menu/Dashboard""), 60)",Chrome 88.0.4324.182,,,2021-02-19 10:52:40,2021-02-19 10:52:41,1.089s,PASSED
"click(findTestObject(""Top Navigation Menu/Recruits""))",Chrome 88.0.4324.182,,,2021-02-19 10:52:41,2021-02-19 10:52:46,4.812s,PASSED
"click(findTestObject(""Recruits Page/ADD RECRUIT button""))",Chrome 88.0.4324.182,,,2021-02-19 10:52:46,2021-02-19 10:52:47,0.790s,PASSED
"setText(findTestObject(""Recruits Page/Add New Recruit modal/First Name field""), ""Josh"")",Chrome 88.0.4324.182,,,2021-02-19 10:52:47,2021-02-19 10:52:48,0.883s,PASSED
"setText(findTestObject(""Recruits Page/Add New Recruit modal/Last Name field""), ""Allen"")",Chrome 88.0.4324.182,,,2021-02-19 10:52:48,2021-02-19 10:52:48,0.570s,PASSED
"setText(findTestObject(""Recruits Page/Add New Recruit modal/Class field""), ""2023"")",Chrome 88.0.4324.182,,,2021-02-19 10:52:48,2021-02-19 10:52:49,0.563s,PASSED
"click(findTestObject(""Recruits Page/Add New Recruit modal/Height field input""))",Chrome 88.0.4324.182,,,2021-02-19 10:52:49,2021-02-19 10:52:49,0.301s,PASSED
"setText(findTestObject(""Recruits Page/Add New Recruit modal/Height field input""), ""69"")",Chrome 88.0.4324.182,,,2021-02-19 10:52:49,2021-02-19 10:52:50,0.628s,PASSED
"setText(findTestObject(""Recruits Page/Add New Recruit modal/Birthdate field input""), ""1/1/2005"")",Chrome 88.0.4324.182,,,2021-02-19 10:52:50,2021-02-19 10:52:50,0.685s,PASSED
"enhancedClick(findTestObject(""Recruits Page/Add New Recruit modal/Birthdate field Label""))",Chrome 88.0.4324.182,,,2021-02-19 10:52:50,2021-02-19 10:52:51,0.430s,PASSED
"setText(findTestObject(""Recruits Page/Add New Recruit modal/High School field input""), ""highland park"")",Chrome 88.0.4324.182,,,2021-02-19 10:52:51,2021-02-19 10:52:52,0.884s,PASSED
"sendKeys(findTestObject(""Recruits Page/Add New Recruit modal/High School field input""), Keys.chord(DOWN))",Chrome 88.0.4324.182,,,2021-02-19 10:52:52,2021-02-19 10:52:52,0.499s,PASSED
"sendKeys(findTestObject(""Recruits Page/Add New Recruit modal/High School field input""), Keys.chord(ENTER))",Chrome 88.0.4324.182,,,2021-02-19 10:52:52,2021-02-19 10:52:53,0.492s,PASSED
"setText(findTestObject(""Recruits Page/Add New Recruit modal/High School Coach Name field""), ""Coach Miller"")",Chrome 88.0.4324.182,,,2021-02-19 10:52:53,2021-02-19 10:52:54,1.236s,PASSED
"setText(findTestObject(""Recruits Page/Add New Recruit modal/High School Coach Phone field""), ""8474713163"")",Chrome 88.0.4324.182,,,2021-02-19 10:52:54,2021-02-19 10:52:55,0.690s,PASSED
"setText(findTestObject(""Recruits Page/Add New Recruit modal/Club Team field""), ""Mac Irvin Fire"")",Chrome 88.0.4324.182,,,2021-02-19 10:52:55,2021-02-19 10:52:55,0.880s,PASSED
"setText(findTestObject(""Recruits Page/Add New Recruit modal/Club Team Number field""), ""10"")",Chrome 88.0.4324.182,,,2021-02-19 10:52:55,2021-02-19 10:52:56,0.550s,PASSED
"click(findTestObject(""Recruits Page/Add New Recruit modal/SAVE button""))",Chrome 88.0.4324.182,,,2021-02-19 10:52:56,2021-02-19 10:52:56,0.464s,PASSED
"setText(findTestObject(""Recruits Page/Recruit Search Field on Recruits page""), ""josh allen"")",Chrome 88.0.4324.182,,,2021-02-19 10:52:56,2021-02-19 10:52:58,1.074s,PASSED
delay(1),Chrome 88.0.4324.182,,,2021-02-19 10:52:58,2021-02-19 10:52:59,1.003s,PASSED
"click(findTestObject(""Recruits Page/Archive recruit""))",Chrome 88.0.4324.182,,,2021-02-19 10:52:59,2021-02-19 10:52:59,0.307s,PASSED
delay(1),Chrome 88.0.4324.182,,,2021-02-19 10:52:59,2021-02-19 10:53:00,1.004s,PASSED
"click(findTestObject(""Recruits Page/All Recruits List selection""))",Chrome 88.0.4324.182,,,2021-02-19 10:53:00,2021-02-19 10:53:00,0.401s,PASSED
delay(1),Chrome 88.0.4324.182,,,2021-02-19 10:53:00,2021-02-19 10:53:01,1.001s,PASSED
"click(findTestObject(""Recruits Page/Archived List selection""))",Chrome 88.0.4324.182,,,2021-02-19 10:53:01,2021-02-19 10:53:02,0.632s,PASSED
delay(1),Chrome 88.0.4324.182,,,2021-02-19 10:53:02,2021-02-19 10:53:03,1.006s,PASSED
"click(findTestObject(""Recruits Page/Archived list ellipsis button""))",Chrome 88.0.4324.182,,,2021-02-19 10:53:03,2021-02-19 10:53:03,0.402s,PASSED
delay(1),Chrome 88.0.4324.182,,,2021-02-19 10:53:03,2021-02-19 10:53:04,1.005s,PASSED
"click(findTestObject(""Recruits Page/Delete1""))",Chrome 88.0.4324.182,,,2021-02-19 10:53:04,2021-02-19 10:53:05,0.306s,PASSED
delay(1),Chrome 88.0.4324.182,,,2021-02-19 10:53:05,2021-02-19 10:53:06,1.003s,PASSED
"enhancedClick(findTestObject(""Recruits Page/Delete2""))",Chrome 88.0.4324.182,,,2021-02-19 10:53:06,2021-02-19 10:53:06,0.307s,PASSED
delay(2),Chrome 88.0.4324.182,,,2021-02-19 10:53:06,2021-02-19 10:53:08,2.002s,PASSED
closeBrowser(),Chrome 88.0.4324.182,,,2021-02-19 10:53:08,2021-02-19 10:53:08,0.096s,PASSED
,,,,,,,
Test Cases/Tasks,Chrome 88.0.4324.182,,,2021-02-19 10:53:08,2021-02-19 10:53:29,20.671s,PASSED
openBrowser(URL),Chrome 88.0.4324.182,,,2021-02-19 10:53:08,2021-02-19 10:53:11,2.922s,PASSED
"setText(findTestObject(""Login Page/Email""), email)",Chrome 88.0.4324.182,,,2021-02-19 10:53:11,2021-02-19 10:53:12,0.698s,PASSED
"setText(findTestObject(""Login Page/password""), password)",Chrome 88.0.4324.182,,,2021-02-19 10:53:12,2021-02-19 10:53:12,0.552s,PASSED
"click(findTestObject(""Login Page/Sign In""))",Chrome 88.0.4324.182,,,2021-02-19 10:53:12,2021-02-19 10:53:15,2.334s,PASSED
"waitForElementVisible(findTestObject(""Top Navigation Menu/Dashboard""), 60)",Chrome 88.0.4324.182,,,2021-02-19 10:53:15,2021-02-19 10:53:16,1.065s,PASSED
"enhancedClick(findTestObject(""Top Navigation Menu/Recruits""))",Chrome 88.0.4324.182,,,2021-02-19 10:53:16,2021-02-19 10:53:20,4.767s,PASSED
"enhancedClick(findTestObject(""Recruits Page/Tasks tab""))",Chrome 88.0.4324.182,,,2021-02-19 10:53:20,2021-02-19 10:53:21,0.777s,PASSED
"enhancedClick(findTestObject(""Recruits Page/Tasks/Add Task button""))",Chrome 88.0.4324.182,,,2021-02-19 10:53:21,2021-02-19 10:53:22,0.534s,PASSED
"enhancedClick(findTestObject(""Recruits Page/Tasks/Add Task Recruit field""))",Chrome 88.0.4324.182,,,2021-02-19 10:53:22,2021-02-19 10:53:22,0.557s,PASSED
"enhancedClick(findTestObject(""Recruits Page/Tasks/Add Task recruit dropdown1""))",Chrome 88.0.4324.182,,,2021-02-19 10:53:22,2021-02-19 10:53:23,0.504s,PASSED
"enhancedClick(findTestObject(""Recruits Page/Tasks/Add Task Assigned To field""))",Chrome 88.0.4324.182,,,2021-02-19 10:53:23,2021-02-19 10:53:23,0.499s,PASSED
"enhancedClick(findTestObject(""Recruits Page/Tasks/Add Task Assigned To dropdown1""))",Chrome 88.0.4324.182,,,2021-02-19 10:53:23,2021-02-19 10:53:24,0.497s,PASSED
"enhancedClick(findTestObject(""Recruits Page/Tasks/Add Task Instruction field""))",Chrome 88.0.4324.182,,,2021-02-19 10:53:24,2021-02-19 10:53:24,0.500s,PASSED
"setText(findTestObject(""Recruits Page/Tasks/Add Task Instruction field""), ""test task"")",Chrome 88.0.4324.182,,,2021-02-19 10:53:24,2021-02-19 10:53:25,0.769s,PASSED
"enhancedClick(findTestObject(""Recruits Page/Tasks/Save new task""))",Chrome 88.0.4324.182,,,2021-02-19 10:53:25,2021-02-19 10:53:26,0.503s,PASSED
"verifyElementVisible(findTestObject(""Recruits Page/Tasks/Due task1 row""))",Chrome 88.0.4324.182,,,2021-02-19 10:53:26,2021-02-19 10:53:26,0.792s,PASSED
"mouseOver(findTestObject(""Recruits Page/Tasks/Due task1 ellipsis""))",Chrome 88.0.4324.182,,,2021-02-19 10:53:26,2021-02-19 10:53:27,0.488s,PASSED
"enhancedClick(findTestObject(""Recruits Page/Tasks/Due task1 ellipsis""))",Chrome 88.0.4324.182,,,2021-02-19 10:53:27,2021-02-19 10:53:27,0.290s,PASSED
"enhancedClick(findTestObject(""Recruits Page/Tasks/Mark Tasks Completed button""))",Chrome 88.0.4324.182,,,2021-02-19 10:53:27,2021-02-19 10:53:28,0.593s,PASSED
"verifyElementNotPresent(findTestObject(""Recruits Page/Tasks/Due task1 row""), 0)",Chrome 88.0.4324.182,,,2021-02-19 10:53:28,2021-02-19 10:53:29,0.785s,PASSED
closeBrowser(),Chrome 88.0.4324.182,,,2021-02-19 10:53:29,2021-02-19 10:53:29,0.095s,PASSED
,,,,,,,
Test Cases/Features/Video,Chrome 88.0.4324.182,,,2021-02-19 10:53:29,2021-02-19 10:53:49,20.561s,PASSED
openBrowser(URL),Chrome 88.0.4324.182,,,2021-02-19 10:53:29,2021-02-19 10:53:32,2.924s,PASSED
"setText(findTestObject(""Login Page/Email""), email)",Chrome 88.0.4324.182,,,2021-02-19 10:53:32,2021-02-19 10:53:32,0.587s,PASSED
"setText(findTestObject(""Login Page/password""), password)",Chrome 88.0.4324.182,,,2021-02-19 10:53:32,2021-02-19 10:53:33,0.643s,PASSED
"click(findTestObject(""Login Page/Sign In""))",Chrome 88.0.4324.182,,,2021-02-19 10:53:33,2021-02-19 10:53:35,2.472s,PASSED
"waitForElementVisible(findTestObject(""Top Navigation Menu/Dashboard""), 60)",Chrome 88.0.4324.182,,,2021-02-19 10:53:35,2021-02-19 10:53:36,0.967s,PASSED
"enhancedClick(findTestObject(""Top Navigation Menu/Recruits""))",Chrome 88.0.4324.182,,,2021-02-19 10:53:36,2021-02-19 10:53:41,4.755s,PASSED
"enhancedClick(findTestObject(""Recruits Page/Recruit Row1 Name""))",Chrome 88.0.4324.182,,,2021-02-19 10:53:41,2021-02-19 10:53:42,0.910s,PASSED
"enhancedClick(findTestObject(""Recruits Page/Recruit Profile (View)/VIDEOS tab""))",Chrome 88.0.4324.182,,,2021-02-19 10:53:42,2021-02-19 10:53:43,0.829s,PASSED
"uploadFile(findTestObject(""Recruit Profile (view)/Video Upload object""), ""/Users/jefffeldman/Desktop/Vids/NBA Playoffs 2019.mp4"")",Chrome 88.0.4324.182,,,2021-02-19 10:53:43,2021-02-19 10:53:44,0.619s,PASSED
"verifyElementPresent(findTestObject(""Recruit Profile (view)/Recruit Video row1""), 0)",Chrome 88.0.4324.182,,,2021-02-19 10:53:44,2021-02-19 10:53:44,0.773s,PASSED
delay(2),Chrome 88.0.4324.182,,,2021-02-19 10:53:44,2021-02-19 10:53:46,2.005s,PASSED
"mouseOver(findTestObject(""Recruit Profile (view)/Recruit Video row1""))",Chrome 88.0.4324.182,,,2021-02-19 10:53:46,2021-02-19 10:53:47,0.413s,PASSED
"enhancedClick(findTestObject(""Recruit Profile (view)/Delete Video Row1""))",Chrome 88.0.4324.182,,,2021-02-19 10:53:47,2021-02-19 10:53:47,0.309s,PASSED
"enhancedClick(findTestObject(""Recruit Profile (view)/Confirm Delete Video""))",Chrome 88.0.4324.182,,,2021-02-19 10:53:47,2021-02-19 10:53:47,0.496s,PASSED
"verifyElementNotPresent(findTestObject(""Recruit Profile (view)/Recruit Video row1""), 0)",Chrome 88.0.4324.182,,,2021-02-19 10:53:47,2021-02-19 10:53:49,1.297s,PASSED
"enhancedClick(findTestObject(""Recruit Profile (view)/CLOSE button""))",Chrome 88.0.4324.182,,,2021-02-19 10:53:49,2021-02-19 10:53:49,0.340s,PASSED
closeBrowser(),Chrome 88.0.4324.182,,,2021-02-19 10:53:49,2021-02-19 10:53:49,0.096s,PASSED
,,,,,,,
Test Cases/Features/FastConnect,Chrome 88.0.4324.182,,,2021-02-19 10:53:49,2021-02-19 10:54:30,40.481s,PASSED
openBrowser(URL),Chrome 88.0.4324.182,,,2021-02-19 10:53:49,2021-02-19 10:53:53,3.153s,PASSED
"setText(findTestObject(""Login Page/Email""), email)",Chrome 88.0.4324.182,,,2021-02-19 10:53:53,2021-02-19 10:53:53,0.590s,PASSED
"setText(findTestObject(""Login Page/password""), password)",Chrome 88.0.4324.182,,,2021-02-19 10:53:53,2021-02-19 10:53:54,0.747s,PASSED
"click(findTestObject(""Login Page/Sign In""))",Chrome 88.0.4324.182,,,2021-02-19 10:53:54,2021-02-19 10:53:56,2.526s,PASSED
"waitForElementVisible(findTestObject(""Top Navigation Menu/Dashboard""), 60)",Chrome 88.0.4324.182,,,2021-02-19 10:53:56,2021-02-19 10:53:57,0.964s,PASSED
"enhancedClick(findTestObject(""Top Navigation Menu/Recruits""))",Chrome 88.0.4324.182,,,2021-02-19 10:53:57,2021-02-19 10:54:02,4.908s,PASSED
"enhancedClick(findTestObject(""Recruits Page/FastConnect tab""))",Chrome 88.0.4324.182,,,2021-02-19 10:54:02,2021-02-19 10:54:03,0.872s,PASSED
"enhancedClick(findTestObject(""Recruits Page/FastConnect/List dropdown""))",Chrome 88.0.4324.182,,,2021-02-19 10:54:03,2021-02-19 10:54:04,0.909s,PASSED
"enhancedClick(findTestObject(""Recruits Page/FastConnect/All Recruits list dropdown""))",Chrome 88.0.4324.182,,,2021-02-19 10:54:04,2021-02-19 10:54:05,0.610s,PASSED
delay(10),Chrome 88.0.4324.182,,,2021-02-19 10:54:05,2021-02-19 10:54:15,10.002s,PASSED
"verifyElementVisible(findTestObject(""Recruits Page/FastConnect/Fastconnect post1""), STOP_ON_FAILURE)",Chrome 88.0.4324.182,,,2021-02-19 10:54:15,2021-02-19 10:54:30,15.075s,PASSED
,,,,,,,
Test Cases/Tourney Workflow,Chrome 88.0.4324.182,,,2021-02-19 10:54:30,2021-02-19 10:55:32,1m - 2.250s,PASSED
openBrowser(URL),Chrome 88.0.4324.182,,,2021-02-19 10:54:30,2021-02-19 10:54:33,2.913s,PASSED
"setText(findTestObject(""Login Page/Email""), email)",Chrome 88.0.4324.182,,,2021-02-19 10:54:33,2021-02-19 10:54:33,0.692s,PASSED
"setText(findTestObject(""Login Page/password""), password)",Chrome 88.0.4324.182,,,2021-02-19 10:54:33,2021-02-19 10:54:34,0.647s,PASSED
"click(findTestObject(""Login Page/Sign In""))",Chrome 88.0.4324.182,,,2021-02-19 10:54:34,2021-02-19 10:54:37,2.531s,PASSED
"waitForElementVisible(findTestObject(""Top Navigation Menu/Dashboard""), 60)",Chrome 88.0.4324.182,,,2021-02-19 10:54:37,2021-02-19 10:54:38,0.947s,PASSED
"enhancedClick(findTestObject(""Top Navigation Menu/Tourneys""))",Chrome 88.0.4324.182,,,2021-02-19 10:54:38,2021-02-19 10:54:42,4.583s,PASSED
"enhancedClick(findTestObject(""Tourneys page/Tourney list dropdown""))",Chrome 88.0.4324.182,,,2021-02-19 10:54:42,2021-02-19 10:54:43,0.881s,PASSED
enhancedClick(tourneySession),Chrome 88.0.4324.182,,,2021-02-19 10:54:43,2021-02-19 10:54:44,0.573s,PASSED
"enhancedClick(findTestObject(""Tourneys page/Tourneys header""))",Chrome 88.0.4324.182,,,2021-02-19 10:54:44,2021-02-19 10:54:44,0.738s,PASSED
"enhancedClick(findTestObject(""Tourneys page/Tourney1 listed""))",Chrome 88.0.4324.182,,,2021-02-19 10:54:44,2021-02-19 10:54:45,0.437s,PASSED
"enhancedClick(findTestObject(""Tourneys page/Assign Staff button""))",Chrome 88.0.4324.182,,,2021-02-19 10:54:45,2021-02-19 10:54:47,2.262s,PASSED
"enhancedClick(findTestObject(""Tourneys page/Assign Staff User1 checkbox""))",Chrome 88.0.4324.182,,,2021-02-19 10:54:47,2021-02-19 10:54:48,0.509s,PASSED
"enhancedClick(findTestObject(""Tourneys page/Assign Staff SAVE button""))",Chrome 88.0.4324.182,,,2021-02-19 10:54:48,2021-02-19 10:54:48,0.493s,PASSED
delay(1),Chrome 88.0.4324.182,,,2021-02-19 10:54:48,2021-02-19 10:54:49,1.004s,PASSED
"enhancedClick(findTestObject(""Tourneys page/Assign Recruits button""))",Chrome 88.0.4324.182,,,2021-02-19 10:54:49,2021-02-19 10:54:49,0.311s,PASSED
"enhancedClick(findTestObject(""Tourneys page/Select Recruits dropdown""))",Chrome 88.0.4324.182,,,2021-02-19 10:54:49,2021-02-19 10:54:50,0.555s,PASSED
"enhancedClick(findTestObject(""Tourneys page/Assign Recruits dropdown list1""))",Chrome 88.0.4324.182,,,2021-02-19 10:54:50,2021-02-19 10:54:50,0.500s,PASSED
"enhancedClick(findTestObject(""Tourneys page/Assign Recruits SAVE button""))",Chrome 88.0.4324.182,,,2021-02-19 10:54:50,2021-02-19 10:54:51,0.502s,PASSED
"enhancedClick(findTestObject(""Tourneys page/Select Tourney Team dropdown""))",Chrome 88.0.4324.182,,,2021-02-19 10:54:51,2021-02-19 10:54:52,0.804s,PASSED
"enhancedClick(findTestObject(""Tourneys page/Select Tourney Team dropdown1""))",Chrome 88.0.4324.182,,,2021-02-19 10:54:52,2021-02-19 10:54:52,0.497s,PASSED
delay(2),Chrome 88.0.4324.182,,,2021-02-19 10:54:52,2021-02-19 10:54:54,2.005s,PASSED
"enhancedClick(findTestObject(""Tourneys page/Tourney GAMES tab""))",Chrome 88.0.4324.182,,,2021-02-19 10:54:54,2021-02-19 10:54:55,0.337s,PASSED
delay(3),Chrome 88.0.4324.182,,,2021-02-19 10:54:55,2021-02-19 10:54:58,3.003s,PASSED
"verifyElementPresent(findTestObject(""Tourneys page/GAMES tab row1""), 0)",Chrome 88.0.4324.182,,,2021-02-19 10:54:58,2021-02-19 10:54:58,0.263s,PASSED
"gameDate = getText(findTestObject(""Tourneys page/GAMES tab row1 Date""))",Chrome 88.0.4324.182,,,2021-02-19 10:54:58,2021-02-19 10:54:58,0.376s,PASSED
"enhancedClick(findTestObject(""Top Navigation Menu/Schedule""))",Chrome 88.0.4324.182,,,2021-02-19 10:54:58,2021-02-19 10:54:59,0.581s,PASSED
"enhancedClick(findTestObject(""Schedule Page/Calendar from date filter""))",Chrome 88.0.4324.182,,,2021-02-19 10:54:59,2021-02-19 10:55:01,1.770s,PASSED
"sendKeys(findTestObject(""Schedule Page/Calendar from date filter""), Keys.chord(BACK_SPACE))",Chrome 88.0.4324.182,,,2021-02-19 10:55:01,2021-02-19 10:55:01,0.497s,PASSED
"sendKeys(findTestObject(""Schedule Page/Calendar from date filter""), Keys.chord(BACK_SPACE))",Chrome 88.0.4324.182,,,2021-02-19 10:55:01,2021-02-19 10:55:01,0.283s,PASSED
"sendKeys(findTestObject(""Schedule Page/Calendar from date filter""), Keys.chord(BACK_SPACE))",Chrome 88.0.4324.182,,,2021-02-19 10:55:01,2021-02-19 10:55:02,0.281s,PASSED
"sendKeys(findTestObject(""Schedule Page/Calendar from date filter""), Keys.chord(BACK_SPACE))",Chrome 88.0.4324.182,,,2021-02-19 10:55:02,2021-02-19 10:55:02,0.282s,PASSED
"sendKeys(findTestObject(""Schedule Page/Calendar from date filter""), Keys.chord(BACK_SPACE))",Chrome 88.0.4324.182,,,2021-02-19 10:55:02,2021-02-19 10:55:02,0.384s,PASSED
"sendKeys(findTestObject(""Schedule Page/Calendar from date filter""), Keys.chord(BACK_SPACE))",Chrome 88.0.4324.182,,,2021-02-19 10:55:02,2021-02-19 10:55:03,0.283s,PASSED
"sendKeys(findTestObject(""Schedule Page/Calendar from date filter""), Keys.chord(BACK_SPACE))",Chrome 88.0.4324.182,,,2021-02-19 10:55:03,2021-02-19 10:55:03,0.281s,PASSED
"sendKeys(findTestObject(""Schedule Page/Calendar from date filter""), Keys.chord(BACK_SPACE))",Chrome 88.0.4324.182,,,2021-02-19 10:55:03,2021-02-19 10:55:03,0.280s,PASSED
"sendKeys(findTestObject(""Schedule Page/Calendar from date filter""), Keys.chord(BACK_SPACE))",Chrome 88.0.4324.182,,,2021-02-19 10:55:03,2021-02-19 10:55:03,0.284s,PASSED
"setText(findTestObject(""Schedule Page/Calendar from date filter""), gameDate)",Chrome 88.0.4324.182,,,2021-02-19 10:55:03,2021-02-19 10:55:04,0.613s,PASSED
"sendKeys(findTestObject(""Schedule Page/Calendar from date filter""), Keys.chord(ENTER))",Chrome 88.0.4324.182,,,2021-02-19 10:55:04,2021-02-19 10:55:04,0.345s,PASSED
"verifyElementPresent(findTestObject(""Schedule Page/Row1 on Schedule List""), 0)",Chrome 88.0.4324.182,,,2021-02-19 10:55:04,2021-02-19 10:55:05,0.771s,PASSED
"enhancedClick(findTestObject(""Top Navigation Menu/Tourneys""))",Chrome 88.0.4324.182,,,2021-02-19 10:55:05,2021-02-19 10:55:24,19.093s,PASSED
"enhancedClick(findTestObject(""Tourneys page/Tourney list dropdown""))",Chrome 88.0.4324.182,,,2021-02-19 10:55:24,2021-02-19 10:55:25,1.039s,PASSED
enhancedClick(tourneySession),Chrome 88.0.4324.182,,,2021-02-19 10:55:25,2021-02-19 10:55:26,0.564s,PASSED
"enhancedClick(findTestObject(""Tourneys page/Tourneys header""))",Chrome 88.0.4324.182,,,2021-02-19 10:55:26,2021-02-19 10:55:27,0.841s,PASSED
"enhancedClick(findTestObject(""Tourneys page/Tourney1 listed""))",Chrome 88.0.4324.182,,,2021-02-19 10:55:27,2021-02-19 10:55:27,0.323s,PASSED
"enhancedClick(findTestObject(""Tourneys page/Edit Assign Staff Pencil""))",Chrome 88.0.4324.182,,,2021-02-19 10:55:27,2021-02-19 10:55:28,0.615s,PASSED
"enhancedClick(findTestObject(""Tourneys page/Assign Staff User1 checkbox""))",Chrome 88.0.4324.182,,,2021-02-19 10:55:28,2021-02-19 10:55:28,0.612s,PASSED
"enhancedClick(findTestObject(""Tourneys page/Assign Staff SAVE button""))",Chrome 88.0.4324.182,,,2021-02-19 10:55:28,2021-02-19 10:55:29,0.495s,PASSED
delay(1),Chrome 88.0.4324.182,,,2021-02-19 10:55:29,2021-02-19 10:55:30,1.003s,PASSED
"enhancedClick(findTestObject(""Tourneys page/Delete Attending Recruit1""))",Chrome 88.0.4324.182,,,2021-02-19 10:55:30,2021-02-19 10:55:31,1.631s,PASSED
"enhancedClick(findTestObject(""Tourneys page/Confirm Delete Attending Recruit1""))",Chrome 88.0.4324.182,,,2021-02-19 10:55:31,2021-02-19 10:55:32,0.488s,PASSED
closeBrowser(),Chrome 88.0.4324.182,,,2021-02-19 10:55:32,2021-02-19 10:55:32,0.092s,PASSED
