Suite/Test/Step Name,Browser,Description,Tag,Start time,End time,Duration,Status
Regression Tests,Chrome 89.0.4389.90,,,2021-03-18 10:28:39,2021-03-18 10:28:51,12.067s,FAILED
,,,,,,,
Test Cases/Draft Board,Chrome 89.0.4389.90,,,2021-03-18 10:28:40,2021-03-18 10:28:44,4.126s,FAILED
openBrowser(URL),Chrome 89.0.4389.90,,,2021-03-18 10:28:40,2021-03-18 10:28:44,3.822s,FAILED
,,,,,,,
Test Cases/Depth Chart,Chrome 89.0.4389.90,,,2021-03-18 10:28:44,2021-03-18 10:28:45,0.767s,FAILED
openBrowser(URL),Chrome 89.0.4389.90,,,2021-03-18 10:28:44,2021-03-18 10:28:45,0.607s,FAILED
,,,,,,,
Test Cases/Dashboard Calendar,Chrome 89.0.4389.90,,,2021-03-18 10:28:45,2021-03-18 10:28:45,0.798s,FAILED
openBrowser(URL),Chrome 89.0.4389.90,,,2021-03-18 10:28:45,2021-03-18 10:28:45,0.583s,FAILED
,,,,,,,
Test Cases/Add_Archive_Delete New Recruit,Chrome 89.0.4389.90,,,2021-03-18 10:28:45,2021-03-18 10:28:46,0.739s,FAILED
openBrowser(URL),Chrome 89.0.4389.90,,,2021-03-18 10:28:46,2021-03-18 10:28:46,0.559s,FAILED
,,,,,,,
Test Cases/Tasks,Chrome 89.0.4389.90,,,2021-03-18 10:28:46,2021-03-18 10:28:47,0.740s,FAILED
openBrowser(URL),Chrome 89.0.4389.90,,,2021-03-18 10:28:46,2021-03-18 10:28:47,0.551s,FAILED
,,,,,,,
Test Cases/Features/Link To FastScout,Chrome 89.0.4389.90,,,2021-03-18 10:28:47,2021-03-18 10:28:48,0.751s,FAILED
openBrowser(URL),Chrome 89.0.4389.90,,,2021-03-18 10:28:47,2021-03-18 10:28:48,0.581s,FAILED
,,,,,,,
Test Cases/Features/Video,Chrome 89.0.4389.90,,,2021-03-18 10:28:48,2021-03-18 10:28:48,0.780s,FAILED
openBrowser(URL),Chrome 89.0.4389.90,,,2021-03-18 10:28:48,2021-03-18 10:28:48,0.626s,FAILED
,,,,,,,
Test Cases/Features/FastConnect,Chrome 89.0.4389.90,,,2021-03-18 10:28:48,2021-03-18 10:28:49,0.750s,FAILED
openBrowser(URL),Chrome 89.0.4389.90,,,2021-03-18 10:28:49,2021-03-18 10:28:49,0.583s,FAILED
,,,,,,,
Test Cases/Tourney Workflow,Chrome 89.0.4389.90,,,2021-03-18 10:28:49,2021-03-18 10:28:50,0.779s,FAILED
openBrowser(URL),Chrome 89.0.4389.90,,,2021-03-18 10:28:49,2021-03-18 10:28:50,0.611s,FAILED
,,,,,,,
Test Cases/Features/Prospects View,Chrome 89.0.4389.90,,,2021-03-18 10:28:50,2021-03-18 10:28:51,0.772s,FAILED
openBrowser(URL),Chrome 89.0.4389.90,,,2021-03-18 10:28:50,2021-03-18 10:28:51,0.561s,FAILED
,,,,,,,
Test Cases/Features/Prospects View,Chrome 89.0.4389.90,,,2021-03-18 10:28:51,2021-03-18 10:28:51,0.567s,FAILED
openBrowser(URL),Chrome 89.0.4389.90,,,2021-03-18 10:28:51,2021-03-18 10:28:51,0.559s,FAILED
