Suite/Test/Step Name,Browser,Description,Tag,Start time,End time,Duration,Status
Regression Tests,Chrome 88.0.4324.192,,,2021-02-24 13:52:29,2021-02-24 13:58:24,5m - 55.372s,FAILED
,,,,,,,
Test Cases/Draft Board,Chrome 88.0.4324.192,,,2021-02-24 13:52:30,2021-02-24 13:53:05,35.468s,PASSED
openBrowser(URL),Chrome 88.0.4324.192,,,2021-02-24 13:52:30,2021-02-24 13:52:34,4.649s,PASSED
"setText(findTestObject(""Login Page/Email""), email)",Chrome 88.0.4324.192,,,2021-02-24 13:52:34,2021-02-24 13:52:35,1.074s,PASSED
"setText(findTestObject(""Login Page/password""), password)",Chrome 88.0.4324.192,,,2021-02-24 13:52:35,2021-02-24 13:52:36,0.655s,PASSED
"click(findTestObject(""Login Page/Sign In""))",Chrome 88.0.4324.192,,,2021-02-24 13:52:36,2021-02-24 13:52:39,2.531s,PASSED
"waitForElementVisible(findTestObject(""Top Navigation Menu/Dashboard""), 60)",Chrome 88.0.4324.192,,,2021-02-24 13:52:39,2021-02-24 13:52:41,2.723s,PASSED
"enhancedClick(findTestObject(""Top Navigation Menu/Dashboard""))",Chrome 88.0.4324.192,,,2021-02-24 13:52:41,2021-02-24 13:52:42,0.646s,PASSED
delay(3),Chrome 88.0.4324.192,,,2021-02-24 13:52:42,2021-02-24 13:52:45,3.017s,PASSED
"mouseOver(findTestObject(""Dashboard Page/Draft Board (Dashboard)/blank 1-PG on Draft Board (Dashboard)""))",Chrome 88.0.4324.192,,,2021-02-24 13:52:45,2021-02-24 13:52:46,0.526s,PASSED
"enhancedClick(findTestObject(""Dashboard Page/Draft Board (Dashboard)/blank 1-PG on Draft Board (Dashboard)""))",Chrome 88.0.4324.192,,,2021-02-24 13:52:46,2021-02-24 13:52:46,0.314s,PASSED
"enhancedClick(findTestObject(""Dashboard Page/Draft Board (Dashboard)/Draft Board Dropdown Player1""))",Chrome 88.0.4324.192,,,2021-02-24 13:52:46,2021-02-24 13:52:47,0.728s,PASSED
"mouseOver(findTestObject(""Dashboard Page/Draft Board (Dashboard)/1-PG on Draft Board""))",Chrome 88.0.4324.192,,,2021-02-24 13:52:47,2021-02-24 13:52:47,0.736s,PASSED
"enhancedClick(findTestObject(""Dashboard Page/Draft Board (Dashboard)/1-PG on Draft Board""))",Chrome 88.0.4324.192,,,2021-02-24 13:52:47,2021-02-24 13:52:48,0.374s,PASSED
delay(1),Chrome 88.0.4324.192,,,2021-02-24 13:52:48,2021-02-24 13:52:49,1.005s,PASSED
"enhancedClick(findTestObject(""Recruit Profile (view)/Alerts button""))",Chrome 88.0.4324.192,,,2021-02-24 13:52:49,2021-02-24 13:52:49,0.299s,PASSED
"enhancedClick(findTestObject(""Recruit Profile (view)/CLOSE button""))",Chrome 88.0.4324.192,,,2021-02-24 13:52:49,2021-02-24 13:52:50,0.617s,PASSED
"verifyElementAttributeValue(findTestObject(""Dashboard Page/Draft Board (Dashboard)/1-PG on Draft Board""), ""class"", ""draft-board-player css-1ydqi8h-DraftBoard"", 0)",Chrome 88.0.4324.192,,,2021-02-24 13:52:50,2021-02-24 13:52:50,0.739s,PASSED
"mouseOver(findTestObject(""Dashboard Page/Draft Board (Dashboard)/1-PG on Draft Board""))",Chrome 88.0.4324.192,,,2021-02-24 13:52:50,2021-02-24 13:52:51,0.394s,PASSED
"enhancedClick(findTestObject(""Dashboard Page/Draft Board (Dashboard)/1-PG on Draft Board""))",Chrome 88.0.4324.192,,,2021-02-24 13:52:51,2021-02-24 13:52:51,0.308s,PASSED
"enhancedClick(findTestObject(""Recruit Profile (view)/Alerts button""))",Chrome 88.0.4324.192,,,2021-02-24 13:52:51,2021-02-24 13:52:52,0.702s,PASSED
"enhancedClick(findTestObject(""Recruit Profile (view)/CLOSE button""))",Chrome 88.0.4324.192,,,2021-02-24 13:52:52,2021-02-24 13:52:53,0.714s,PASSED
delay(1),Chrome 88.0.4324.192,,,2021-02-24 13:52:53,2021-02-24 13:52:54,1.003s,PASSED
"verifyElementAttributeValue(findTestObject(""Dashboard Page/Draft Board (Dashboard)/1-PG on Draft Board""), ""class"", ""draft-board-player css-1xcfrz7-DraftBoard"", 0)",Chrome 88.0.4324.192,,,2021-02-24 13:52:54,2021-02-24 13:52:54,0.266s,PASSED
"mouseOver(findTestObject(""Dashboard Page/Draft Board (Dashboard)/1-PG on Draft Board""))",Chrome 88.0.4324.192,,,2021-02-24 13:52:54,2021-02-24 13:52:54,0.385s,PASSED
"enhancedClick(findTestObject(""Dashboard Page/Draft Board (Dashboard)/Delete 1-PG on Draft Board""))",Chrome 88.0.4324.192,,,2021-02-24 13:52:54,2021-02-24 13:52:54,0.305s,PASSED
"enhancedClick(findTestObject(""Dashboard Page/Draft Board (Dashboard)/Draft Board Season Dropdown""))",Chrome 88.0.4324.192,,,2021-02-24 13:52:54,2021-02-24 13:52:55,0.604s,PASSED
"enhancedClick(findTestObject(""Dashboard Page/Draft Board (Dashboard)/Draft Board Season Dropdown - 2023""))",Chrome 88.0.4324.192,,,2021-02-24 13:52:55,2021-02-24 13:52:55,0.409s,PASSED
"mouseOver(findTestObject(""Dashboard Page/Draft Board (Dashboard)/blank 1-PG on Draft Board (Dashboard)""))",Chrome 88.0.4324.192,,,2021-02-24 13:52:55,2021-02-24 13:52:56,0.586s,PASSED
"enhancedClick(findTestObject(""Dashboard Page/Draft Board (Dashboard)/blank 1-PG on Draft Board (Dashboard)""))",Chrome 88.0.4324.192,,,2021-02-24 13:52:56,2021-02-24 13:52:56,0.279s,PASSED
"enhancedClick(findTestObject(""Dashboard Page/Draft Board (Dashboard)/Draft Board Dropdown Player1""))",Chrome 88.0.4324.192,,,2021-02-24 13:52:56,2021-02-24 13:52:57,0.807s,PASSED
delay(1),Chrome 88.0.4324.192,,,2021-02-24 13:52:57,2021-02-24 13:52:58,1.007s,PASSED
"mouseOver(findTestObject(""Dashboard Page/Draft Board (Dashboard)/blank 2-PG on Draft Board (Dashboard)""))",Chrome 88.0.4324.192,,,2021-02-24 13:52:58,2021-02-24 13:52:59,0.393s,PASSED
"enhancedClick(findTestObject(""Dashboard Page/Draft Board (Dashboard)/blank 2-PG on Draft Board (Dashboard)""))",Chrome 88.0.4324.192,,,2021-02-24 13:52:59,2021-02-24 13:52:59,0.295s,PASSED
"enhancedClick(findTestObject(""Dashboard Page/Draft Board (Dashboard)/Recruit Search field""))",Chrome 88.0.4324.192,,,2021-02-24 13:52:59,2021-02-24 13:52:59,0.613s,PASSED
"sendKeys(findTestObject(""Dashboard Page/Draft Board (Dashboard)/Recruit Search field""), ""Mikey Williams"")",Chrome 88.0.4324.192,,,2021-02-24 13:52:59,2021-02-24 13:53:00,0.320s,PASSED
delay(2),Chrome 88.0.4324.192,,,2021-02-24 13:53:00,2021-02-24 13:53:02,2.003s,PASSED
"enhancedClick(findTestObject(""Dashboard Page/Draft Board (Dashboard)/Draft Board Dropdown Player2""))",Chrome 88.0.4324.192,,,2021-02-24 13:53:02,2021-02-24 13:53:02,0.311s,PASSED
"mouseOver(findTestObject(""Dashboard Page/Draft Board (Dashboard)/2-PG on Draft Board""))",Chrome 88.0.4324.192,,,2021-02-24 13:53:02,2021-02-24 13:53:03,0.710s,PASSED
"enhancedClick(findTestObject(""Dashboard Page/Draft Board (Dashboard)/Delete 2-PG on Draft Board""))",Chrome 88.0.4324.192,,,2021-02-24 13:53:03,2021-02-24 13:53:03,0.311s,PASSED
"mouseOver(findTestObject(""Dashboard Page/Draft Board (Dashboard)/1-PG on Draft Board""))",Chrome 88.0.4324.192,,,2021-02-24 13:53:03,2021-02-24 13:53:04,0.691s,PASSED
"enhancedClick(findTestObject(""Dashboard Page/Draft Board (Dashboard)/Delete 1-PG on Draft Board""))",Chrome 88.0.4324.192,,,2021-02-24 13:53:04,2021-02-24 13:53:04,0.411s,PASSED
"enhancedClick(findTestObject(""Dashboard Page/Draft Board (Dashboard)/Draft Board Link""))",Chrome 88.0.4324.192,,,2021-02-24 13:53:04,2021-02-24 13:53:05,0.653s,PASSED
closeBrowser(),Chrome 88.0.4324.192,,,2021-02-24 13:53:05,2021-02-24 13:53:05,0.108s,PASSED
,,,,,,,
Test Cases/Depth Chart,Chrome 88.0.4324.192,,,2021-02-24 13:53:05,2021-02-24 13:54:26,1m - 21.139s,PASSED
openBrowser(URL),Chrome 88.0.4324.192,,,2021-02-24 13:53:05,2021-02-24 13:53:08,2.380s,PASSED
"setText(findTestObject(""Login Page/Email""), email)",Chrome 88.0.4324.192,,,2021-02-24 13:53:08,2021-02-24 13:53:08,0.979s,PASSED
"setText(findTestObject(""Login Page/password""), password)",Chrome 88.0.4324.192,,,2021-02-24 13:53:08,2021-02-24 13:53:09,0.544s,PASSED
"click(findTestObject(""Login Page/Sign In""))",Chrome 88.0.4324.192,,,2021-02-24 13:53:09,2021-02-24 13:53:12,2.664s,PASSED
"waitForElementVisible(findTestObject(""Top Navigation Menu/Dashboard""), 60)",Chrome 88.0.4324.192,,,2021-02-24 13:53:12,2021-02-24 13:53:13,1.092s,PASSED
"enhancedClick(findTestObject(""Top Navigation Menu/Dashboard""))",Chrome 88.0.4324.192,,,2021-02-24 13:53:13,2021-02-24 13:53:14,1.280s,PASSED
delay(3),Chrome 88.0.4324.192,,,2021-02-24 13:53:14,2021-02-24 13:53:17,3.006s,PASSED
"enhancedClick(findTestObject(""Dashboard Page/Depth Chart/Depth Chart season dropdown""))",Chrome 88.0.4324.192,,,2021-02-24 13:53:17,2021-02-24 13:53:17,0.417s,PASSED
"enhancedClick(findTestObject(""Dashboard Page/Depth Chart/Season Dropdown Index3""))",Chrome 88.0.4324.192,,,2021-02-24 13:53:17,2021-02-24 13:53:18,0.307s,PASSED
"enhancedClick(findTestObject(""Dashboard Page/Depth Chart/Depth Chart season dropdown""))",Chrome 88.0.4324.192,,,2021-02-24 13:53:18,2021-02-24 13:53:18,0.484s,PASSED
"enhancedClick(findTestObject(""Dashboard Page/Depth Chart/Season Dropdown Index2""))",Chrome 88.0.4324.192,,,2021-02-24 13:53:18,2021-02-24 13:53:19,0.306s,PASSED
"enhancedClick(findTestObject(""Dashboard Page/Depth Chart/EDIT Depth Chart""))",Chrome 88.0.4324.192,,,2021-02-24 13:53:19,2021-02-24 13:53:19,0.546s,PASSED
"enhancedClick(findTestObject(""Dashboard Page/Depth Chart/Depth Chart Edit (sr, pg, 1)""))",Chrome 88.0.4324.192,,,2021-02-24 13:53:19,2021-02-24 13:53:50,31.198s,PASSED
"enhancedClick(findTestObject(""Dashboard Page/Depth Chart/SAVE Depth Chart""))",Chrome 88.0.4324.192,,,2021-02-24 13:53:50,2021-02-24 13:53:51,0.517s,PASSED
delay(2),Chrome 88.0.4324.192,,,2021-02-24 13:53:51,2021-02-24 13:53:53,2.008s,PASSED
"verifyTextNotPresent(playerHidden, false)",Chrome 88.0.4324.192,,,2021-02-24 13:53:53,2021-02-24 13:53:53,0.452s,PASSED
"enhancedClick(findTestObject(""Dashboard Page/Depth Chart/EDIT Depth Chart""))",Chrome 88.0.4324.192,,,2021-02-24 13:53:53,2021-02-24 13:53:54,0.322s,PASSED
"enhancedClick(findTestObject(""Dashboard Page/Depth Chart/Depth Chart Edit (sr, pg, 1)""))",Chrome 88.0.4324.192,,,2021-02-24 13:53:54,2021-02-24 13:54:25,31.096s,PASSED
"enhancedClick(findTestObject(""Dashboard Page/Depth Chart/SAVE Depth Chart""))",Chrome 88.0.4324.192,,,2021-02-24 13:54:25,2021-02-24 13:54:25,0.545s,PASSED
"verifyTextPresent(playerHidden, false)",Chrome 88.0.4324.192,,,2021-02-24 13:54:25,2021-02-24 13:54:26,0.855s,PASSED
,,,,,,,
Test Cases/Dashboard Calendar,Chrome 88.0.4324.192,,,2021-02-24 13:54:26,2021-02-24 13:55:09,42.601s,FAILED
openBrowser(URL),Chrome 88.0.4324.192,,,2021-02-24 13:54:26,2021-02-24 13:54:29,2.829s,PASSED
"setText(findTestObject(""Login Page/Email""), email)",Chrome 88.0.4324.192,,,2021-02-24 13:54:29,2021-02-24 13:54:30,0.589s,PASSED
"setText(findTestObject(""Login Page/password""), password)",Chrome 88.0.4324.192,,,2021-02-24 13:54:30,2021-02-24 13:54:30,0.565s,PASSED
"click(findTestObject(""Login Page/Sign In""))",Chrome 88.0.4324.192,,,2021-02-24 13:54:30,2021-02-24 13:54:33,2.422s,PASSED
"waitForElementVisible(findTestObject(""Top Navigation Menu/Dashboard""), 60)",Chrome 88.0.4324.192,,,2021-02-24 13:54:33,2021-02-24 13:54:34,1.084s,PASSED
"enhancedClick(findTestObject(""Top Navigation Menu/Recruits""))",Chrome 88.0.4324.192,,,2021-02-24 13:54:34,2021-02-24 13:54:35,1.622s,PASSED
delay(3),Chrome 88.0.4324.192,,,2021-02-24 13:54:35,2021-02-24 13:54:38,3.005s,PASSED
"enhancedClick(findTestObject(""Top Navigation Menu/Dashboard""))",Chrome 88.0.4324.192,,,2021-02-24 13:54:38,2021-02-24 13:54:39,0.382s,PASSED
delay(3),Chrome 88.0.4324.192,,,2021-02-24 13:54:39,2021-02-24 13:54:42,3.007s,PASSED
"enhancedClick(findTestObject(""Dashboard Page/Calendar (Dashboard)/Toggle Left (Calendar Dashboard)""))",Chrome 88.0.4324.192,,,2021-02-24 13:54:42,2021-02-24 13:54:42,0.347s,PASSED
delay(5),Chrome 88.0.4324.192,,,2021-02-24 13:54:42,2021-02-24 13:54:47,5.007s,PASSED
"enhancedClick(findTestObject(""Dashboard Page/Calendar (Dashboard)/Toggle Right (Calendar Dashboard)""))",Chrome 88.0.4324.192,,,2021-02-24 13:54:47,2021-02-24 13:54:47,0.316s,PASSED
delay(5),Chrome 88.0.4324.192,,,2021-02-24 13:54:47,2021-02-24 13:54:52,5.007s,PASSED
"enhancedClick(findTestObject(""Dashboard Page/Calendar (Dashboard)/Dashboard Calendar SHOW dropdown""))",Chrome 88.0.4324.192,,,2021-02-24 13:54:52,2021-02-24 13:54:53,0.324s,PASSED
"enhancedClick(findTestObject(""Dashboard Page/Calendar (Dashboard)/My Calendar option""))",Chrome 88.0.4324.192,,,2021-02-24 13:54:53,2021-02-24 13:54:53,0.395s,PASSED
"enhancedClick(findTestObject(""Dashboard Page/Calendar (Dashboard)/My Calendar option""))",Chrome 88.0.4324.192,,,2021-02-24 13:54:53,2021-02-24 13:54:54,0.489s,PASSED
"enhancedClick(findTestObject(""Dashboard Page/Calendar (Dashboard)/Team calendar option""))",Chrome 88.0.4324.192,,,2021-02-24 13:54:54,2021-02-24 13:54:54,0.607s,PASSED
"enhancedClick(findTestObject(""Dashboard Page/Calendar (Dashboard)/Team calendar option""))",Chrome 88.0.4324.192,,,2021-02-24 13:54:54,2021-02-24 13:54:55,0.488s,PASSED
"enhancedClick(findTestObject(""Dashboard Page/Calendar (Dashboard)/Tasks calendar option""))",Chrome 88.0.4324.192,,,2021-02-24 13:54:55,2021-02-24 13:54:55,0.503s,PASSED
"enhancedClick(findTestObject(""Dashboard Page/Calendar (Dashboard)/Tasks calendar option""))",Chrome 88.0.4324.192,,,2021-02-24 13:54:55,2021-02-24 13:54:56,0.481s,PASSED
"enhancedClick(findTestObject(""Dashboard Page/Calendar (Dashboard)/NCAA Calendar option""))",Chrome 88.0.4324.192,,,2021-02-24 13:54:56,2021-02-24 13:54:56,0.496s,PASSED
"enhancedClick(findTestObject(""Dashboard Page/Calendar (Dashboard)/NCAA Calendar option""))",Chrome 88.0.4324.192,,,2021-02-24 13:54:56,2021-02-24 13:54:57,0.480s,PASSED
"enhancedClick(findTestObject(""Dashboard Page/Calendar (Dashboard)/My Live Period calendar option""))",Chrome 88.0.4324.192,,,2021-02-24 13:54:57,2021-02-24 13:54:57,0.493s,PASSED
"enhancedClick(findTestObject(""Dashboard Page/Calendar (Dashboard)/My Live Period calendar option""))",Chrome 88.0.4324.192,,,2021-02-24 13:54:57,2021-02-24 13:54:58,0.477s,PASSED
"enhancedClick(findTestObject(""Dashboard Page/Calendar (Dashboard)/Dashboard Calendar SHOW dropdown""))",Chrome 88.0.4324.192,,,2021-02-24 13:54:58,2021-02-24 13:54:58,0.479s,PASSED
"enhancedClick(findTestObject(""Dashboard Page/Calendar (Dashboard)/Dashboard Calendar Add New""))",Chrome 88.0.4324.192,,,2021-02-24 13:54:58,2021-02-24 13:54:59,0.459s,PASSED
"enhancedClick(findTestObject(""Dashboard Page/Calendar (Dashboard)/Add Event modal/Event Name field""))",Chrome 88.0.4324.192,,,2021-02-24 13:54:59,2021-02-24 13:54:59,0.712s,PASSED
"sendKeys(findTestObject(""Dashboard Page/Calendar (Dashboard)/Add Event modal/Event Name field""), ""Test Event1"")",Chrome 88.0.4324.192,,,2021-02-24 13:54:59,2021-02-24 13:55:00,0.490s,PASSED
"enhancedClick(findTestObject(""Dashboard Page/Calendar (Dashboard)/Add Event modal/Event Location field""))",Chrome 88.0.4324.192,,,2021-02-24 13:55:00,2021-02-24 13:55:00,0.300s,PASSED
"sendKeys(findTestObject(""Dashboard Page/Calendar (Dashboard)/Add Event modal/Event Location field""), ""444 N. Michigan Ave"")",Chrome 88.0.4324.192,,,2021-02-24 13:55:00,2021-02-24 13:55:01,0.501s,PASSED
"enhancedClick(findTestObject(""Dashboard Page/Calendar (Dashboard)/Add Event modal/Select searched location""), STOP_ON_FAILURE)",Chrome 88.0.4324.192,,,2021-02-24 13:55:01,2021-02-24 13:55:01,0.502s,PASSED
"enhancedClick(findTestObject(""Dashboard Page/Calendar (Dashboard)/Add Event modal/Select Recruits dropdown""))",Chrome 88.0.4324.192,,,2021-02-24 13:55:01,2021-02-24 13:55:03,1.842s,PASSED
"enhancedClick(findTestObject(""Dashboard Page/Calendar (Dashboard)/Add Event modal/Recruit1 in dropdown (Add Event modal)""))",Chrome 88.0.4324.192,,,2021-02-24 13:55:03,2021-02-24 13:55:03,0.500s,PASSED
"enhancedClick(findTestObject(""Dashboard Page/Calendar (Dashboard)/Add Event modal/Add Event Attendees""))",Chrome 88.0.4324.192,,,2021-02-24 13:55:03,2021-02-24 13:55:04,0.601s,PASSED
"enhancedClick(findTestObject(""Dashboard Page/Calendar (Dashboard)/Add Event modal/Recruiters checkbox""))",Chrome 88.0.4324.192,,,2021-02-24 13:55:04,2021-02-24 13:55:05,0.512s,PASSED
"enhancedClick(findTestObject(""Dashboard Page/Calendar (Dashboard)/Add Event modal/Game Note field""))",Chrome 88.0.4324.192,,,2021-02-24 13:55:05,2021-02-24 13:55:05,0.292s,PASSED
"sendKeys(findTestObject(""Dashboard Page/Calendar (Dashboard)/Add Event modal/Game Note field""), ""arrive early"")",Chrome 88.0.4324.192,,,2021-02-24 13:55:05,2021-02-24 13:55:05,0.444s,PASSED
"enhancedClick(findTestObject(""Dashboard Page/Calendar (Dashboard)/Add Event modal/Add Event Save button""))",Chrome 88.0.4324.192,,,2021-02-24 13:55:05,2021-02-24 13:55:06,0.287s,PASSED
delay(2),Chrome 88.0.4324.192,,,2021-02-24 13:55:06,2021-02-24 13:55:08,2.005s,PASSED
"verifyTextPresent(""Test Event1"", false)",Chrome 88.0.4324.192,,,2021-02-24 13:55:08,2021-02-24 13:55:09,1.085s,FAILED
,,,,,,,
Test Cases/Add_Archive_Delete New Recruit,Chrome 88.0.4324.192,,,2021-02-24 13:55:09,2021-02-24 13:55:42,33.377s,PASSED
openBrowser(URL),Chrome 88.0.4324.192,,,2021-02-24 13:55:09,2021-02-24 13:55:11,2.527s,PASSED
"setText(findTestObject(""Login Page/Email""), email)",Chrome 88.0.4324.192,,,2021-02-24 13:55:11,2021-02-24 13:55:12,1.053s,PASSED
"setText(findTestObject(""Login Page/password""), password)",Chrome 88.0.4324.192,,,2021-02-24 13:55:12,2021-02-24 13:55:13,0.651s,PASSED
"click(findTestObject(""Login Page/Sign In""))",Chrome 88.0.4324.192,,,2021-02-24 13:55:13,2021-02-24 13:55:16,2.702s,PASSED
"waitForElementVisible(findTestObject(""Top Navigation Menu/Dashboard""), 60)",Chrome 88.0.4324.192,,,2021-02-24 13:55:16,2021-02-24 13:55:17,1.050s,PASSED
"click(findTestObject(""Top Navigation Menu/Recruits""))",Chrome 88.0.4324.192,,,2021-02-24 13:55:17,2021-02-24 13:55:19,2.022s,PASSED
"click(findTestObject(""Recruits Page/ADD RECRUIT button""))",Chrome 88.0.4324.192,,,2021-02-24 13:55:19,2021-02-24 13:55:20,0.714s,PASSED
"setText(findTestObject(""Recruits Page/Add New Recruit modal/First Name field""), ""Josh"")",Chrome 88.0.4324.192,,,2021-02-24 13:55:20,2021-02-24 13:55:20,0.899s,PASSED
"setText(findTestObject(""Recruits Page/Add New Recruit modal/Last Name field""), ""Allen"")",Chrome 88.0.4324.192,,,2021-02-24 13:55:20,2021-02-24 13:55:21,0.678s,PASSED
"setText(findTestObject(""Recruits Page/Add New Recruit modal/Class field""), ""2023"")",Chrome 88.0.4324.192,,,2021-02-24 13:55:21,2021-02-24 13:55:22,0.568s,PASSED
"click(findTestObject(""Recruits Page/Add New Recruit modal/Height field input""))",Chrome 88.0.4324.192,,,2021-02-24 13:55:22,2021-02-24 13:55:22,0.300s,PASSED
"setText(findTestObject(""Recruits Page/Add New Recruit modal/Height field input""), ""69"")",Chrome 88.0.4324.192,,,2021-02-24 13:55:22,2021-02-24 13:55:23,0.525s,PASSED
"setText(findTestObject(""Recruits Page/Add New Recruit modal/Birthdate field input""), ""1/1/2005"")",Chrome 88.0.4324.192,,,2021-02-24 13:55:23,2021-02-24 13:55:23,0.693s,PASSED
"enhancedClick(findTestObject(""Recruits Page/Add New Recruit modal/Birthdate field Label""))",Chrome 88.0.4324.192,,,2021-02-24 13:55:23,2021-02-24 13:55:24,0.441s,PASSED
"setText(findTestObject(""Recruits Page/Add New Recruit modal/High School field input""), ""highland park"")",Chrome 88.0.4324.192,,,2021-02-24 13:55:24,2021-02-24 13:55:24,0.774s,PASSED
"sendKeys(findTestObject(""Recruits Page/Add New Recruit modal/High School field input""), Keys.chord(DOWN))",Chrome 88.0.4324.192,,,2021-02-24 13:55:24,2021-02-24 13:55:25,0.476s,PASSED
"sendKeys(findTestObject(""Recruits Page/Add New Recruit modal/High School field input""), Keys.chord(ENTER))",Chrome 88.0.4324.192,,,2021-02-24 13:55:25,2021-02-24 13:55:26,1.309s,PASSED
"setText(findTestObject(""Recruits Page/Add New Recruit modal/High School Coach Name field""), ""Coach Miller"")",Chrome 88.0.4324.192,,,2021-02-24 13:55:26,2021-02-24 13:55:27,1.125s,PASSED
"setText(findTestObject(""Recruits Page/Add New Recruit modal/High School Coach Phone field""), ""8474713163"")",Chrome 88.0.4324.192,,,2021-02-24 13:55:27,2021-02-24 13:55:28,0.686s,PASSED
"setText(findTestObject(""Recruits Page/Add New Recruit modal/Club Team field""), ""Mac Irvin Fire"")",Chrome 88.0.4324.192,,,2021-02-24 13:55:28,2021-02-24 13:55:29,0.667s,PASSED
"setText(findTestObject(""Recruits Page/Add New Recruit modal/Club Team Number field""), ""10"")",Chrome 88.0.4324.192,,,2021-02-24 13:55:29,2021-02-24 13:55:29,0.539s,PASSED
"click(findTestObject(""Recruits Page/Add New Recruit modal/SAVE button""))",Chrome 88.0.4324.192,,,2021-02-24 13:55:29,2021-02-24 13:55:30,0.362s,PASSED
"setText(findTestObject(""Recruits Page/Recruit Search Field on Recruits page""), ""josh allen"")",Chrome 88.0.4324.192,,,2021-02-24 13:55:30,2021-02-24 13:55:31,1.792s,PASSED
delay(1),Chrome 88.0.4324.192,,,2021-02-24 13:55:31,2021-02-24 13:55:32,1.004s,PASSED
"click(findTestObject(""Recruits Page/Archive recruit""))",Chrome 88.0.4324.192,,,2021-02-24 13:55:32,2021-02-24 13:55:33,0.307s,PASSED
delay(1),Chrome 88.0.4324.192,,,2021-02-24 13:55:33,2021-02-24 13:55:34,1.002s,PASSED
"click(findTestObject(""Recruits Page/All Recruits List selection""))",Chrome 88.0.4324.192,,,2021-02-24 13:55:34,2021-02-24 13:55:34,0.398s,PASSED
delay(1),Chrome 88.0.4324.192,,,2021-02-24 13:55:34,2021-02-24 13:55:35,1.003s,PASSED
"click(findTestObject(""Recruits Page/Archived List selection""))",Chrome 88.0.4324.192,,,2021-02-24 13:55:35,2021-02-24 13:55:36,0.837s,PASSED
delay(1),Chrome 88.0.4324.192,,,2021-02-24 13:55:36,2021-02-24 13:55:37,1.004s,PASSED
"click(findTestObject(""Recruits Page/Archived list ellipsis button""))",Chrome 88.0.4324.192,,,2021-02-24 13:55:37,2021-02-24 13:55:37,0.298s,PASSED
delay(1),Chrome 88.0.4324.192,,,2021-02-24 13:55:37,2021-02-24 13:55:38,1.003s,PASSED
"click(findTestObject(""Recruits Page/Delete1""))",Chrome 88.0.4324.192,,,2021-02-24 13:55:38,2021-02-24 13:55:39,0.304s,PASSED
delay(1),Chrome 88.0.4324.192,,,2021-02-24 13:55:39,2021-02-24 13:55:40,1.020s,PASSED
"enhancedClick(findTestObject(""Recruits Page/Delete2""))",Chrome 88.0.4324.192,,,2021-02-24 13:55:40,2021-02-24 13:55:40,0.404s,PASSED
delay(2),Chrome 88.0.4324.192,,,2021-02-24 13:55:40,2021-02-24 13:55:42,2.003s,PASSED
closeBrowser(),Chrome 88.0.4324.192,,,2021-02-24 13:55:42,2021-02-24 13:55:42,0.101s,PASSED
,,,,,,,
Test Cases/Tasks,Chrome 88.0.4324.192,,,2021-02-24 13:55:42,2021-02-24 13:56:07,25.306s,PASSED
openBrowser(URL),Chrome 88.0.4324.192,,,2021-02-24 13:55:42,2021-02-24 13:55:45,2.733s,PASSED
"setText(findTestObject(""Login Page/Email""), email)",Chrome 88.0.4324.192,,,2021-02-24 13:55:45,2021-02-24 13:55:47,1.541s,PASSED
"setText(findTestObject(""Login Page/password""), password)",Chrome 88.0.4324.192,,,2021-02-24 13:55:47,2021-02-24 13:55:47,0.542s,PASSED
"click(findTestObject(""Login Page/Sign In""))",Chrome 88.0.4324.192,,,2021-02-24 13:55:47,2021-02-24 13:55:50,3.072s,PASSED
"waitForElementVisible(findTestObject(""Top Navigation Menu/Dashboard""), 60)",Chrome 88.0.4324.192,,,2021-02-24 13:55:50,2021-02-24 13:55:53,2.443s,PASSED
"enhancedClick(findTestObject(""Top Navigation Menu/Recruits""))",Chrome 88.0.4324.192,,,2021-02-24 13:55:53,2021-02-24 13:55:59,6.627s,PASSED
"enhancedClick(findTestObject(""Recruits Page/Tasks tab""))",Chrome 88.0.4324.192,,,2021-02-24 13:55:59,2021-02-24 13:56:00,0.859s,PASSED
"enhancedClick(findTestObject(""Recruits Page/Tasks/Add Task button""))",Chrome 88.0.4324.192,,,2021-02-24 13:56:00,2021-02-24 13:56:01,0.541s,PASSED
"enhancedClick(findTestObject(""Recruits Page/Tasks/Add Task Recruit field""))",Chrome 88.0.4324.192,,,2021-02-24 13:56:01,2021-02-24 13:56:01,0.501s,PASSED
"enhancedClick(findTestObject(""Recruits Page/Tasks/Add Task recruit dropdown1""))",Chrome 88.0.4324.192,,,2021-02-24 13:56:01,2021-02-24 13:56:02,0.498s,PASSED
"enhancedClick(findTestObject(""Recruits Page/Tasks/Add Task Assigned To field""))",Chrome 88.0.4324.192,,,2021-02-24 13:56:02,2021-02-24 13:56:02,0.490s,PASSED
"enhancedClick(findTestObject(""Recruits Page/Tasks/Add Task Assigned To dropdown1""))",Chrome 88.0.4324.192,,,2021-02-24 13:56:02,2021-02-24 13:56:03,0.494s,PASSED
"enhancedClick(findTestObject(""Recruits Page/Tasks/Add Task Instruction field""))",Chrome 88.0.4324.192,,,2021-02-24 13:56:03,2021-02-24 13:56:03,0.498s,PASSED
"setText(findTestObject(""Recruits Page/Tasks/Add Task Instruction field""), ""test task"")",Chrome 88.0.4324.192,,,2021-02-24 13:56:03,2021-02-24 13:56:04,0.768s,PASSED
"enhancedClick(findTestObject(""Recruits Page/Tasks/Save new task""))",Chrome 88.0.4324.192,,,2021-02-24 13:56:04,2021-02-24 13:56:04,0.502s,PASSED
"verifyElementVisible(findTestObject(""Recruits Page/Tasks/Due task1 row""))",Chrome 88.0.4324.192,,,2021-02-24 13:56:04,2021-02-24 13:56:05,0.790s,PASSED
"mouseOver(findTestObject(""Recruits Page/Tasks/Due task1 ellipsis""))",Chrome 88.0.4324.192,,,2021-02-24 13:56:05,2021-02-24 13:56:06,0.497s,PASSED
"enhancedClick(findTestObject(""Recruits Page/Tasks/Due task1 ellipsis""))",Chrome 88.0.4324.192,,,2021-02-24 13:56:06,2021-02-24 13:56:06,0.389s,PASSED
"enhancedClick(findTestObject(""Recruits Page/Tasks/Mark Tasks Completed button""))",Chrome 88.0.4324.192,,,2021-02-24 13:56:06,2021-02-24 13:56:07,0.500s,PASSED
"verifyElementNotPresent(findTestObject(""Recruits Page/Tasks/Due task1 row""), 0)",Chrome 88.0.4324.192,,,2021-02-24 13:56:07,2021-02-24 13:56:07,0.792s,PASSED
closeBrowser(),Chrome 88.0.4324.192,,,2021-02-24 13:56:07,2021-02-24 13:56:07,0.094s,PASSED
,,,,,,,
Test Cases/Features/Link To FastScout,Chrome 88.0.4324.192,,,2021-02-24 13:56:07,2021-02-24 13:56:33,25.869s,PASSED
openBrowser(URL),Chrome 88.0.4324.192,,,2021-02-24 13:56:08,2021-02-24 13:56:10,2.252s,PASSED
"setText(findTestObject(""Login Page/Email""), email)",Chrome 88.0.4324.192,,,2021-02-24 13:56:10,2021-02-24 13:56:11,0.940s,PASSED
"setText(findTestObject(""Login Page/password""), password)",Chrome 88.0.4324.192,,,2021-02-24 13:56:11,2021-02-24 13:56:11,0.542s,PASSED
"click(findTestObject(""Login Page/Sign In""))",Chrome 88.0.4324.192,,,2021-02-24 13:56:11,2021-02-24 13:56:14,2.544s,PASSED
"waitForElementVisible(findTestObject(""Top Navigation Menu/Dashboard""), 60)",Chrome 88.0.4324.192,,,2021-02-24 13:56:14,2021-02-24 13:56:15,1.057s,PASSED
"click(findTestObject(""Top Navigation Menu/Recruits""))",Chrome 88.0.4324.192,,,2021-02-24 13:56:15,2021-02-24 13:56:17,2.036s,PASSED
"click(findTestObject(""Recruits Page/ADD RECRUIT button""))",Chrome 88.0.4324.192,,,2021-02-24 13:56:17,2021-02-24 13:56:18,0.800s,PASSED
"enhancedClick(findTestObject(""Recruits Page/Add New Recruit modal/LinkToFastScout Folder/Link To FastScout button""))",Chrome 88.0.4324.192,,,2021-02-24 13:56:18,2021-02-24 13:56:18,0.628s,PASSED
"enhancedClick(findTestObject(""Recruits Page/Add New Recruit modal/LinkToFastScout Folder/League_Division dropdown""))",Chrome 88.0.4324.192,,,2021-02-24 13:56:18,2021-02-24 13:56:19,0.524s,PASSED
"enhancedClick(findTestObject(""Recruits Page/Add New Recruit modal/LinkToFastScout Folder/D-II League""))",Chrome 88.0.4324.192,,,2021-02-24 13:56:19,2021-02-24 13:56:19,0.509s,PASSED
"enhancedClick(findTestObject(""Recruits Page/Add New Recruit modal/LinkToFastScout Folder/Team dropdown (LFS)""))",Chrome 88.0.4324.192,,,2021-02-24 13:56:19,2021-02-24 13:56:20,0.523s,PASSED
"enhancedClick(findTestObject(""Recruits Page/Add New Recruit modal/LinkToFastScout Folder/Florida Southern (LFS)""))",Chrome 88.0.4324.192,,,2021-02-24 13:56:20,2021-02-24 13:56:20,0.511s,PASSED
"enhancedClick(findTestObject(""Recruits Page/Add New Recruit modal/LinkToFastScout Folder/Player dropdown (LFS)""))",Chrome 88.0.4324.192,,,2021-02-24 13:56:20,2021-02-24 13:56:21,0.509s,PASSED
"enhancedClick(findTestObject(""Recruits Page/Add New Recruit modal/LinkToFastScout Folder/Player10 (LFS)""))",Chrome 88.0.4324.192,,,2021-02-24 13:56:21,2021-02-24 13:56:21,0.504s,PASSED
"click(findTestObject(""Recruits Page/Add New Recruit modal/SAVE button""))",Chrome 88.0.4324.192,,,2021-02-24 13:56:21,2021-02-24 13:56:22,0.575s,PASSED
"setText(findTestObject(""Recruits Page/Recruit Search Field on Recruits page""), ""Wes Bongiorni"")",Chrome 88.0.4324.192,,,2021-02-24 13:56:22,2021-02-24 13:56:23,1.001s,PASSED
delay(1),Chrome 88.0.4324.192,,,2021-02-24 13:56:23,2021-02-24 13:56:24,1.006s,PASSED
"click(findTestObject(""Recruits Page/Archive recruit""))",Chrome 88.0.4324.192,,,2021-02-24 13:56:24,2021-02-24 13:56:24,0.307s,PASSED
delay(1),Chrome 88.0.4324.192,,,2021-02-24 13:56:24,2021-02-24 13:56:25,1.003s,PASSED
"click(findTestObject(""Recruits Page/All Recruits List selection""))",Chrome 88.0.4324.192,,,2021-02-24 13:56:25,2021-02-24 13:56:26,0.294s,PASSED
delay(1),Chrome 88.0.4324.192,,,2021-02-24 13:56:26,2021-02-24 13:56:27,1.002s,PASSED
"click(findTestObject(""Recruits Page/Archived List selection""))",Chrome 88.0.4324.192,,,2021-02-24 13:56:27,2021-02-24 13:56:27,0.630s,PASSED
delay(1),Chrome 88.0.4324.192,,,2021-02-24 13:56:27,2021-02-24 13:56:28,1.002s,PASSED
"click(findTestObject(""Recruits Page/Archived list ellipsis button""))",Chrome 88.0.4324.192,,,2021-02-24 13:56:28,2021-02-24 13:56:29,0.301s,PASSED
delay(1),Chrome 88.0.4324.192,,,2021-02-24 13:56:29,2021-02-24 13:56:30,1.005s,PASSED
"click(findTestObject(""Recruits Page/Delete1""))",Chrome 88.0.4324.192,,,2021-02-24 13:56:30,2021-02-24 13:56:30,0.307s,PASSED
delay(1),Chrome 88.0.4324.192,,,2021-02-24 13:56:30,2021-02-24 13:56:31,1.003s,PASSED
"enhancedClick(findTestObject(""Recruits Page/Delete2""))",Chrome 88.0.4324.192,,,2021-02-24 13:56:31,2021-02-24 13:56:31,0.312s,PASSED
delay(2),Chrome 88.0.4324.192,,,2021-02-24 13:56:31,2021-02-24 13:56:33,2.004s,PASSED
closeBrowser(),Chrome 88.0.4324.192,,,2021-02-24 13:56:33,2021-02-24 13:56:33,0.100s,PASSED
,,,,,,,
Test Cases/Features/Video,Chrome 88.0.4324.192,,,2021-02-24 13:56:33,2021-02-24 13:56:55,21.639s,PASSED
openBrowser(URL),Chrome 88.0.4324.192,,,2021-02-24 13:56:33,2021-02-24 13:56:36,2.532s,PASSED
"setText(findTestObject(""Login Page/Email""), email)",Chrome 88.0.4324.192,,,2021-02-24 13:56:36,2021-02-24 13:56:37,0.955s,PASSED
"setText(findTestObject(""Login Page/password""), password)",Chrome 88.0.4324.192,,,2021-02-24 13:56:37,2021-02-24 13:56:38,0.645s,PASSED
"click(findTestObject(""Login Page/Sign In""))",Chrome 88.0.4324.192,,,2021-02-24 13:56:38,2021-02-24 13:56:40,2.629s,PASSED
"waitForElementVisible(findTestObject(""Top Navigation Menu/Dashboard""), 60)",Chrome 88.0.4324.192,,,2021-02-24 13:56:40,2021-02-24 13:56:41,1.191s,PASSED
"enhancedClick(findTestObject(""Top Navigation Menu/Recruits""))",Chrome 88.0.4324.192,,,2021-02-24 13:56:41,2021-02-24 13:56:46,4.704s,PASSED
"enhancedClick(findTestObject(""Recruits Page/Recruit Row1 Name""))",Chrome 88.0.4324.192,,,2021-02-24 13:56:46,2021-02-24 13:56:47,0.787s,PASSED
"enhancedClick(findTestObject(""Recruits Page/Recruit Profile (View)/VIDEOS tab""))",Chrome 88.0.4324.192,,,2021-02-24 13:56:47,2021-02-24 13:56:48,0.837s,PASSED
"uploadFile(findTestObject(""Recruit Profile (view)/Video Upload object""), ""/Users/jefffeldman/Desktop/Vids/NBA Playoffs 2019.mp4"")",Chrome 88.0.4324.192,,,2021-02-24 13:56:48,2021-02-24 13:56:48,0.535s,PASSED
"verifyElementPresent(findTestObject(""Recruit Profile (view)/Recruit Video row1""), 0)",Chrome 88.0.4324.192,,,2021-02-24 13:56:48,2021-02-24 13:56:50,1.595s,PASSED
delay(2),Chrome 88.0.4324.192,,,2021-02-24 13:56:50,2021-02-24 13:56:52,2.006s,PASSED
"mouseOver(findTestObject(""Recruit Profile (view)/Recruit Video row1""))",Chrome 88.0.4324.192,,,2021-02-24 13:56:52,2021-02-24 13:56:52,0.421s,PASSED
"enhancedClick(findTestObject(""Recruit Profile (view)/Delete Video Row1""))",Chrome 88.0.4324.192,,,2021-02-24 13:56:52,2021-02-24 13:56:53,0.418s,PASSED
"enhancedClick(findTestObject(""Recruit Profile (view)/Confirm Delete Video""))",Chrome 88.0.4324.192,,,2021-02-24 13:56:53,2021-02-24 13:56:53,0.498s,PASSED
"verifyElementNotPresent(findTestObject(""Recruit Profile (view)/Recruit Video row1""), 0)",Chrome 88.0.4324.192,,,2021-02-24 13:56:53,2021-02-24 13:56:54,1.196s,PASSED
"enhancedClick(findTestObject(""Recruit Profile (view)/CLOSE button""))",Chrome 88.0.4324.192,,,2021-02-24 13:56:54,2021-02-24 13:56:55,0.450s,PASSED
closeBrowser(),Chrome 88.0.4324.192,,,2021-02-24 13:56:55,2021-02-24 13:56:55,0.113s,PASSED
,,,,,,,
Test Cases/Features/FastConnect,Chrome 88.0.4324.192,,,2021-02-24 13:56:55,2021-02-24 13:57:32,36.574s,PASSED
openBrowser(URL),Chrome 88.0.4324.192,,,2021-02-24 13:56:55,2021-02-24 13:56:58,2.605s,PASSED
"setText(findTestObject(""Login Page/Email""), email)",Chrome 88.0.4324.192,,,2021-02-24 13:56:58,2021-02-24 13:56:59,1.465s,PASSED
"setText(findTestObject(""Login Page/password""), password)",Chrome 88.0.4324.192,,,2021-02-24 13:56:59,2021-02-24 13:57:00,0.646s,PASSED
"click(findTestObject(""Login Page/Sign In""))",Chrome 88.0.4324.192,,,2021-02-24 13:57:00,2021-02-24 13:57:03,2.774s,PASSED
"waitForElementVisible(findTestObject(""Top Navigation Menu/Dashboard""), 60)",Chrome 88.0.4324.192,,,2021-02-24 13:57:03,2021-02-24 13:57:04,1.693s,PASSED
"enhancedClick(findTestObject(""Top Navigation Menu/Recruits""))",Chrome 88.0.4324.192,,,2021-02-24 13:57:04,2021-02-24 13:57:06,1.845s,PASSED
"enhancedClick(findTestObject(""Recruits Page/FastConnect tab""))",Chrome 88.0.4324.192,,,2021-02-24 13:57:06,2021-02-24 13:57:07,0.846s,PASSED
"enhancedClick(findTestObject(""Recruits Page/FastConnect/List dropdown""))",Chrome 88.0.4324.192,,,2021-02-24 13:57:07,2021-02-24 13:57:08,0.903s,PASSED
"enhancedClick(findTestObject(""Recruits Page/FastConnect/All Recruits list dropdown""))",Chrome 88.0.4324.192,,,2021-02-24 13:57:08,2021-02-24 13:57:08,0.541s,PASSED
delay(10),Chrome 88.0.4324.192,,,2021-02-24 13:57:08,2021-02-24 13:57:18,10.006s,PASSED
"verifyElementVisible(findTestObject(""Recruits Page/FastConnect/Fastconnect post1""), STOP_ON_FAILURE)",Chrome 88.0.4324.192,,,2021-02-24 13:57:18,2021-02-24 13:57:32,13.122s,PASSED
,,,,,,,
Test Cases/Tourney Workflow,Chrome 88.0.4324.192,,,2021-02-24 13:57:32,2021-02-24 13:58:24,52.962s,PASSED
openBrowser(URL),Chrome 88.0.4324.192,,,2021-02-24 13:57:32,2021-02-24 13:57:34,2.644s,PASSED
"setText(findTestObject(""Login Page/Email""), email)",Chrome 88.0.4324.192,,,2021-02-24 13:57:34,2021-02-24 13:57:36,1.358s,PASSED
"setText(findTestObject(""Login Page/password""), password)",Chrome 88.0.4324.192,,,2021-02-24 13:57:36,2021-02-24 13:57:36,0.745s,PASSED
"click(findTestObject(""Login Page/Sign In""))",Chrome 88.0.4324.192,,,2021-02-24 13:57:36,2021-02-24 13:57:39,2.770s,PASSED
"waitForElementVisible(findTestObject(""Top Navigation Menu/Dashboard""), 60)",Chrome 88.0.4324.192,,,2021-02-24 13:57:39,2021-02-24 13:57:40,1.175s,PASSED
"enhancedClick(findTestObject(""Top Navigation Menu/Tourneys""))",Chrome 88.0.4324.192,,,2021-02-24 13:57:40,2021-02-24 13:57:42,1.415s,PASSED
"enhancedClick(findTestObject(""Tourneys page/Tourney list dropdown""))",Chrome 88.0.4324.192,,,2021-02-24 13:57:42,2021-02-24 13:57:43,1.071s,PASSED
enhancedClick(tourneySession),Chrome 88.0.4324.192,,,2021-02-24 13:57:43,2021-02-24 13:57:43,0.666s,PASSED
"enhancedClick(findTestObject(""Tourneys page/Tourneys header""))",Chrome 88.0.4324.192,,,2021-02-24 13:57:43,2021-02-24 13:57:44,0.850s,PASSED
"enhancedClick(findTestObject(""Tourneys page/Tourney1 listed""))",Chrome 88.0.4324.192,,,2021-02-24 13:57:44,2021-02-24 13:57:45,0.341s,PASSED
"enhancedClick(findTestObject(""Tourneys page/Assign Staff button""))",Chrome 88.0.4324.192,,,2021-02-24 13:57:45,2021-02-24 13:57:47,2.673s,PASSED
"enhancedClick(findTestObject(""Tourneys page/Assign Staff User1 checkbox""))",Chrome 88.0.4324.192,,,2021-02-24 13:57:47,2021-02-24 13:57:48,0.509s,PASSED
"enhancedClick(findTestObject(""Tourneys page/Assign Staff SAVE button""))",Chrome 88.0.4324.192,,,2021-02-24 13:57:48,2021-02-24 13:57:48,0.499s,PASSED
delay(1),Chrome 88.0.4324.192,,,2021-02-24 13:57:48,2021-02-24 13:57:49,1.011s,PASSED
"enhancedClick(findTestObject(""Tourneys page/Assign Recruits button""))",Chrome 88.0.4324.192,,,2021-02-24 13:57:49,2021-02-24 13:57:50,0.412s,PASSED
"enhancedClick(findTestObject(""Tourneys page/Select Recruits dropdown""))",Chrome 88.0.4324.192,,,2021-02-24 13:57:50,2021-02-24 13:57:50,0.555s,PASSED
"enhancedClick(findTestObject(""Tourneys page/Assign Recruits dropdown list1""))",Chrome 88.0.4324.192,,,2021-02-24 13:57:50,2021-02-24 13:57:51,0.497s,PASSED
"enhancedClick(findTestObject(""Tourneys page/Assign Recruits SAVE button""))",Chrome 88.0.4324.192,,,2021-02-24 13:57:51,2021-02-24 13:57:51,0.503s,PASSED
"enhancedClick(findTestObject(""Tourneys page/Select Tourney Team dropdown""))",Chrome 88.0.4324.192,,,2021-02-24 13:57:51,2021-02-24 13:57:52,0.920s,PASSED
"enhancedClick(findTestObject(""Tourneys page/Select Tourney Team dropdown1""))",Chrome 88.0.4324.192,,,2021-02-24 13:57:52,2021-02-24 13:57:53,0.505s,PASSED
delay(2),Chrome 88.0.4324.192,,,2021-02-24 13:57:53,2021-02-24 13:57:55,2.010s,PASSED
"enhancedClick(findTestObject(""Tourneys page/Tourney GAMES tab""))",Chrome 88.0.4324.192,,,2021-02-24 13:57:55,2021-02-24 13:57:55,0.419s,PASSED
delay(3),Chrome 88.0.4324.192,,,2021-02-24 13:57:55,2021-02-24 13:57:58,3.009s,PASSED
"verifyElementPresent(findTestObject(""Tourneys page/GAMES tab row1""), 0)",Chrome 88.0.4324.192,,,2021-02-24 13:57:58,2021-02-24 13:57:59,0.371s,PASSED
"gameDate = getText(findTestObject(""Tourneys page/GAMES tab row1 Date""))",Chrome 88.0.4324.192,,,2021-02-24 13:57:59,2021-02-24 13:57:59,0.379s,PASSED
"enhancedClick(findTestObject(""Top Navigation Menu/Schedule""))",Chrome 88.0.4324.192,,,2021-02-24 13:57:59,2021-02-24 13:57:59,0.353s,PASSED
"enhancedClick(findTestObject(""Schedule Page/Calendar from date filter""))",Chrome 88.0.4324.192,,,2021-02-24 13:57:59,2021-02-24 13:58:01,1.375s,PASSED
"sendKeys(findTestObject(""Schedule Page/Calendar from date filter""), Keys.chord(BACK_SPACE))",Chrome 88.0.4324.192,,,2021-02-24 13:58:01,2021-02-24 13:58:01,0.499s,PASSED
"sendKeys(findTestObject(""Schedule Page/Calendar from date filter""), Keys.chord(BACK_SPACE))",Chrome 88.0.4324.192,,,2021-02-24 13:58:01,2021-02-24 13:58:02,0.384s,PASSED
"sendKeys(findTestObject(""Schedule Page/Calendar from date filter""), Keys.chord(BACK_SPACE))",Chrome 88.0.4324.192,,,2021-02-24 13:58:02,2021-02-24 13:58:02,0.283s,PASSED
"sendKeys(findTestObject(""Schedule Page/Calendar from date filter""), Keys.chord(BACK_SPACE))",Chrome 88.0.4324.192,,,2021-02-24 13:58:02,2021-02-24 13:58:02,0.390s,PASSED
"sendKeys(findTestObject(""Schedule Page/Calendar from date filter""), Keys.chord(BACK_SPACE))",Chrome 88.0.4324.192,,,2021-02-24 13:58:02,2021-02-24 13:58:03,0.383s,PASSED
"sendKeys(findTestObject(""Schedule Page/Calendar from date filter""), Keys.chord(BACK_SPACE))",Chrome 88.0.4324.192,,,2021-02-24 13:58:03,2021-02-24 13:58:03,0.281s,PASSED
"sendKeys(findTestObject(""Schedule Page/Calendar from date filter""), Keys.chord(BACK_SPACE))",Chrome 88.0.4324.192,,,2021-02-24 13:58:03,2021-02-24 13:58:03,0.279s,PASSED
"sendKeys(findTestObject(""Schedule Page/Calendar from date filter""), Keys.chord(BACK_SPACE))",Chrome 88.0.4324.192,,,2021-02-24 13:58:03,2021-02-24 13:58:03,0.278s,PASSED
"sendKeys(findTestObject(""Schedule Page/Calendar from date filter""), Keys.chord(BACK_SPACE))",Chrome 88.0.4324.192,,,2021-02-24 13:58:03,2021-02-24 13:58:04,0.283s,PASSED
"setText(findTestObject(""Schedule Page/Calendar from date filter""), gameDate)",Chrome 88.0.4324.192,,,2021-02-24 13:58:04,2021-02-24 13:58:04,0.723s,PASSED
"sendKeys(findTestObject(""Schedule Page/Calendar from date filter""), Keys.chord(ENTER))",Chrome 88.0.4324.192,,,2021-02-24 13:58:04,2021-02-24 13:58:05,0.319s,PASSED
"verifyElementPresent(findTestObject(""Schedule Page/Row1 on Schedule List""), 0)",Chrome 88.0.4324.192,,,2021-02-24 13:58:05,2021-02-24 13:58:17,12.535s,PASSED
"enhancedClick(findTestObject(""Top Navigation Menu/Tourneys""))",Chrome 88.0.4324.192,,,2021-02-24 13:58:17,2021-02-24 13:58:18,0.342s,PASSED
"enhancedClick(findTestObject(""Tourneys page/Tourney list dropdown""))",Chrome 88.0.4324.192,,,2021-02-24 13:58:18,2021-02-24 13:58:19,1.033s,PASSED
enhancedClick(tourneySession),Chrome 88.0.4324.192,,,2021-02-24 13:58:19,2021-02-24 13:58:19,0.559s,PASSED
"enhancedClick(findTestObject(""Tourneys page/Tourneys header""))",Chrome 88.0.4324.192,,,2021-02-24 13:58:19,2021-02-24 13:58:20,0.739s,PASSED
"enhancedClick(findTestObject(""Tourneys page/Tourney1 listed""))",Chrome 88.0.4324.192,,,2021-02-24 13:58:20,2021-02-24 13:58:20,0.318s,PASSED
"enhancedClick(findTestObject(""Tourneys page/Edit Assign Staff Pencil""))",Chrome 88.0.4324.192,,,2021-02-24 13:58:20,2021-02-24 13:58:21,0.934s,PASSED
"enhancedClick(findTestObject(""Tourneys page/Assign Staff User1 checkbox""))",Chrome 88.0.4324.192,,,2021-02-24 13:58:21,2021-02-24 13:58:22,0.509s,PASSED
"enhancedClick(findTestObject(""Tourneys page/Assign Staff SAVE button""))",Chrome 88.0.4324.192,,,2021-02-24 13:58:22,2021-02-24 13:58:22,0.495s,PASSED
delay(1),Chrome 88.0.4324.192,,,2021-02-24 13:58:22,2021-02-24 13:58:23,1.002s,PASSED
"enhancedClick(findTestObject(""Tourneys page/Delete Attending Recruit1""))",Chrome 88.0.4324.192,,,2021-02-24 13:58:23,2021-02-24 13:58:24,0.608s,PASSED
"enhancedClick(findTestObject(""Tourneys page/Confirm Delete Attending Recruit1""))",Chrome 88.0.4324.192,,,2021-02-24 13:58:24,2021-02-24 13:58:24,0.502s,PASSED
closeBrowser(),Chrome 88.0.4324.192,,,2021-02-24 13:58:24,2021-02-24 13:58:24,0.102s,PASSED
