Suite/Test/Step Name,Browser,Description,Tag,Start time,End time,Duration,Status
Regression Tests,Chrome 89.0.4389.114,,,2021-04-02 14:10:46,2021-04-02 14:17:15,6m - 28.629s,FAILED
,,,,,,,
Test Cases/Draft Board,Chrome 89.0.4389.114,,,2021-04-02 14:10:47,2021-04-02 14:12:54,2m - 7.669s,FAILED
openBrowser(URL),Chrome 89.0.4389.114,,,2021-04-02 14:10:47,2021-04-02 14:10:50,2.965s,PASSED
"setViewPortSize(1440, 841)",Chrome 89.0.4389.114,,,2021-04-02 14:10:50,2021-04-02 14:10:50,0.126s,PASSED
"setText(findTestObject(""Login Page/Email""), email)",Chrome 89.0.4389.114,,,2021-04-02 14:10:50,2021-04-02 14:10:50,0.222s,PASSED
"setText(findTestObject(""Login Page/password""), password)",Chrome 89.0.4389.114,,,2021-04-02 14:10:50,2021-04-02 14:10:50,0.137s,PASSED
"click(findTestObject(""Login Page/Sign In""))",Chrome 89.0.4389.114,,,2021-04-02 14:10:50,2021-04-02 14:10:52,1.604s,PASSED
"waitForElementVisible(findTestObject(""Top Navigation Menu/Dashboard""), 60)",Chrome 89.0.4389.114,,,2021-04-02 14:10:52,2021-04-02 14:10:52,0.517s,PASSED
"enhancedClick(findTestObject(""Top Navigation Menu/Dashboard""))",Chrome 89.0.4389.114,,,2021-04-02 14:10:52,2021-04-02 14:10:53,0.122s,PASSED
delay(3),Chrome 89.0.4389.114,,,2021-04-02 14:10:53,2021-04-02 14:10:56,3.021s,PASSED
"mouseOver(findTestObject(""Dashboard Page/Draft Board (Dashboard)/blank 1-PG on Draft Board (Dashboard)""))",Chrome 89.0.4389.114,,,2021-04-02 14:10:56,2021-04-02 14:10:56,0.284s,PASSED
"enhancedClick(findTestObject(""Dashboard Page/Draft Board (Dashboard)/blank 1-PG on Draft Board (Dashboard)""))",Chrome 89.0.4389.114,,,2021-04-02 14:10:56,2021-04-02 14:10:56,0.087s,PASSED
"enhancedClick(findTestObject(""Dashboard Page/Draft Board (Dashboard)/Draft Board Dropdown Player1""))",Chrome 89.0.4389.114,,,2021-04-02 14:10:56,2021-04-02 14:10:56,0.199s,PASSED
"mouseOver(findTestObject(""Dashboard Page/Draft Board (Dashboard)/1-PG on Draft Board""))",Chrome 89.0.4389.114,,,2021-04-02 14:10:56,2021-04-02 14:10:56,0.331s,PASSED
"enhancedClick(findTestObject(""Dashboard Page/Draft Board (Dashboard)/1-PG on Draft Board""))",Chrome 89.0.4389.114,,,2021-04-02 14:10:56,2021-04-02 14:10:57,0.115s,PASSED
delay(1),Chrome 89.0.4389.114,,,2021-04-02 14:10:57,2021-04-02 14:10:58,1.008s,PASSED
"enhancedClick(findTestObject(""Recruit Profile (view)/Alerts button""))",Chrome 89.0.4389.114,,,2021-04-02 14:10:58,2021-04-02 14:10:58,0.091s,PASSED
"enhancedClick(findTestObject(""Recruit Profile (view)/CLOSE button""))",Chrome 89.0.4389.114,,,2021-04-02 14:10:58,2021-04-02 14:10:58,0.111s,PASSED
"verifyElementVisible(findTestObject(""Dashboard Page/Draft Board (Dashboard)/Alerts bell indicator""))",Chrome 89.0.4389.114,,,2021-04-02 14:10:58,2021-04-02 14:10:58,0.116s,PASSED
"mouseOver(findTestObject(""Dashboard Page/Draft Board (Dashboard)/1-PG on Draft Board""))",Chrome 89.0.4389.114,,,2021-04-02 14:10:58,2021-04-02 14:10:58,0.211s,PASSED
"enhancedClick(findTestObject(""Dashboard Page/Draft Board (Dashboard)/1-PG on Draft Board""))",Chrome 89.0.4389.114,,,2021-04-02 14:10:58,2021-04-02 14:10:58,0.133s,PASSED
"enhancedClick(findTestObject(""Recruit Profile (view)/Alerts button""))",Chrome 89.0.4389.114,,,2021-04-02 14:10:58,2021-04-02 14:10:58,0.136s,PASSED
"mouseOver(findTestObject(""Dashboard Page/Draft Board (Dashboard)/1-PG on Draft Board""))",Chrome 89.0.4389.114,,,2021-04-02 14:10:58,2021-04-02 14:10:59,0.212s,PASSED
"enhancedClick(findTestObject(""Recruit Profile (view)/CLOSE button""))",Chrome 89.0.4389.114,,,2021-04-02 14:10:59,2021-04-02 14:10:59,0.103s,PASSED
delay(1),Chrome 89.0.4389.114,,,2021-04-02 14:10:59,2021-04-02 14:11:00,1.007s,PASSED
"verifyElementNotPresent(findTestObject(""Dashboard Page/Draft Board (Dashboard)/Alerts bell indicator""), 0)",Chrome 89.0.4389.114,,,2021-04-02 14:11:00,2021-04-02 14:11:00,0.086s,PASSED
"mouseOver(findTestObject(""Dashboard Page/Draft Board (Dashboard)/1-PG on Draft Board""))",Chrome 89.0.4389.114,,,2021-04-02 14:11:00,2021-04-02 14:11:00,0.183s,PASSED
"enhancedClick(findTestObject(""Dashboard Page/Draft Board (Dashboard)/Delete 1-PG on Draft Board""))",Chrome 89.0.4389.114,,,2021-04-02 14:11:00,2021-04-02 14:11:00,0.093s,PASSED
"enhancedClick(findTestObject(""Dashboard Page/Draft Board (Dashboard)/Draft Board Season Dropdown""))",Chrome 89.0.4389.114,,,2021-04-02 14:11:00,2021-04-02 14:11:00,0.104s,PASSED
"enhancedClick(findTestObject(""Dashboard Page/Draft Board (Dashboard)/Draft Board Season Dropdown - 2023""))",Chrome 89.0.4389.114,,,2021-04-02 14:11:00,2021-04-02 14:11:00,0.115s,PASSED
"mouseOver(findTestObject(""Dashboard Page/Draft Board (Dashboard)/blank 1-PG on Draft Board (Dashboard)""))",Chrome 89.0.4389.114,,,2021-04-02 14:11:00,2021-04-02 14:11:00,0.195s,PASSED
"enhancedClick(findTestObject(""Dashboard Page/Draft Board (Dashboard)/blank 1-PG on Draft Board (Dashboard)""))",Chrome 89.0.4389.114,,,2021-04-02 14:11:00,2021-04-02 14:11:01,0.081s,PASSED
"enhancedClick(findTestObject(""Dashboard Page/Draft Board (Dashboard)/Draft Board Dropdown Player1""))",Chrome 89.0.4389.114,,,2021-04-02 14:11:01,2021-04-02 14:11:01,0.163s,PASSED
delay(1),Chrome 89.0.4389.114,,,2021-04-02 14:11:01,2021-04-02 14:11:02,1.007s,PASSED
"mouseOver(findTestObject(""Dashboard Page/Draft Board (Dashboard)/blank 2-PG on Draft Board (Dashboard)""))",Chrome 89.0.4389.114,,,2021-04-02 14:11:02,2021-04-02 14:11:02,0.188s,PASSED
"enhancedClick(findTestObject(""Dashboard Page/Draft Board (Dashboard)/blank 2-PG on Draft Board (Dashboard)""))",Chrome 89.0.4389.114,,,2021-04-02 14:11:02,2021-04-02 14:11:02,0.094s,PASSED
"enhancedClick(findTestObject(""Dashboard Page/Draft Board (Dashboard)/Recruit Search field""))",Chrome 89.0.4389.114,,,2021-04-02 14:11:02,2021-04-02 14:11:02,0.116s,PASSED
"sendKeys(findTestObject(""Dashboard Page/Draft Board (Dashboard)/Recruit Search field""), ""Mikey Williams"")",Chrome 89.0.4389.114,,,2021-04-02 14:11:02,2021-04-02 14:11:02,0.090s,PASSED
delay(2),Chrome 89.0.4389.114,,,2021-04-02 14:11:02,2021-04-02 14:11:04,2.004s,PASSED
"enhancedClick(findTestObject(""Dashboard Page/Draft Board (Dashboard)/Draft Board Dropdown Player2""))",Chrome 89.0.4389.114,,,2021-04-02 14:11:04,2021-04-02 14:11:04,0.097s,PASSED
"mouseOver(findTestObject(""Dashboard Page/Draft Board (Dashboard)/2-PG on Draft Board""))",Chrome 89.0.4389.114,,,2021-04-02 14:11:04,2021-04-02 14:11:05,0.257s,PASSED
"enhancedClick(findTestObject(""Dashboard Page/Draft Board (Dashboard)/Delete 2-PG on Draft Board""))",Chrome 89.0.4389.114,,,2021-04-02 14:11:05,2021-04-02 14:11:05,0.098s,PASSED
"mouseOver(findTestObject(""Dashboard Page/Draft Board (Dashboard)/1-PG on Draft Board""))",Chrome 89.0.4389.114,,,2021-04-02 14:11:05,2021-04-02 14:11:05,0.191s,PASSED
"enhancedClick(findTestObject(""Dashboard Page/Draft Board (Dashboard)/Delete 1-PG on Draft Board""))",Chrome 89.0.4389.114,,,2021-04-02 14:11:05,2021-04-02 14:11:05,0.096s,PASSED
"enhancedClick(findTestObject(""Dashboard Page/Draft Board (Dashboard)/Draft Board Link""))",Chrome 89.0.4389.114,,,2021-04-02 14:11:05,2021-04-02 14:11:05,0.138s,PASSED
"mouseOver(findTestObject(""Recruits Page/Draft Board (Recruits)/blank PG1 Draft Board-Recruits""))",Chrome 89.0.4389.114,,,2021-04-02 14:11:05,2021-04-02 14:11:05,0.201s,PASSED
"enhancedClick(findTestObject(""Recruits Page/Draft Board (Recruits)/blank PG1 Draft Board-Recruits""))",Chrome 89.0.4389.114,,,2021-04-02 14:11:05,2021-04-02 14:11:05,0.082s,PASSED
"enhancedClick(findTestObject(""Recruits Page/Draft Board (Recruits)/Draft Board dropdown P1 (Recruits)""))",Chrome 89.0.4389.114,,,2021-04-02 14:11:05,2021-04-02 14:11:06,0.152s,PASSED
"mouseOver(findTestObject(""Dashboard Page/Draft Board (Dashboard)/1-PG on Draft Board""))",Chrome 89.0.4389.114,,,2021-04-02 14:11:06,2021-04-02 14:11:06,0.229s,PASSED
"enhancedClick(findTestObject(""Recruits Page/Draft Board (Recruits)/Draft Board Color Dropper icon""))",Chrome 89.0.4389.114,,,2021-04-02 14:11:06,2021-04-02 14:11:06,0.089s,PASSED
"enhancedClick(findTestObject(""Recruits Page/Draft Board (Recruits)/Yellow Color Draft Board""))",Chrome 89.0.4389.114,,,2021-04-02 14:11:06,2021-04-02 14:11:06,0.091s,PASSED
delay(1),Chrome 89.0.4389.114,,,2021-04-02 14:11:06,2021-04-02 14:11:07,1.006s,PASSED
"verifyElementAttributeValue(findTestObject(""Dashboard Page/Draft Board (Dashboard)/1-PG on Draft Board""), ""class"", ""draft-board-player dashboard-player css-1n2x8eh-DraftBoard"", 0)",Chrome 89.0.4389.114,,,2021-04-02 14:11:07,2021-04-02 14:11:07,0.067s,PASSED
"mouseOver(findTestObject(""Dashboard Page/Draft Board (Dashboard)/1-PG on Draft Board""))",Chrome 89.0.4389.114,,,2021-04-02 14:11:07,2021-04-02 14:11:07,0.181s,PASSED
"enhancedClick(findTestObject(""Recruits Page/Draft Board (Recruits)/Draft Board Color Dropper icon""))",Chrome 89.0.4389.114,,,2021-04-02 14:11:07,2021-04-02 14:11:07,0.068s,PASSED
"enhancedClick(findTestObject(""Recruits Page/Draft Board (Recruits)/Green Color Draft Board""))",Chrome 89.0.4389.114,,,2021-04-02 14:11:07,2021-04-02 14:11:39,31.534s,PASSED
delay(1),Chrome 89.0.4389.114,,,2021-04-02 14:11:39,2021-04-02 14:11:40,1.006s,PASSED
"verifyElementAttributeValue(findTestObject(""Dashboard Page/Draft Board (Dashboard)/1-PG on Draft Board""), ""class"", ""draft-board-player dashboard-player css-15mrb88-DraftBoard"", 0)",Chrome 89.0.4389.114,,,2021-04-02 14:11:40,2021-04-02 14:11:40,0.061s,PASSED
"mouseOver(findTestObject(""Dashboard Page/Draft Board (Dashboard)/1-PG on Draft Board""))",Chrome 89.0.4389.114,,,2021-04-02 14:11:40,2021-04-02 14:11:40,0.177s,PASSED
"enhancedClick(findTestObject(""Recruits Page/Draft Board (Recruits)/Draft Board Color Dropper icon""))",Chrome 89.0.4389.114,,,2021-04-02 14:11:40,2021-04-02 14:11:40,0.070s,PASSED
"enhancedClick(findTestObject(""Recruits Page/Draft Board (Recruits)/Draft Board Color pencil icon""))",Chrome 89.0.4389.114,,,2021-04-02 14:11:40,2021-04-02 14:11:41,0.646s,PASSED
"enhancedClick(findTestObject(""Recruits Page/Draft Board (Recruits)/Add Draft Board Color plus button""))",Chrome 89.0.4389.114,,,2021-04-02 14:11:41,2021-04-02 14:11:41,0.097s,PASSED
"doubleClick(findTestObject(""Recruits Page/Draft Board (Recruits)/Draft Board Color Hex field""))",Chrome 89.0.4389.114,,,2021-04-02 14:11:41,2021-04-02 14:11:41,0.201s,PASSED
"sendKeys(findTestObject(""Recruits Page/Draft Board (Recruits)/Draft Board Color Hex field""), ""4832a8"")",Chrome 89.0.4389.114,,,2021-04-02 14:11:41,2021-04-02 14:11:41,0.096s,PASSED
"enhancedClick(findTestObject(""Recruits Page/Draft Board (Recruits)/Manage Colors Close button""))",Chrome 89.0.4389.114,,,2021-04-02 14:11:41,2021-04-02 14:11:41,0.086s,PASSED
"mouseOver(findTestObject(""Dashboard Page/Draft Board (Dashboard)/1-PG on Draft Board""))",Chrome 89.0.4389.114,,,2021-04-02 14:11:41,2021-04-02 14:11:41,0.192s,PASSED
"enhancedClick(findTestObject(""Recruits Page/Draft Board (Recruits)/Draft Board Color Dropper icon""))",Chrome 89.0.4389.114,,,2021-04-02 14:11:41,2021-04-02 14:11:42,0.632s,PASSED
"enhancedClick(findTestObject(""Recruits Page/Draft Board (Recruits)/My Custom Color Draft Board""))",Chrome 89.0.4389.114,,,2021-04-02 14:11:42,2021-04-02 14:11:42,0.077s,PASSED
delay(1),Chrome 89.0.4389.114,,,2021-04-02 14:11:42,2021-04-02 14:11:43,1.005s,PASSED
"verifyElementAttributeValue(findTestObject(""Dashboard Page/Draft Board (Dashboard)/1-PG on Draft Board""), ""class"", ""draft-board-player dashboard-player css-ms4n7m-DraftBoard"", 0)",Chrome 89.0.4389.114,,,2021-04-02 14:11:43,2021-04-02 14:11:43,0.049s,PASSED
"mouseOver(findTestObject(""Dashboard Page/Draft Board (Dashboard)/1-PG on Draft Board""))",Chrome 89.0.4389.114,,,2021-04-02 14:11:43,2021-04-02 14:11:43,0.163s,PASSED
"enhancedClick(findTestObject(""Recruits Page/Draft Board (Recruits)/Draft Board Color Dropper icon""))",Chrome 89.0.4389.114,,,2021-04-02 14:11:43,2021-04-02 14:11:43,0.057s,PASSED
"enhancedClick(findTestObject(""Recruits Page/Draft Board (Recruits)/Reset Draft Board color""))",Chrome 89.0.4389.114,,,2021-04-02 14:11:43,2021-04-02 14:11:44,0.621s,PASSED
delay(1),Chrome 89.0.4389.114,,,2021-04-02 14:11:44,2021-04-02 14:11:45,1.005s,PASSED
"verifyElementAttributeValue(findTestObject(""Dashboard Page/Draft Board (Dashboard)/1-PG on Draft Board""), ""class"", ""draft-board-player dashboard-player css-g7hzzu-DraftBoard"", 0)",Chrome 89.0.4389.114,,,2021-04-02 14:11:45,2021-04-02 14:11:45,0.049s,PASSED
"mouseOver(findTestObject(""Dashboard Page/Draft Board (Dashboard)/1-PG on Draft Board""))",Chrome 89.0.4389.114,,,2021-04-02 14:11:45,2021-04-02 14:11:45,0.165s,PASSED
"enhancedClick(findTestObject(""Recruits Page/Draft Board (Recruits)/Draft Board Color Dropper icon""))",Chrome 89.0.4389.114,,,2021-04-02 14:11:45,2021-04-02 14:11:45,0.058s,PASSED
"enhancedClick(findTestObject(""Recruits Page/Draft Board (Recruits)/Draft Board Color pencil icon""))",Chrome 89.0.4389.114,,,2021-04-02 14:11:45,2021-04-02 14:11:45,0.090s,PASSED
"mouseOver(findTestObject(""Recruits Page/Draft Board (Recruits)/Manage Colors Custom1""))",Chrome 89.0.4389.114,,,2021-04-02 14:11:45,2021-04-02 14:11:46,0.206s,PASSED
"waitForElementPresent(findTestObject(""Recruits Page/Draft Board (Recruits)/Delete custom color1""), 0)",Chrome 89.0.4389.114,,,2021-04-02 14:11:46,2021-04-02 14:12:20,34.068s,PASSED
"enhancedClick(findTestObject(""Recruits Page/Draft Board (Recruits)/Delete custom color1""))",Chrome 89.0.4389.114,,,2021-04-02 14:12:20,2021-04-02 14:12:54,34.554s,FAILED
,,,,,,,
Test Cases/Depth Chart,Chrome 89.0.4389.114,,,2021-04-02 14:12:54,2021-04-02 14:13:06,12.230s,PASSED
openBrowser(URL),Chrome 89.0.4389.114,,,2021-04-02 14:12:54,2021-04-02 14:12:56,1.846s,PASSED
"setText(findTestObject(""Login Page/Email""), email)",Chrome 89.0.4389.114,,,2021-04-02 14:12:56,2021-04-02 14:12:56,0.186s,PASSED
"setText(findTestObject(""Login Page/password""), password)",Chrome 89.0.4389.114,,,2021-04-02 14:12:56,2021-04-02 14:12:57,0.129s,PASSED
"click(findTestObject(""Login Page/Sign In""))",Chrome 89.0.4389.114,,,2021-04-02 14:12:57,2021-04-02 14:12:58,1.704s,PASSED
"waitForElementVisible(findTestObject(""Top Navigation Menu/Dashboard""), 60)",Chrome 89.0.4389.114,,,2021-04-02 14:12:58,2021-04-02 14:12:59,0.492s,PASSED
"enhancedClick(findTestObject(""Top Navigation Menu/Dashboard""))",Chrome 89.0.4389.114,,,2021-04-02 14:12:59,2021-04-02 14:12:59,0.101s,PASSED
delay(3),Chrome 89.0.4389.114,,,2021-04-02 14:12:59,2021-04-02 14:13:02,3.004s,PASSED
"enhancedClick(findTestObject(""Dashboard Page/Depth Chart/Depth Chart season dropdown""))",Chrome 89.0.4389.114,,,2021-04-02 14:13:02,2021-04-02 14:13:02,0.110s,PASSED
"enhancedClick(findTestObject(""Dashboard Page/Depth Chart/Season Dropdown Index3""))",Chrome 89.0.4389.114,,,2021-04-02 14:13:02,2021-04-02 14:13:02,0.112s,PASSED
"enhancedClick(findTestObject(""Dashboard Page/Depth Chart/Depth Chart season dropdown""))",Chrome 89.0.4389.114,,,2021-04-02 14:13:02,2021-04-02 14:13:02,0.075s,PASSED
"enhancedClick(findTestObject(""Dashboard Page/Depth Chart/Season Dropdown Index2""))",Chrome 89.0.4389.114,,,2021-04-02 14:13:02,2021-04-02 14:13:02,0.102s,PASSED
"enhancedClick(findTestObject(""Dashboard Page/Depth Chart/EDIT Depth Chart""))",Chrome 89.0.4389.114,,,2021-04-02 14:13:02,2021-04-02 14:13:02,0.146s,PASSED
"enhancedClick(findTestObject(""Dashboard Page/Depth Chart/Depth Chart Edit (sr, pg, 1)""))",Chrome 89.0.4389.114,,,2021-04-02 14:13:02,2021-04-02 14:13:03,0.159s,PASSED
"enhancedClick(findTestObject(""Dashboard Page/Depth Chart/SAVE Depth Chart""))",Chrome 89.0.4389.114,,,2021-04-02 14:13:03,2021-04-02 14:13:03,0.104s,PASSED
delay(2),Chrome 89.0.4389.114,,,2021-04-02 14:13:03,2021-04-02 14:13:05,2.007s,PASSED
"verifyTextNotPresent(playerHidden, false)",Chrome 89.0.4389.114,,,2021-04-02 14:13:05,2021-04-02 14:13:05,0.122s,PASSED
"enhancedClick(findTestObject(""Dashboard Page/Depth Chart/EDIT Depth Chart""))",Chrome 89.0.4389.114,,,2021-04-02 14:13:05,2021-04-02 14:13:05,0.123s,PASSED
"enhancedClick(findTestObject(""Dashboard Page/Depth Chart/Depth Chart Edit (sr, pg, 1)""))",Chrome 89.0.4389.114,,,2021-04-02 14:13:05,2021-04-02 14:13:05,0.121s,PASSED
"enhancedClick(findTestObject(""Dashboard Page/Depth Chart/SAVE Depth Chart""))",Chrome 89.0.4389.114,,,2021-04-02 14:13:05,2021-04-02 14:13:05,0.095s,PASSED
"verifyTextPresent(playerHidden, false)",Chrome 89.0.4389.114,,,2021-04-02 14:13:05,2021-04-02 14:13:05,0.230s,PASSED
delay(1),Chrome 89.0.4389.114,,,2021-04-02 14:13:05,2021-04-02 14:13:06,1.006s,PASSED
closeBrowser(),Chrome 89.0.4389.114,,,2021-04-02 14:13:06,2021-04-02 14:13:06,0.095s,PASSED
,,,,,,,
Test Cases/Dashboard Calendar,Chrome 89.0.4389.114,,,2021-04-02 14:13:06,2021-04-02 14:13:34,27.912s,FAILED
openBrowser(URL),Chrome 89.0.4389.114,,,2021-04-02 14:13:07,2021-04-02 14:13:09,2.091s,PASSED
"setText(findTestObject(""Login Page/Email""), email)",Chrome 89.0.4389.114,,,2021-04-02 14:13:09,2021-04-02 14:13:09,0.164s,PASSED
"setText(findTestObject(""Login Page/password""), password)",Chrome 89.0.4389.114,,,2021-04-02 14:13:09,2021-04-02 14:13:09,0.128s,PASSED
"click(findTestObject(""Login Page/Sign In""))",Chrome 89.0.4389.114,,,2021-04-02 14:13:09,2021-04-02 14:13:11,1.682s,PASSED
"waitForElementVisible(findTestObject(""Top Navigation Menu/Dashboard""), 60)",Chrome 89.0.4389.114,,,2021-04-02 14:13:11,2021-04-02 14:13:11,0.462s,PASSED
"enhancedClick(findTestObject(""Top Navigation Menu/Recruits""))",Chrome 89.0.4389.114,,,2021-04-02 14:13:11,2021-04-02 14:13:11,0.129s,PASSED
delay(3),Chrome 89.0.4389.114,,,2021-04-02 14:13:11,2021-04-02 14:13:14,3.005s,PASSED
"enhancedClick(findTestObject(""Top Navigation Menu/Dashboard""))",Chrome 89.0.4389.114,,,2021-04-02 14:13:14,2021-04-02 14:13:15,0.188s,PASSED
delay(3),Chrome 89.0.4389.114,,,2021-04-02 14:13:15,2021-04-02 14:13:18,3.005s,PASSED
"enhancedClick(findTestObject(""Dashboard Page/Calendar (Dashboard)/Toggle Left (Calendar Dashboard)""))",Chrome 89.0.4389.114,,,2021-04-02 14:13:18,2021-04-02 14:13:18,0.106s,PASSED
delay(5),Chrome 89.0.4389.114,,,2021-04-02 14:13:18,2021-04-02 14:13:23,5.003s,PASSED
"enhancedClick(findTestObject(""Dashboard Page/Calendar (Dashboard)/Toggle Right (Calendar Dashboard)""))",Chrome 89.0.4389.114,,,2021-04-02 14:13:23,2021-04-02 14:13:23,0.694s,PASSED
delay(5),Chrome 89.0.4389.114,,,2021-04-02 14:13:23,2021-04-02 14:13:28,5.006s,PASSED
"enhancedClick(findTestObject(""Dashboard Page/Calendar (Dashboard)/Dashboard Calendar SHOW dropdown""))",Chrome 89.0.4389.114,,,2021-04-02 14:13:28,2021-04-02 14:13:28,0.095s,PASSED
"enhancedClick(findTestObject(""Dashboard Page/Calendar (Dashboard)/My Calendar option""))",Chrome 89.0.4389.114,,,2021-04-02 14:13:28,2021-04-02 14:13:29,0.079s,PASSED
"enhancedClick(findTestObject(""Dashboard Page/Calendar (Dashboard)/My Calendar option""))",Chrome 89.0.4389.114,,,2021-04-02 14:13:29,2021-04-02 14:13:29,0.063s,PASSED
"enhancedClick(findTestObject(""Dashboard Page/Calendar (Dashboard)/Team calendar option""))",Chrome 89.0.4389.114,,,2021-04-02 14:13:29,2021-04-02 14:13:29,0.072s,PASSED
"enhancedClick(findTestObject(""Dashboard Page/Calendar (Dashboard)/Team calendar option""))",Chrome 89.0.4389.114,,,2021-04-02 14:13:29,2021-04-02 14:13:29,0.067s,PASSED
"enhancedClick(findTestObject(""Dashboard Page/Calendar (Dashboard)/Tasks calendar option""))",Chrome 89.0.4389.114,,,2021-04-02 14:13:29,2021-04-02 14:13:29,0.076s,PASSED
"enhancedClick(findTestObject(""Dashboard Page/Calendar (Dashboard)/Tasks calendar option""))",Chrome 89.0.4389.114,,,2021-04-02 14:13:29,2021-04-02 14:13:29,0.067s,PASSED
"enhancedClick(findTestObject(""Dashboard Page/Calendar (Dashboard)/NCAA Calendar option""))",Chrome 89.0.4389.114,,,2021-04-02 14:13:29,2021-04-02 14:13:29,0.077s,PASSED
"enhancedClick(findTestObject(""Dashboard Page/Calendar (Dashboard)/NCAA Calendar option""))",Chrome 89.0.4389.114,,,2021-04-02 14:13:29,2021-04-02 14:13:29,0.060s,PASSED
"enhancedClick(findTestObject(""Dashboard Page/Calendar (Dashboard)/My Live Period calendar option""))",Chrome 89.0.4389.114,,,2021-04-02 14:13:29,2021-04-02 14:13:29,0.075s,PASSED
"enhancedClick(findTestObject(""Dashboard Page/Calendar (Dashboard)/My Live Period calendar option""))",Chrome 89.0.4389.114,,,2021-04-02 14:13:29,2021-04-02 14:13:29,0.063s,PASSED
"enhancedClick(findTestObject(""Dashboard Page/Calendar (Dashboard)/Dashboard Calendar SHOW dropdown""))",Chrome 89.0.4389.114,,,2021-04-02 14:13:29,2021-04-02 14:13:29,0.066s,PASSED
"enhancedClick(findTestObject(""Dashboard Page/Calendar (Dashboard)/Dashboard Calendar Add New""))",Chrome 89.0.4389.114,,,2021-04-02 14:13:29,2021-04-02 14:13:29,0.145s,PASSED
"enhancedClick(findTestObject(""Dashboard Page/Calendar (Dashboard)/Add Event modal/Event Name field""))",Chrome 89.0.4389.114,,,2021-04-02 14:13:29,2021-04-02 14:13:29,0.097s,PASSED
"sendKeys(findTestObject(""Dashboard Page/Calendar (Dashboard)/Add Event modal/Event Name field""), ""Test Event1"")",Chrome 89.0.4389.114,,,2021-04-02 14:13:29,2021-04-02 14:13:30,0.082s,PASSED
"enhancedClick(findTestObject(""Dashboard Page/Calendar (Dashboard)/Add Event modal/Event Location field""))",Chrome 89.0.4389.114,,,2021-04-02 14:13:30,2021-04-02 14:13:30,0.096s,PASSED
"sendKeys(findTestObject(""Dashboard Page/Calendar (Dashboard)/Add Event modal/Event Location field""), ""444 N. Michigan Ave"")",Chrome 89.0.4389.114,,,2021-04-02 14:13:30,2021-04-02 14:13:30,0.120s,PASSED
delay(1),Chrome 89.0.4389.114,,,2021-04-02 14:13:30,2021-04-02 14:13:31,1.006s,PASSED
"enhancedClick(findTestObject(""Dashboard Page/Calendar (Dashboard)/Add Event modal/Select searched location""))",Chrome 89.0.4389.114,,,2021-04-02 14:13:31,2021-04-02 14:13:31,0.080s,PASSED
"enhancedClick(findTestObject(""Dashboard Page/Calendar (Dashboard)/Add Event modal/Select Recruits dropdown""))",Chrome 89.0.4389.114,,,2021-04-02 14:13:31,2021-04-02 14:13:31,0.079s,PASSED
"enhancedClick(findTestObject(""Dashboard Page/Calendar (Dashboard)/Add Event modal/Recruit1 in dropdown (Add Event modal)""))",Chrome 89.0.4389.114,,,2021-04-02 14:13:31,2021-04-02 14:13:31,0.087s,PASSED
"enhancedClick(findTestObject(""Dashboard Page/Calendar (Dashboard)/Add Event modal/Add Event Attendees""))",Chrome 89.0.4389.114,,,2021-04-02 14:13:31,2021-04-02 14:13:31,0.102s,PASSED
"enhancedClick(findTestObject(""Dashboard Page/Calendar (Dashboard)/Add Event modal/Recruiters checkbox""))",Chrome 89.0.4389.114,,,2021-04-02 14:13:31,2021-04-02 14:13:31,0.099s,PASSED
"enhancedClick(findTestObject(""Dashboard Page/Calendar (Dashboard)/Add Event modal/Game Note field""))",Chrome 89.0.4389.114,,,2021-04-02 14:13:31,2021-04-02 14:13:31,0.086s,PASSED
"sendKeys(findTestObject(""Dashboard Page/Calendar (Dashboard)/Add Event modal/Game Note field""), ""arrive early"")",Chrome 89.0.4389.114,,,2021-04-02 14:13:31,2021-04-02 14:13:31,0.148s,PASSED
"enhancedClick(findTestObject(""Dashboard Page/Calendar (Dashboard)/Add Event modal/Add Event Save button""))",Chrome 89.0.4389.114,,,2021-04-02 14:13:31,2021-04-02 14:13:32,0.086s,PASSED
delay(2),Chrome 89.0.4389.114,,,2021-04-02 14:13:32,2021-04-02 14:13:34,2.003s,PASSED
"verifyTextPresent(""Test Event1"", false)",Chrome 89.0.4389.114,,,2021-04-02 14:13:34,2021-04-02 14:13:34,0.849s,FAILED
,,,,,,,
Test Cases/Add_Archive_Delete New Recruit,Chrome 89.0.4389.114,,,2021-04-02 14:13:34,2021-04-02 14:13:51,16.678s,PASSED
openBrowser(URL),Chrome 89.0.4389.114,,,2021-04-02 14:13:35,2021-04-02 14:13:36,1.909s,PASSED
"setText(findTestObject(""Login Page/Email""), email)",Chrome 89.0.4389.114,,,2021-04-02 14:13:36,2021-04-02 14:13:37,0.156s,PASSED
"setText(findTestObject(""Login Page/password""), password)",Chrome 89.0.4389.114,,,2021-04-02 14:13:37,2021-04-02 14:13:37,0.108s,PASSED
"click(findTestObject(""Login Page/Sign In""))",Chrome 89.0.4389.114,,,2021-04-02 14:13:37,2021-04-02 14:13:38,1.628s,PASSED
"waitForElementVisible(findTestObject(""Top Navigation Menu/Dashboard""), 60)",Chrome 89.0.4389.114,,,2021-04-02 14:13:38,2021-04-02 14:13:39,0.463s,PASSED
"click(findTestObject(""Top Navigation Menu/Recruits""))",Chrome 89.0.4389.114,,,2021-04-02 14:13:39,2021-04-02 14:13:39,0.142s,PASSED
"click(findTestObject(""Recruits Page/ADD RECRUIT button""))",Chrome 89.0.4389.114,,,2021-04-02 14:13:39,2021-04-02 14:13:39,0.141s,PASSED
"setText(findTestObject(""Recruits Page/Add New Recruit modal/First Name field""), ""Josh"")",Chrome 89.0.4389.114,,,2021-04-02 14:13:39,2021-04-02 14:13:40,1.098s,PASSED
"setText(findTestObject(""Recruits Page/Add New Recruit modal/Last Name field""), ""Allen"")",Chrome 89.0.4389.114,,,2021-04-02 14:13:40,2021-04-02 14:13:40,0.144s,PASSED
"setText(findTestObject(""Recruits Page/Add New Recruit modal/Class field""), ""2023"")",Chrome 89.0.4389.114,,,2021-04-02 14:13:40,2021-04-02 14:13:40,0.137s,PASSED
"click(findTestObject(""Recruits Page/Add New Recruit modal/Height field input""))",Chrome 89.0.4389.114,,,2021-04-02 14:13:40,2021-04-02 14:13:41,0.088s,PASSED
"setText(findTestObject(""Recruits Page/Add New Recruit modal/Height field input""), ""69"")",Chrome 89.0.4389.114,,,2021-04-02 14:13:41,2021-04-02 14:13:41,0.105s,PASSED
"setText(findTestObject(""Recruits Page/Add New Recruit modal/Birthdate field input""), ""1/1/2005"")",Chrome 89.0.4389.114,,,2021-04-02 14:13:41,2021-04-02 14:13:41,0.246s,PASSED
"enhancedClick(findTestObject(""Recruits Page/Add New Recruit modal/Birthdate field Label""))",Chrome 89.0.4389.114,,,2021-04-02 14:13:41,2021-04-02 14:13:41,0.118s,PASSED
"setText(findTestObject(""Recruits Page/Add New Recruit modal/High School field input""), ""highland park"")",Chrome 89.0.4389.114,,,2021-04-02 14:13:41,2021-04-02 14:13:41,0.154s,PASSED
"sendKeys(findTestObject(""Recruits Page/Add New Recruit modal/High School field input""), Keys.chord(DOWN))",Chrome 89.0.4389.114,,,2021-04-02 14:13:41,2021-04-02 14:13:41,0.063s,PASSED
"sendKeys(findTestObject(""Recruits Page/Add New Recruit modal/High School field input""), Keys.chord(ENTER))",Chrome 89.0.4389.114,,,2021-04-02 14:13:41,2021-04-02 14:13:41,0.055s,PASSED
"setText(findTestObject(""Recruits Page/Add New Recruit modal/High School Coach Name field""), ""Coach Miller"")",Chrome 89.0.4389.114,,,2021-04-02 14:13:41,2021-04-02 14:13:41,0.183s,PASSED
"setText(findTestObject(""Recruits Page/Add New Recruit modal/High School Coach Phone field""), ""8474713163"")",Chrome 89.0.4389.114,,,2021-04-02 14:13:41,2021-04-02 14:13:42,0.179s,PASSED
"setText(findTestObject(""Recruits Page/Add New Recruit modal/Club Team field""), ""Mac Irvin Fire"")",Chrome 89.0.4389.114,,,2021-04-02 14:13:42,2021-04-02 14:13:42,0.199s,PASSED
"setText(findTestObject(""Recruits Page/Add New Recruit modal/Club Team Number field""), ""10"")",Chrome 89.0.4389.114,,,2021-04-02 14:13:42,2021-04-02 14:13:42,0.137s,PASSED
"click(findTestObject(""Recruits Page/Add New Recruit modal/SAVE button""))",Chrome 89.0.4389.114,,,2021-04-02 14:13:42,2021-04-02 14:13:42,0.164s,PASSED
"setText(findTestObject(""Recruits Page/Recruit Search Field on Recruits page""), ""josh allen"")",Chrome 89.0.4389.114,,,2021-04-02 14:13:42,2021-04-02 14:13:42,0.229s,PASSED
delay(1),Chrome 89.0.4389.114,,,2021-04-02 14:13:42,2021-04-02 14:13:43,1.006s,PASSED
"enhancedClick(findTestObject(""Recruits Page/Archive recruit""))",Chrome 89.0.4389.114,,,2021-04-02 14:13:43,2021-04-02 14:13:43,0.086s,PASSED
delay(1),Chrome 89.0.4389.114,,,2021-04-02 14:13:43,2021-04-02 14:13:44,1.006s,PASSED
"click(findTestObject(""Recruits Page/All Recruits List selection""))",Chrome 89.0.4389.114,,,2021-04-02 14:13:44,2021-04-02 14:13:45,0.084s,PASSED
delay(1),Chrome 89.0.4389.114,,,2021-04-02 14:13:45,2021-04-02 14:13:46,1.006s,PASSED
"click(findTestObject(""Recruits Page/Archived List selection""))",Chrome 89.0.4389.114,,,2021-04-02 14:13:46,2021-04-02 14:13:46,0.112s,PASSED
delay(1),Chrome 89.0.4389.114,,,2021-04-02 14:13:46,2021-04-02 14:13:47,1.004s,PASSED
"enhancedClick(findTestObject(""Recruits Page/Archived list ellipsis button""))",Chrome 89.0.4389.114,,,2021-04-02 14:13:47,2021-04-02 14:13:47,0.085s,PASSED
delay(1),Chrome 89.0.4389.114,,,2021-04-02 14:13:47,2021-04-02 14:13:48,1.006s,PASSED
"enhancedClick(findTestObject(""Recruits Page/Delete1""))",Chrome 89.0.4389.114,,,2021-04-02 14:13:48,2021-04-02 14:13:48,0.100s,PASSED
delay(1),Chrome 89.0.4389.114,,,2021-04-02 14:13:48,2021-04-02 14:13:49,1.002s,PASSED
"enhancedClick(findTestObject(""Recruits Page/Delete2""))",Chrome 89.0.4389.114,,,2021-04-02 14:13:49,2021-04-02 14:13:49,0.085s,PASSED
delay(2),Chrome 89.0.4389.114,,,2021-04-02 14:13:49,2021-04-02 14:13:51,2.006s,PASSED
closeBrowser(),Chrome 89.0.4389.114,,,2021-04-02 14:13:51,2021-04-02 14:13:51,0.082s,PASSED
,,,,,,,
Test Cases/Tasks,Chrome 89.0.4389.114,,,2021-04-02 14:13:51,2021-04-02 14:13:58,6.877s,PASSED
openBrowser(URL),Chrome 89.0.4389.114,,,2021-04-02 14:13:51,2021-04-02 14:13:53,1.806s,PASSED
"setText(findTestObject(""Login Page/Email""), email)",Chrome 89.0.4389.114,,,2021-04-02 14:13:53,2021-04-02 14:13:53,0.159s,PASSED
"setText(findTestObject(""Login Page/password""), password)",Chrome 89.0.4389.114,,,2021-04-02 14:13:53,2021-04-02 14:13:53,0.103s,PASSED
"click(findTestObject(""Login Page/Sign In""))",Chrome 89.0.4389.114,,,2021-04-02 14:13:53,2021-04-02 14:13:55,1.521s,PASSED
"waitForElementVisible(findTestObject(""Top Navigation Menu/Dashboard""), 60)",Chrome 89.0.4389.114,,,2021-04-02 14:13:55,2021-04-02 14:13:55,0.467s,PASSED
"enhancedClick(findTestObject(""Top Navigation Menu/Recruits""))",Chrome 89.0.4389.114,,,2021-04-02 14:13:55,2021-04-02 14:13:55,0.135s,PASSED
"enhancedClick(findTestObject(""Recruits Page/Tasks tab""))",Chrome 89.0.4389.114,,,2021-04-02 14:13:55,2021-04-02 14:13:56,0.185s,PASSED
"enhancedClick(findTestObject(""Recruits Page/Tasks/Add Task button""))",Chrome 89.0.4389.114,,,2021-04-02 14:13:56,2021-04-02 14:13:56,0.136s,PASSED
"enhancedClick(findTestObject(""Recruits Page/Tasks/Add Task Recruit field""))",Chrome 89.0.4389.114,,,2021-04-02 14:13:56,2021-04-02 14:13:56,0.487s,PASSED
"enhancedClick(findTestObject(""Recruits Page/Tasks/Add Task recruit dropdown1""))",Chrome 89.0.4389.114,,,2021-04-02 14:13:56,2021-04-02 14:13:56,0.088s,PASSED
"enhancedClick(findTestObject(""Recruits Page/Tasks/Add Task Assigned To field""))",Chrome 89.0.4389.114,,,2021-04-02 14:13:56,2021-04-02 14:13:56,0.073s,PASSED
"enhancedClick(findTestObject(""Recruits Page/Tasks/Add Task Assigned To dropdown1""))",Chrome 89.0.4389.114,,,2021-04-02 14:13:56,2021-04-02 14:13:56,0.074s,PASSED
"enhancedClick(findTestObject(""Recruits Page/Tasks/Add Task Instruction field""))",Chrome 89.0.4389.114,,,2021-04-02 14:13:56,2021-04-02 14:13:57,0.074s,PASSED
"setText(findTestObject(""Recruits Page/Tasks/Add Task Instruction field""), ""test task"")",Chrome 89.0.4389.114,,,2021-04-02 14:13:57,2021-04-02 14:13:57,0.135s,PASSED
"enhancedClick(findTestObject(""Recruits Page/Tasks/Save new task""))",Chrome 89.0.4389.114,,,2021-04-02 14:13:57,2021-04-02 14:13:57,0.085s,PASSED
"verifyElementVisible(findTestObject(""Recruits Page/Tasks/Due task1 row""))",Chrome 89.0.4389.114,,,2021-04-02 14:13:57,2021-04-02 14:13:57,0.184s,PASSED
"mouseOver(findTestObject(""Recruits Page/Tasks/Due task1 ellipsis""))",Chrome 89.0.4389.114,,,2021-04-02 14:13:57,2021-04-02 14:13:57,0.201s,PASSED
"enhancedClick(findTestObject(""Recruits Page/Tasks/Due task1 ellipsis""))",Chrome 89.0.4389.114,,,2021-04-02 14:13:57,2021-04-02 14:13:57,0.078s,PASSED
"enhancedClick(findTestObject(""Recruits Page/Tasks/Mark Tasks Completed button""))",Chrome 89.0.4389.114,,,2021-04-02 14:13:57,2021-04-02 14:13:57,0.088s,PASSED
"verifyElementNotPresent(findTestObject(""Recruits Page/Tasks/Due task1 row""), 0)",Chrome 89.0.4389.114,,,2021-04-02 14:13:57,2021-04-02 14:13:58,0.566s,PASSED
closeBrowser(),Chrome 89.0.4389.114,,,2021-04-02 14:13:58,2021-04-02 14:13:58,0.078s,PASSED
,,,,,,,
Test Cases/Features/Link To FastScout,Chrome 89.0.4389.114,,,2021-04-02 14:13:58,2021-04-02 14:14:36,37.600s,FAILED
openBrowser(URL),Chrome 89.0.4389.114,,,2021-04-02 14:13:58,2021-04-02 14:13:59,1.342s,PASSED
"setText(findTestObject(""Login Page/Email""), email)",Chrome 89.0.4389.114,,,2021-04-02 14:13:59,2021-04-02 14:14:00,0.438s,PASSED
"setText(findTestObject(""Login Page/password""), password)",Chrome 89.0.4389.114,,,2021-04-02 14:14:00,2021-04-02 14:14:00,0.102s,PASSED
"click(findTestObject(""Login Page/Sign In""))",Chrome 89.0.4389.114,,,2021-04-02 14:14:00,2021-04-02 14:14:02,1.648s,PASSED
"waitForElementVisible(findTestObject(""Top Navigation Menu/Dashboard""), 60)",Chrome 89.0.4389.114,,,2021-04-02 14:14:02,2021-04-02 14:14:02,0.506s,PASSED
"click(findTestObject(""Top Navigation Menu/Recruits""))",Chrome 89.0.4389.114,,,2021-04-02 14:14:02,2021-04-02 14:14:02,0.126s,PASSED
"click(findTestObject(""Recruits Page/ADD RECRUIT button""))",Chrome 89.0.4389.114,,,2021-04-02 14:14:02,2021-04-02 14:14:02,0.196s,PASSED
"enhancedClick(findTestObject(""Recruits Page/Add New Recruit modal/LinkToFastScout Folder/Link To FastScout button""))",Chrome 89.0.4389.114,,,2021-04-02 14:14:02,2021-04-02 14:14:03,1.019s,PASSED
"enhancedClick(findTestObject(""Recruits Page/Add New Recruit modal/LinkToFastScout Folder/League_Division dropdown""))",Chrome 89.0.4389.114,,,2021-04-02 14:14:03,2021-04-02 14:14:04,0.117s,PASSED
"enhancedClick(findTestObject(""Recruits Page/Add New Recruit modal/LinkToFastScout Folder/D-II League""))",Chrome 89.0.4389.114,,,2021-04-02 14:14:04,2021-04-02 14:14:04,0.093s,PASSED
"enhancedClick(findTestObject(""Recruits Page/Add New Recruit modal/LinkToFastScout Folder/Team dropdown (LFS)""))",Chrome 89.0.4389.114,,,2021-04-02 14:14:04,2021-04-02 14:14:36,31.859s,FAILED
,,,,,,,
Test Cases/Features/Video,Chrome 89.0.4389.114,,,2021-04-02 14:14:36,2021-04-02 14:15:12,36.294s,FAILED
openBrowser(URL),Chrome 89.0.4389.114,,,2021-04-02 14:14:36,2021-04-02 14:14:37,1.822s,PASSED
"setText(findTestObject(""Login Page/Email""), email)",Chrome 89.0.4389.114,,,2021-04-02 14:14:37,2021-04-02 14:14:38,0.156s,PASSED
"setText(findTestObject(""Login Page/password""), password)",Chrome 89.0.4389.114,,,2021-04-02 14:14:38,2021-04-02 14:14:38,0.104s,PASSED
"click(findTestObject(""Login Page/Sign In""))",Chrome 89.0.4389.114,,,2021-04-02 14:14:38,2021-04-02 14:14:39,1.634s,PASSED
"waitForElementVisible(findTestObject(""Top Navigation Menu/Dashboard""), 60)",Chrome 89.0.4389.114,,,2021-04-02 14:14:39,2021-04-02 14:14:40,0.471s,PASSED
"enhancedClick(findTestObject(""Top Navigation Menu/Recruits""))",Chrome 89.0.4389.114,,,2021-04-02 14:14:40,2021-04-02 14:14:40,0.128s,PASSED
"enhancedClick(findTestObject(""Recruits Page/Recruit Row1 Name""))",Chrome 89.0.4389.114,,,2021-04-02 14:14:40,2021-04-02 14:15:12,31.831s,FAILED
,,,,,,,
Test Cases/Features/FastConnect,Chrome 89.0.4389.114,,,2021-04-02 14:15:12,2021-04-02 14:16:00,48.500s,FAILED
openBrowser(URL),Chrome 89.0.4389.114,,,2021-04-02 14:15:12,2021-04-02 14:15:14,1.756s,PASSED
"setText(findTestObject(""Login Page/Email""), email)",Chrome 89.0.4389.114,,,2021-04-02 14:15:14,2021-04-02 14:15:14,0.143s,PASSED
"setText(findTestObject(""Login Page/password""), password)",Chrome 89.0.4389.114,,,2021-04-02 14:15:14,2021-04-02 14:15:14,0.097s,PASSED
"click(findTestObject(""Login Page/Sign In""))",Chrome 89.0.4389.114,,,2021-04-02 14:15:14,2021-04-02 14:15:16,1.569s,PASSED
"waitForElementVisible(findTestObject(""Top Navigation Menu/Dashboard""), 60)",Chrome 89.0.4389.114,,,2021-04-02 14:15:16,2021-04-02 14:15:16,0.442s,PASSED
"enhancedClick(findTestObject(""Top Navigation Menu/Recruits""))",Chrome 89.0.4389.114,,,2021-04-02 14:15:16,2021-04-02 14:15:16,0.123s,PASSED
"enhancedClick(findTestObject(""Recruits Page/FastConnect tab""))",Chrome 89.0.4389.114,,,2021-04-02 14:15:16,2021-04-02 14:15:16,0.115s,PASSED
"enhancedClick(findTestObject(""Recruits Page/FastConnect/List dropdown""))",Chrome 89.0.4389.114,,,2021-04-02 14:15:16,2021-04-02 14:15:16,0.089s,PASSED
"enhancedClick(findTestObject(""Recruits Page/FastConnect/All Recruits list dropdown""))",Chrome 89.0.4389.114,,,2021-04-02 14:15:16,2021-04-02 14:15:18,1.693s,PASSED
delay(10),Chrome 89.0.4389.114,,,2021-04-02 14:15:18,2021-04-02 14:15:28,10.006s,PASSED
"verifyElementVisible(findTestObject(""Recruits Page/FastConnect/Fastconnect post1""), STOP_ON_FAILURE)",Chrome 89.0.4389.114,,,2021-04-02 14:15:28,2021-04-02 14:16:00,32.335s,FAILED
,,,,,,,
Test Cases/Tourney Workflow,Chrome 89.0.4389.114,,,2021-04-02 14:16:00,2021-04-02 14:16:38,37.323s,FAILED
openBrowser(URL),Chrome 89.0.4389.114,,,2021-04-02 14:16:00,2021-04-02 14:16:02,1.936s,PASSED
"setText(findTestObject(""Login Page/Email""), email)",Chrome 89.0.4389.114,,,2021-04-02 14:16:02,2021-04-02 14:16:03,0.139s,PASSED
"setText(findTestObject(""Login Page/password""), password)",Chrome 89.0.4389.114,,,2021-04-02 14:16:03,2021-04-02 14:16:03,0.102s,PASSED
"click(findTestObject(""Login Page/Sign In""))",Chrome 89.0.4389.114,,,2021-04-02 14:16:03,2021-04-02 14:16:04,1.601s,PASSED
"waitForElementVisible(findTestObject(""Top Navigation Menu/Dashboard""), 60)",Chrome 89.0.4389.114,,,2021-04-02 14:16:04,2021-04-02 14:16:05,0.500s,PASSED
"enhancedClick(findTestObject(""Top Navigation Menu/Tourneys""))",Chrome 89.0.4389.114,,,2021-04-02 14:16:05,2021-04-02 14:16:05,0.115s,PASSED
"enhancedClick(findTestObject(""Tourneys page/Tourney list dropdown""))",Chrome 89.0.4389.114,,,2021-04-02 14:16:05,2021-04-02 14:16:05,0.595s,PASSED
enhancedClick(tourneySession),Chrome 89.0.4389.114,,,2021-04-02 14:16:05,2021-04-02 14:16:06,0.244s,PASSED
"enhancedClick(findTestObject(""Tourneys page/Tourneys header""))",Chrome 89.0.4389.114,,,2021-04-02 14:16:06,2021-04-02 14:16:06,0.099s,PASSED
"enhancedClick(findTestObject(""Tourneys page/Tourney1 listed""))",Chrome 89.0.4389.114,,,2021-04-02 14:16:06,2021-04-02 14:16:06,0.111s,PASSED
"enhancedClick(findTestObject(""Tourneys page/Assign Staff button""))",Chrome 89.0.4389.114,,,2021-04-02 14:16:06,2021-04-02 14:16:38,31.722s,FAILED
,,,,,,,
Test Cases/Features/Prospects View,Chrome 89.0.4389.114,,,2021-04-02 14:16:38,2021-04-02 14:17:15,37.086s,FAILED
openBrowser(URL),Chrome 89.0.4389.114,,,2021-04-02 14:16:38,2021-04-02 14:16:40,1.951s,PASSED
"setText(findTestObject(""Login Page/Email""), email2)",Chrome 89.0.4389.114,,,2021-04-02 14:16:40,2021-04-02 14:16:40,0.144s,PASSED
"setText(findTestObject(""Login Page/password""), password)",Chrome 89.0.4389.114,,,2021-04-02 14:16:40,2021-04-02 14:16:40,0.095s,PASSED
"click(findTestObject(""Login Page/Sign In""))",Chrome 89.0.4389.114,,,2021-04-02 14:16:40,2021-04-02 14:16:41,1.535s,PASSED
"waitForElementVisible(findTestObject(""Top Navigation Menu/Dashboard""), 60)",Chrome 89.0.4389.114,,,2021-04-02 14:16:41,2021-04-02 14:16:42,0.490s,PASSED
"enhancedClick(findTestObject(""Prospects View/Add Prospect button""))",Chrome 89.0.4389.114,,,2021-04-02 14:16:42,2021-04-02 14:16:42,0.092s,PASSED
"enhancedClick(findTestObject(""Prospects View/Link Player Stats button""))",Chrome 89.0.4389.114,,,2021-04-02 14:16:42,2021-04-02 14:16:43,0.716s,PASSED
"enhancedClick(findTestObject(""Recruits Page/Add New Recruit modal/LinkToFastScout Folder/League_Division dropdown""))",Chrome 89.0.4389.114,,,2021-04-02 14:16:43,2021-04-02 14:16:43,0.098s,PASSED
"enhancedClick(findTestObject(""Recruits Page/Add New Recruit modal/LinkToFastScout Folder/D-II League""))",Chrome 89.0.4389.114,,,2021-04-02 14:16:43,2021-04-02 14:16:43,0.090s,PASSED
"enhancedClick(findTestObject(""Prospects View/Link Player Stats Team dropdown (Prospects)""))",Chrome 89.0.4389.114,,,2021-04-02 14:16:43,2021-04-02 14:17:15,31.744s,FAILED
