Suite/Test/Step Name,Browser,Description,Tag,Start time,End time,Duration,Status
Regression Tests,Chrome 88.0.4324.192,,,2021-02-25 12:08:57,2021-02-25 12:15:19,6m - 21.814s,FAILED
,,,,,,,
Test Cases/Draft Board,Chrome 88.0.4324.192,,,2021-02-25 12:08:58,2021-02-25 12:09:36,38.811s,PASSED
openBrowser(URL),Chrome 88.0.4324.192,,,2021-02-25 12:08:58,2021-02-25 12:09:03,4.756s,PASSED
"setText(findTestObject(""Login Page/Email""), email)",Chrome 88.0.4324.192,,,2021-02-25 12:09:03,2021-02-25 12:09:04,1.339s,PASSED
"setText(findTestObject(""Login Page/password""), password)",Chrome 88.0.4324.192,,,2021-02-25 12:09:04,2021-02-25 12:09:05,0.740s,PASSED
"click(findTestObject(""Login Page/Sign In""))",Chrome 88.0.4324.192,,,2021-02-25 12:09:05,2021-02-25 12:09:08,2.845s,PASSED
"waitForElementVisible(findTestObject(""Top Navigation Menu/Dashboard""), 60)",Chrome 88.0.4324.192,,,2021-02-25 12:09:08,2021-02-25 12:09:08,0.787s,PASSED
"enhancedClick(findTestObject(""Top Navigation Menu/Dashboard""))",Chrome 88.0.4324.192,,,2021-02-25 12:09:08,2021-02-25 12:09:14,5.317s,PASSED
delay(3),Chrome 88.0.4324.192,,,2021-02-25 12:09:14,2021-02-25 12:09:17,3.016s,PASSED
"mouseOver(findTestObject(""Dashboard Page/Draft Board (Dashboard)/blank 1-PG on Draft Board (Dashboard)""))",Chrome 88.0.4324.192,,,2021-02-25 12:09:17,2021-02-25 12:09:17,0.525s,PASSED
"enhancedClick(findTestObject(""Dashboard Page/Draft Board (Dashboard)/blank 1-PG on Draft Board (Dashboard)""))",Chrome 88.0.4324.192,,,2021-02-25 12:09:17,2021-02-25 12:09:18,0.411s,PASSED
"enhancedClick(findTestObject(""Dashboard Page/Draft Board (Dashboard)/Draft Board Dropdown Player1""))",Chrome 88.0.4324.192,,,2021-02-25 12:09:18,2021-02-25 12:09:18,0.629s,PASSED
"mouseOver(findTestObject(""Dashboard Page/Draft Board (Dashboard)/1-PG on Draft Board""))",Chrome 88.0.4324.192,,,2021-02-25 12:09:18,2021-02-25 12:09:19,0.712s,PASSED
"enhancedClick(findTestObject(""Dashboard Page/Draft Board (Dashboard)/1-PG on Draft Board""))",Chrome 88.0.4324.192,,,2021-02-25 12:09:19,2021-02-25 12:09:19,0.376s,PASSED
delay(1),Chrome 88.0.4324.192,,,2021-02-25 12:09:19,2021-02-25 12:09:20,1.007s,PASSED
"enhancedClick(findTestObject(""Recruit Profile (view)/Alerts button""))",Chrome 88.0.4324.192,,,2021-02-25 12:09:20,2021-02-25 12:09:21,0.299s,PASSED
"enhancedClick(findTestObject(""Recruit Profile (view)/CLOSE button""))",Chrome 88.0.4324.192,,,2021-02-25 12:09:21,2021-02-25 12:09:21,0.634s,PASSED
"verifyElementAttributeValue(findTestObject(""Dashboard Page/Draft Board (Dashboard)/1-PG on Draft Board""), ""class"", ""draft-board-player css-1ydqi8h-DraftBoard"", 0)",Chrome 88.0.4324.192,,,2021-02-25 12:09:21,2021-02-25 12:09:22,0.736s,PASSED
"mouseOver(findTestObject(""Dashboard Page/Draft Board (Dashboard)/1-PG on Draft Board""))",Chrome 88.0.4324.192,,,2021-02-25 12:09:22,2021-02-25 12:09:22,0.394s,PASSED
"enhancedClick(findTestObject(""Dashboard Page/Draft Board (Dashboard)/1-PG on Draft Board""))",Chrome 88.0.4324.192,,,2021-02-25 12:09:22,2021-02-25 12:09:23,0.313s,PASSED
"enhancedClick(findTestObject(""Recruit Profile (view)/Alerts button""))",Chrome 88.0.4324.192,,,2021-02-25 12:09:23,2021-02-25 12:09:23,0.599s,PASSED
"enhancedClick(findTestObject(""Recruit Profile (view)/CLOSE button""))",Chrome 88.0.4324.192,,,2021-02-25 12:09:23,2021-02-25 12:09:24,0.709s,PASSED
delay(1),Chrome 88.0.4324.192,,,2021-02-25 12:09:24,2021-02-25 12:09:25,1.006s,PASSED
"verifyElementAttributeValue(findTestObject(""Dashboard Page/Draft Board (Dashboard)/1-PG on Draft Board""), ""class"", ""draft-board-player css-1xcfrz7-DraftBoard"", 0)",Chrome 88.0.4324.192,,,2021-02-25 12:09:25,2021-02-25 12:09:25,0.374s,PASSED
"mouseOver(findTestObject(""Dashboard Page/Draft Board (Dashboard)/1-PG on Draft Board""))",Chrome 88.0.4324.192,,,2021-02-25 12:09:25,2021-02-25 12:09:26,0.386s,PASSED
"enhancedClick(findTestObject(""Dashboard Page/Draft Board (Dashboard)/Delete 1-PG on Draft Board""))",Chrome 88.0.4324.192,,,2021-02-25 12:09:26,2021-02-25 12:09:26,0.306s,PASSED
"enhancedClick(findTestObject(""Dashboard Page/Draft Board (Dashboard)/Draft Board Season Dropdown""))",Chrome 88.0.4324.192,,,2021-02-25 12:09:26,2021-02-25 12:09:27,0.604s,PASSED
"enhancedClick(findTestObject(""Dashboard Page/Draft Board (Dashboard)/Draft Board Season Dropdown - 2023""))",Chrome 88.0.4324.192,,,2021-02-25 12:09:27,2021-02-25 12:09:27,0.297s,PASSED
"mouseOver(findTestObject(""Dashboard Page/Draft Board (Dashboard)/blank 1-PG on Draft Board (Dashboard)""))",Chrome 88.0.4324.192,,,2021-02-25 12:09:27,2021-02-25 12:09:28,0.590s,PASSED
"enhancedClick(findTestObject(""Dashboard Page/Draft Board (Dashboard)/blank 1-PG on Draft Board (Dashboard)""))",Chrome 88.0.4324.192,,,2021-02-25 12:09:28,2021-02-25 12:09:28,0.271s,PASSED
"enhancedClick(findTestObject(""Dashboard Page/Draft Board (Dashboard)/Draft Board Dropdown Player1""))",Chrome 88.0.4324.192,,,2021-02-25 12:09:28,2021-02-25 12:09:29,0.600s,PASSED
delay(1),Chrome 88.0.4324.192,,,2021-02-25 12:09:29,2021-02-25 12:09:30,1.005s,PASSED
"mouseOver(findTestObject(""Dashboard Page/Draft Board (Dashboard)/blank 2-PG on Draft Board (Dashboard)""))",Chrome 88.0.4324.192,,,2021-02-25 12:09:30,2021-02-25 12:09:30,0.491s,PASSED
"enhancedClick(findTestObject(""Dashboard Page/Draft Board (Dashboard)/blank 2-PG on Draft Board (Dashboard)""))",Chrome 88.0.4324.192,,,2021-02-25 12:09:30,2021-02-25 12:09:30,0.393s,PASSED
"enhancedClick(findTestObject(""Dashboard Page/Draft Board (Dashboard)/Recruit Search field""))",Chrome 88.0.4324.192,,,2021-02-25 12:09:30,2021-02-25 12:09:31,0.605s,PASSED
"sendKeys(findTestObject(""Dashboard Page/Draft Board (Dashboard)/Recruit Search field""), ""Mikey Williams"")",Chrome 88.0.4324.192,,,2021-02-25 12:09:31,2021-02-25 12:09:31,0.416s,PASSED
delay(2),Chrome 88.0.4324.192,,,2021-02-25 12:09:31,2021-02-25 12:09:33,2.003s,PASSED
"enhancedClick(findTestObject(""Dashboard Page/Draft Board (Dashboard)/Draft Board Dropdown Player2""))",Chrome 88.0.4324.192,,,2021-02-25 12:09:33,2021-02-25 12:09:34,0.307s,PASSED
"mouseOver(findTestObject(""Dashboard Page/Draft Board (Dashboard)/2-PG on Draft Board""))",Chrome 88.0.4324.192,,,2021-02-25 12:09:34,2021-02-25 12:09:34,0.704s,PASSED
"enhancedClick(findTestObject(""Dashboard Page/Draft Board (Dashboard)/Delete 2-PG on Draft Board""))",Chrome 88.0.4324.192,,,2021-02-25 12:09:34,2021-02-25 12:09:35,0.305s,PASSED
"mouseOver(findTestObject(""Dashboard Page/Draft Board (Dashboard)/1-PG on Draft Board""))",Chrome 88.0.4324.192,,,2021-02-25 12:09:35,2021-02-25 12:09:35,0.696s,PASSED
"enhancedClick(findTestObject(""Dashboard Page/Draft Board (Dashboard)/Delete 1-PG on Draft Board""))",Chrome 88.0.4324.192,,,2021-02-25 12:09:35,2021-02-25 12:09:36,0.303s,PASSED
"enhancedClick(findTestObject(""Dashboard Page/Draft Board (Dashboard)/Draft Board Link""))",Chrome 88.0.4324.192,,,2021-02-25 12:09:36,2021-02-25 12:09:36,0.637s,PASSED
closeBrowser(),Chrome 88.0.4324.192,,,2021-02-25 12:09:36,2021-02-25 12:09:36,0.099s,PASSED
,,,,,,,
Test Cases/Depth Chart,Chrome 88.0.4324.192,,,2021-02-25 12:09:36,2021-02-25 12:10:57,1m - 20.619s,PASSED
openBrowser(URL),Chrome 88.0.4324.192,,,2021-02-25 12:09:37,2021-02-25 12:09:39,2.563s,PASSED
"setText(findTestObject(""Login Page/Email""), email)",Chrome 88.0.4324.192,,,2021-02-25 12:09:39,2021-02-25 12:09:40,0.594s,PASSED
"setText(findTestObject(""Login Page/password""), password)",Chrome 88.0.4324.192,,,2021-02-25 12:09:40,2021-02-25 12:09:41,0.751s,PASSED
"click(findTestObject(""Login Page/Sign In""))",Chrome 88.0.4324.192,,,2021-02-25 12:09:41,2021-02-25 12:09:43,2.499s,PASSED
"waitForElementVisible(findTestObject(""Top Navigation Menu/Dashboard""), 60)",Chrome 88.0.4324.192,,,2021-02-25 12:09:43,2021-02-25 12:09:44,1.081s,PASSED
"enhancedClick(findTestObject(""Top Navigation Menu/Dashboard""))",Chrome 88.0.4324.192,,,2021-02-25 12:09:44,2021-02-25 12:09:45,1.243s,PASSED
delay(3),Chrome 88.0.4324.192,,,2021-02-25 12:09:45,2021-02-25 12:09:48,3.007s,PASSED
"enhancedClick(findTestObject(""Dashboard Page/Depth Chart/Depth Chart season dropdown""))",Chrome 88.0.4324.192,,,2021-02-25 12:09:48,2021-02-25 12:09:49,0.312s,PASSED
"enhancedClick(findTestObject(""Dashboard Page/Depth Chart/Season Dropdown Index3""))",Chrome 88.0.4324.192,,,2021-02-25 12:09:49,2021-02-25 12:09:49,0.299s,PASSED
"enhancedClick(findTestObject(""Dashboard Page/Depth Chart/Depth Chart season dropdown""))",Chrome 88.0.4324.192,,,2021-02-25 12:09:49,2021-02-25 12:09:49,0.486s,PASSED
"enhancedClick(findTestObject(""Dashboard Page/Depth Chart/Season Dropdown Index2""))",Chrome 88.0.4324.192,,,2021-02-25 12:09:49,2021-02-25 12:09:50,0.311s,PASSED
"enhancedClick(findTestObject(""Dashboard Page/Depth Chart/EDIT Depth Chart""))",Chrome 88.0.4324.192,,,2021-02-25 12:09:50,2021-02-25 12:09:50,0.547s,PASSED
"enhancedClick(findTestObject(""Dashboard Page/Depth Chart/Depth Chart Edit (sr, pg, 1)""))",Chrome 88.0.4324.192,,,2021-02-25 12:09:50,2021-02-25 12:10:22,31.207s,PASSED
"enhancedClick(findTestObject(""Dashboard Page/Depth Chart/SAVE Depth Chart""))",Chrome 88.0.4324.192,,,2021-02-25 12:10:22,2021-02-25 12:10:22,0.516s,PASSED
delay(2),Chrome 88.0.4324.192,,,2021-02-25 12:10:22,2021-02-25 12:10:24,2.002s,PASSED
"verifyTextNotPresent(playerHidden, false)",Chrome 88.0.4324.192,,,2021-02-25 12:10:24,2021-02-25 12:10:24,0.340s,PASSED
"enhancedClick(findTestObject(""Dashboard Page/Depth Chart/EDIT Depth Chart""))",Chrome 88.0.4324.192,,,2021-02-25 12:10:24,2021-02-25 12:10:25,0.307s,PASSED
"enhancedClick(findTestObject(""Dashboard Page/Depth Chart/Depth Chart Edit (sr, pg, 1)""))",Chrome 88.0.4324.192,,,2021-02-25 12:10:25,2021-02-25 12:10:56,31.070s,PASSED
"enhancedClick(findTestObject(""Dashboard Page/Depth Chart/SAVE Depth Chart""))",Chrome 88.0.4324.192,,,2021-02-25 12:10:56,2021-02-25 12:10:56,0.505s,PASSED
"verifyTextPresent(playerHidden, false)",Chrome 88.0.4324.192,,,2021-02-25 12:10:56,2021-02-25 12:10:57,0.843s,PASSED
,,,,,,,
Test Cases/Dashboard Calendar,Chrome 88.0.4324.192,,,2021-02-25 12:10:57,2021-02-25 12:11:39,41.818s,FAILED
openBrowser(URL),Chrome 88.0.4324.192,,,2021-02-25 12:10:57,2021-02-25 12:11:00,2.510s,PASSED
"setText(findTestObject(""Login Page/Email""), email)",Chrome 88.0.4324.192,,,2021-02-25 12:11:00,2021-02-25 12:11:01,1.156s,PASSED
"setText(findTestObject(""Login Page/password""), password)",Chrome 88.0.4324.192,,,2021-02-25 12:11:01,2021-02-25 12:11:02,0.648s,PASSED
"click(findTestObject(""Login Page/Sign In""))",Chrome 88.0.4324.192,,,2021-02-25 12:11:02,2021-02-25 12:11:04,2.604s,PASSED
"waitForElementVisible(findTestObject(""Top Navigation Menu/Dashboard""), 60)",Chrome 88.0.4324.192,,,2021-02-25 12:11:04,2021-02-25 12:11:05,0.970s,PASSED
"enhancedClick(findTestObject(""Top Navigation Menu/Recruits""))",Chrome 88.0.4324.192,,,2021-02-25 12:11:05,2021-02-25 12:11:07,1.811s,PASSED
delay(3),Chrome 88.0.4324.192,,,2021-02-25 12:11:07,2021-02-25 12:11:10,3.003s,PASSED
"enhancedClick(findTestObject(""Top Navigation Menu/Dashboard""))",Chrome 88.0.4324.192,,,2021-02-25 12:11:10,2021-02-25 12:11:10,0.365s,PASSED
delay(3),Chrome 88.0.4324.192,,,2021-02-25 12:11:10,2021-02-25 12:11:13,3.004s,PASSED
"enhancedClick(findTestObject(""Dashboard Page/Calendar (Dashboard)/Toggle Left (Calendar Dashboard)""))",Chrome 88.0.4324.192,,,2021-02-25 12:11:13,2021-02-25 12:11:14,0.444s,PASSED
delay(5),Chrome 88.0.4324.192,,,2021-02-25 12:11:14,2021-02-25 12:11:19,5.006s,PASSED
"enhancedClick(findTestObject(""Dashboard Page/Calendar (Dashboard)/Toggle Right (Calendar Dashboard)""))",Chrome 88.0.4324.192,,,2021-02-25 12:11:19,2021-02-25 12:11:19,0.321s,PASSED
delay(5),Chrome 88.0.4324.192,,,2021-02-25 12:11:19,2021-02-25 12:11:24,5.004s,PASSED
"enhancedClick(findTestObject(""Dashboard Page/Calendar (Dashboard)/Dashboard Calendar SHOW dropdown""))",Chrome 88.0.4324.192,,,2021-02-25 12:11:24,2021-02-25 12:11:24,0.320s,PASSED
"enhancedClick(findTestObject(""Dashboard Page/Calendar (Dashboard)/My Calendar option""))",Chrome 88.0.4324.192,,,2021-02-25 12:11:24,2021-02-25 12:11:25,0.398s,PASSED
"enhancedClick(findTestObject(""Dashboard Page/Calendar (Dashboard)/My Calendar option""))",Chrome 88.0.4324.192,,,2021-02-25 12:11:25,2021-02-25 12:11:25,0.478s,PASSED
"enhancedClick(findTestObject(""Dashboard Page/Calendar (Dashboard)/Team calendar option""))",Chrome 88.0.4324.192,,,2021-02-25 12:11:25,2021-02-25 12:11:26,0.497s,PASSED
"enhancedClick(findTestObject(""Dashboard Page/Calendar (Dashboard)/Team calendar option""))",Chrome 88.0.4324.192,,,2021-02-25 12:11:26,2021-02-25 12:11:26,0.480s,PASSED
"enhancedClick(findTestObject(""Dashboard Page/Calendar (Dashboard)/Tasks calendar option""))",Chrome 88.0.4324.192,,,2021-02-25 12:11:26,2021-02-25 12:11:27,0.493s,PASSED
"enhancedClick(findTestObject(""Dashboard Page/Calendar (Dashboard)/Tasks calendar option""))",Chrome 88.0.4324.192,,,2021-02-25 12:11:27,2021-02-25 12:11:27,0.477s,PASSED
"enhancedClick(findTestObject(""Dashboard Page/Calendar (Dashboard)/NCAA Calendar option""))",Chrome 88.0.4324.192,,,2021-02-25 12:11:27,2021-02-25 12:11:28,0.491s,PASSED
"enhancedClick(findTestObject(""Dashboard Page/Calendar (Dashboard)/NCAA Calendar option""))",Chrome 88.0.4324.192,,,2021-02-25 12:11:28,2021-02-25 12:11:28,0.477s,PASSED
"enhancedClick(findTestObject(""Dashboard Page/Calendar (Dashboard)/My Live Period calendar option""))",Chrome 88.0.4324.192,,,2021-02-25 12:11:28,2021-02-25 12:11:29,0.490s,PASSED
"enhancedClick(findTestObject(""Dashboard Page/Calendar (Dashboard)/My Live Period calendar option""))",Chrome 88.0.4324.192,,,2021-02-25 12:11:29,2021-02-25 12:11:29,0.479s,PASSED
"enhancedClick(findTestObject(""Dashboard Page/Calendar (Dashboard)/Dashboard Calendar SHOW dropdown""))",Chrome 88.0.4324.192,,,2021-02-25 12:11:29,2021-02-25 12:11:30,0.478s,PASSED
"enhancedClick(findTestObject(""Dashboard Page/Calendar (Dashboard)/Dashboard Calendar Add New""))",Chrome 88.0.4324.192,,,2021-02-25 12:11:30,2021-02-25 12:11:30,0.350s,PASSED
"enhancedClick(findTestObject(""Dashboard Page/Calendar (Dashboard)/Add Event modal/Event Name field""))",Chrome 88.0.4324.192,,,2021-02-25 12:11:30,2021-02-25 12:11:31,0.704s,PASSED
"sendKeys(findTestObject(""Dashboard Page/Calendar (Dashboard)/Add Event modal/Event Name field""), ""Test Event1"")",Chrome 88.0.4324.192,,,2021-02-25 12:11:31,2021-02-25 12:11:31,0.283s,PASSED
"enhancedClick(findTestObject(""Dashboard Page/Calendar (Dashboard)/Add Event modal/Event Location field""))",Chrome 88.0.4324.192,,,2021-02-25 12:11:31,2021-02-25 12:11:31,0.299s,PASSED
"sendKeys(findTestObject(""Dashboard Page/Calendar (Dashboard)/Add Event modal/Event Location field""), ""444 N. Michigan Ave"")",Chrome 88.0.4324.192,,,2021-02-25 12:11:31,2021-02-25 12:11:32,0.505s,PASSED
"enhancedClick(findTestObject(""Dashboard Page/Calendar (Dashboard)/Add Event modal/Select searched location""), STOP_ON_FAILURE)",Chrome 88.0.4324.192,,,2021-02-25 12:11:32,2021-02-25 12:11:32,0.495s,PASSED
"enhancedClick(findTestObject(""Dashboard Page/Calendar (Dashboard)/Add Event modal/Select Recruits dropdown""))",Chrome 88.0.4324.192,,,2021-02-25 12:11:32,2021-02-25 12:11:33,1.214s,PASSED
"enhancedClick(findTestObject(""Dashboard Page/Calendar (Dashboard)/Add Event modal/Recruit1 in dropdown (Add Event modal)""))",Chrome 88.0.4324.192,,,2021-02-25 12:11:33,2021-02-25 12:11:34,0.507s,PASSED
"enhancedClick(findTestObject(""Dashboard Page/Calendar (Dashboard)/Add Event modal/Add Event Attendees""))",Chrome 88.0.4324.192,,,2021-02-25 12:11:34,2021-02-25 12:11:35,0.502s,PASSED
"enhancedClick(findTestObject(""Dashboard Page/Calendar (Dashboard)/Add Event modal/Recruiters checkbox""))",Chrome 88.0.4324.192,,,2021-02-25 12:11:35,2021-02-25 12:11:35,0.510s,PASSED
"enhancedClick(findTestObject(""Dashboard Page/Calendar (Dashboard)/Add Event modal/Game Note field""))",Chrome 88.0.4324.192,,,2021-02-25 12:11:35,2021-02-25 12:11:35,0.300s,PASSED
"sendKeys(findTestObject(""Dashboard Page/Calendar (Dashboard)/Add Event modal/Game Note field""), ""arrive early"")",Chrome 88.0.4324.192,,,2021-02-25 12:11:35,2021-02-25 12:11:36,0.348s,PASSED
"enhancedClick(findTestObject(""Dashboard Page/Calendar (Dashboard)/Add Event modal/Add Event Save button""))",Chrome 88.0.4324.192,,,2021-02-25 12:11:36,2021-02-25 12:11:36,0.285s,PASSED
delay(2),Chrome 88.0.4324.192,,,2021-02-25 12:11:36,2021-02-25 12:11:38,2.005s,PASSED
"verifyTextPresent(""Test Event1"", false)",Chrome 88.0.4324.192,,,2021-02-25 12:11:38,2021-02-25 12:11:39,0.967s,FAILED
,,,,,,,
Test Cases/Add_Archive_Delete New Recruit,Chrome 88.0.4324.192,,,2021-02-25 12:11:39,2021-02-25 12:12:10,31.390s,PASSED
openBrowser(URL),Chrome 88.0.4324.192,,,2021-02-25 12:11:39,2021-02-25 12:11:41,2.356s,PASSED
"setText(findTestObject(""Login Page/Email""), email)",Chrome 88.0.4324.192,,,2021-02-25 12:11:41,2021-02-25 12:11:42,0.926s,PASSED
"setText(findTestObject(""Login Page/password""), password)",Chrome 88.0.4324.192,,,2021-02-25 12:11:42,2021-02-25 12:11:43,0.745s,PASSED
"click(findTestObject(""Login Page/Sign In""))",Chrome 88.0.4324.192,,,2021-02-25 12:11:43,2021-02-25 12:11:46,2.624s,PASSED
"waitForElementVisible(findTestObject(""Top Navigation Menu/Dashboard""), 60)",Chrome 88.0.4324.192,,,2021-02-25 12:11:46,2021-02-25 12:11:47,1.193s,PASSED
"click(findTestObject(""Top Navigation Menu/Recruits""))",Chrome 88.0.4324.192,,,2021-02-25 12:11:47,2021-02-25 12:11:48,1.496s,PASSED
"click(findTestObject(""Recruits Page/ADD RECRUIT button""))",Chrome 88.0.4324.192,,,2021-02-25 12:11:48,2021-02-25 12:11:49,0.753s,PASSED
"setText(findTestObject(""Recruits Page/Add New Recruit modal/First Name field""), ""Josh"")",Chrome 88.0.4324.192,,,2021-02-25 12:11:49,2021-02-25 12:11:50,0.876s,PASSED
"setText(findTestObject(""Recruits Page/Add New Recruit modal/Last Name field""), ""Allen"")",Chrome 88.0.4324.192,,,2021-02-25 12:11:50,2021-02-25 12:11:51,0.579s,PASSED
"setText(findTestObject(""Recruits Page/Add New Recruit modal/Class field""), ""2023"")",Chrome 88.0.4324.192,,,2021-02-25 12:11:51,2021-02-25 12:11:51,0.556s,PASSED
"click(findTestObject(""Recruits Page/Add New Recruit modal/Height field input""))",Chrome 88.0.4324.192,,,2021-02-25 12:11:51,2021-02-25 12:11:51,0.295s,PASSED
"setText(findTestObject(""Recruits Page/Add New Recruit modal/Height field input""), ""69"")",Chrome 88.0.4324.192,,,2021-02-25 12:11:51,2021-02-25 12:11:52,0.626s,PASSED
"setText(findTestObject(""Recruits Page/Add New Recruit modal/Birthdate field input""), ""1/1/2005"")",Chrome 88.0.4324.192,,,2021-02-25 12:11:52,2021-02-25 12:11:53,0.891s,PASSED
"enhancedClick(findTestObject(""Recruits Page/Add New Recruit modal/Birthdate field Label""))",Chrome 88.0.4324.192,,,2021-02-25 12:11:53,2021-02-25 12:11:53,0.431s,PASSED
"setText(findTestObject(""Recruits Page/Add New Recruit modal/High School field input""), ""highland park"")",Chrome 88.0.4324.192,,,2021-02-25 12:11:53,2021-02-25 12:11:54,0.774s,PASSED
"sendKeys(findTestObject(""Recruits Page/Add New Recruit modal/High School field input""), Keys.chord(DOWN))",Chrome 88.0.4324.192,,,2021-02-25 12:11:54,2021-02-25 12:11:55,0.899s,PASSED
"sendKeys(findTestObject(""Recruits Page/Add New Recruit modal/High School field input""), Keys.chord(ENTER))",Chrome 88.0.4324.192,,,2021-02-25 12:11:55,2021-02-25 12:11:55,0.282s,PASSED
"setText(findTestObject(""Recruits Page/Add New Recruit modal/High School Coach Name field""), ""Coach Miller"")",Chrome 88.0.4324.192,,,2021-02-25 12:11:55,2021-02-25 12:11:57,1.226s,PASSED
"setText(findTestObject(""Recruits Page/Add New Recruit modal/High School Coach Phone field""), ""8474713163"")",Chrome 88.0.4324.192,,,2021-02-25 12:11:57,2021-02-25 12:11:57,0.690s,PASSED
"setText(findTestObject(""Recruits Page/Add New Recruit modal/Club Team field""), ""Mac Irvin Fire"")",Chrome 88.0.4324.192,,,2021-02-25 12:11:57,2021-02-25 12:11:58,0.770s,PASSED
"setText(findTestObject(""Recruits Page/Add New Recruit modal/Club Team Number field""), ""10"")",Chrome 88.0.4324.192,,,2021-02-25 12:11:58,2021-02-25 12:11:59,0.550s,PASSED
"click(findTestObject(""Recruits Page/Add New Recruit modal/SAVE button""))",Chrome 88.0.4324.192,,,2021-02-25 12:11:59,2021-02-25 12:11:59,0.358s,PASSED
"setText(findTestObject(""Recruits Page/Recruit Search Field on Recruits page""), ""josh allen"")",Chrome 88.0.4324.192,,,2021-02-25 12:11:59,2021-02-25 12:12:00,1.092s,PASSED
delay(1),Chrome 88.0.4324.192,,,2021-02-25 12:12:00,2021-02-25 12:12:01,1.006s,PASSED
"click(findTestObject(""Recruits Page/Archive recruit""))",Chrome 88.0.4324.192,,,2021-02-25 12:12:01,2021-02-25 12:12:01,0.301s,PASSED
delay(1),Chrome 88.0.4324.192,,,2021-02-25 12:12:01,2021-02-25 12:12:02,1.002s,PASSED
"click(findTestObject(""Recruits Page/All Recruits List selection""))",Chrome 88.0.4324.192,,,2021-02-25 12:12:02,2021-02-25 12:12:03,0.294s,PASSED
delay(1),Chrome 88.0.4324.192,,,2021-02-25 12:12:03,2021-02-25 12:12:04,1.003s,PASSED
"click(findTestObject(""Recruits Page/Archived List selection""))",Chrome 88.0.4324.192,,,2021-02-25 12:12:04,2021-02-25 12:12:04,0.633s,PASSED
delay(1),Chrome 88.0.4324.192,,,2021-02-25 12:12:04,2021-02-25 12:12:05,1.005s,PASSED
"click(findTestObject(""Recruits Page/Archived list ellipsis button""))",Chrome 88.0.4324.192,,,2021-02-25 12:12:05,2021-02-25 12:12:06,0.298s,PASSED
delay(1),Chrome 88.0.4324.192,,,2021-02-25 12:12:06,2021-02-25 12:12:07,1.003s,PASSED
"click(findTestObject(""Recruits Page/Delete1""))",Chrome 88.0.4324.192,,,2021-02-25 12:12:07,2021-02-25 12:12:07,0.304s,PASSED
delay(1),Chrome 88.0.4324.192,,,2021-02-25 12:12:07,2021-02-25 12:12:08,1.006s,PASSED
"enhancedClick(findTestObject(""Recruits Page/Delete2""))",Chrome 88.0.4324.192,,,2021-02-25 12:12:08,2021-02-25 12:12:08,0.306s,PASSED
delay(2),Chrome 88.0.4324.192,,,2021-02-25 12:12:08,2021-02-25 12:12:10,2.002s,PASSED
closeBrowser(),Chrome 88.0.4324.192,,,2021-02-25 12:12:10,2021-02-25 12:12:10,0.096s,PASSED
,,,,,,,
Test Cases/Tasks,Chrome 88.0.4324.192,,,2021-02-25 12:12:10,2021-02-25 12:12:32,21.530s,PASSED
openBrowser(URL),Chrome 88.0.4324.192,,,2021-02-25 12:12:10,2021-02-25 12:12:13,2.337s,PASSED
"setText(findTestObject(""Login Page/Email""), email)",Chrome 88.0.4324.192,,,2021-02-25 12:12:13,2021-02-25 12:12:14,1.040s,PASSED
"setText(findTestObject(""Login Page/password""), password)",Chrome 88.0.4324.192,,,2021-02-25 12:12:14,2021-02-25 12:12:14,0.539s,PASSED
"click(findTestObject(""Login Page/Sign In""))",Chrome 88.0.4324.192,,,2021-02-25 12:12:14,2021-02-25 12:12:17,2.850s,PASSED
"waitForElementVisible(findTestObject(""Top Navigation Menu/Dashboard""), 60)",Chrome 88.0.4324.192,,,2021-02-25 12:12:17,2021-02-25 12:12:18,1.166s,PASSED
"enhancedClick(findTestObject(""Top Navigation Menu/Recruits""))",Chrome 88.0.4324.192,,,2021-02-25 12:12:18,2021-02-25 12:12:24,5.246s,PASSED
"enhancedClick(findTestObject(""Recruits Page/Tasks tab""))",Chrome 88.0.4324.192,,,2021-02-25 12:12:24,2021-02-25 12:12:24,0.762s,PASSED
"enhancedClick(findTestObject(""Recruits Page/Tasks/Add Task button""))",Chrome 88.0.4324.192,,,2021-02-25 12:12:24,2021-02-25 12:12:25,0.524s,PASSED
"enhancedClick(findTestObject(""Recruits Page/Tasks/Add Task Recruit field""))",Chrome 88.0.4324.192,,,2021-02-25 12:12:25,2021-02-25 12:12:25,0.502s,PASSED
"enhancedClick(findTestObject(""Recruits Page/Tasks/Add Task recruit dropdown1""))",Chrome 88.0.4324.192,,,2021-02-25 12:12:25,2021-02-25 12:12:26,0.501s,PASSED
"enhancedClick(findTestObject(""Recruits Page/Tasks/Add Task Assigned To field""))",Chrome 88.0.4324.192,,,2021-02-25 12:12:26,2021-02-25 12:12:26,0.494s,PASSED
"enhancedClick(findTestObject(""Recruits Page/Tasks/Add Task Assigned To dropdown1""))",Chrome 88.0.4324.192,,,2021-02-25 12:12:26,2021-02-25 12:12:27,0.494s,PASSED
"enhancedClick(findTestObject(""Recruits Page/Tasks/Add Task Instruction field""))",Chrome 88.0.4324.192,,,2021-02-25 12:12:27,2021-02-25 12:12:27,0.496s,PASSED
"setText(findTestObject(""Recruits Page/Tasks/Add Task Instruction field""), ""test task"")",Chrome 88.0.4324.192,,,2021-02-25 12:12:27,2021-02-25 12:12:28,0.765s,PASSED
"enhancedClick(findTestObject(""Recruits Page/Tasks/Save new task""))",Chrome 88.0.4324.192,,,2021-02-25 12:12:28,2021-02-25 12:12:29,0.503s,PASSED
"verifyElementVisible(findTestObject(""Recruits Page/Tasks/Due task1 row""))",Chrome 88.0.4324.192,,,2021-02-25 12:12:29,2021-02-25 12:12:29,0.786s,PASSED
"mouseOver(findTestObject(""Recruits Page/Tasks/Due task1 ellipsis""))",Chrome 88.0.4324.192,,,2021-02-25 12:12:29,2021-02-25 12:12:30,0.390s,PASSED
"enhancedClick(findTestObject(""Recruits Page/Tasks/Due task1 ellipsis""))",Chrome 88.0.4324.192,,,2021-02-25 12:12:30,2021-02-25 12:12:30,0.289s,PASSED
"enhancedClick(findTestObject(""Recruits Page/Tasks/Mark Tasks Completed button""))",Chrome 88.0.4324.192,,,2021-02-25 12:12:30,2021-02-25 12:12:31,0.490s,PASSED
"verifyElementNotPresent(findTestObject(""Recruits Page/Tasks/Due task1 row""), 0)",Chrome 88.0.4324.192,,,2021-02-25 12:12:31,2021-02-25 12:12:32,1.092s,PASSED
closeBrowser(),Chrome 88.0.4324.192,,,2021-02-25 12:12:32,2021-02-25 12:12:32,0.096s,PASSED
,,,,,,,
Test Cases/Features/Link To FastScout,Chrome 88.0.4324.192,,,2021-02-25 12:12:32,2021-02-25 12:12:58,26.296s,PASSED
openBrowser(URL),Chrome 88.0.4324.192,,,2021-02-25 12:12:32,2021-02-25 12:12:35,2.681s,PASSED
"setText(findTestObject(""Login Page/Email""), email)",Chrome 88.0.4324.192,,,2021-02-25 12:12:35,2021-02-25 12:12:36,1.128s,PASSED
"setText(findTestObject(""Login Page/password""), password)",Chrome 88.0.4324.192,,,2021-02-25 12:12:36,2021-02-25 12:12:36,0.648s,PASSED
"click(findTestObject(""Login Page/Sign In""))",Chrome 88.0.4324.192,,,2021-02-25 12:12:36,2021-02-25 12:12:39,2.614s,PASSED
"waitForElementVisible(findTestObject(""Top Navigation Menu/Dashboard""), 60)",Chrome 88.0.4324.192,,,2021-02-25 12:12:39,2021-02-25 12:12:40,0.601s,PASSED
"click(findTestObject(""Top Navigation Menu/Recruits""))",Chrome 88.0.4324.192,,,2021-02-25 12:12:40,2021-02-25 12:12:41,1.840s,PASSED
"click(findTestObject(""Recruits Page/ADD RECRUIT button""))",Chrome 88.0.4324.192,,,2021-02-25 12:12:41,2021-02-25 12:12:42,0.763s,PASSED
"enhancedClick(findTestObject(""Recruits Page/Add New Recruit modal/LinkToFastScout Folder/Link To FastScout button""))",Chrome 88.0.4324.192,,,2021-02-25 12:12:42,2021-02-25 12:12:43,0.628s,PASSED
"enhancedClick(findTestObject(""Recruits Page/Add New Recruit modal/LinkToFastScout Folder/League_Division dropdown""))",Chrome 88.0.4324.192,,,2021-02-25 12:12:43,2021-02-25 12:12:44,0.623s,PASSED
"enhancedClick(findTestObject(""Recruits Page/Add New Recruit modal/LinkToFastScout Folder/D-II League""))",Chrome 88.0.4324.192,,,2021-02-25 12:12:44,2021-02-25 12:12:44,0.502s,PASSED
"enhancedClick(findTestObject(""Recruits Page/Add New Recruit modal/LinkToFastScout Folder/Team dropdown (LFS)""))",Chrome 88.0.4324.192,,,2021-02-25 12:12:44,2021-02-25 12:12:45,0.623s,PASSED
"enhancedClick(findTestObject(""Recruits Page/Add New Recruit modal/LinkToFastScout Folder/Florida Southern (LFS)""))",Chrome 88.0.4324.192,,,2021-02-25 12:12:45,2021-02-25 12:12:45,0.502s,PASSED
"enhancedClick(findTestObject(""Recruits Page/Add New Recruit modal/LinkToFastScout Folder/Player dropdown (LFS)""))",Chrome 88.0.4324.192,,,2021-02-25 12:12:45,2021-02-25 12:12:46,0.494s,PASSED
"enhancedClick(findTestObject(""Recruits Page/Add New Recruit modal/LinkToFastScout Folder/Player10 (LFS)""))",Chrome 88.0.4324.192,,,2021-02-25 12:12:46,2021-02-25 12:12:46,0.505s,PASSED
"click(findTestObject(""Recruits Page/Add New Recruit modal/SAVE button""))",Chrome 88.0.4324.192,,,2021-02-25 12:12:46,2021-02-25 12:12:47,0.558s,PASSED
"setText(findTestObject(""Recruits Page/Recruit Search Field on Recruits page""), ""Wes Bongiorni"")",Chrome 88.0.4324.192,,,2021-02-25 12:12:47,2021-02-25 12:12:48,1.079s,PASSED
delay(1),Chrome 88.0.4324.192,,,2021-02-25 12:12:48,2021-02-25 12:12:49,1.001s,PASSED
"click(findTestObject(""Recruits Page/Archive recruit""))",Chrome 88.0.4324.192,,,2021-02-25 12:12:49,2021-02-25 12:12:49,0.409s,PASSED
delay(1),Chrome 88.0.4324.192,,,2021-02-25 12:12:49,2021-02-25 12:12:50,1.003s,PASSED
"click(findTestObject(""Recruits Page/All Recruits List selection""))",Chrome 88.0.4324.192,,,2021-02-25 12:12:50,2021-02-25 12:12:50,0.289s,PASSED
delay(1),Chrome 88.0.4324.192,,,2021-02-25 12:12:50,2021-02-25 12:12:51,1.001s,PASSED
"click(findTestObject(""Recruits Page/Archived List selection""))",Chrome 88.0.4324.192,,,2021-02-25 12:12:51,2021-02-25 12:12:52,0.625s,PASSED
delay(1),Chrome 88.0.4324.192,,,2021-02-25 12:12:52,2021-02-25 12:12:53,1.003s,PASSED
"click(findTestObject(""Recruits Page/Archived list ellipsis button""))",Chrome 88.0.4324.192,,,2021-02-25 12:12:53,2021-02-25 12:12:53,0.312s,PASSED
delay(1),Chrome 88.0.4324.192,,,2021-02-25 12:12:53,2021-02-25 12:12:54,1.003s,PASSED
"click(findTestObject(""Recruits Page/Delete1""))",Chrome 88.0.4324.192,,,2021-02-25 12:12:54,2021-02-25 12:12:55,0.303s,PASSED
delay(1),Chrome 88.0.4324.192,,,2021-02-25 12:12:55,2021-02-25 12:12:56,1.004s,PASSED
"enhancedClick(findTestObject(""Recruits Page/Delete2""))",Chrome 88.0.4324.192,,,2021-02-25 12:12:56,2021-02-25 12:12:56,0.301s,PASSED
delay(2),Chrome 88.0.4324.192,,,2021-02-25 12:12:56,2021-02-25 12:12:58,2.022s,PASSED
closeBrowser(),Chrome 88.0.4324.192,,,2021-02-25 12:12:58,2021-02-25 12:12:58,0.096s,PASSED
,,,,,,,
Test Cases/Features/Video,Chrome 88.0.4324.192,,,2021-02-25 12:12:58,2021-02-25 12:13:38,39.800s,PASSED
openBrowser(URL),Chrome 88.0.4324.192,,,2021-02-25 12:12:58,2021-02-25 12:13:01,2.417s,PASSED
"setText(findTestObject(""Login Page/Email""), email)",Chrome 88.0.4324.192,,,2021-02-25 12:13:01,2021-02-25 12:13:02,1.249s,PASSED
"setText(findTestObject(""Login Page/password""), password)",Chrome 88.0.4324.192,,,2021-02-25 12:13:02,2021-02-25 12:13:02,0.538s,PASSED
"click(findTestObject(""Login Page/Sign In""))",Chrome 88.0.4324.192,,,2021-02-25 12:13:02,2021-02-25 12:13:05,2.569s,PASSED
"waitForElementVisible(findTestObject(""Top Navigation Menu/Dashboard""), 60)",Chrome 88.0.4324.192,,,2021-02-25 12:13:05,2021-02-25 12:13:06,0.599s,PASSED
"enhancedClick(findTestObject(""Top Navigation Menu/Recruits""))",Chrome 88.0.4324.192,,,2021-02-25 12:13:06,2021-02-25 12:13:15,9.801s,PASSED
"enhancedClick(findTestObject(""Recruits Page/Recruit Row1 Name""))",Chrome 88.0.4324.192,,,2021-02-25 12:13:15,2021-02-25 12:13:18,2.105s,PASSED
"enhancedClick(findTestObject(""Recruits Page/Recruit Profile (View)/VIDEOS tab""))",Chrome 88.0.4324.192,,,2021-02-25 12:13:18,2021-02-25 12:13:20,1.969s,PASSED
"uploadFile(findTestObject(""Recruit Profile (view)/Video Upload object""), ""/Users/jefffeldman/Desktop/Vids/NBA Playoffs 2019.mp4"")",Chrome 88.0.4324.192,,,2021-02-25 12:13:20,2021-02-25 12:13:21,1.965s,PASSED
"verifyElementPresent(findTestObject(""Recruit Profile (view)/Recruit Video row1""), 0)",Chrome 88.0.4324.192,,,2021-02-25 12:13:21,2021-02-25 12:13:33,11.326s,PASSED
delay(2),Chrome 88.0.4324.192,,,2021-02-25 12:13:33,2021-02-25 12:13:35,2.006s,PASSED
"mouseOver(findTestObject(""Recruit Profile (view)/Recruit Video row1""))",Chrome 88.0.4324.192,,,2021-02-25 12:13:35,2021-02-25 12:13:35,0.387s,PASSED
"enhancedClick(findTestObject(""Recruit Profile (view)/Delete Video Row1""))",Chrome 88.0.4324.192,,,2021-02-25 12:13:35,2021-02-25 12:13:36,0.411s,PASSED
"enhancedClick(findTestObject(""Recruit Profile (view)/Confirm Delete Video""))",Chrome 88.0.4324.192,,,2021-02-25 12:13:36,2021-02-25 12:13:36,0.494s,PASSED
"verifyElementNotPresent(findTestObject(""Recruit Profile (view)/Recruit Video row1""), 0)",Chrome 88.0.4324.192,,,2021-02-25 12:13:36,2021-02-25 12:13:37,1.295s,PASSED
"enhancedClick(findTestObject(""Recruit Profile (view)/CLOSE button""))",Chrome 88.0.4324.192,,,2021-02-25 12:13:37,2021-02-25 12:13:38,0.455s,PASSED
closeBrowser(),Chrome 88.0.4324.192,,,2021-02-25 12:13:38,2021-02-25 12:13:38,0.094s,PASSED
,,,,,,,
Test Cases/Features/FastConnect,Chrome 88.0.4324.192,,,2021-02-25 12:13:38,2021-02-25 12:14:27,49.473s,PASSED
openBrowser(URL),Chrome 88.0.4324.192,,,2021-02-25 12:13:38,2021-02-25 12:13:40,2.356s,PASSED
"setText(findTestObject(""Login Page/Email""), email)",Chrome 88.0.4324.192,,,2021-02-25 12:13:40,2021-02-25 12:13:44,4.006s,PASSED
"setText(findTestObject(""Login Page/password""), password)",Chrome 88.0.4324.192,,,2021-02-25 12:13:44,2021-02-25 12:13:48,4.031s,PASSED
"click(findTestObject(""Login Page/Sign In""))",Chrome 88.0.4324.192,,,2021-02-25 12:13:48,2021-02-25 12:13:53,4.531s,PASSED
"waitForElementVisible(findTestObject(""Top Navigation Menu/Dashboard""), 60)",Chrome 88.0.4324.192,,,2021-02-25 12:13:53,2021-02-25 12:13:55,2.458s,PASSED
"enhancedClick(findTestObject(""Top Navigation Menu/Recruits""))",Chrome 88.0.4324.192,,,2021-02-25 12:13:55,2021-02-25 12:13:58,2.063s,PASSED
"enhancedClick(findTestObject(""Recruits Page/FastConnect tab""))",Chrome 88.0.4324.192,,,2021-02-25 12:13:58,2021-02-25 12:14:00,2.105s,PASSED
"enhancedClick(findTestObject(""Recruits Page/FastConnect/List dropdown""))",Chrome 88.0.4324.192,,,2021-02-25 12:14:00,2021-02-25 12:14:01,1.831s,PASSED
"enhancedClick(findTestObject(""Recruits Page/FastConnect/All Recruits list dropdown""))",Chrome 88.0.4324.192,,,2021-02-25 12:14:01,2021-02-25 12:14:03,1.965s,PASSED
delay(10),Chrome 88.0.4324.192,,,2021-02-25 12:14:03,2021-02-25 12:14:13,10.010s,PASSED
"verifyElementVisible(findTestObject(""Recruits Page/FastConnect/Fastconnect post1""), STOP_ON_FAILURE)",Chrome 88.0.4324.192,,,2021-02-25 12:14:13,2021-02-25 12:14:27,13.984s,PASSED
,,,,,,,
Test Cases/Tourney Workflow,Chrome 88.0.4324.192,,,2021-02-25 12:14:27,2021-02-25 12:15:19,51.657s,PASSED
openBrowser(URL),Chrome 88.0.4324.192,,,2021-02-25 12:14:28,2021-02-25 12:14:30,2.819s,PASSED
"setText(findTestObject(""Login Page/Email""), email)",Chrome 88.0.4324.192,,,2021-02-25 12:14:30,2021-02-25 12:14:32,1.216s,PASSED
"setText(findTestObject(""Login Page/password""), password)",Chrome 88.0.4324.192,,,2021-02-25 12:14:32,2021-02-25 12:14:32,0.745s,PASSED
"click(findTestObject(""Login Page/Sign In""))",Chrome 88.0.4324.192,,,2021-02-25 12:14:32,2021-02-25 12:14:35,3.000s,PASSED
"waitForElementVisible(findTestObject(""Top Navigation Menu/Dashboard""), 60)",Chrome 88.0.4324.192,,,2021-02-25 12:14:35,2021-02-25 12:14:38,2.576s,PASSED
"enhancedClick(findTestObject(""Top Navigation Menu/Tourneys""))",Chrome 88.0.4324.192,,,2021-02-25 12:14:38,2021-02-25 12:14:38,0.516s,PASSED
"enhancedClick(findTestObject(""Tourneys page/Tourney list dropdown""))",Chrome 88.0.4324.192,,,2021-02-25 12:14:38,2021-02-25 12:14:39,0.754s,PASSED
enhancedClick(tourneySession),Chrome 88.0.4324.192,,,2021-02-25 12:14:39,2021-02-25 12:14:40,0.561s,PASSED
"enhancedClick(findTestObject(""Tourneys page/Tourneys header""))",Chrome 88.0.4324.192,,,2021-02-25 12:14:40,2021-02-25 12:14:40,0.599s,PASSED
"enhancedClick(findTestObject(""Tourneys page/Tourney1 listed""))",Chrome 88.0.4324.192,,,2021-02-25 12:14:40,2021-02-25 12:14:41,0.539s,PASSED
"enhancedClick(findTestObject(""Tourneys page/Assign Staff button""))",Chrome 88.0.4324.192,,,2021-02-25 12:14:41,2021-02-25 12:14:43,2.349s,PASSED
"enhancedClick(findTestObject(""Tourneys page/Assign Staff User1 checkbox""))",Chrome 88.0.4324.192,,,2021-02-25 12:14:43,2021-02-25 12:14:44,0.509s,PASSED
"enhancedClick(findTestObject(""Tourneys page/Assign Staff SAVE button""))",Chrome 88.0.4324.192,,,2021-02-25 12:14:44,2021-02-25 12:14:44,0.490s,PASSED
delay(1),Chrome 88.0.4324.192,,,2021-02-25 12:14:44,2021-02-25 12:14:45,1.003s,PASSED
"enhancedClick(findTestObject(""Tourneys page/Assign Recruits button""))",Chrome 88.0.4324.192,,,2021-02-25 12:14:45,2021-02-25 12:14:46,0.305s,PASSED
"enhancedClick(findTestObject(""Tourneys page/Select Recruits dropdown""))",Chrome 88.0.4324.192,,,2021-02-25 12:14:46,2021-02-25 12:14:46,0.497s,PASSED
"enhancedClick(findTestObject(""Tourneys page/Assign Recruits dropdown list1""))",Chrome 88.0.4324.192,,,2021-02-25 12:14:46,2021-02-25 12:14:47,0.497s,PASSED
"enhancedClick(findTestObject(""Tourneys page/Assign Recruits SAVE button""))",Chrome 88.0.4324.192,,,2021-02-25 12:14:47,2021-02-25 12:14:47,0.498s,PASSED
"enhancedClick(findTestObject(""Tourneys page/Select Tourney Team dropdown""))",Chrome 88.0.4324.192,,,2021-02-25 12:14:47,2021-02-25 12:14:48,0.772s,PASSED
"enhancedClick(findTestObject(""Tourneys page/Select Tourney Team dropdown1""))",Chrome 88.0.4324.192,,,2021-02-25 12:14:48,2021-02-25 12:14:48,0.502s,PASSED
delay(2),Chrome 88.0.4324.192,,,2021-02-25 12:14:48,2021-02-25 12:14:50,2.006s,PASSED
"enhancedClick(findTestObject(""Tourneys page/Tourney GAMES tab""))",Chrome 88.0.4324.192,,,2021-02-25 12:14:50,2021-02-25 12:14:51,0.335s,PASSED
delay(3),Chrome 88.0.4324.192,,,2021-02-25 12:14:51,2021-02-25 12:14:54,3.005s,PASSED
"verifyElementPresent(findTestObject(""Tourneys page/GAMES tab row1""), 0)",Chrome 88.0.4324.192,,,2021-02-25 12:14:54,2021-02-25 12:14:54,0.263s,PASSED
"gameDate = getText(findTestObject(""Tourneys page/GAMES tab row1 Date""))",Chrome 88.0.4324.192,,,2021-02-25 12:14:54,2021-02-25 12:14:54,0.266s,PASSED
"enhancedClick(findTestObject(""Top Navigation Menu/Schedule""))",Chrome 88.0.4324.192,,,2021-02-25 12:14:54,2021-02-25 12:14:55,0.371s,PASSED
"enhancedClick(findTestObject(""Schedule Page/Calendar from date filter""))",Chrome 88.0.4324.192,,,2021-02-25 12:14:55,2021-02-25 12:14:56,1.145s,PASSED
"sendKeys(findTestObject(""Schedule Page/Calendar from date filter""), Keys.chord(BACK_SPACE))",Chrome 88.0.4324.192,,,2021-02-25 12:14:56,2021-02-25 12:14:56,0.596s,PASSED
"sendKeys(findTestObject(""Schedule Page/Calendar from date filter""), Keys.chord(BACK_SPACE))",Chrome 88.0.4324.192,,,2021-02-25 12:14:56,2021-02-25 12:14:57,0.387s,PASSED
"sendKeys(findTestObject(""Schedule Page/Calendar from date filter""), Keys.chord(BACK_SPACE))",Chrome 88.0.4324.192,,,2021-02-25 12:14:57,2021-02-25 12:14:57,0.280s,PASSED
"sendKeys(findTestObject(""Schedule Page/Calendar from date filter""), Keys.chord(BACK_SPACE))",Chrome 88.0.4324.192,,,2021-02-25 12:14:57,2021-02-25 12:14:57,0.278s,PASSED
"sendKeys(findTestObject(""Schedule Page/Calendar from date filter""), Keys.chord(BACK_SPACE))",Chrome 88.0.4324.192,,,2021-02-25 12:14:57,2021-02-25 12:14:58,0.282s,PASSED
"sendKeys(findTestObject(""Schedule Page/Calendar from date filter""), Keys.chord(BACK_SPACE))",Chrome 88.0.4324.192,,,2021-02-25 12:14:58,2021-02-25 12:14:58,0.386s,PASSED
"sendKeys(findTestObject(""Schedule Page/Calendar from date filter""), Keys.chord(BACK_SPACE))",Chrome 88.0.4324.192,,,2021-02-25 12:14:58,2021-02-25 12:14:58,0.371s,PASSED
"sendKeys(findTestObject(""Schedule Page/Calendar from date filter""), Keys.chord(BACK_SPACE))",Chrome 88.0.4324.192,,,2021-02-25 12:14:58,2021-02-25 12:14:59,0.384s,PASSED
"sendKeys(findTestObject(""Schedule Page/Calendar from date filter""), Keys.chord(BACK_SPACE))",Chrome 88.0.4324.192,,,2021-02-25 12:14:59,2021-02-25 12:14:59,0.386s,PASSED
"setText(findTestObject(""Schedule Page/Calendar from date filter""), gameDate)",Chrome 88.0.4324.192,,,2021-02-25 12:14:59,2021-02-25 12:15:00,0.612s,PASSED
"sendKeys(findTestObject(""Schedule Page/Calendar from date filter""), Keys.chord(ENTER))",Chrome 88.0.4324.192,,,2021-02-25 12:15:00,2021-02-25 12:15:00,0.362s,PASSED
"verifyElementPresent(findTestObject(""Schedule Page/Row1 on Schedule List""), 0)",Chrome 88.0.4324.192,,,2021-02-25 12:15:00,2021-02-25 12:15:12,11.920s,PASSED
"enhancedClick(findTestObject(""Top Navigation Menu/Tourneys""))",Chrome 88.0.4324.192,,,2021-02-25 12:15:12,2021-02-25 12:15:12,0.322s,PASSED
"enhancedClick(findTestObject(""Tourneys page/Tourney list dropdown""))",Chrome 88.0.4324.192,,,2021-02-25 12:15:12,2021-02-25 12:15:13,1.060s,PASSED
enhancedClick(tourneySession),Chrome 88.0.4324.192,,,2021-02-25 12:15:13,2021-02-25 12:15:14,0.565s,PASSED
"enhancedClick(findTestObject(""Tourneys page/Tourneys header""))",Chrome 88.0.4324.192,,,2021-02-25 12:15:14,2021-02-25 12:15:15,0.734s,PASSED
"enhancedClick(findTestObject(""Tourneys page/Tourney1 listed""))",Chrome 88.0.4324.192,,,2021-02-25 12:15:15,2021-02-25 12:15:15,0.330s,PASSED
"enhancedClick(findTestObject(""Tourneys page/Edit Assign Staff Pencil""))",Chrome 88.0.4324.192,,,2021-02-25 12:15:15,2021-02-25 12:15:16,0.611s,PASSED
"enhancedClick(findTestObject(""Tourneys page/Assign Staff User1 checkbox""))",Chrome 88.0.4324.192,,,2021-02-25 12:15:16,2021-02-25 12:15:16,0.503s,PASSED
"enhancedClick(findTestObject(""Tourneys page/Assign Staff SAVE button""))",Chrome 88.0.4324.192,,,2021-02-25 12:15:16,2021-02-25 12:15:17,0.597s,PASSED
delay(1),Chrome 88.0.4324.192,,,2021-02-25 12:15:17,2021-02-25 12:15:18,1.005s,PASSED
"enhancedClick(findTestObject(""Tourneys page/Delete Attending Recruit1""))",Chrome 88.0.4324.192,,,2021-02-25 12:15:18,2021-02-25 12:15:18,0.801s,PASSED
"enhancedClick(findTestObject(""Tourneys page/Confirm Delete Attending Recruit1""))",Chrome 88.0.4324.192,,,2021-02-25 12:15:18,2021-02-25 12:15:19,0.499s,PASSED
closeBrowser(),Chrome 88.0.4324.192,,,2021-02-25 12:15:19,2021-02-25 12:15:19,0.095s,PASSED
