Suite/Test/Step Name,Browser,Description,Tag,Start time,End time,Duration,Status
Regression Tests,Chrome 88.0.4324.150,,,2021-02-11 10:46:25,2021-02-11 10:49:39,3m - 13.387s,FAILED
,,,,,,,
Test Cases/Draft Board,Chrome 88.0.4324.150,,,2021-02-11 10:46:26,2021-02-11 10:46:40,14.729s,FAILED
openBrowser(URL),Chrome 88.0.4324.150,,,2021-02-11 10:46:26,2021-02-11 10:46:30,3.682s,PASSED
"setText(findTestObject(""Login Page/Email""), email)",Chrome 88.0.4324.150,,,2021-02-11 10:46:30,2021-02-11 10:46:30,0.202s,PASSED
"setText(findTestObject(""Login Page/password""), password)",Chrome 88.0.4324.150,,,2021-02-11 10:46:30,2021-02-11 10:46:30,0.116s,PASSED
"click(findTestObject(""Login Page/Sign In""))",Chrome 88.0.4324.150,,,2021-02-11 10:46:30,2021-02-11 10:46:32,2.112s,PASSED
"waitForElementVisible(findTestObject(""Top Navigation Menu/Dashboard""), 60)",Chrome 88.0.4324.150,,,2021-02-11 10:46:32,2021-02-11 10:46:33,0.653s,PASSED
"enhancedClick(findTestObject(""Top Navigation Menu/Dashboard""))",Chrome 88.0.4324.150,,,2021-02-11 10:46:33,2021-02-11 10:46:33,0.107s,PASSED
delay(3),Chrome 88.0.4324.150,,,2021-02-11 10:46:33,2021-02-11 10:46:36,3.020s,PASSED
"mouseOver(findTestObject(""Dashboard Page/Draft Board (Dashboard)/blank 1-PG on Draft Board (Dashboard)""))",Chrome 88.0.4324.150,,,2021-02-11 10:46:36,2021-02-11 10:46:36,0.230s,PASSED
"enhancedClick(findTestObject(""Dashboard Page/Draft Board (Dashboard)/blank 1-PG on Draft Board (Dashboard)""))",Chrome 88.0.4324.150,,,2021-02-11 10:46:36,2021-02-11 10:46:36,0.144s,PASSED
"enhancedClick(findTestObject(""Dashboard Page/Draft Board (Dashboard)/Draft Board Dropdown Player1""))",Chrome 88.0.4324.150,,,2021-02-11 10:46:36,2021-02-11 10:46:36,0.265s,PASSED
"mouseOver(findTestObject(""Dashboard Page/Draft Board (Dashboard)/1-PG on Draft Board""))",Chrome 88.0.4324.150,,,2021-02-11 10:46:36,2021-02-11 10:46:37,0.389s,PASSED
"enhancedClick(findTestObject(""Dashboard Page/Draft Board (Dashboard)/1-PG on Draft Board""))",Chrome 88.0.4324.150,,,2021-02-11 10:46:37,2021-02-11 10:46:37,0.111s,PASSED
delay(1),Chrome 88.0.4324.150,,,2021-02-11 10:46:37,2021-02-11 10:46:38,1.007s,PASSED
"enhancedClick(findTestObject(""Recruit Profile (view)/Alerts button""))",Chrome 88.0.4324.150,,,2021-02-11 10:46:38,2021-02-11 10:46:38,0.094s,PASSED
"enhancedClick(findTestObject(""Recruit Profile (view)/CLOSE button""))",Chrome 88.0.4324.150,,,2021-02-11 10:46:38,2021-02-11 10:46:38,0.120s,PASSED
"verifyElementAttributeValue(findTestObject(""Dashboard Page/Draft Board (Dashboard)/1-PG on Draft Board""), ""class"", ""draft-board-player css-1ydqi8h-DraftBoard"", 0)",Chrome 88.0.4324.150,,,2021-02-11 10:46:38,2021-02-11 10:46:38,0.100s,PASSED
"mouseOver(findTestObject(""Dashboard Page/Draft Board (Dashboard)/1-PG on Draft Board""))",Chrome 88.0.4324.150,,,2021-02-11 10:46:38,2021-02-11 10:46:38,0.193s,PASSED
"enhancedClick(findTestObject(""Dashboard Page/Draft Board (Dashboard)/1-PG on Draft Board""))",Chrome 88.0.4324.150,,,2021-02-11 10:46:38,2021-02-11 10:46:39,0.118s,PASSED
"enhancedClick(findTestObject(""Recruit Profile (view)/Alerts button""))",Chrome 88.0.4324.150,,,2021-02-11 10:46:39,2021-02-11 10:46:39,0.089s,PASSED
"enhancedClick(findTestObject(""Recruit Profile (view)/CLOSE button""))",Chrome 88.0.4324.150,,,2021-02-11 10:46:39,2021-02-11 10:46:39,0.096s,PASSED
"verifyElementAttributeValue(findTestObject(""Dashboard Page/Draft Board (Dashboard)/1-PG on Draft Board""), ""class"", ""draft-board-player css-1xcfrz7-DraftBoard"", 0)",Chrome 88.0.4324.150,,,2021-02-11 10:46:39,2021-02-11 10:46:40,1.590s,FAILED
,,,,,,,
Test Cases/Depth Chart,Chrome 88.0.4324.150,,,2021-02-11 10:46:40,2021-02-11 10:47:54,1m - 13.269s,PASSED
openBrowser(URL),Chrome 88.0.4324.150,,,2021-02-11 10:46:41,2021-02-11 10:46:43,2.150s,PASSED
"setText(findTestObject(""Login Page/Email""), email)",Chrome 88.0.4324.150,,,2021-02-11 10:46:43,2021-02-11 10:46:43,0.162s,PASSED
"setText(findTestObject(""Login Page/password""), password)",Chrome 88.0.4324.150,,,2021-02-11 10:46:43,2021-02-11 10:46:43,0.109s,PASSED
"click(findTestObject(""Login Page/Sign In""))",Chrome 88.0.4324.150,,,2021-02-11 10:46:43,2021-02-11 10:46:45,2.231s,PASSED
"waitForElementVisible(findTestObject(""Top Navigation Menu/Dashboard""), 60)",Chrome 88.0.4324.150,,,2021-02-11 10:46:45,2021-02-11 10:46:46,0.617s,PASSED
"enhancedClick(findTestObject(""Top Navigation Menu/Dashboard""))",Chrome 88.0.4324.150,,,2021-02-11 10:46:46,2021-02-11 10:46:46,0.079s,PASSED
delay(3),Chrome 88.0.4324.150,,,2021-02-11 10:46:46,2021-02-11 10:46:49,3.005s,PASSED
"enhancedClick(findTestObject(""Dashboard Page/Depth Chart/Depth Chart season dropdown""))",Chrome 88.0.4324.150,,,2021-02-11 10:46:49,2021-02-11 10:46:49,0.095s,PASSED
"enhancedClick(findTestObject(""Dashboard Page/Depth Chart/Season Dropdown Index3""))",Chrome 88.0.4324.150,,,2021-02-11 10:46:49,2021-02-11 10:46:49,0.116s,PASSED
"enhancedClick(findTestObject(""Dashboard Page/Depth Chart/Depth Chart season dropdown""))",Chrome 88.0.4324.150,,,2021-02-11 10:46:49,2021-02-11 10:46:49,0.074s,PASSED
"enhancedClick(findTestObject(""Dashboard Page/Depth Chart/Season Dropdown Index2""))",Chrome 88.0.4324.150,,,2021-02-11 10:46:49,2021-02-11 10:46:49,0.095s,PASSED
"enhancedClick(findTestObject(""Dashboard Page/Depth Chart/EDIT Depth Chart""))",Chrome 88.0.4324.150,,,2021-02-11 10:46:49,2021-02-11 10:46:49,0.149s,PASSED
"enhancedClick(findTestObject(""Dashboard Page/Depth Chart/Depth Chart Edit (sr, pg, 1)""))",Chrome 88.0.4324.150,,,2021-02-11 10:46:49,2021-02-11 10:47:20,30.785s,PASSED
"enhancedClick(findTestObject(""Dashboard Page/Depth Chart/SAVE Depth Chart""))",Chrome 88.0.4324.150,,,2021-02-11 10:47:20,2021-02-11 10:47:20,0.088s,PASSED
delay(2),Chrome 88.0.4324.150,,,2021-02-11 10:47:20,2021-02-11 10:47:22,2.007s,PASSED
"verifyTextNotPresent(playerHidden, false)",Chrome 88.0.4324.150,,,2021-02-11 10:47:22,2021-02-11 10:47:22,0.126s,PASSED
"enhancedClick(findTestObject(""Dashboard Page/Depth Chart/EDIT Depth Chart""))",Chrome 88.0.4324.150,,,2021-02-11 10:47:22,2021-02-11 10:47:23,0.119s,PASSED
"enhancedClick(findTestObject(""Dashboard Page/Depth Chart/Depth Chart Edit (sr, pg, 1)""))",Chrome 88.0.4324.150,,,2021-02-11 10:47:23,2021-02-11 10:47:53,30.721s,PASSED
"enhancedClick(findTestObject(""Dashboard Page/Depth Chart/SAVE Depth Chart""))",Chrome 88.0.4324.150,,,2021-02-11 10:47:53,2021-02-11 10:47:53,0.083s,PASSED
"verifyTextPresent(playerHidden, false)",Chrome 88.0.4324.150,,,2021-02-11 10:47:53,2021-02-11 10:47:54,0.287s,PASSED
,,,,,,,
Test Cases/Dashboard Calendar,Chrome 88.0.4324.150,,,2021-02-11 10:47:54,2021-02-11 10:48:21,27.447s,FAILED
openBrowser(URL),Chrome 88.0.4324.150,,,2021-02-11 10:47:54,2021-02-11 10:47:56,2.436s,PASSED
"setText(findTestObject(""Login Page/Email""), email)",Chrome 88.0.4324.150,,,2021-02-11 10:47:56,2021-02-11 10:47:56,0.170s,PASSED
"setText(findTestObject(""Login Page/password""), password)",Chrome 88.0.4324.150,,,2021-02-11 10:47:56,2021-02-11 10:47:57,0.110s,PASSED
"click(findTestObject(""Login Page/Sign In""))",Chrome 88.0.4324.150,,,2021-02-11 10:47:57,2021-02-11 10:47:59,2.387s,PASSED
"waitForElementVisible(findTestObject(""Top Navigation Menu/Dashboard""), 60)",Chrome 88.0.4324.150,,,2021-02-11 10:47:59,2021-02-11 10:48:00,0.652s,PASSED
"enhancedClick(findTestObject(""Top Navigation Menu/Recruits""))",Chrome 88.0.4324.150,,,2021-02-11 10:48:00,2021-02-11 10:48:00,0.139s,PASSED
delay(3),Chrome 88.0.4324.150,,,2021-02-11 10:48:00,2021-02-11 10:48:03,3.007s,PASSED
"enhancedClick(findTestObject(""Top Navigation Menu/Dashboard""))",Chrome 88.0.4324.150,,,2021-02-11 10:48:03,2021-02-11 10:48:03,0.172s,PASSED
delay(3),Chrome 88.0.4324.150,,,2021-02-11 10:48:03,2021-02-11 10:48:06,3.007s,PASSED
"enhancedClick(findTestObject(""Dashboard Page/Calendar (Dashboard)/Toggle Left (Calendar Dashboard)""))",Chrome 88.0.4324.150,,,2021-02-11 10:48:06,2021-02-11 10:48:06,0.109s,PASSED
delay(5),Chrome 88.0.4324.150,,,2021-02-11 10:48:06,2021-02-11 10:48:11,5.008s,PASSED
"enhancedClick(findTestObject(""Dashboard Page/Calendar (Dashboard)/Toggle Right (Calendar Dashboard)""))",Chrome 88.0.4324.150,,,2021-02-11 10:48:11,2021-02-11 10:48:11,0.095s,PASSED
delay(5),Chrome 88.0.4324.150,,,2021-02-11 10:48:11,2021-02-11 10:48:16,5.006s,PASSED
"enhancedClick(findTestObject(""Dashboard Page/Calendar (Dashboard)/Dashboard Calendar SHOW dropdown""))",Chrome 88.0.4324.150,,,2021-02-11 10:48:16,2021-02-11 10:48:16,0.082s,PASSED
"enhancedClick(findTestObject(""Dashboard Page/Calendar (Dashboard)/My Calendar option""))",Chrome 88.0.4324.150,,,2021-02-11 10:48:16,2021-02-11 10:48:16,0.081s,PASSED
"enhancedClick(findTestObject(""Dashboard Page/Calendar (Dashboard)/My Calendar option""))",Chrome 88.0.4324.150,,,2021-02-11 10:48:16,2021-02-11 10:48:16,0.062s,PASSED
"enhancedClick(findTestObject(""Dashboard Page/Calendar (Dashboard)/Team calendar option""))",Chrome 88.0.4324.150,,,2021-02-11 10:48:16,2021-02-11 10:48:16,0.069s,PASSED
"enhancedClick(findTestObject(""Dashboard Page/Calendar (Dashboard)/Team calendar option""))",Chrome 88.0.4324.150,,,2021-02-11 10:48:16,2021-02-11 10:48:16,0.057s,PASSED
"enhancedClick(findTestObject(""Dashboard Page/Calendar (Dashboard)/Tasks calendar option""))",Chrome 88.0.4324.150,,,2021-02-11 10:48:16,2021-02-11 10:48:17,0.070s,PASSED
"enhancedClick(findTestObject(""Dashboard Page/Calendar (Dashboard)/Tasks calendar option""))",Chrome 88.0.4324.150,,,2021-02-11 10:48:17,2021-02-11 10:48:17,0.057s,PASSED
"enhancedClick(findTestObject(""Dashboard Page/Calendar (Dashboard)/NCAA Calendar option""))",Chrome 88.0.4324.150,,,2021-02-11 10:48:17,2021-02-11 10:48:17,0.071s,PASSED
"enhancedClick(findTestObject(""Dashboard Page/Calendar (Dashboard)/NCAA Calendar option""))",Chrome 88.0.4324.150,,,2021-02-11 10:48:17,2021-02-11 10:48:17,0.055s,PASSED
"enhancedClick(findTestObject(""Dashboard Page/Calendar (Dashboard)/My Live Period calendar option""))",Chrome 88.0.4324.150,,,2021-02-11 10:48:17,2021-02-11 10:48:17,0.070s,PASSED
"enhancedClick(findTestObject(""Dashboard Page/Calendar (Dashboard)/My Live Period calendar option""))",Chrome 88.0.4324.150,,,2021-02-11 10:48:17,2021-02-11 10:48:17,0.058s,PASSED
"enhancedClick(findTestObject(""Dashboard Page/Calendar (Dashboard)/Dashboard Calendar SHOW dropdown""))",Chrome 88.0.4324.150,,,2021-02-11 10:48:17,2021-02-11 10:48:17,0.057s,PASSED
"enhancedClick(findTestObject(""Dashboard Page/Calendar (Dashboard)/Dashboard Calendar Add New""))",Chrome 88.0.4324.150,,,2021-02-11 10:48:17,2021-02-11 10:48:17,0.135s,PASSED
"enhancedClick(findTestObject(""Dashboard Page/Calendar (Dashboard)/Add Event modal/Event Name field""))",Chrome 88.0.4324.150,,,2021-02-11 10:48:17,2021-02-11 10:48:17,0.097s,PASSED
"sendKeys(findTestObject(""Dashboard Page/Calendar (Dashboard)/Add Event modal/Event Name field""), ""Test Event1"")",Chrome 88.0.4324.150,,,2021-02-11 10:48:17,2021-02-11 10:48:17,0.086s,PASSED
"enhancedClick(findTestObject(""Dashboard Page/Calendar (Dashboard)/Add Event modal/Event Location field""))",Chrome 88.0.4324.150,,,2021-02-11 10:48:17,2021-02-11 10:48:17,0.091s,PASSED
"sendKeys(findTestObject(""Dashboard Page/Calendar (Dashboard)/Add Event modal/Event Location field""), ""444 N. Michigan Ave"")",Chrome 88.0.4324.150,,,2021-02-11 10:48:17,2021-02-11 10:48:17,0.098s,PASSED
"enhancedClick(findTestObject(""Dashboard Page/Calendar (Dashboard)/Add Event modal/Select searched location""), STOP_ON_FAILURE)",Chrome 88.0.4324.150,,,2021-02-11 10:48:17,2021-02-11 10:48:18,0.080s,PASSED
"enhancedClick(findTestObject(""Dashboard Page/Calendar (Dashboard)/Add Event modal/Select Recruits dropdown""))",Chrome 88.0.4324.150,,,2021-02-11 10:48:18,2021-02-11 10:48:18,0.080s,PASSED
"enhancedClick(findTestObject(""Dashboard Page/Calendar (Dashboard)/Add Event modal/Recruit1 in dropdown (Add Event modal)""))",Chrome 88.0.4324.150,,,2021-02-11 10:48:18,2021-02-11 10:48:18,0.117s,PASSED
"enhancedClick(findTestObject(""Dashboard Page/Calendar (Dashboard)/Add Event modal/Add Event Attendees""))",Chrome 88.0.4324.150,,,2021-02-11 10:48:18,2021-02-11 10:48:18,0.082s,PASSED
"enhancedClick(findTestObject(""Dashboard Page/Calendar (Dashboard)/Add Event modal/Recruiters checkbox""))",Chrome 88.0.4324.150,,,2021-02-11 10:48:18,2021-02-11 10:48:18,0.099s,PASSED
"enhancedClick(findTestObject(""Dashboard Page/Calendar (Dashboard)/Add Event modal/Game Note field""))",Chrome 88.0.4324.150,,,2021-02-11 10:48:18,2021-02-11 10:48:18,0.081s,PASSED
"sendKeys(findTestObject(""Dashboard Page/Calendar (Dashboard)/Add Event modal/Game Note field""), ""arrive early"")",Chrome 88.0.4324.150,,,2021-02-11 10:48:18,2021-02-11 10:48:18,0.147s,PASSED
"enhancedClick(findTestObject(""Dashboard Page/Calendar (Dashboard)/Add Event modal/Add Event Save button""))",Chrome 88.0.4324.150,,,2021-02-11 10:48:18,2021-02-11 10:48:18,0.076s,PASSED
delay(2),Chrome 88.0.4324.150,,,2021-02-11 10:48:18,2021-02-11 10:48:20,2.006s,PASSED
"verifyTextPresent(""Test Event1"", false)",Chrome 88.0.4324.150,,,2021-02-11 10:48:20,2021-02-11 10:48:21,0.874s,FAILED
,,,,,,,
Test Cases/Add_Archive_Delete New Recruit,Chrome 88.0.4324.150,,,2021-02-11 10:48:21,2021-02-11 10:48:40,18.791s,PASSED
openBrowser(URL),Chrome 88.0.4324.150,,,2021-02-11 10:48:21,2021-02-11 10:48:24,2.420s,PASSED
"setText(findTestObject(""Login Page/Email""), email)",Chrome 88.0.4324.150,,,2021-02-11 10:48:24,2021-02-11 10:48:24,0.155s,PASSED
"setText(findTestObject(""Login Page/password""), password)",Chrome 88.0.4324.150,,,2021-02-11 10:48:24,2021-02-11 10:48:24,0.104s,PASSED
"click(findTestObject(""Login Page/Sign In""))",Chrome 88.0.4324.150,,,2021-02-11 10:48:24,2021-02-11 10:48:26,2.423s,PASSED
"waitForElementVisible(findTestObject(""Top Navigation Menu/Dashboard""), 60)",Chrome 88.0.4324.150,,,2021-02-11 10:48:26,2021-02-11 10:48:27,1.118s,PASSED
"click(findTestObject(""Top Navigation Menu/Recruits""))",Chrome 88.0.4324.150,,,2021-02-11 10:48:27,2021-02-11 10:48:28,0.120s,PASSED
"click(findTestObject(""Recruits Page/ADD RECRUIT button""))",Chrome 88.0.4324.150,,,2021-02-11 10:48:28,2021-02-11 10:48:28,0.109s,PASSED
"setText(findTestObject(""Recruits Page/Add New Recruit modal/First Name field""), ""Josh"")",Chrome 88.0.4324.150,,,2021-02-11 10:48:28,2021-02-11 10:48:29,1.389s,PASSED
"setText(findTestObject(""Recruits Page/Add New Recruit modal/Last Name field""), ""Allen"")",Chrome 88.0.4324.150,,,2021-02-11 10:48:29,2021-02-11 10:48:29,0.135s,PASSED
"setText(findTestObject(""Recruits Page/Add New Recruit modal/Class field""), ""2023"")",Chrome 88.0.4324.150,,,2021-02-11 10:48:29,2021-02-11 10:48:29,0.126s,PASSED
"click(findTestObject(""Recruits Page/Add New Recruit modal/Height field input""))",Chrome 88.0.4324.150,,,2021-02-11 10:48:29,2021-02-11 10:48:29,0.094s,PASSED
"setText(findTestObject(""Recruits Page/Add New Recruit modal/Height field input""), ""69"")",Chrome 88.0.4324.150,,,2021-02-11 10:48:29,2021-02-11 10:48:30,0.106s,PASSED
"setText(findTestObject(""Recruits Page/Add New Recruit modal/Birthdate field input""), ""1/1/2005"")",Chrome 88.0.4324.150,,,2021-02-11 10:48:30,2021-02-11 10:48:30,0.247s,PASSED
"enhancedClick(findTestObject(""Recruits Page/Add New Recruit modal/Birthdate field Label""))",Chrome 88.0.4324.150,,,2021-02-11 10:48:30,2021-02-11 10:48:30,0.124s,PASSED
"setText(findTestObject(""Recruits Page/Add New Recruit modal/High School field input""), ""highland park"")",Chrome 88.0.4324.150,,,2021-02-11 10:48:30,2021-02-11 10:48:30,0.179s,PASSED
"sendKeys(findTestObject(""Recruits Page/Add New Recruit modal/High School field input""), Keys.chord(DOWN))",Chrome 88.0.4324.150,,,2021-02-11 10:48:30,2021-02-11 10:48:30,0.066s,PASSED
"sendKeys(findTestObject(""Recruits Page/Add New Recruit modal/High School field input""), Keys.chord(ENTER))",Chrome 88.0.4324.150,,,2021-02-11 10:48:30,2021-02-11 10:48:30,0.056s,PASSED
"setText(findTestObject(""Recruits Page/Add New Recruit modal/High School Coach Name field""), ""Coach Miller"")",Chrome 88.0.4324.150,,,2021-02-11 10:48:30,2021-02-11 10:48:30,0.152s,PASSED
"setText(findTestObject(""Recruits Page/Add New Recruit modal/High School Coach Phone field""), ""8474713163"")",Chrome 88.0.4324.150,,,2021-02-11 10:48:30,2021-02-11 10:48:31,0.144s,PASSED
"setText(findTestObject(""Recruits Page/Add New Recruit modal/Club Team field""), ""Mac Irvin Fire"")",Chrome 88.0.4324.150,,,2021-02-11 10:48:31,2021-02-11 10:48:31,0.153s,PASSED
"setText(findTestObject(""Recruits Page/Add New Recruit modal/Club Team Number field""), ""10"")",Chrome 88.0.4324.150,,,2021-02-11 10:48:31,2021-02-11 10:48:31,0.114s,PASSED
"click(findTestObject(""Recruits Page/Add New Recruit modal/SAVE button""))",Chrome 88.0.4324.150,,,2021-02-11 10:48:31,2021-02-11 10:48:31,0.146s,PASSED
"setText(findTestObject(""Recruits Page/Recruit Search Field on Recruits page""), ""josh allen"")",Chrome 88.0.4324.150,,,2021-02-11 10:48:31,2021-02-11 10:48:31,0.216s,PASSED
delay(1),Chrome 88.0.4324.150,,,2021-02-11 10:48:31,2021-02-11 10:48:32,1.006s,PASSED
"click(findTestObject(""Recruits Page/Archive recruit""))",Chrome 88.0.4324.150,,,2021-02-11 10:48:32,2021-02-11 10:48:32,0.078s,PASSED
delay(1),Chrome 88.0.4324.150,,,2021-02-11 10:48:32,2021-02-11 10:48:33,1.006s,PASSED
"click(findTestObject(""Recruits Page/All Recruits List selection""))",Chrome 88.0.4324.150,,,2021-02-11 10:48:33,2021-02-11 10:48:33,0.080s,PASSED
delay(1),Chrome 88.0.4324.150,,,2021-02-11 10:48:33,2021-02-11 10:48:34,1.004s,PASSED
"click(findTestObject(""Recruits Page/Archived List selection""))",Chrome 88.0.4324.150,,,2021-02-11 10:48:34,2021-02-11 10:48:34,0.117s,PASSED
delay(1),Chrome 88.0.4324.150,,,2021-02-11 10:48:34,2021-02-11 10:48:35,1.007s,PASSED
"click(findTestObject(""Recruits Page/Archived list ellipsis button""))",Chrome 88.0.4324.150,,,2021-02-11 10:48:35,2021-02-11 10:48:36,0.088s,PASSED
delay(1),Chrome 88.0.4324.150,,,2021-02-11 10:48:36,2021-02-11 10:48:37,1.007s,PASSED
"click(findTestObject(""Recruits Page/Delete1""))",Chrome 88.0.4324.150,,,2021-02-11 10:48:37,2021-02-11 10:48:37,0.106s,PASSED
delay(1),Chrome 88.0.4324.150,,,2021-02-11 10:48:37,2021-02-11 10:48:38,1.006s,PASSED
"enhancedClick(findTestObject(""Recruits Page/Delete2""))",Chrome 88.0.4324.150,,,2021-02-11 10:48:38,2021-02-11 10:48:38,0.096s,PASSED
delay(2),Chrome 88.0.4324.150,,,2021-02-11 10:48:38,2021-02-11 10:48:40,2.007s,PASSED
closeBrowser(),Chrome 88.0.4324.150,,,2021-02-11 10:48:40,2021-02-11 10:48:40,0.089s,PASSED
,,,,,,,
Test Cases/Tasks,Chrome 88.0.4324.150,,,2021-02-11 10:48:40,2021-02-11 10:48:50,10.175s,PASSED
openBrowser(URL),Chrome 88.0.4324.150,,,2021-02-11 10:48:40,2021-02-11 10:48:43,2.641s,PASSED
"setText(findTestObject(""Login Page/Email""), email)",Chrome 88.0.4324.150,,,2021-02-11 10:48:43,2021-02-11 10:48:43,0.157s,PASSED
"setText(findTestObject(""Login Page/password""), password)",Chrome 88.0.4324.150,,,2021-02-11 10:48:43,2021-02-11 10:48:43,0.105s,PASSED
"click(findTestObject(""Login Page/Sign In""))",Chrome 88.0.4324.150,,,2021-02-11 10:48:43,2021-02-11 10:48:45,2.229s,PASSED
"waitForElementVisible(findTestObject(""Top Navigation Menu/Dashboard""), 60)",Chrome 88.0.4324.150,,,2021-02-11 10:48:45,2021-02-11 10:48:46,0.576s,PASSED
"enhancedClick(findTestObject(""Top Navigation Menu/Recruits""))",Chrome 88.0.4324.150,,,2021-02-11 10:48:46,2021-02-11 10:48:46,0.123s,PASSED
"enhancedClick(findTestObject(""Recruits Page/Tasks tab""))",Chrome 88.0.4324.150,,,2021-02-11 10:48:46,2021-02-11 10:48:46,0.101s,PASSED
"enhancedClick(findTestObject(""Recruits Page/Tasks/Add Task button""))",Chrome 88.0.4324.150,,,2021-02-11 10:48:46,2021-02-11 10:48:46,0.133s,PASSED
"enhancedClick(findTestObject(""Recruits Page/Tasks/Add Task Recruit field""))",Chrome 88.0.4324.150,,,2021-02-11 10:48:46,2021-02-11 10:48:47,0.967s,PASSED
"enhancedClick(findTestObject(""Recruits Page/Tasks/Add Task recruit dropdown1""))",Chrome 88.0.4324.150,,,2021-02-11 10:48:47,2021-02-11 10:48:47,0.100s,PASSED
"enhancedClick(findTestObject(""Recruits Page/Tasks/Add Task Assigned To field""))",Chrome 88.0.4324.150,,,2021-02-11 10:48:47,2021-02-11 10:48:47,0.073s,PASSED
"enhancedClick(findTestObject(""Recruits Page/Tasks/Add Task Assigned To dropdown1""))",Chrome 88.0.4324.150,,,2021-02-11 10:48:47,2021-02-11 10:48:47,0.072s,PASSED
"enhancedClick(findTestObject(""Recruits Page/Tasks/Add Task Instruction field""))",Chrome 88.0.4324.150,,,2021-02-11 10:48:47,2021-02-11 10:48:47,0.070s,PASSED
"setText(findTestObject(""Recruits Page/Tasks/Add Task Instruction field""), ""test task"")",Chrome 88.0.4324.150,,,2021-02-11 10:48:47,2021-02-11 10:48:47,0.130s,PASSED
"enhancedClick(findTestObject(""Recruits Page/Tasks/Save new task""))",Chrome 88.0.4324.150,,,2021-02-11 10:48:47,2021-02-11 10:48:48,0.079s,PASSED
"verifyElementVisible(findTestObject(""Recruits Page/Tasks/Due task1 row""))",Chrome 88.0.4324.150,,,2021-02-11 10:48:48,2021-02-11 10:48:48,0.329s,PASSED
"mouseOver(findTestObject(""Recruits Page/Tasks/Due task1 ellipsis""))",Chrome 88.0.4324.150,,,2021-02-11 10:48:48,2021-02-11 10:48:48,0.177s,PASSED
"enhancedClick(findTestObject(""Recruits Page/Tasks/Due task1 ellipsis""))",Chrome 88.0.4324.150,,,2021-02-11 10:48:48,2021-02-11 10:48:48,0.073s,PASSED
"enhancedClick(findTestObject(""Recruits Page/Tasks/Mark Tasks Completed button""))",Chrome 88.0.4324.150,,,2021-02-11 10:48:48,2021-02-11 10:48:49,1.235s,PASSED
"verifyElementNotPresent(findTestObject(""Recruits Page/Tasks/Due task1 row""), 0)",Chrome 88.0.4324.150,,,2021-02-11 10:48:49,2021-02-11 10:48:50,0.585s,PASSED
closeBrowser(),Chrome 88.0.4324.150,,,2021-02-11 10:48:50,2021-02-11 10:48:50,0.081s,PASSED
,,,,,,,
Test Cases/Features/Video,Chrome 88.0.4324.150,,,2021-02-11 10:48:50,2021-02-11 10:49:01,10.851s,PASSED
openBrowser(URL),Chrome 88.0.4324.150,,,2021-02-11 10:48:50,2021-02-11 10:48:52,2.112s,PASSED
"setText(findTestObject(""Login Page/Email""), email)",Chrome 88.0.4324.150,,,2021-02-11 10:48:52,2021-02-11 10:48:52,0.154s,PASSED
"setText(findTestObject(""Login Page/password""), password)",Chrome 88.0.4324.150,,,2021-02-11 10:48:52,2021-02-11 10:48:53,0.097s,PASSED
"click(findTestObject(""Login Page/Sign In""))",Chrome 88.0.4324.150,,,2021-02-11 10:48:53,2021-02-11 10:48:55,2.239s,PASSED
"waitForElementVisible(findTestObject(""Top Navigation Menu/Dashboard""), 60)",Chrome 88.0.4324.150,,,2021-02-11 10:48:55,2021-02-11 10:48:55,0.574s,PASSED
"enhancedClick(findTestObject(""Top Navigation Menu/Recruits""))",Chrome 88.0.4324.150,,,2021-02-11 10:48:55,2021-02-11 10:48:55,0.120s,PASSED
"enhancedClick(findTestObject(""Recruits Page/Recruit Row1 Name""))",Chrome 88.0.4324.150,,,2021-02-11 10:48:55,2021-02-11 10:48:57,1.461s,PASSED
"enhancedClick(findTestObject(""Recruits Page/Recruit Profile (View)/VIDEOS tab""))",Chrome 88.0.4324.150,,,2021-02-11 10:48:57,2021-02-11 10:48:57,0.105s,PASSED
"uploadFile(findTestObject(""Recruit Profile (view)/Video Upload object""), ""/Users/jefffeldman/Desktop/Vids/NBA Playoffs 2019.mp4"")",Chrome 88.0.4324.150,,,2021-02-11 10:48:57,2021-02-11 10:48:57,0.110s,PASSED
"verifyElementPresent(findTestObject(""Recruit Profile (view)/Recruit Video row1""), 0)",Chrome 88.0.4324.150,,,2021-02-11 10:48:57,2021-02-11 10:48:58,0.517s,PASSED
delay(2),Chrome 88.0.4324.150,,,2021-02-11 10:48:58,2021-02-11 10:49:00,2.006s,PASSED
"mouseOver(findTestObject(""Recruit Profile (view)/Recruit Video row1""))",Chrome 88.0.4324.150,,,2021-02-11 10:49:00,2021-02-11 10:49:00,0.170s,PASSED
"enhancedClick(findTestObject(""Recruit Profile (view)/Delete Video Row1""))",Chrome 88.0.4324.150,,,2021-02-11 10:49:00,2021-02-11 10:49:00,0.097s,PASSED
"enhancedClick(findTestObject(""Recruit Profile (view)/Confirm Delete Video""))",Chrome 88.0.4324.150,,,2021-02-11 10:49:00,2021-02-11 10:49:00,0.100s,PASSED
"verifyElementNotPresent(findTestObject(""Recruit Profile (view)/Recruit Video row1""), 0)",Chrome 88.0.4324.150,,,2021-02-11 10:49:00,2021-02-11 10:49:01,0.567s,PASSED
"enhancedClick(findTestObject(""Recruit Profile (view)/CLOSE button""))",Chrome 88.0.4324.150,,,2021-02-11 10:49:01,2021-02-11 10:49:01,0.193s,PASSED
closeBrowser(),Chrome 88.0.4324.150,,,2021-02-11 10:49:01,2021-02-11 10:49:01,0.084s,PASSED
,,,,,,,
Test Cases/Features/FastConnect,Chrome 88.0.4324.150,,,2021-02-11 10:49:01,2021-02-11 10:49:31,29.653s,PASSED
openBrowser(URL),Chrome 88.0.4324.150,,,2021-02-11 10:49:01,2021-02-11 10:49:03,2.289s,PASSED
"setText(findTestObject(""Login Page/Email""), email)",Chrome 88.0.4324.150,,,2021-02-11 10:49:03,2021-02-11 10:49:03,0.153s,PASSED
"setText(findTestObject(""Login Page/password""), password)",Chrome 88.0.4324.150,,,2021-02-11 10:49:03,2021-02-11 10:49:04,0.104s,PASSED
"click(findTestObject(""Login Page/Sign In""))",Chrome 88.0.4324.150,,,2021-02-11 10:49:04,2021-02-11 10:49:06,2.222s,PASSED
"waitForElementVisible(findTestObject(""Top Navigation Menu/Dashboard""), 60)",Chrome 88.0.4324.150,,,2021-02-11 10:49:06,2021-02-11 10:49:06,0.630s,PASSED
"enhancedClick(findTestObject(""Top Navigation Menu/Recruits""))",Chrome 88.0.4324.150,,,2021-02-11 10:49:06,2021-02-11 10:49:07,0.116s,PASSED
"enhancedClick(findTestObject(""Recruits Page/FastConnect tab""))",Chrome 88.0.4324.150,,,2021-02-11 10:49:07,2021-02-11 10:49:07,0.112s,PASSED
"enhancedClick(findTestObject(""Recruits Page/FastConnect/List dropdown""))",Chrome 88.0.4324.150,,,2021-02-11 10:49:07,2021-02-11 10:49:07,0.083s,PASSED
"enhancedClick(findTestObject(""Recruits Page/FastConnect/All Recruits list dropdown""))",Chrome 88.0.4324.150,,,2021-02-11 10:49:07,2021-02-11 10:49:08,0.773s,PASSED
delay(10),Chrome 88.0.4324.150,,,2021-02-11 10:49:08,2021-02-11 10:49:18,10.006s,PASSED
"verifyElementVisible(findTestObject(""Recruits Page/FastConnect/Fastconnect post1""), STOP_ON_FAILURE)",Chrome 88.0.4324.150,,,2021-02-11 10:49:18,2021-02-11 10:49:31,13.027s,PASSED
,,,,,,,
Test Cases/Tourney Workflow,Chrome 88.0.4324.150,,,2021-02-11 10:49:31,2021-02-11 10:49:39,8.000s,FAILED
openBrowser(URL),Chrome 88.0.4324.150,,,2021-02-11 10:49:31,2021-02-11 10:49:33,2.141s,PASSED
"setText(findTestObject(""Login Page/Email""), email)",Chrome 88.0.4324.150,,,2021-02-11 10:49:33,2021-02-11 10:49:33,0.147s,PASSED
"setText(findTestObject(""Login Page/password""), password)",Chrome 88.0.4324.150,,,2021-02-11 10:49:33,2021-02-11 10:49:33,0.096s,PASSED
"click(findTestObject(""Login Page/Sign In""))",Chrome 88.0.4324.150,,,2021-02-11 10:49:33,2021-02-11 10:49:35,2.210s,PASSED
"waitForElementVisible(findTestObject(""Top Navigation Menu/Dashboard""), 60)",Chrome 88.0.4324.150,,,2021-02-11 10:49:35,2021-02-11 10:49:36,0.997s,PASSED
"enhancedClick(findTestObject(""Top Navigation Menu/Tourneys""))",Chrome 88.0.4324.150,,,2021-02-11 10:49:36,2021-02-11 10:49:36,0.097s,PASSED
"enhancedClick(findTestObject(""Tourneys page/Tourney list dropdown""))",Chrome 88.0.4324.150,,,2021-02-11 10:49:36,2021-02-11 10:49:37,0.739s,PASSED
enhancedClick(tourneySession),Chrome 88.0.4324.150,,,2021-02-11 10:49:37,2021-02-11 10:49:37,0.236s,PASSED
"enhancedClick(findTestObject(""Tourneys page/Tourneys header""))",Chrome 88.0.4324.150,,,2021-02-11 10:49:37,2021-02-11 10:49:37,0.077s,PASSED
"enhancedClick(findTestObject(""Tourneys page/Tourney1 listed""))",Chrome 88.0.4324.150,,,2021-02-11 10:49:37,2021-02-11 10:49:39,1.087s,FAILED
