Suite/Test/Step Name,Browser,Description,Tag,Start time,End time,Duration,Status
Regression Tests,Chrome 89.0.4389.114,,,2021-04-07 16:24:45,2021-04-07 16:32:57,8m - 11.392s,FAILED
,,,,,,,
Test Cases/Draft Board,Chrome 89.0.4389.114,,,2021-04-07 16:24:46,2021-04-07 16:25:37,51.453s,FAILED
openBrowser(URL),Chrome 89.0.4389.114,,,2021-04-07 16:24:46,2021-04-07 16:24:50,3.758s,PASSED
"setViewPortSize(1440, 841)",Chrome 89.0.4389.114,,,2021-04-07 16:24:50,2021-04-07 16:24:50,0.585s,PASSED
"setText(findTestObject(""Login Page/Email""), email)",Chrome 89.0.4389.114,,,2021-04-07 16:24:50,2021-04-07 16:24:50,0.208s,PASSED
"setText(findTestObject(""Login Page/password""), password)",Chrome 89.0.4389.114,,,2021-04-07 16:24:50,2021-04-07 16:24:51,0.124s,PASSED
"click(findTestObject(""Login Page/Sign In""))",Chrome 89.0.4389.114,,,2021-04-07 16:24:51,2021-04-07 16:24:52,1.565s,PASSED
"waitForElementVisible(findTestObject(""Top Navigation Menu/Dashboard""), 60)",Chrome 89.0.4389.114,,,2021-04-07 16:24:52,2021-04-07 16:24:53,0.535s,PASSED
"enhancedClick(findTestObject(""Top Navigation Menu/Dashboard""))",Chrome 89.0.4389.114,,,2021-04-07 16:24:53,2021-04-07 16:24:53,0.110s,PASSED
delay(3),Chrome 89.0.4389.114,,,2021-04-07 16:24:53,2021-04-07 16:24:56,3.085s,PASSED
"mouseOver(findTestObject(""Dashboard Page/Draft Board (Dashboard)/blank 1-PG on Draft Board (Dashboard)""))",Chrome 89.0.4389.114,,,2021-04-07 16:24:56,2021-04-07 16:24:56,0.239s,PASSED
"enhancedClick(findTestObject(""Dashboard Page/Draft Board (Dashboard)/blank 1-PG on Draft Board (Dashboard)""))",Chrome 89.0.4389.114,,,2021-04-07 16:24:56,2021-04-07 16:24:56,0.080s,PASSED
"enhancedClick(findTestObject(""Dashboard Page/Draft Board (Dashboard)/Draft Board Dropdown Player1""))",Chrome 89.0.4389.114,,,2021-04-07 16:24:56,2021-04-07 16:24:56,0.169s,PASSED
"mouseOver(findTestObject(""Dashboard Page/Draft Board (Dashboard)/1-PG on Draft Board""))",Chrome 89.0.4389.114,,,2021-04-07 16:24:56,2021-04-07 16:24:57,0.282s,PASSED
"enhancedClick(findTestObject(""Dashboard Page/Draft Board (Dashboard)/1-PG on Draft Board""))",Chrome 89.0.4389.114,,,2021-04-07 16:24:57,2021-04-07 16:24:57,0.111s,PASSED
delay(1),Chrome 89.0.4389.114,,,2021-04-07 16:24:57,2021-04-07 16:24:58,1.008s,PASSED
"enhancedClick(findTestObject(""Recruit Profile (view)/Alerts button""))",Chrome 89.0.4389.114,,,2021-04-07 16:24:58,2021-04-07 16:24:58,0.107s,PASSED
"enhancedClick(findTestObject(""Recruit Profile (view)/CLOSE button""))",Chrome 89.0.4389.114,,,2021-04-07 16:24:58,2021-04-07 16:24:58,0.102s,PASSED
"verifyElementVisible(findTestObject(""Dashboard Page/Draft Board (Dashboard)/Alerts bell indicator""))",Chrome 89.0.4389.114,,,2021-04-07 16:24:58,2021-04-07 16:24:58,0.097s,PASSED
"mouseOver(findTestObject(""Dashboard Page/Draft Board (Dashboard)/1-PG on Draft Board""))",Chrome 89.0.4389.114,,,2021-04-07 16:24:58,2021-04-07 16:24:58,0.182s,PASSED
"enhancedClick(findTestObject(""Dashboard Page/Draft Board (Dashboard)/1-PG on Draft Board""))",Chrome 89.0.4389.114,,,2021-04-07 16:24:58,2021-04-07 16:24:58,0.117s,PASSED
"enhancedClick(findTestObject(""Recruit Profile (view)/Alerts button""))",Chrome 89.0.4389.114,,,2021-04-07 16:24:58,2021-04-07 16:24:58,0.147s,PASSED
"mouseOver(findTestObject(""Dashboard Page/Draft Board (Dashboard)/1-PG on Draft Board""))",Chrome 89.0.4389.114,,,2021-04-07 16:24:58,2021-04-07 16:24:59,0.314s,PASSED
"enhancedClick(findTestObject(""Recruit Profile (view)/CLOSE button""))",Chrome 89.0.4389.114,,,2021-04-07 16:24:59,2021-04-07 16:24:59,0.109s,PASSED
delay(1),Chrome 89.0.4389.114,,,2021-04-07 16:24:59,2021-04-07 16:25:00,1.022s,PASSED
"verifyElementNotPresent(findTestObject(""Dashboard Page/Draft Board (Dashboard)/Alerts bell indicator""), 0)",Chrome 89.0.4389.114,,,2021-04-07 16:25:00,2021-04-07 16:25:00,0.095s,PASSED
"mouseOver(findTestObject(""Dashboard Page/Draft Board (Dashboard)/1-PG on Draft Board""))",Chrome 89.0.4389.114,,,2021-04-07 16:25:00,2021-04-07 16:25:00,0.175s,PASSED
"enhancedClick(findTestObject(""Dashboard Page/Draft Board (Dashboard)/Delete 1-PG on Draft Board""))",Chrome 89.0.4389.114,,,2021-04-07 16:25:00,2021-04-07 16:25:00,0.096s,PASSED
"enhancedClick(findTestObject(""Dashboard Page/Draft Board (Dashboard)/Draft Board Season Dropdown""))",Chrome 89.0.4389.114,,,2021-04-07 16:25:00,2021-04-07 16:25:00,0.103s,PASSED
"enhancedClick(findTestObject(""Dashboard Page/Draft Board (Dashboard)/Draft Board Season Dropdown - 2023""))",Chrome 89.0.4389.114,,,2021-04-07 16:25:00,2021-04-07 16:25:01,0.115s,PASSED
"mouseOver(findTestObject(""Dashboard Page/Draft Board (Dashboard)/blank 1-PG on Draft Board (Dashboard)""))",Chrome 89.0.4389.114,,,2021-04-07 16:25:01,2021-04-07 16:25:01,0.176s,PASSED
"enhancedClick(findTestObject(""Dashboard Page/Draft Board (Dashboard)/blank 1-PG on Draft Board (Dashboard)""))",Chrome 89.0.4389.114,,,2021-04-07 16:25:01,2021-04-07 16:25:01,0.082s,PASSED
"enhancedClick(findTestObject(""Dashboard Page/Draft Board (Dashboard)/Draft Board Dropdown Player1""))",Chrome 89.0.4389.114,,,2021-04-07 16:25:01,2021-04-07 16:25:01,0.178s,PASSED
delay(1),Chrome 89.0.4389.114,,,2021-04-07 16:25:01,2021-04-07 16:25:02,1.005s,PASSED
"mouseOver(findTestObject(""Dashboard Page/Draft Board (Dashboard)/blank 2-PG on Draft Board (Dashboard)""))",Chrome 89.0.4389.114,,,2021-04-07 16:25:02,2021-04-07 16:25:02,0.176s,PASSED
"enhancedClick(findTestObject(""Dashboard Page/Draft Board (Dashboard)/blank 2-PG on Draft Board (Dashboard)""))",Chrome 89.0.4389.114,,,2021-04-07 16:25:02,2021-04-07 16:25:02,0.072s,PASSED
"enhancedClick(findTestObject(""Dashboard Page/Draft Board (Dashboard)/Recruit Search field""))",Chrome 89.0.4389.114,,,2021-04-07 16:25:02,2021-04-07 16:25:02,0.092s,PASSED
"sendKeys(findTestObject(""Dashboard Page/Draft Board (Dashboard)/Recruit Search field""), ""Mikey Williams"")",Chrome 89.0.4389.114,,,2021-04-07 16:25:02,2021-04-07 16:25:02,0.084s,PASSED
delay(2),Chrome 89.0.4389.114,,,2021-04-07 16:25:02,2021-04-07 16:25:04,2.003s,PASSED
"enhancedClick(findTestObject(""Dashboard Page/Draft Board (Dashboard)/Draft Board Dropdown Player2""))",Chrome 89.0.4389.114,,,2021-04-07 16:25:04,2021-04-07 16:25:04,0.091s,PASSED
"mouseOver(findTestObject(""Dashboard Page/Draft Board (Dashboard)/2-PG on Draft Board""))",Chrome 89.0.4389.114,,,2021-04-07 16:25:04,2021-04-07 16:25:05,0.215s,PASSED
"enhancedClick(findTestObject(""Dashboard Page/Draft Board (Dashboard)/Delete 2-PG on Draft Board""))",Chrome 89.0.4389.114,,,2021-04-07 16:25:05,2021-04-07 16:25:05,0.084s,PASSED
"mouseOver(findTestObject(""Dashboard Page/Draft Board (Dashboard)/1-PG on Draft Board""))",Chrome 89.0.4389.114,,,2021-04-07 16:25:05,2021-04-07 16:25:05,0.193s,PASSED
"enhancedClick(findTestObject(""Dashboard Page/Draft Board (Dashboard)/Delete 1-PG on Draft Board""))",Chrome 89.0.4389.114,,,2021-04-07 16:25:05,2021-04-07 16:25:05,0.113s,PASSED
"enhancedClick(findTestObject(""Dashboard Page/Draft Board (Dashboard)/Draft Board Link""))",Chrome 89.0.4389.114,,,2021-04-07 16:25:05,2021-04-07 16:25:05,0.141s,PASSED
"mouseOver(findTestObject(""Recruits Page/Draft Board (Recruits)/blank PG1 Draft Board-Recruits""))",Chrome 89.0.4389.114,,,2021-04-07 16:25:05,2021-04-07 16:25:05,0.182s,PASSED
"enhancedClick(findTestObject(""Recruits Page/Draft Board (Recruits)/blank PG1 Draft Board-Recruits""))",Chrome 89.0.4389.114,,,2021-04-07 16:25:05,2021-04-07 16:25:05,0.073s,PASSED
"enhancedClick(findTestObject(""Recruits Page/Draft Board (Recruits)/Draft Board dropdown P1 (Recruits)""))",Chrome 89.0.4389.114,,,2021-04-07 16:25:05,2021-04-07 16:25:37,31.526s,FAILED
,,,,,,,
Test Cases/Depth Chart,Chrome 89.0.4389.114,,,2021-04-07 16:25:37,2021-04-07 16:27:18,1m - 40.588s,FAILED
openBrowser(URL),Chrome 89.0.4389.114,,,2021-04-07 16:25:37,2021-04-07 16:25:39,1.815s,PASSED
"setText(findTestObject(""Login Page/Email""), email)",Chrome 89.0.4389.114,,,2021-04-07 16:25:39,2021-04-07 16:25:39,0.161s,PASSED
"setText(findTestObject(""Login Page/password""), password)",Chrome 89.0.4389.114,,,2021-04-07 16:25:39,2021-04-07 16:25:39,0.120s,PASSED
"click(findTestObject(""Login Page/Sign In""))",Chrome 89.0.4389.114,,,2021-04-07 16:25:39,2021-04-07 16:25:41,1.693s,PASSED
"waitForElementVisible(findTestObject(""Top Navigation Menu/Dashboard""), 60)",Chrome 89.0.4389.114,,,2021-04-07 16:25:41,2021-04-07 16:25:41,0.476s,PASSED
"enhancedClick(findTestObject(""Top Navigation Menu/Dashboard""))",Chrome 89.0.4389.114,,,2021-04-07 16:25:41,2021-04-07 16:25:42,0.094s,PASSED
delay(3),Chrome 89.0.4389.114,,,2021-04-07 16:25:42,2021-04-07 16:25:45,3.007s,PASSED
"enhancedClick(findTestObject(""Dashboard Page/Depth Chart/Depth Chart season dropdown""))",Chrome 89.0.4389.114,,,2021-04-07 16:25:45,2021-04-07 16:25:45,0.103s,PASSED
"enhancedClick(findTestObject(""Dashboard Page/Depth Chart/Season Dropdown Index3""))",Chrome 89.0.4389.114,,,2021-04-07 16:25:45,2021-04-07 16:26:15,30.529s,PASSED
"enhancedClick(findTestObject(""Dashboard Page/Depth Chart/Depth Chart season dropdown""))",Chrome 89.0.4389.114,,,2021-04-07 16:26:15,2021-04-07 16:26:15,0.071s,PASSED
"enhancedClick(findTestObject(""Dashboard Page/Depth Chart/Season Dropdown Index2""))",Chrome 89.0.4389.114,,,2021-04-07 16:26:15,2021-04-07 16:26:46,30.491s,PASSED
"enhancedClick(findTestObject(""Dashboard Page/Depth Chart/EDIT Depth Chart""))",Chrome 89.0.4389.114,,,2021-04-07 16:26:46,2021-04-07 16:26:46,0.135s,PASSED
"enhancedClick(findTestObject(""Dashboard Page/Depth Chart/Depth Chart Edit (sr, pg, 1)""))",Chrome 89.0.4389.114,,,2021-04-07 16:26:46,2021-04-07 16:27:18,31.763s,FAILED
,,,,,,,
Test Cases/Dashboard Calendar,Chrome 89.0.4389.114,,,2021-04-07 16:27:18,2021-04-07 16:28:12,53.988s,FAILED
openBrowser(URL),Chrome 89.0.4389.114,,,2021-04-07 16:27:18,2021-04-07 16:27:20,2.115s,PASSED
"setText(findTestObject(""Login Page/Email""), email)",Chrome 89.0.4389.114,,,2021-04-07 16:27:20,2021-04-07 16:27:20,0.145s,PASSED
"setText(findTestObject(""Login Page/password""), password)",Chrome 89.0.4389.114,,,2021-04-07 16:27:20,2021-04-07 16:27:20,0.100s,PASSED
"click(findTestObject(""Login Page/Sign In""))",Chrome 89.0.4389.114,,,2021-04-07 16:27:20,2021-04-07 16:27:22,1.679s,PASSED
"waitForElementVisible(findTestObject(""Top Navigation Menu/Dashboard""), 60)",Chrome 89.0.4389.114,,,2021-04-07 16:27:22,2021-04-07 16:27:22,0.504s,PASSED
"enhancedClick(findTestObject(""Top Navigation Menu/Recruits""))",Chrome 89.0.4389.114,,,2021-04-07 16:27:22,2021-04-07 16:27:22,0.128s,PASSED
delay(3),Chrome 89.0.4389.114,,,2021-04-07 16:27:22,2021-04-07 16:27:25,3.003s,PASSED
"enhancedClick(findTestObject(""Top Navigation Menu/Dashboard""))",Chrome 89.0.4389.114,,,2021-04-07 16:27:25,2021-04-07 16:27:26,0.174s,PASSED
delay(3),Chrome 89.0.4389.114,,,2021-04-07 16:27:26,2021-04-07 16:27:29,3.006s,PASSED
"enhancedClick(findTestObject(""Dashboard Page/Calendar (Dashboard)/Toggle Left (Calendar Dashboard)""))",Chrome 89.0.4389.114,,,2021-04-07 16:27:29,2021-04-07 16:27:29,0.120s,PASSED
delay(5),Chrome 89.0.4389.114,,,2021-04-07 16:27:29,2021-04-07 16:27:34,5.005s,PASSED
"enhancedClick(findTestObject(""Dashboard Page/Calendar (Dashboard)/Toggle Right (Calendar Dashboard)""))",Chrome 89.0.4389.114,,,2021-04-07 16:27:34,2021-04-07 16:27:35,1.018s,PASSED
delay(5),Chrome 89.0.4389.114,,,2021-04-07 16:27:35,2021-04-07 16:27:40,5.008s,PASSED
"enhancedClick(findTestObject(""Dashboard Page/Calendar (Dashboard)/Dashboard Calendar SHOW dropdown""))",Chrome 89.0.4389.114,,,2021-04-07 16:27:40,2021-04-07 16:27:40,0.106s,PASSED
"enhancedClick(findTestObject(""Dashboard Page/Calendar (Dashboard)/My Calendar option""))",Chrome 89.0.4389.114,,,2021-04-07 16:27:40,2021-04-07 16:28:12,31.715s,FAILED
,,,,,,,
Test Cases/Add_Archive_Delete New Recruit,Chrome 89.0.4389.114,,,2021-04-07 16:28:12,2021-04-07 16:29:00,47.970s,FAILED
openBrowser(URL),Chrome 89.0.4389.114,,,2021-04-07 16:28:12,2021-04-07 16:28:14,2.728s,PASSED
"setText(findTestObject(""Login Page/Email""), email)",Chrome 89.0.4389.114,,,2021-04-07 16:28:14,2021-04-07 16:28:15,0.180s,PASSED
"setText(findTestObject(""Login Page/password""), password)",Chrome 89.0.4389.114,,,2021-04-07 16:28:15,2021-04-07 16:28:15,0.108s,PASSED
"click(findTestObject(""Login Page/Sign In""))",Chrome 89.0.4389.114,,,2021-04-07 16:28:15,2021-04-07 16:28:17,1.792s,PASSED
"waitForElementVisible(findTestObject(""Top Navigation Menu/Dashboard""), 60)",Chrome 89.0.4389.114,,,2021-04-07 16:28:17,2021-04-07 16:28:17,0.793s,PASSED
"click(findTestObject(""Top Navigation Menu/Recruits""))",Chrome 89.0.4389.114,,,2021-04-07 16:28:17,2021-04-07 16:28:17,0.121s,PASSED
"click(findTestObject(""Recruits Page/ADD RECRUIT button""))",Chrome 89.0.4389.114,,,2021-04-07 16:28:17,2021-04-07 16:28:18,0.113s,PASSED
"setText(findTestObject(""Recruits Page/Add New Recruit modal/First Name field""), ""Josh"")",Chrome 89.0.4389.114,,,2021-04-07 16:28:18,2021-04-07 16:28:19,1.450s,PASSED
"setText(findTestObject(""Recruits Page/Add New Recruit modal/Last Name field""), ""Allen"")",Chrome 89.0.4389.114,,,2021-04-07 16:28:19,2021-04-07 16:28:19,0.249s,PASSED
"setText(findTestObject(""Recruits Page/Add New Recruit modal/Class field""), ""2023"")",Chrome 89.0.4389.114,,,2021-04-07 16:28:19,2021-04-07 16:28:19,0.139s,PASSED
"click(findTestObject(""Recruits Page/Add New Recruit modal/Height field input""))",Chrome 89.0.4389.114,,,2021-04-07 16:28:19,2021-04-07 16:28:20,0.083s,PASSED
"setText(findTestObject(""Recruits Page/Add New Recruit modal/Height field input""), ""69"")",Chrome 89.0.4389.114,,,2021-04-07 16:28:20,2021-04-07 16:28:20,0.092s,PASSED
"setText(findTestObject(""Recruits Page/Add New Recruit modal/Birthdate field input""), ""1/1/2005"")",Chrome 89.0.4389.114,,,2021-04-07 16:28:20,2021-04-07 16:28:20,0.258s,PASSED
"enhancedClick(findTestObject(""Recruits Page/Add New Recruit modal/Birthdate field Label""))",Chrome 89.0.4389.114,,,2021-04-07 16:28:20,2021-04-07 16:28:20,0.152s,PASSED
"setText(findTestObject(""Recruits Page/Add New Recruit modal/High School field input""), ""highland park"")",Chrome 89.0.4389.114,,,2021-04-07 16:28:20,2021-04-07 16:28:20,0.165s,PASSED
"sendKeys(findTestObject(""Recruits Page/Add New Recruit modal/High School field input""), Keys.chord(DOWN))",Chrome 89.0.4389.114,,,2021-04-07 16:28:20,2021-04-07 16:28:20,0.106s,PASSED
"sendKeys(findTestObject(""Recruits Page/Add New Recruit modal/High School field input""), Keys.chord(ENTER))",Chrome 89.0.4389.114,,,2021-04-07 16:28:20,2021-04-07 16:28:20,0.068s,PASSED
"setText(findTestObject(""Recruits Page/Add New Recruit modal/High School Coach Name field""), ""Coach Miller"")",Chrome 89.0.4389.114,,,2021-04-07 16:28:20,2021-04-07 16:28:21,0.175s,PASSED
"setText(findTestObject(""Recruits Page/Add New Recruit modal/High School Coach Phone field""), ""8474713163"")",Chrome 89.0.4389.114,,,2021-04-07 16:28:21,2021-04-07 16:28:21,0.155s,PASSED
"setText(findTestObject(""Recruits Page/Add New Recruit modal/Club Team field""), ""Mac Irvin Fire"")",Chrome 89.0.4389.114,,,2021-04-07 16:28:21,2021-04-07 16:28:21,0.167s,PASSED
"setText(findTestObject(""Recruits Page/Add New Recruit modal/Club Team Number field""), ""10"")",Chrome 89.0.4389.114,,,2021-04-07 16:28:21,2021-04-07 16:28:21,0.118s,PASSED
"click(findTestObject(""Recruits Page/Add New Recruit modal/SAVE button""))",Chrome 89.0.4389.114,,,2021-04-07 16:28:21,2021-04-07 16:28:21,0.148s,PASSED
"setText(findTestObject(""Recruits Page/Recruit Search Field on Recruits page""), ""josh allen"")",Chrome 89.0.4389.114,,,2021-04-07 16:28:21,2021-04-07 16:28:21,0.204s,PASSED
delay(1),Chrome 89.0.4389.114,,,2021-04-07 16:28:21,2021-04-07 16:28:22,1.006s,PASSED
"enhancedClick(findTestObject(""Recruits Page/Archive recruit""))",Chrome 89.0.4389.114,,,2021-04-07 16:28:22,2021-04-07 16:28:22,0.082s,PASSED
delay(1),Chrome 89.0.4389.114,,,2021-04-07 16:28:22,2021-04-07 16:28:23,1.002s,PASSED
"click(findTestObject(""Recruits Page/All Recruits List selection""))",Chrome 89.0.4389.114,,,2021-04-07 16:28:23,2021-04-07 16:28:23,0.081s,PASSED
delay(1),Chrome 89.0.4389.114,,,2021-04-07 16:28:23,2021-04-07 16:28:24,1.006s,PASSED
"click(findTestObject(""Recruits Page/Archived List selection""))",Chrome 89.0.4389.114,,,2021-04-07 16:28:24,2021-04-07 16:28:25,0.113s,PASSED
delay(1),Chrome 89.0.4389.114,,,2021-04-07 16:28:25,2021-04-07 16:28:26,1.002s,PASSED
"enhancedClick(findTestObject(""Recruits Page/Archived list ellipsis button""))",Chrome 89.0.4389.114,,,2021-04-07 16:28:26,2021-04-07 16:28:26,0.089s,PASSED
delay(1),Chrome 89.0.4389.114,,,2021-04-07 16:28:26,2021-04-07 16:28:27,1.005s,PASSED
"enhancedClick(findTestObject(""Recruits Page/Delete1""))",Chrome 89.0.4389.114,,,2021-04-07 16:28:27,2021-04-07 16:28:27,0.102s,PASSED
delay(1),Chrome 89.0.4389.114,,,2021-04-07 16:28:27,2021-04-07 16:28:28,1.004s,PASSED
"enhancedClick(findTestObject(""Recruits Page/Delete2""))",Chrome 89.0.4389.114,,,2021-04-07 16:28:28,2021-04-07 16:29:00,31.755s,FAILED
,,,,,,,
Test Cases/Tasks,Chrome 89.0.4389.114,,,2021-04-07 16:29:00,2021-04-07 16:29:38,38.401s,FAILED
openBrowser(URL),Chrome 89.0.4389.114,,,2021-04-07 16:29:00,2021-04-07 16:29:02,2.190s,PASSED
"setText(findTestObject(""Login Page/Email""), email)",Chrome 89.0.4389.114,,,2021-04-07 16:29:02,2021-04-07 16:29:02,0.152s,PASSED
"setText(findTestObject(""Login Page/password""), password)",Chrome 89.0.4389.114,,,2021-04-07 16:29:02,2021-04-07 16:29:02,0.104s,PASSED
"click(findTestObject(""Login Page/Sign In""))",Chrome 89.0.4389.114,,,2021-04-07 16:29:02,2021-04-07 16:29:04,1.634s,PASSED
"waitForElementVisible(findTestObject(""Top Navigation Menu/Dashboard""), 60)",Chrome 89.0.4389.114,,,2021-04-07 16:29:04,2021-04-07 16:29:04,0.495s,PASSED
"enhancedClick(findTestObject(""Top Navigation Menu/Recruits""))",Chrome 89.0.4389.114,,,2021-04-07 16:29:04,2021-04-07 16:29:04,0.120s,PASSED
"enhancedClick(findTestObject(""Recruits Page/Tasks tab""))",Chrome 89.0.4389.114,,,2021-04-07 16:29:04,2021-04-07 16:29:05,0.105s,PASSED
"enhancedClick(findTestObject(""Recruits Page/Tasks/Add Task button""))",Chrome 89.0.4389.114,,,2021-04-07 16:29:05,2021-04-07 16:29:05,0.134s,PASSED
"enhancedClick(findTestObject(""Recruits Page/Tasks/Add Task Recruit field""))",Chrome 89.0.4389.114,,,2021-04-07 16:29:05,2021-04-07 16:29:05,0.593s,PASSED
"enhancedClick(findTestObject(""Recruits Page/Tasks/Add Task recruit dropdown1""))",Chrome 89.0.4389.114,,,2021-04-07 16:29:05,2021-04-07 16:29:05,0.095s,PASSED
"enhancedClick(findTestObject(""Recruits Page/Tasks/Add Task Assigned To field""))",Chrome 89.0.4389.114,,,2021-04-07 16:29:05,2021-04-07 16:29:05,0.107s,PASSED
"enhancedClick(findTestObject(""Recruits Page/Tasks/Add Task Assigned To dropdown1""))",Chrome 89.0.4389.114,,,2021-04-07 16:29:05,2021-04-07 16:29:06,0.092s,PASSED
"enhancedClick(findTestObject(""Recruits Page/Tasks/Add Task Instruction field""))",Chrome 89.0.4389.114,,,2021-04-07 16:29:06,2021-04-07 16:29:06,0.074s,PASSED
"setText(findTestObject(""Recruits Page/Tasks/Add Task Instruction field""), ""test task"")",Chrome 89.0.4389.114,,,2021-04-07 16:29:06,2021-04-07 16:29:06,0.134s,PASSED
"enhancedClick(findTestObject(""Recruits Page/Tasks/Save new task""))",Chrome 89.0.4389.114,,,2021-04-07 16:29:06,2021-04-07 16:29:06,0.102s,PASSED
"verifyElementVisible(findTestObject(""Recruits Page/Tasks/Due task1 row""))",Chrome 89.0.4389.114,,,2021-04-07 16:29:06,2021-04-07 16:29:06,0.174s,PASSED
"mouseOver(findTestObject(""Recruits Page/Tasks/Due task1 ellipsis""))",Chrome 89.0.4389.114,,,2021-04-07 16:29:06,2021-04-07 16:29:06,0.187s,PASSED
"enhancedClick(findTestObject(""Recruits Page/Tasks/Due task1 ellipsis""))",Chrome 89.0.4389.114,,,2021-04-07 16:29:06,2021-04-07 16:29:06,0.064s,PASSED
"enhancedClick(findTestObject(""Recruits Page/Tasks/Mark Tasks Completed button""))",Chrome 89.0.4389.114,,,2021-04-07 16:29:06,2021-04-07 16:29:38,31.692s,FAILED
,,,,,,,
Test Cases/Features/Link To FastScout,Chrome 89.0.4389.114,,,2021-04-07 16:29:38,2021-04-07 16:30:16,38.002s,FAILED
openBrowser(URL),Chrome 89.0.4389.114,,,2021-04-07 16:29:38,2021-04-07 16:29:40,2.314s,PASSED
"setText(findTestObject(""Login Page/Email""), email)",Chrome 89.0.4389.114,,,2021-04-07 16:29:40,2021-04-07 16:29:41,0.189s,PASSED
"setText(findTestObject(""Login Page/password""), password)",Chrome 89.0.4389.114,,,2021-04-07 16:29:41,2021-04-07 16:29:41,0.104s,PASSED
"click(findTestObject(""Login Page/Sign In""))",Chrome 89.0.4389.114,,,2021-04-07 16:29:41,2021-04-07 16:29:42,1.554s,PASSED
"waitForElementVisible(findTestObject(""Top Navigation Menu/Dashboard""), 60)",Chrome 89.0.4389.114,,,2021-04-07 16:29:42,2021-04-07 16:29:43,0.457s,PASSED
"click(findTestObject(""Top Navigation Menu/Recruits""))",Chrome 89.0.4389.114,,,2021-04-07 16:29:43,2021-04-07 16:29:43,0.116s,PASSED
"click(findTestObject(""Recruits Page/ADD RECRUIT button""))",Chrome 89.0.4389.114,,,2021-04-07 16:29:43,2021-04-07 16:29:43,0.117s,PASSED
"enhancedClick(findTestObject(""Recruits Page/Add New Recruit modal/LinkToFastScout Folder/Link To FastScout button""))",Chrome 89.0.4389.114,,,2021-04-07 16:29:43,2021-04-07 16:29:44,0.960s,PASSED
"enhancedClick(findTestObject(""Recruits Page/Add New Recruit modal/LinkToFastScout Folder/League_Division dropdown""))",Chrome 89.0.4389.114,,,2021-04-07 16:29:44,2021-04-07 16:29:44,0.119s,PASSED
"enhancedClick(findTestObject(""Recruits Page/Add New Recruit modal/LinkToFastScout Folder/D-II League""))",Chrome 89.0.4389.114,,,2021-04-07 16:29:44,2021-04-07 16:29:44,0.088s,PASSED
"enhancedClick(findTestObject(""Recruits Page/Add New Recruit modal/LinkToFastScout Folder/Team dropdown (LFS)""))",Chrome 89.0.4389.114,,,2021-04-07 16:29:44,2021-04-07 16:30:16,31.838s,FAILED
,,,,,,,
Test Cases/Features/Video,Chrome 89.0.4389.114,,,2021-04-07 16:30:16,2021-04-07 16:30:52,36.354s,FAILED
openBrowser(URL),Chrome 89.0.4389.114,,,2021-04-07 16:30:16,2021-04-07 16:30:18,1.864s,PASSED
"setText(findTestObject(""Login Page/Email""), email)",Chrome 89.0.4389.114,,,2021-04-07 16:30:18,2021-04-07 16:30:18,0.151s,PASSED
"setText(findTestObject(""Login Page/password""), password)",Chrome 89.0.4389.114,,,2021-04-07 16:30:18,2021-04-07 16:30:18,0.106s,PASSED
"click(findTestObject(""Login Page/Sign In""))",Chrome 89.0.4389.114,,,2021-04-07 16:30:18,2021-04-07 16:30:20,1.693s,PASSED
"waitForElementVisible(findTestObject(""Top Navigation Menu/Dashboard""), 60)",Chrome 89.0.4389.114,,,2021-04-07 16:30:20,2021-04-07 16:30:20,0.505s,PASSED
"enhancedClick(findTestObject(""Top Navigation Menu/Recruits""))",Chrome 89.0.4389.114,,,2021-04-07 16:30:20,2021-04-07 16:30:21,0.120s,PASSED
"enhancedClick(findTestObject(""Recruits Page/Recruit Row1 Name""))",Chrome 89.0.4389.114,,,2021-04-07 16:30:21,2021-04-07 16:30:52,31.792s,FAILED
,,,,,,,
Test Cases/Features/FastConnect,Chrome 89.0.4389.114,,,2021-04-07 16:30:52,2021-04-07 16:31:40,48.032s,FAILED
openBrowser(URL),Chrome 89.0.4389.114,,,2021-04-07 16:30:52,2021-04-07 16:30:55,2.040s,PASSED
"setText(findTestObject(""Login Page/Email""), email)",Chrome 89.0.4389.114,,,2021-04-07 16:30:55,2021-04-07 16:30:55,0.150s,PASSED
"setText(findTestObject(""Login Page/password""), password)",Chrome 89.0.4389.114,,,2021-04-07 16:30:55,2021-04-07 16:30:55,0.103s,PASSED
"click(findTestObject(""Login Page/Sign In""))",Chrome 89.0.4389.114,,,2021-04-07 16:30:55,2021-04-07 16:30:56,1.655s,PASSED
"waitForElementVisible(findTestObject(""Top Navigation Menu/Dashboard""), 60)",Chrome 89.0.4389.114,,,2021-04-07 16:30:56,2021-04-07 16:30:57,0.474s,PASSED
"enhancedClick(findTestObject(""Top Navigation Menu/Recruits""))",Chrome 89.0.4389.114,,,2021-04-07 16:30:57,2021-04-07 16:30:57,0.122s,PASSED
"enhancedClick(findTestObject(""Recruits Page/FastConnect tab""))",Chrome 89.0.4389.114,,,2021-04-07 16:30:57,2021-04-07 16:30:57,0.110s,PASSED
"enhancedClick(findTestObject(""Recruits Page/FastConnect/List dropdown""))",Chrome 89.0.4389.114,,,2021-04-07 16:30:57,2021-04-07 16:30:57,0.092s,PASSED
"enhancedClick(findTestObject(""Recruits Page/FastConnect/All Recruits list dropdown""))",Chrome 89.0.4389.114,,,2021-04-07 16:30:57,2021-04-07 16:30:58,0.769s,PASSED
delay(10),Chrome 89.0.4389.114,,,2021-04-07 16:30:58,2021-04-07 16:31:08,10.004s,PASSED
"verifyElementVisible(findTestObject(""Recruits Page/FastConnect/Fastconnect post1""), STOP_ON_FAILURE)",Chrome 89.0.4389.114,,,2021-04-07 16:31:08,2021-04-07 16:31:40,32.378s,FAILED
,,,,,,,
Test Cases/Tourney Workflow,Chrome 89.0.4389.114,,,2021-04-07 16:31:40,2021-04-07 16:32:19,38.305s,FAILED
openBrowser(URL),Chrome 89.0.4389.114,,,2021-04-07 16:31:41,2021-04-07 16:31:43,2.818s,PASSED
"setText(findTestObject(""Login Page/Email""), email)",Chrome 89.0.4389.114,,,2021-04-07 16:31:43,2021-04-07 16:31:43,0.149s,PASSED
"setText(findTestObject(""Login Page/password""), password)",Chrome 89.0.4389.114,,,2021-04-07 16:31:43,2021-04-07 16:31:44,0.100s,PASSED
"click(findTestObject(""Login Page/Sign In""))",Chrome 89.0.4389.114,,,2021-04-07 16:31:44,2021-04-07 16:31:45,1.764s,PASSED
"waitForElementVisible(findTestObject(""Top Navigation Menu/Dashboard""), 60)",Chrome 89.0.4389.114,,,2021-04-07 16:31:45,2021-04-07 16:31:46,0.535s,PASSED
"enhancedClick(findTestObject(""Top Navigation Menu/Tourneys""))",Chrome 89.0.4389.114,,,2021-04-07 16:31:46,2021-04-07 16:31:46,0.091s,PASSED
"enhancedClick(findTestObject(""Tourneys page/Tourney list dropdown""))",Chrome 89.0.4389.114,,,2021-04-07 16:31:46,2021-04-07 16:31:47,0.521s,PASSED
enhancedClick(tourneySession),Chrome 89.0.4389.114,,,2021-04-07 16:31:47,2021-04-07 16:31:47,0.119s,PASSED
"enhancedClick(findTestObject(""Tourneys page/Tourneys header""))",Chrome 89.0.4389.114,,,2021-04-07 16:31:47,2021-04-07 16:31:47,0.231s,PASSED
"enhancedClick(findTestObject(""Tourneys page/Tourney1 listed""))",Chrome 89.0.4389.114,,,2021-04-07 16:31:47,2021-04-07 16:31:47,0.115s,PASSED
"enhancedClick(findTestObject(""Tourneys page/Assign Staff button""))",Chrome 89.0.4389.114,,,2021-04-07 16:31:47,2021-04-07 16:32:19,31.707s,FAILED
,,,,,,,
Test Cases/Features/Prospects View,Chrome 89.0.4389.114,,,2021-04-07 16:32:19,2021-04-07 16:32:57,37.829s,FAILED
openBrowser(URL),Chrome 89.0.4389.114,,,2021-04-07 16:32:19,2021-04-07 16:32:21,1.873s,PASSED
"setText(findTestObject(""Login Page/Email""), email2)",Chrome 89.0.4389.114,,,2021-04-07 16:32:21,2021-04-07 16:32:21,0.150s,PASSED
"setText(findTestObject(""Login Page/password""), password)",Chrome 89.0.4389.114,,,2021-04-07 16:32:21,2021-04-07 16:32:21,0.095s,PASSED
"click(findTestObject(""Login Page/Sign In""))",Chrome 89.0.4389.114,,,2021-04-07 16:32:21,2021-04-07 16:32:23,1.999s,PASSED
"waitForElementVisible(findTestObject(""Top Navigation Menu/Dashboard""), 60)",Chrome 89.0.4389.114,,,2021-04-07 16:32:23,2021-04-07 16:32:23,0.495s,PASSED
"enhancedClick(findTestObject(""Prospects View/Add Prospect button""))",Chrome 89.0.4389.114,,,2021-04-07 16:32:23,2021-04-07 16:32:24,0.091s,PASSED
"enhancedClick(findTestObject(""Prospects View/Link Player Stats button""))",Chrome 89.0.4389.114,,,2021-04-07 16:32:24,2021-04-07 16:32:25,1.033s,PASSED
"enhancedClick(findTestObject(""Recruits Page/Add New Recruit modal/LinkToFastScout Folder/League_Division dropdown""))",Chrome 89.0.4389.114,,,2021-04-07 16:32:25,2021-04-07 16:32:25,0.104s,PASSED
"enhancedClick(findTestObject(""Recruits Page/Add New Recruit modal/LinkToFastScout Folder/D-II League""))",Chrome 89.0.4389.114,,,2021-04-07 16:32:25,2021-04-07 16:32:25,0.078s,PASSED
"enhancedClick(findTestObject(""Prospects View/Link Player Stats Team dropdown (Prospects)""))",Chrome 89.0.4389.114,,,2021-04-07 16:32:25,2021-04-07 16:32:57,31.781s,FAILED
