Suite/Test/Step Name,Browser,Description,Tag,Start time,End time,Duration,Status
Regression Tests,Chrome 90.0.4430.212,,,2021-05-17 11:05:59,2021-05-17 11:12:02,6m - 2.694s,FAILED
,,,,,,,
Test Cases/Draft Board,Chrome 90.0.4430.212,,,2021-05-17 11:05:59,2021-05-17 11:08:11,2m - 11.310s,FAILED
openBrowser(URL),Chrome 90.0.4430.212,,,2021-05-17 11:06:00,2021-05-17 11:06:04,4.494s,PASSED
"setViewPortSize(1440, 841)",Chrome 90.0.4430.212,,,2021-05-17 11:06:04,2021-05-17 11:06:04,0.121s,PASSED
"setText(findTestObject(""Login Page/Email""), email)",Chrome 90.0.4430.212,,,2021-05-17 11:06:04,2021-05-17 11:06:05,0.187s,PASSED
"setText(findTestObject(""Login Page/password""), password)",Chrome 90.0.4430.212,,,2021-05-17 11:06:05,2021-05-17 11:06:05,0.103s,PASSED
"click(findTestObject(""Login Page/Sign In""))",Chrome 90.0.4430.212,,,2021-05-17 11:06:05,2021-05-17 11:06:07,2.661s,PASSED
"waitForElementVisible(findTestObject(""Top Navigation Menu/Dashboard""), 60)",Chrome 90.0.4430.212,,,2021-05-17 11:06:07,2021-05-17 11:06:08,0.917s,PASSED
"enhancedClick(findTestObject(""Top Navigation Menu/Dashboard""))",Chrome 90.0.4430.212,,,2021-05-17 11:06:08,2021-05-17 11:06:08,0.086s,PASSED
delay(3),Chrome 90.0.4430.212,,,2021-05-17 11:06:08,2021-05-17 11:06:11,3.077s,PASSED
"mouseOver(findTestObject(""Dashboard Page/Draft Board (Dashboard)/blank 1-PG on Draft Board (Dashboard)""))",Chrome 90.0.4430.212,,,2021-05-17 11:06:11,2021-05-17 11:06:12,0.235s,PASSED
"enhancedClick(findTestObject(""Dashboard Page/Draft Board (Dashboard)/blank 1-PG on Draft Board (Dashboard)""))",Chrome 90.0.4430.212,,,2021-05-17 11:06:12,2021-05-17 11:06:12,0.096s,PASSED
"enhancedClick(findTestObject(""Dashboard Page/Draft Board (Dashboard)/Draft Board Dropdown Player1""))",Chrome 90.0.4430.212,,,2021-05-17 11:06:12,2021-05-17 11:06:12,0.250s,PASSED
"mouseOver(findTestObject(""Dashboard Page/Draft Board (Dashboard)/1-PG on Draft Board""))",Chrome 90.0.4430.212,,,2021-05-17 11:06:12,2021-05-17 11:06:12,0.500s,PASSED
"enhancedClick(findTestObject(""Dashboard Page/Draft Board (Dashboard)/1-PG on Draft Board""))",Chrome 90.0.4430.212,,,2021-05-17 11:06:12,2021-05-17 11:06:13,0.107s,PASSED
delay(1),Chrome 90.0.4430.212,,,2021-05-17 11:06:13,2021-05-17 11:06:14,1.009s,PASSED
"enhancedClick(findTestObject(""Recruit Profile (view)/Alerts button""))",Chrome 90.0.4430.212,,,2021-05-17 11:06:14,2021-05-17 11:06:14,0.084s,PASSED
"enhancedClick(findTestObject(""Recruit Profile (view)/CLOSE button""))",Chrome 90.0.4430.212,,,2021-05-17 11:06:14,2021-05-17 11:06:14,0.088s,PASSED
"verifyElementVisible(findTestObject(""Dashboard Page/Draft Board (Dashboard)/Alerts bell indicator""))",Chrome 90.0.4430.212,,,2021-05-17 11:06:14,2021-05-17 11:06:14,0.222s,PASSED
"mouseOver(findTestObject(""Dashboard Page/Draft Board (Dashboard)/1-PG on Draft Board""))",Chrome 90.0.4430.212,,,2021-05-17 11:06:14,2021-05-17 11:06:14,0.206s,PASSED
"enhancedClick(findTestObject(""Dashboard Page/Draft Board (Dashboard)/1-PG on Draft Board""))",Chrome 90.0.4430.212,,,2021-05-17 11:06:14,2021-05-17 11:06:14,0.108s,PASSED
"enhancedClick(findTestObject(""Recruit Profile (view)/Alerts button""))",Chrome 90.0.4430.212,,,2021-05-17 11:06:14,2021-05-17 11:06:14,0.087s,PASSED
"mouseOver(findTestObject(""Dashboard Page/Draft Board (Dashboard)/1-PG on Draft Board""))",Chrome 90.0.4430.212,,,2021-05-17 11:06:14,2021-05-17 11:06:15,0.202s,PASSED
"enhancedClick(findTestObject(""Recruit Profile (view)/CLOSE button""))",Chrome 90.0.4430.212,,,2021-05-17 11:06:15,2021-05-17 11:06:15,0.119s,PASSED
delay(1),Chrome 90.0.4430.212,,,2021-05-17 11:06:15,2021-05-17 11:06:16,1.007s,PASSED
"verifyElementNotPresent(findTestObject(""Dashboard Page/Draft Board (Dashboard)/Alerts bell indicator""), 0)",Chrome 90.0.4430.212,,,2021-05-17 11:06:16,2021-05-17 11:06:16,0.087s,PASSED
"mouseOver(findTestObject(""Dashboard Page/Draft Board (Dashboard)/1-PG on Draft Board""))",Chrome 90.0.4430.212,,,2021-05-17 11:06:16,2021-05-17 11:06:16,0.181s,PASSED
"enhancedClick(findTestObject(""Dashboard Page/Draft Board (Dashboard)/Delete 1-PG on Draft Board""))",Chrome 90.0.4430.212,,,2021-05-17 11:06:16,2021-05-17 11:06:16,0.099s,PASSED
"enhancedClick(findTestObject(""Dashboard Page/Draft Board (Dashboard)/Draft Board Season Dropdown""))",Chrome 90.0.4430.212,,,2021-05-17 11:06:16,2021-05-17 11:06:16,0.082s,PASSED
"enhancedClick(findTestObject(""Dashboard Page/Draft Board (Dashboard)/Draft Board Season Dropdown - 2023""))",Chrome 90.0.4430.212,,,2021-05-17 11:06:16,2021-05-17 11:06:17,1.243s,PASSED
"mouseOver(findTestObject(""Dashboard Page/Draft Board (Dashboard)/blank 1-PG on Draft Board (Dashboard)""))",Chrome 90.0.4430.212,,,2021-05-17 11:06:17,2021-05-17 11:06:18,0.165s,PASSED
"enhancedClick(findTestObject(""Dashboard Page/Draft Board (Dashboard)/blank 1-PG on Draft Board (Dashboard)""))",Chrome 90.0.4430.212,,,2021-05-17 11:06:18,2021-05-17 11:06:18,0.063s,PASSED
"enhancedClick(findTestObject(""Dashboard Page/Draft Board (Dashboard)/Draft Board Dropdown Player1""))",Chrome 90.0.4430.212,,,2021-05-17 11:06:18,2021-05-17 11:06:18,0.180s,PASSED
delay(1),Chrome 90.0.4430.212,,,2021-05-17 11:06:18,2021-05-17 11:06:19,1.011s,PASSED
"mouseOver(findTestObject(""Dashboard Page/Draft Board (Dashboard)/blank 2-PG on Draft Board (Dashboard)""))",Chrome 90.0.4430.212,,,2021-05-17 11:06:19,2021-05-17 11:06:19,0.183s,PASSED
"enhancedClick(findTestObject(""Dashboard Page/Draft Board (Dashboard)/blank 2-PG on Draft Board (Dashboard)""))",Chrome 90.0.4430.212,,,2021-05-17 11:06:19,2021-05-17 11:06:19,0.071s,PASSED
"enhancedClick(findTestObject(""Dashboard Page/Draft Board (Dashboard)/Recruit Search field""))",Chrome 90.0.4430.212,,,2021-05-17 11:06:19,2021-05-17 11:06:19,0.083s,PASSED
"sendKeys(findTestObject(""Dashboard Page/Draft Board (Dashboard)/Recruit Search field""), ""Mikey Williams"")",Chrome 90.0.4430.212,,,2021-05-17 11:06:19,2021-05-17 11:06:19,0.082s,PASSED
delay(2),Chrome 90.0.4430.212,,,2021-05-17 11:06:19,2021-05-17 11:06:21,2.012s,PASSED
"enhancedClick(findTestObject(""Dashboard Page/Draft Board (Dashboard)/Draft Board Dropdown Player2""))",Chrome 90.0.4430.212,,,2021-05-17 11:06:21,2021-05-17 11:06:21,0.085s,PASSED
"mouseOver(findTestObject(""Dashboard Page/Draft Board (Dashboard)/2-PG on Draft Board""))",Chrome 90.0.4430.212,,,2021-05-17 11:06:21,2021-05-17 11:06:22,0.266s,PASSED
"enhancedClick(findTestObject(""Dashboard Page/Draft Board (Dashboard)/Delete 2-PG on Draft Board""))",Chrome 90.0.4430.212,,,2021-05-17 11:06:22,2021-05-17 11:06:22,0.087s,PASSED
"mouseOver(findTestObject(""Dashboard Page/Draft Board (Dashboard)/1-PG on Draft Board""))",Chrome 90.0.4430.212,,,2021-05-17 11:06:22,2021-05-17 11:06:22,0.173s,PASSED
"enhancedClick(findTestObject(""Dashboard Page/Draft Board (Dashboard)/Delete 1-PG on Draft Board""))",Chrome 90.0.4430.212,,,2021-05-17 11:06:22,2021-05-17 11:06:22,0.084s,PASSED
"enhancedClick(findTestObject(""Dashboard Page/Draft Board (Dashboard)/Draft Board Link""))",Chrome 90.0.4430.212,,,2021-05-17 11:06:22,2021-05-17 11:06:22,0.108s,PASSED
"mouseOver(findTestObject(""Recruits Page/Draft Board (Recruits)/blank PG1 Draft Board-Recruits""))",Chrome 90.0.4430.212,,,2021-05-17 11:06:22,2021-05-17 11:06:22,0.190s,PASSED
"enhancedClick(findTestObject(""Recruits Page/Draft Board (Recruits)/blank PG1 Draft Board-Recruits""))",Chrome 90.0.4430.212,,,2021-05-17 11:06:22,2021-05-17 11:06:22,0.075s,PASSED
"enhancedClick(findTestObject(""Recruits Page/Draft Board (Recruits)/Draft Board dropdown P1 (Recruits)""))",Chrome 90.0.4430.212,,,2021-05-17 11:06:22,2021-05-17 11:06:22,0.168s,PASSED
"mouseOver(findTestObject(""Dashboard Page/Draft Board (Dashboard)/1-PG on Draft Board""))",Chrome 90.0.4430.212,,,2021-05-17 11:06:22,2021-05-17 11:06:23,0.354s,PASSED
"enhancedClick(findTestObject(""Recruits Page/Draft Board (Recruits)/Draft Board Color Dropper icon""))",Chrome 90.0.4430.212,,,2021-05-17 11:06:23,2021-05-17 11:06:23,0.077s,PASSED
"enhancedClick(findTestObject(""Recruits Page/Draft Board (Recruits)/Yellow Color Draft Board""))",Chrome 90.0.4430.212,,,2021-05-17 11:06:23,2021-05-17 11:06:23,0.085s,PASSED
delay(1),Chrome 90.0.4430.212,,,2021-05-17 11:06:23,2021-05-17 11:06:24,1.007s,PASSED
"verifyElementAttributeValue(findTestObject(""Dashboard Page/Draft Board (Dashboard)/1-PG on Draft Board""), ""class"", ""draft-board-player dashboard-player css-1n2x8eh-DraftBoard"", 0)",Chrome 90.0.4430.212,,,2021-05-17 11:06:24,2021-05-17 11:06:24,0.066s,PASSED
"mouseOver(findTestObject(""Dashboard Page/Draft Board (Dashboard)/1-PG on Draft Board""))",Chrome 90.0.4430.212,,,2021-05-17 11:06:24,2021-05-17 11:06:24,0.166s,PASSED
"enhancedClick(findTestObject(""Recruits Page/Draft Board (Recruits)/Draft Board Color Dropper icon""))",Chrome 90.0.4430.212,,,2021-05-17 11:06:24,2021-05-17 11:06:24,0.056s,PASSED
"enhancedClick(findTestObject(""Recruits Page/Draft Board (Recruits)/Green Color Draft Board""))",Chrome 90.0.4430.212,,,2021-05-17 11:06:24,2021-05-17 11:06:55,31.209s,PASSED
delay(1),Chrome 90.0.4430.212,,,2021-05-17 11:06:55,2021-05-17 11:06:57,1.012s,PASSED
"verifyElementAttributeValue(findTestObject(""Dashboard Page/Draft Board (Dashboard)/1-PG on Draft Board""), ""class"", ""draft-board-player dashboard-player css-15mrb88-DraftBoard"", 0)",Chrome 90.0.4430.212,,,2021-05-17 11:06:57,2021-05-17 11:06:57,0.077s,PASSED
"mouseOver(findTestObject(""Dashboard Page/Draft Board (Dashboard)/1-PG on Draft Board""))",Chrome 90.0.4430.212,,,2021-05-17 11:06:57,2021-05-17 11:06:57,0.169s,PASSED
"enhancedClick(findTestObject(""Recruits Page/Draft Board (Recruits)/Draft Board Color Dropper icon""))",Chrome 90.0.4430.212,,,2021-05-17 11:06:57,2021-05-17 11:06:57,0.075s,PASSED
"enhancedClick(findTestObject(""Recruits Page/Draft Board (Recruits)/Draft Board Color pencil icon""))",Chrome 90.0.4430.212,,,2021-05-17 11:06:57,2021-05-17 11:06:57,0.648s,PASSED
"enhancedClick(findTestObject(""Recruits Page/Draft Board (Recruits)/Add Draft Board Color plus button""))",Chrome 90.0.4430.212,,,2021-05-17 11:06:57,2021-05-17 11:06:58,0.092s,PASSED
"doubleClick(findTestObject(""Recruits Page/Draft Board (Recruits)/Draft Board Color Hex field""))",Chrome 90.0.4430.212,,,2021-05-17 11:06:58,2021-05-17 11:06:58,0.197s,PASSED
"sendKeys(findTestObject(""Recruits Page/Draft Board (Recruits)/Draft Board Color Hex field""), ""4832a8"")",Chrome 90.0.4430.212,,,2021-05-17 11:06:58,2021-05-17 11:06:58,0.068s,PASSED
"enhancedClick(findTestObject(""Recruits Page/Draft Board (Recruits)/Manage Colors Close button""))",Chrome 90.0.4430.212,,,2021-05-17 11:06:58,2021-05-17 11:06:58,0.083s,PASSED
"mouseOver(findTestObject(""Dashboard Page/Draft Board (Dashboard)/1-PG on Draft Board""))",Chrome 90.0.4430.212,,,2021-05-17 11:06:58,2021-05-17 11:06:58,0.183s,PASSED
"enhancedClick(findTestObject(""Recruits Page/Draft Board (Recruits)/Draft Board Color Dropper icon""))",Chrome 90.0.4430.212,,,2021-05-17 11:06:58,2021-05-17 11:06:59,0.628s,PASSED
"enhancedClick(findTestObject(""Recruits Page/Draft Board (Recruits)/My Custom Color Draft Board""))",Chrome 90.0.4430.212,,,2021-05-17 11:06:59,2021-05-17 11:06:59,0.079s,PASSED
delay(1),Chrome 90.0.4430.212,,,2021-05-17 11:06:59,2021-05-17 11:07:00,1.010s,PASSED
"verifyElementAttributeValue(findTestObject(""Dashboard Page/Draft Board (Dashboard)/1-PG on Draft Board""), ""class"", ""draft-board-player dashboard-player css-ms4n7m-DraftBoard"", 0)",Chrome 90.0.4430.212,,,2021-05-17 11:07:00,2021-05-17 11:07:00,0.055s,PASSED
"mouseOver(findTestObject(""Dashboard Page/Draft Board (Dashboard)/1-PG on Draft Board""))",Chrome 90.0.4430.212,,,2021-05-17 11:07:00,2021-05-17 11:07:00,0.165s,PASSED
"enhancedClick(findTestObject(""Recruits Page/Draft Board (Recruits)/Draft Board Color Dropper icon""))",Chrome 90.0.4430.212,,,2021-05-17 11:07:00,2021-05-17 11:07:00,0.057s,PASSED
"enhancedClick(findTestObject(""Recruits Page/Draft Board (Recruits)/Reset Draft Board color""))",Chrome 90.0.4430.212,,,2021-05-17 11:07:00,2021-05-17 11:07:01,0.645s,PASSED
delay(1),Chrome 90.0.4430.212,,,2021-05-17 11:07:01,2021-05-17 11:07:02,1.008s,PASSED
"verifyElementAttributeValue(findTestObject(""Dashboard Page/Draft Board (Dashboard)/1-PG on Draft Board""), ""class"", ""draft-board-player dashboard-player css-g7hzzu-DraftBoard"", 0)",Chrome 90.0.4430.212,,,2021-05-17 11:07:02,2021-05-17 11:07:02,0.057s,PASSED
"mouseOver(findTestObject(""Dashboard Page/Draft Board (Dashboard)/1-PG on Draft Board""))",Chrome 90.0.4430.212,,,2021-05-17 11:07:02,2021-05-17 11:07:02,0.164s,PASSED
"enhancedClick(findTestObject(""Recruits Page/Draft Board (Recruits)/Draft Board Color Dropper icon""))",Chrome 90.0.4430.212,,,2021-05-17 11:07:02,2021-05-17 11:07:02,0.056s,PASSED
"enhancedClick(findTestObject(""Recruits Page/Draft Board (Recruits)/Draft Board Color pencil icon""))",Chrome 90.0.4430.212,,,2021-05-17 11:07:02,2021-05-17 11:07:02,0.068s,PASSED
"mouseOver(findTestObject(""Recruits Page/Draft Board (Recruits)/Manage Colors Custom1""))",Chrome 90.0.4430.212,,,2021-05-17 11:07:02,2021-05-17 11:07:02,0.188s,PASSED
"waitForElementPresent(findTestObject(""Recruits Page/Draft Board (Recruits)/Delete custom color1""), 0)",Chrome 90.0.4430.212,,,2021-05-17 11:07:02,2021-05-17 11:07:36,34.071s,PASSED
"enhancedClick(findTestObject(""Recruits Page/Draft Board (Recruits)/Delete custom color1""))",Chrome 90.0.4430.212,,,2021-05-17 11:07:36,2021-05-17 11:08:11,34.374s,FAILED
,,,,,,,
Test Cases/Depth Chart,Chrome 90.0.4430.212,,,2021-05-17 11:08:11,2021-05-17 11:08:25,14.173s,PASSED
openBrowser(URL),Chrome 90.0.4430.212,,,2021-05-17 11:08:11,2021-05-17 11:08:13,2.566s,PASSED
"setText(findTestObject(""Login Page/Email""), email)",Chrome 90.0.4430.212,,,2021-05-17 11:08:13,2021-05-17 11:08:14,0.149s,PASSED
"setText(findTestObject(""Login Page/password""), password)",Chrome 90.0.4430.212,,,2021-05-17 11:08:14,2021-05-17 11:08:14,0.097s,PASSED
"click(findTestObject(""Login Page/Sign In""))",Chrome 90.0.4430.212,,,2021-05-17 11:08:14,2021-05-17 11:08:17,3.088s,PASSED
"waitForElementVisible(findTestObject(""Top Navigation Menu/Dashboard""), 60)",Chrome 90.0.4430.212,,,2021-05-17 11:08:17,2021-05-17 11:08:17,0.635s,PASSED
"enhancedClick(findTestObject(""Top Navigation Menu/Dashboard""))",Chrome 90.0.4430.212,,,2021-05-17 11:08:17,2021-05-17 11:08:17,0.075s,PASSED
delay(3),Chrome 90.0.4430.212,,,2021-05-17 11:08:17,2021-05-17 11:08:20,3.011s,PASSED
"enhancedClick(findTestObject(""Dashboard Page/Depth Chart/Depth Chart season dropdown""))",Chrome 90.0.4430.212,,,2021-05-17 11:08:20,2021-05-17 11:08:21,0.095s,PASSED
"enhancedClick(findTestObject(""Dashboard Page/Depth Chart/Season Dropdown Index3""))",Chrome 90.0.4430.212,,,2021-05-17 11:08:21,2021-05-17 11:08:21,0.100s,PASSED
"enhancedClick(findTestObject(""Dashboard Page/Depth Chart/Depth Chart season dropdown""))",Chrome 90.0.4430.212,,,2021-05-17 11:08:21,2021-05-17 11:08:21,0.069s,PASSED
"enhancedClick(findTestObject(""Dashboard Page/Depth Chart/Season Dropdown Index2""))",Chrome 90.0.4430.212,,,2021-05-17 11:08:21,2021-05-17 11:08:21,0.082s,PASSED
"enhancedClick(findTestObject(""Dashboard Page/Depth Chart/EDIT Depth Chart""))",Chrome 90.0.4430.212,,,2021-05-17 11:08:21,2021-05-17 11:08:21,0.126s,PASSED
"enhancedClick(findTestObject(""Dashboard Page/Depth Chart/Depth Chart Edit (sr, pg, 1)""))",Chrome 90.0.4430.212,,,2021-05-17 11:08:21,2021-05-17 11:08:21,0.139s,PASSED
"enhancedClick(findTestObject(""Dashboard Page/Depth Chart/SAVE Depth Chart""))",Chrome 90.0.4430.212,,,2021-05-17 11:08:21,2021-05-17 11:08:21,0.096s,PASSED
delay(2),Chrome 90.0.4430.212,,,2021-05-17 11:08:21,2021-05-17 11:08:23,2.003s,PASSED
"verifyTextNotPresent(playerHidden, false)",Chrome 90.0.4430.212,,,2021-05-17 11:08:23,2021-05-17 11:08:23,0.118s,PASSED
"enhancedClick(findTestObject(""Dashboard Page/Depth Chart/EDIT Depth Chart""))",Chrome 90.0.4430.212,,,2021-05-17 11:08:23,2021-05-17 11:08:23,0.098s,PASSED
"enhancedClick(findTestObject(""Dashboard Page/Depth Chart/Depth Chart Edit (sr, pg, 1)""))",Chrome 90.0.4430.212,,,2021-05-17 11:08:23,2021-05-17 11:08:24,0.104s,PASSED
"enhancedClick(findTestObject(""Dashboard Page/Depth Chart/SAVE Depth Chart""))",Chrome 90.0.4430.212,,,2021-05-17 11:08:24,2021-05-17 11:08:24,0.084s,PASSED
"verifyTextPresent(playerHidden, false)",Chrome 90.0.4430.212,,,2021-05-17 11:08:24,2021-05-17 11:08:24,0.210s,PASSED
delay(1),Chrome 90.0.4430.212,,,2021-05-17 11:08:24,2021-05-17 11:08:25,1.009s,PASSED
closeBrowser(),Chrome 90.0.4430.212,,,2021-05-17 11:08:25,2021-05-17 11:08:25,0.090s,PASSED
,,,,,,,
Test Cases/Dashboard Calendar,Chrome 90.0.4430.212,,,2021-05-17 11:08:25,2021-05-17 11:08:53,27.897s,FAILED
openBrowser(URL),Chrome 90.0.4430.212,,,2021-05-17 11:08:25,2021-05-17 11:08:27,1.816s,PASSED
"setText(findTestObject(""Login Page/Email""), email)",Chrome 90.0.4430.212,,,2021-05-17 11:08:27,2021-05-17 11:08:27,0.144s,PASSED
"setText(findTestObject(""Login Page/password""), password)",Chrome 90.0.4430.212,,,2021-05-17 11:08:27,2021-05-17 11:08:27,0.097s,PASSED
"click(findTestObject(""Login Page/Sign In""))",Chrome 90.0.4430.212,,,2021-05-17 11:08:27,2021-05-17 11:08:30,2.534s,PASSED
"waitForElementVisible(findTestObject(""Top Navigation Menu/Dashboard""), 60)",Chrome 90.0.4430.212,,,2021-05-17 11:08:30,2021-05-17 11:08:30,0.595s,PASSED
"enhancedClick(findTestObject(""Top Navigation Menu/Recruits""))",Chrome 90.0.4430.212,,,2021-05-17 11:08:30,2021-05-17 11:08:30,0.119s,PASSED
delay(3),Chrome 90.0.4430.212,,,2021-05-17 11:08:30,2021-05-17 11:08:33,3.009s,PASSED
"enhancedClick(findTestObject(""Top Navigation Menu/Dashboard""))",Chrome 90.0.4430.212,,,2021-05-17 11:08:33,2021-05-17 11:08:34,0.160s,PASSED
delay(3),Chrome 90.0.4430.212,,,2021-05-17 11:08:34,2021-05-17 11:08:37,3.004s,PASSED
"enhancedClick(findTestObject(""Dashboard Page/Calendar (Dashboard)/Toggle Left (Calendar Dashboard)""))",Chrome 90.0.4430.212,,,2021-05-17 11:08:37,2021-05-17 11:08:37,0.596s,PASSED
delay(5),Chrome 90.0.4430.212,,,2021-05-17 11:08:37,2021-05-17 11:08:42,5.010s,PASSED
"enhancedClick(findTestObject(""Dashboard Page/Calendar (Dashboard)/Toggle Right (Calendar Dashboard)""))",Chrome 90.0.4430.212,,,2021-05-17 11:08:42,2021-05-17 11:08:42,0.094s,PASSED
delay(5),Chrome 90.0.4430.212,,,2021-05-17 11:08:42,2021-05-17 11:08:47,5.007s,PASSED
"enhancedClick(findTestObject(""Dashboard Page/Calendar (Dashboard)/Dashboard Calendar SHOW dropdown""))",Chrome 90.0.4430.212,,,2021-05-17 11:08:47,2021-05-17 11:08:47,0.080s,PASSED
"enhancedClick(findTestObject(""Dashboard Page/Calendar (Dashboard)/My Calendar option""))",Chrome 90.0.4430.212,,,2021-05-17 11:08:47,2021-05-17 11:08:47,0.078s,PASSED
"enhancedClick(findTestObject(""Dashboard Page/Calendar (Dashboard)/My Calendar option""))",Chrome 90.0.4430.212,,,2021-05-17 11:08:47,2021-05-17 11:08:47,0.056s,PASSED
"enhancedClick(findTestObject(""Dashboard Page/Calendar (Dashboard)/Team calendar option""))",Chrome 90.0.4430.212,,,2021-05-17 11:08:47,2021-05-17 11:08:48,0.065s,PASSED
"enhancedClick(findTestObject(""Dashboard Page/Calendar (Dashboard)/Team calendar option""))",Chrome 90.0.4430.212,,,2021-05-17 11:08:48,2021-05-17 11:08:48,0.053s,PASSED
"enhancedClick(findTestObject(""Dashboard Page/Calendar (Dashboard)/Tasks calendar option""))",Chrome 90.0.4430.212,,,2021-05-17 11:08:48,2021-05-17 11:08:48,0.064s,PASSED
"enhancedClick(findTestObject(""Dashboard Page/Calendar (Dashboard)/Tasks calendar option""))",Chrome 90.0.4430.212,,,2021-05-17 11:08:48,2021-05-17 11:08:48,0.053s,PASSED
"enhancedClick(findTestObject(""Dashboard Page/Calendar (Dashboard)/NCAA Calendar option""))",Chrome 90.0.4430.212,,,2021-05-17 11:08:48,2021-05-17 11:08:48,0.065s,PASSED
"enhancedClick(findTestObject(""Dashboard Page/Calendar (Dashboard)/NCAA Calendar option""))",Chrome 90.0.4430.212,,,2021-05-17 11:08:48,2021-05-17 11:08:48,0.052s,PASSED
"enhancedClick(findTestObject(""Dashboard Page/Calendar (Dashboard)/My Live Period calendar option""))",Chrome 90.0.4430.212,,,2021-05-17 11:08:48,2021-05-17 11:08:48,0.070s,PASSED
"enhancedClick(findTestObject(""Dashboard Page/Calendar (Dashboard)/My Live Period calendar option""))",Chrome 90.0.4430.212,,,2021-05-17 11:08:48,2021-05-17 11:08:48,0.052s,PASSED
"enhancedClick(findTestObject(""Dashboard Page/Calendar (Dashboard)/Dashboard Calendar SHOW dropdown""))",Chrome 90.0.4430.212,,,2021-05-17 11:08:48,2021-05-17 11:08:48,0.055s,PASSED
"enhancedClick(findTestObject(""Dashboard Page/Calendar (Dashboard)/Dashboard Calendar Add New""))",Chrome 90.0.4430.212,,,2021-05-17 11:08:48,2021-05-17 11:08:48,0.128s,PASSED
"enhancedClick(findTestObject(""Dashboard Page/Calendar (Dashboard)/Add Event modal/Event Name field""))",Chrome 90.0.4430.212,,,2021-05-17 11:08:48,2021-05-17 11:08:48,0.080s,PASSED
"sendKeys(findTestObject(""Dashboard Page/Calendar (Dashboard)/Add Event modal/Event Name field""), ""Test Event1"")",Chrome 90.0.4430.212,,,2021-05-17 11:08:48,2021-05-17 11:08:48,0.070s,PASSED
"enhancedClick(findTestObject(""Dashboard Page/Calendar (Dashboard)/Add Event modal/Event Location field""))",Chrome 90.0.4430.212,,,2021-05-17 11:08:48,2021-05-17 11:08:48,0.086s,PASSED
"sendKeys(findTestObject(""Dashboard Page/Calendar (Dashboard)/Add Event modal/Event Location field""), ""444 N. Michigan Ave"")",Chrome 90.0.4430.212,,,2021-05-17 11:08:48,2021-05-17 11:08:48,0.083s,PASSED
delay(1),Chrome 90.0.4430.212,,,2021-05-17 11:08:48,2021-05-17 11:08:49,1.010s,PASSED
"enhancedClick(findTestObject(""Dashboard Page/Calendar (Dashboard)/Add Event modal/Select searched location""))",Chrome 90.0.4430.212,,,2021-05-17 11:08:49,2021-05-17 11:08:50,0.075s,PASSED
"enhancedClick(findTestObject(""Dashboard Page/Calendar (Dashboard)/Add Event modal/Select Recruits dropdown""))",Chrome 90.0.4430.212,,,2021-05-17 11:08:50,2021-05-17 11:08:50,0.072s,PASSED
"enhancedClick(findTestObject(""Dashboard Page/Calendar (Dashboard)/Add Event modal/Recruit1 in dropdown (Add Event modal)""))",Chrome 90.0.4430.212,,,2021-05-17 11:08:50,2021-05-17 11:08:50,0.078s,PASSED
"enhancedClick(findTestObject(""Dashboard Page/Calendar (Dashboard)/Add Event modal/Add Event Attendees""))",Chrome 90.0.4430.212,,,2021-05-17 11:08:50,2021-05-17 11:08:50,0.072s,PASSED
"enhancedClick(findTestObject(""Dashboard Page/Calendar (Dashboard)/Add Event modal/Recruiters checkbox""))",Chrome 90.0.4430.212,,,2021-05-17 11:08:50,2021-05-17 11:08:50,0.081s,PASSED
"enhancedClick(findTestObject(""Dashboard Page/Calendar (Dashboard)/Add Event modal/Game Note field""))",Chrome 90.0.4430.212,,,2021-05-17 11:08:50,2021-05-17 11:08:50,0.078s,PASSED
"sendKeys(findTestObject(""Dashboard Page/Calendar (Dashboard)/Add Event modal/Game Note field""), ""arrive early"")",Chrome 90.0.4430.212,,,2021-05-17 11:08:50,2021-05-17 11:08:50,0.129s,PASSED
"enhancedClick(findTestObject(""Dashboard Page/Calendar (Dashboard)/Add Event modal/Add Event Save button""))",Chrome 90.0.4430.212,,,2021-05-17 11:08:50,2021-05-17 11:08:50,0.066s,PASSED
delay(2),Chrome 90.0.4430.212,,,2021-05-17 11:08:50,2021-05-17 11:08:52,2.011s,PASSED
"verifyTextPresent(""Test Event1"", false)",Chrome 90.0.4430.212,,,2021-05-17 11:08:52,2021-05-17 11:08:53,0.675s,FAILED
,,,,,,,
Test Cases/Add_Archive_Delete New Recruit,Chrome 90.0.4430.212,,,2021-05-17 11:08:53,2021-05-17 11:09:15,22.061s,PASSED
openBrowser(URL),Chrome 90.0.4430.212,,,2021-05-17 11:08:53,2021-05-17 11:09:00,6.631s,PASSED
"setText(findTestObject(""Login Page/Email""), email)",Chrome 90.0.4430.212,,,2021-05-17 11:09:00,2021-05-17 11:09:00,0.148s,PASSED
"setText(findTestObject(""Login Page/password""), password)",Chrome 90.0.4430.212,,,2021-05-17 11:09:00,2021-05-17 11:09:00,0.096s,PASSED
"click(findTestObject(""Login Page/Sign In""))",Chrome 90.0.4430.212,,,2021-05-17 11:09:00,2021-05-17 11:09:02,2.534s,PASSED
"waitForElementVisible(findTestObject(""Top Navigation Menu/Dashboard""), 60)",Chrome 90.0.4430.212,,,2021-05-17 11:09:02,2021-05-17 11:09:03,0.624s,PASSED
"click(findTestObject(""Top Navigation Menu/Recruits""))",Chrome 90.0.4430.212,,,2021-05-17 11:09:03,2021-05-17 11:09:03,0.108s,PASSED
"click(findTestObject(""Recruits Page/ADD RECRUIT button""))",Chrome 90.0.4430.212,,,2021-05-17 11:09:03,2021-05-17 11:09:03,0.154s,PASSED
"setText(findTestObject(""Recruits Page/Add New Recruit modal/First Name field""), ""Josh"")",Chrome 90.0.4430.212,,,2021-05-17 11:09:03,2021-05-17 11:09:04,1.099s,PASSED
"setText(findTestObject(""Recruits Page/Add New Recruit modal/Last Name field""), ""Allen"")",Chrome 90.0.4430.212,,,2021-05-17 11:09:04,2021-05-17 11:09:05,0.200s,PASSED
"setText(findTestObject(""Recruits Page/Add New Recruit modal/Class field""), ""2023"")",Chrome 90.0.4430.212,,,2021-05-17 11:09:05,2021-05-17 11:09:05,0.118s,PASSED
"click(findTestObject(""Recruits Page/Add New Recruit modal/Height field input""))",Chrome 90.0.4430.212,,,2021-05-17 11:09:05,2021-05-17 11:09:05,0.082s,PASSED
"setText(findTestObject(""Recruits Page/Add New Recruit modal/Height field input""), ""69"")",Chrome 90.0.4430.212,,,2021-05-17 11:09:05,2021-05-17 11:09:05,0.087s,PASSED
"setText(findTestObject(""Recruits Page/Add New Recruit modal/Birthdate field input""), ""1/1/2005"")",Chrome 90.0.4430.212,,,2021-05-17 11:09:05,2021-05-17 11:09:05,0.216s,PASSED
"enhancedClick(findTestObject(""Recruits Page/Add New Recruit modal/Birthdate field Label""))",Chrome 90.0.4430.212,,,2021-05-17 11:09:05,2021-05-17 11:09:05,0.108s,PASSED
"setText(findTestObject(""Recruits Page/Add New Recruit modal/High School field input""), ""highland park"")",Chrome 90.0.4430.212,,,2021-05-17 11:09:05,2021-05-17 11:09:05,0.132s,PASSED
"sendKeys(findTestObject(""Recruits Page/Add New Recruit modal/High School field input""), Keys.chord(DOWN))",Chrome 90.0.4430.212,,,2021-05-17 11:09:05,2021-05-17 11:09:05,0.055s,PASSED
"sendKeys(findTestObject(""Recruits Page/Add New Recruit modal/High School field input""), Keys.chord(ENTER))",Chrome 90.0.4430.212,,,2021-05-17 11:09:05,2021-05-17 11:09:05,0.051s,PASSED
"setText(findTestObject(""Recruits Page/Add New Recruit modal/High School Coach Name field""), ""Coach Miller"")",Chrome 90.0.4430.212,,,2021-05-17 11:09:05,2021-05-17 11:09:06,0.137s,PASSED
"setText(findTestObject(""Recruits Page/Add New Recruit modal/High School Coach Phone field""), ""8474713163"")",Chrome 90.0.4430.212,,,2021-05-17 11:09:06,2021-05-17 11:09:06,0.140s,PASSED
"setText(findTestObject(""Recruits Page/Add New Recruit modal/Club Team field""), ""Mac Irvin Fire"")",Chrome 90.0.4430.212,,,2021-05-17 11:09:06,2021-05-17 11:09:06,0.151s,PASSED
"setText(findTestObject(""Recruits Page/Add New Recruit modal/Club Team Number field""), ""10"")",Chrome 90.0.4430.212,,,2021-05-17 11:09:06,2021-05-17 11:09:06,0.111s,PASSED
"click(findTestObject(""Recruits Page/Add New Recruit modal/SAVE button""))",Chrome 90.0.4430.212,,,2021-05-17 11:09:06,2021-05-17 11:09:06,0.138s,PASSED
"setText(findTestObject(""Recruits Page/Recruit Search Field on Recruits page""), ""josh allen"")",Chrome 90.0.4430.212,,,2021-05-17 11:09:06,2021-05-17 11:09:06,0.134s,PASSED
delay(1),Chrome 90.0.4430.212,,,2021-05-17 11:09:06,2021-05-17 11:09:07,1.010s,PASSED
"enhancedClick(findTestObject(""Recruits Page/Archive recruit""))",Chrome 90.0.4430.212,,,2021-05-17 11:09:07,2021-05-17 11:09:07,0.083s,PASSED
delay(1),Chrome 90.0.4430.212,,,2021-05-17 11:09:07,2021-05-17 11:09:08,1.010s,PASSED
"click(findTestObject(""Recruits Page/All Recruits List selection""))",Chrome 90.0.4430.212,,,2021-05-17 11:09:08,2021-05-17 11:09:08,0.078s,PASSED
delay(1),Chrome 90.0.4430.212,,,2021-05-17 11:09:08,2021-05-17 11:09:09,1.003s,PASSED
"click(findTestObject(""Recruits Page/Archived List selection""))",Chrome 90.0.4430.212,,,2021-05-17 11:09:09,2021-05-17 11:09:09,0.107s,PASSED
delay(1),Chrome 90.0.4430.212,,,2021-05-17 11:09:09,2021-05-17 11:09:10,1.010s,PASSED
"enhancedClick(findTestObject(""Recruits Page/Archived list ellipsis button""))",Chrome 90.0.4430.212,,,2021-05-17 11:09:10,2021-05-17 11:09:11,0.082s,PASSED
delay(1),Chrome 90.0.4430.212,,,2021-05-17 11:09:11,2021-05-17 11:09:12,1.006s,PASSED
"enhancedClick(findTestObject(""Recruits Page/Delete1""))",Chrome 90.0.4430.212,,,2021-05-17 11:09:12,2021-05-17 11:09:12,0.094s,PASSED
delay(1),Chrome 90.0.4430.212,,,2021-05-17 11:09:12,2021-05-17 11:09:13,1.005s,PASSED
"enhancedClick(findTestObject(""Recruits Page/Delete2""))",Chrome 90.0.4430.212,,,2021-05-17 11:09:13,2021-05-17 11:09:13,0.099s,PASSED
delay(2),Chrome 90.0.4430.212,,,2021-05-17 11:09:13,2021-05-17 11:09:15,2.007s,PASSED
closeBrowser(),Chrome 90.0.4430.212,,,2021-05-17 11:09:15,2021-05-17 11:09:15,0.083s,PASSED
,,,,,,,
Test Cases/Tasks,Chrome 90.0.4430.212,,,2021-05-17 11:09:15,2021-05-17 11:09:57,42.564s,FAILED
openBrowser(URL),Chrome 90.0.4430.212,,,2021-05-17 11:09:15,2021-05-17 11:09:20,5.311s,PASSED
"setText(findTestObject(""Login Page/Email""), email)",Chrome 90.0.4430.212,,,2021-05-17 11:09:20,2021-05-17 11:09:20,0.147s,PASSED
"setText(findTestObject(""Login Page/password""), password)",Chrome 90.0.4430.212,,,2021-05-17 11:09:20,2021-05-17 11:09:21,0.092s,PASSED
"click(findTestObject(""Login Page/Sign In""))",Chrome 90.0.4430.212,,,2021-05-17 11:09:21,2021-05-17 11:09:23,2.658s,PASSED
"waitForElementVisible(findTestObject(""Top Navigation Menu/Dashboard""), 60)",Chrome 90.0.4430.212,,,2021-05-17 11:09:23,2021-05-17 11:09:24,0.575s,PASSED
"enhancedClick(findTestObject(""Top Navigation Menu/Recruits""))",Chrome 90.0.4430.212,,,2021-05-17 11:09:24,2021-05-17 11:09:24,0.104s,PASSED
"enhancedClick(findTestObject(""Recruits Page/Tasks tab""))",Chrome 90.0.4430.212,,,2021-05-17 11:09:24,2021-05-17 11:09:24,0.147s,PASSED
"enhancedClick(findTestObject(""Recruits Page/Tasks/Add Task button""))",Chrome 90.0.4430.212,,,2021-05-17 11:09:24,2021-05-17 11:09:24,0.119s,PASSED
"enhancedClick(findTestObject(""Recruits Page/Tasks/Add Task Recruit field""))",Chrome 90.0.4430.212,,,2021-05-17 11:09:24,2021-05-17 11:09:25,1.285s,PASSED
"enhancedClick(findTestObject(""Recruits Page/Tasks/Add Task recruit dropdown1""))",Chrome 90.0.4430.212,,,2021-05-17 11:09:25,2021-05-17 11:09:26,0.071s,PASSED
"enhancedClick(findTestObject(""Recruits Page/Tasks/Add Task Assigned To field""))",Chrome 90.0.4430.212,,,2021-05-17 11:09:26,2021-05-17 11:09:26,0.071s,PASSED
"enhancedClick(findTestObject(""Recruits Page/Tasks/Add Task Assigned To dropdown1""))",Chrome 90.0.4430.212,,,2021-05-17 11:09:26,2021-05-17 11:09:26,0.069s,PASSED
"enhancedClick(findTestObject(""Recruits Page/Tasks/Add Task Instruction field""))",Chrome 90.0.4430.212,,,2021-05-17 11:09:26,2021-05-17 11:09:26,0.067s,PASSED
"setText(findTestObject(""Recruits Page/Tasks/Add Task Instruction field""), ""test task"")",Chrome 90.0.4430.212,,,2021-05-17 11:09:26,2021-05-17 11:09:26,0.135s,PASSED
"enhancedClick(findTestObject(""Recruits Page/Tasks/Save new task""))",Chrome 90.0.4430.212,,,2021-05-17 11:09:26,2021-05-17 11:09:26,0.072s,PASSED
"verifyElementVisible(findTestObject(""Recruits Page/Tasks/Due task1 row""))",Chrome 90.0.4430.212,,,2021-05-17 11:09:26,2021-05-17 11:09:26,0.056s,PASSED
"mouseOver(findTestObject(""Recruits Page/Tasks/Due task1 ellipsis""))",Chrome 90.0.4430.212,,,2021-05-17 11:09:26,2021-05-17 11:09:26,0.184s,PASSED
"enhancedClick(findTestObject(""Recruits Page/Tasks/Due task1 ellipsis""))",Chrome 90.0.4430.212,,,2021-05-17 11:09:26,2021-05-17 11:09:26,0.070s,PASSED
"enhancedClick(findTestObject(""Recruits Page/Tasks/Mark Tasks Completed button""))",Chrome 90.0.4430.212,,,2021-05-17 11:09:26,2021-05-17 11:09:26,0.078s,PASSED
"verifyElementNotPresent(findTestObject(""Recruits Page/Tasks/Due task1 row""), 0)",Chrome 90.0.4430.212,,,2021-05-17 11:09:26,2021-05-17 11:09:57,31.125s,FAILED
,,,,,,,
Test Cases/Features/Link To FastScout,Chrome 90.0.4430.212,,,2021-05-17 11:09:57,2021-05-17 11:10:16,18.943s,PASSED
openBrowser(URL),Chrome 90.0.4430.212,,,2021-05-17 11:09:58,2021-05-17 11:10:00,2.899s,PASSED
"setText(findTestObject(""Login Page/Email""), email)",Chrome 90.0.4430.212,,,2021-05-17 11:10:00,2021-05-17 11:10:01,0.144s,PASSED
"setText(findTestObject(""Login Page/password""), password)",Chrome 90.0.4430.212,,,2021-05-17 11:10:01,2021-05-17 11:10:01,0.094s,PASSED
"click(findTestObject(""Login Page/Sign In""))",Chrome 90.0.4430.212,,,2021-05-17 11:10:01,2021-05-17 11:10:04,3.678s,PASSED
"waitForElementVisible(findTestObject(""Top Navigation Menu/Dashboard""), 60)",Chrome 90.0.4430.212,,,2021-05-17 11:10:04,2021-05-17 11:10:05,0.630s,PASSED
"click(findTestObject(""Top Navigation Menu/Recruits""))",Chrome 90.0.4430.212,,,2021-05-17 11:10:05,2021-05-17 11:10:05,0.114s,PASSED
"click(findTestObject(""Recruits Page/ADD RECRUIT button""))",Chrome 90.0.4430.212,,,2021-05-17 11:10:05,2021-05-17 11:10:05,0.153s,PASSED
"enhancedClick(findTestObject(""Recruits Page/Add New Recruit modal/LinkToFastScout Folder/Link To FastScout button""))",Chrome 90.0.4430.212,,,2021-05-17 11:10:05,2021-05-17 11:10:07,1.403s,PASSED
"enhancedClick(findTestObject(""Recruits Page/Add New Recruit modal/LinkToFastScout Folder/League_Division dropdown""))",Chrome 90.0.4430.212,,,2021-05-17 11:10:07,2021-05-17 11:10:07,0.099s,PASSED
"enhancedClick(findTestObject(""Recruits Page/Add New Recruit modal/LinkToFastScout Folder/D-II League""))",Chrome 90.0.4430.212,,,2021-05-17 11:10:07,2021-05-17 11:10:07,0.075s,PASSED
"enhancedClick(findTestObject(""Recruits Page/Add New Recruit modal/LinkToFastScout Folder/Team dropdown (LFS)""))",Chrome 90.0.4430.212,,,2021-05-17 11:10:07,2021-05-17 11:10:07,0.094s,PASSED
"enhancedClick(findTestObject(""Recruits Page/Add New Recruit modal/LinkToFastScout Folder/Florida Southern (LFS)""))",Chrome 90.0.4430.212,,,2021-05-17 11:10:07,2021-05-17 11:10:07,0.085s,PASSED
"enhancedClick(findTestObject(""Recruits Page/Add New Recruit modal/LinkToFastScout Folder/Player dropdown (LFS)""))",Chrome 90.0.4430.212,,,2021-05-17 11:10:07,2021-05-17 11:10:07,0.087s,PASSED
"enhancedClick(findTestObject(""Recruits Page/Add New Recruit modal/LinkToFastScout Folder/Player10 (LFS)""))",Chrome 90.0.4430.212,,,2021-05-17 11:10:07,2021-05-17 11:10:07,0.272s,PASSED
"click(findTestObject(""Recruits Page/Add New Recruit modal/SAVE button""))",Chrome 90.0.4430.212,,,2021-05-17 11:10:07,2021-05-17 11:10:08,0.162s,PASSED
"setText(findTestObject(""Recruits Page/Recruit Search Field on Recruits page""), ""Wes Bongiorni"")",Chrome 90.0.4430.212,,,2021-05-17 11:10:08,2021-05-17 11:10:08,0.149s,PASSED
delay(1),Chrome 90.0.4430.212,,,2021-05-17 11:10:08,2021-05-17 11:10:09,1.002s,PASSED
"enhancedClick(findTestObject(""Recruits Page/Archive recruit""))",Chrome 90.0.4430.212,,,2021-05-17 11:10:09,2021-05-17 11:10:09,0.086s,PASSED
delay(1),Chrome 90.0.4430.212,,,2021-05-17 11:10:09,2021-05-17 11:10:10,1.003s,PASSED
"click(findTestObject(""Recruits Page/All Recruits List selection""))",Chrome 90.0.4430.212,,,2021-05-17 11:10:10,2021-05-17 11:10:10,0.081s,PASSED
delay(1),Chrome 90.0.4430.212,,,2021-05-17 11:10:10,2021-05-17 11:10:11,1.009s,PASSED
"click(findTestObject(""Recruits Page/Archived List selection""))",Chrome 90.0.4430.212,,,2021-05-17 11:10:11,2021-05-17 11:10:11,0.108s,PASSED
delay(1),Chrome 90.0.4430.212,,,2021-05-17 11:10:11,2021-05-17 11:10:12,1.009s,PASSED
"click(findTestObject(""Recruits Page/Archived list ellipsis button""))",Chrome 90.0.4430.212,,,2021-05-17 11:10:12,2021-05-17 11:10:12,0.081s,PASSED
delay(1),Chrome 90.0.4430.212,,,2021-05-17 11:10:12,2021-05-17 11:10:13,1.011s,PASSED
"click(findTestObject(""Recruits Page/Delete1""))",Chrome 90.0.4430.212,,,2021-05-17 11:10:13,2021-05-17 11:10:13,0.094s,PASSED
delay(1),Chrome 90.0.4430.212,,,2021-05-17 11:10:13,2021-05-17 11:10:14,1.003s,PASSED
"enhancedClick(findTestObject(""Recruits Page/Delete2""))",Chrome 90.0.4430.212,,,2021-05-17 11:10:14,2021-05-17 11:10:14,0.096s,PASSED
delay(2),Chrome 90.0.4430.212,,,2021-05-17 11:10:14,2021-05-17 11:10:16,2.009s,PASSED
closeBrowser(),Chrome 90.0.4430.212,,,2021-05-17 11:10:16,2021-05-17 11:10:16,0.085s,PASSED
,,,,,,,
Test Cases/Features/Video,Chrome 90.0.4430.212,,,2021-05-17 11:10:16,2021-05-17 11:10:26,9.303s,FAILED
openBrowser(URL),Chrome 90.0.4430.212,,,2021-05-17 11:10:17,2021-05-17 11:10:19,2.851s,PASSED
"setText(findTestObject(""Login Page/Email""), email)",Chrome 90.0.4430.212,,,2021-05-17 11:10:19,2021-05-17 11:10:19,0.135s,PASSED
"setText(findTestObject(""Login Page/password""), password)",Chrome 90.0.4430.212,,,2021-05-17 11:10:19,2021-05-17 11:10:20,0.092s,PASSED
"click(findTestObject(""Login Page/Sign In""))",Chrome 90.0.4430.212,,,2021-05-17 11:10:20,2021-05-17 11:10:22,2.818s,PASSED
"waitForElementVisible(findTestObject(""Top Navigation Menu/Dashboard""), 60)",Chrome 90.0.4430.212,,,2021-05-17 11:10:22,2021-05-17 11:10:23,0.710s,PASSED
"enhancedClick(findTestObject(""Top Navigation Menu/Recruits""))",Chrome 90.0.4430.212,,,2021-05-17 11:10:23,2021-05-17 11:10:23,0.111s,PASSED
"enhancedClick(findTestObject(""Recruits Page/Recruit Row1 Name""))",Chrome 90.0.4430.212,,,2021-05-17 11:10:23,2021-05-17 11:10:25,1.484s,PASSED
"enhancedClick(findTestObject(""Recruits Page/Recruit Profile (View)/VIDEOS tab""))",Chrome 90.0.4430.212,,,2021-05-17 11:10:25,2021-05-17 11:10:25,0.092s,PASSED
"uploadFile(findTestObject(""Recruit Profile (view)/Video Upload object""), ""/Users/jefffeldman/Desktop/Vids/NBA Playoffs 2019.mp4"")",Chrome 90.0.4430.212,,,2021-05-17 11:10:25,2021-05-17 11:10:26,0.888s,FAILED
,,,,,,,
Test Cases/Features/FastConnect,Chrome 90.0.4430.212,,,2021-05-17 11:10:26,2021-05-17 11:10:56,30.028s,PASSED
openBrowser(URL),Chrome 90.0.4430.212,,,2021-05-17 11:10:26,2021-05-17 11:10:29,2.962s,PASSED
"setText(findTestObject(""Login Page/Email""), email)",Chrome 90.0.4430.212,,,2021-05-17 11:10:29,2021-05-17 11:10:29,0.145s,PASSED
"setText(findTestObject(""Login Page/password""), password)",Chrome 90.0.4430.212,,,2021-05-17 11:10:29,2021-05-17 11:10:29,0.097s,PASSED
"click(findTestObject(""Login Page/Sign In""))",Chrome 90.0.4430.212,,,2021-05-17 11:10:29,2021-05-17 11:10:31,2.490s,PASSED
"waitForElementVisible(findTestObject(""Top Navigation Menu/Dashboard""), 60)",Chrome 90.0.4430.212,,,2021-05-17 11:10:31,2021-05-17 11:10:32,0.590s,PASSED
"enhancedClick(findTestObject(""Top Navigation Menu/Recruits""))",Chrome 90.0.4430.212,,,2021-05-17 11:10:32,2021-05-17 11:10:32,0.116s,PASSED
"enhancedClick(findTestObject(""Recruits Page/FastConnect tab""))",Chrome 90.0.4430.212,,,2021-05-17 11:10:32,2021-05-17 11:10:32,0.157s,PASSED
"enhancedClick(findTestObject(""Recruits Page/FastConnect/List dropdown""))",Chrome 90.0.4430.212,,,2021-05-17 11:10:32,2021-05-17 11:10:32,0.102s,PASSED
"enhancedClick(findTestObject(""Recruits Page/FastConnect/All Recruits list dropdown""))",Chrome 90.0.4430.212,,,2021-05-17 11:10:32,2021-05-17 11:10:33,0.397s,PASSED
delay(10),Chrome 90.0.4430.212,,,2021-05-17 11:10:33,2021-05-17 11:10:43,10.006s,PASSED
"verifyElementVisible(findTestObject(""Recruits Page/FastConnect/Fastconnect post1""), STOP_ON_FAILURE)",Chrome 90.0.4430.212,,,2021-05-17 11:10:43,2021-05-17 11:10:56,12.772s,PASSED
closeBrowser(),Chrome 90.0.4430.212,,,2021-05-17 11:10:56,2021-05-17 11:10:56,0.080s,PASSED
,,,,,,,
Test Cases/Tourney Workflow,Chrome 90.0.4430.212,,,2021-05-17 11:10:56,2021-05-17 11:11:34,38.589s,FAILED
openBrowser(URL),Chrome 90.0.4430.212,,,2021-05-17 11:10:56,2021-05-17 11:10:58,2.394s,PASSED
"setText(findTestObject(""Login Page/Email""), email)",Chrome 90.0.4430.212,,,2021-05-17 11:10:58,2021-05-17 11:10:58,0.144s,PASSED
"setText(findTestObject(""Login Page/password""), password)",Chrome 90.0.4430.212,,,2021-05-17 11:10:58,2021-05-17 11:10:58,0.097s,PASSED
"click(findTestObject(""Login Page/Sign In""))",Chrome 90.0.4430.212,,,2021-05-17 11:10:58,2021-05-17 11:11:01,2.550s,PASSED
"waitForElementVisible(findTestObject(""Top Navigation Menu/Dashboard""), 60)",Chrome 90.0.4430.212,,,2021-05-17 11:11:01,2021-05-17 11:11:02,0.573s,PASSED
"enhancedClick(findTestObject(""Top Navigation Menu/Tourneys""))",Chrome 90.0.4430.212,,,2021-05-17 11:11:02,2021-05-17 11:11:02,0.094s,PASSED
"enhancedClick(findTestObject(""Tourneys page/Tourney list dropdown""))",Chrome 90.0.4430.212,,,2021-05-17 11:11:02,2021-05-17 11:11:02,0.689s,PASSED
enhancedClick(tourneySession),Chrome 90.0.4430.212,,,2021-05-17 11:11:02,2021-05-17 11:11:02,0.081s,PASSED
"enhancedClick(findTestObject(""Tourneys page/Tourneys header""))",Chrome 90.0.4430.212,,,2021-05-17 11:11:02,2021-05-17 11:11:03,0.074s,PASSED
"enhancedClick(findTestObject(""Tourneys page/Tourney1 listed""))",Chrome 90.0.4430.212,,,2021-05-17 11:11:03,2021-05-17 11:11:03,0.193s,PASSED
"enhancedClick(findTestObject(""Tourneys page/Assign Staff button""))",Chrome 90.0.4430.212,,,2021-05-17 11:11:03,2021-05-17 11:11:34,31.558s,FAILED
,,,,,,,
Test Cases/Features/Prospects View,Chrome 90.0.4430.212,,,2021-05-17 11:11:34,2021-05-17 11:12:02,27.346s,PASSED
openBrowser(URL),Chrome 90.0.4430.212,,,2021-05-17 11:11:34,2021-05-17 11:11:39,4.164s,PASSED
"setText(findTestObject(""Login Page/Email""), email2)",Chrome 90.0.4430.212,,,2021-05-17 11:11:39,2021-05-17 11:11:39,0.144s,PASSED
"setText(findTestObject(""Login Page/password""), password)",Chrome 90.0.4430.212,,,2021-05-17 11:11:39,2021-05-17 11:11:39,0.093s,PASSED
"click(findTestObject(""Login Page/Sign In""))",Chrome 90.0.4430.212,,,2021-05-17 11:11:39,2021-05-17 11:11:41,2.552s,PASSED
"waitForElementVisible(findTestObject(""Top Navigation Menu/Dashboard""), 60)",Chrome 90.0.4430.212,,,2021-05-17 11:11:41,2021-05-17 11:11:42,0.561s,PASSED
"enhancedClick(findTestObject(""Prospects View/Add Prospect button""))",Chrome 90.0.4430.212,,,2021-05-17 11:11:42,2021-05-17 11:11:42,0.092s,PASSED
"enhancedClick(findTestObject(""Prospects View/Link Player Stats button""))",Chrome 90.0.4430.212,,,2021-05-17 11:11:42,2021-05-17 11:11:43,1.262s,PASSED
"enhancedClick(findTestObject(""Recruits Page/Add New Recruit modal/LinkToFastScout Folder/League_Division dropdown""))",Chrome 90.0.4430.212,,,2021-05-17 11:11:43,2021-05-17 11:11:43,0.094s,PASSED
"enhancedClick(findTestObject(""Recruits Page/Add New Recruit modal/LinkToFastScout Folder/D-II League""))",Chrome 90.0.4430.212,,,2021-05-17 11:11:43,2021-05-17 11:11:44,0.072s,PASSED
"enhancedClick(findTestObject(""Prospects View/Link Player Stats Team dropdown (Prospects)""))",Chrome 90.0.4430.212,,,2021-05-17 11:11:44,2021-05-17 11:11:44,0.094s,PASSED
"enhancedClick(findTestObject(""Recruits Page/Add New Recruit modal/LinkToFastScout Folder/Florida Southern (LFS)""))",Chrome 90.0.4430.212,,,2021-05-17 11:11:44,2021-05-17 11:11:44,0.086s,PASSED
"enhancedClick(findTestObject(""Prospects View/Link Player Stats Player dropdown (Prospects)""))",Chrome 90.0.4430.212,,,2021-05-17 11:11:44,2021-05-17 11:11:44,0.090s,PASSED
"enhancedClick(findTestObject(""Recruits Page/Add New Recruit modal/LinkToFastScout Folder/Player10 (LFS)""))",Chrome 90.0.4430.212,,,2021-05-17 11:11:44,2021-05-17 11:11:44,0.129s,PASSED
"click(findTestObject(""Recruits Page/Add New Recruit modal/SAVE button""))",Chrome 90.0.4430.212,,,2021-05-17 11:11:44,2021-05-17 11:11:44,0.151s,PASSED
"mouseOver(findTestObject(""Prospects View/Select Existing Prospect""))",Chrome 90.0.4430.212,,,2021-05-17 11:11:44,2021-05-17 11:11:44,0.242s,PASSED
"enhancedClick(findTestObject(""Prospects View/Select Existing Prospect""))",Chrome 90.0.4430.212,,,2021-05-17 11:11:44,2021-05-17 11:11:44,0.109s,PASSED
"enhancedClick(findTestObject(""Prospects View/FastScout Team Link (Prospect Profile)""))",Chrome 90.0.4430.212,,,2021-05-17 11:11:44,2021-05-17 11:11:44,0.079s,PASSED
switchToWindowIndex(1),Chrome 90.0.4430.212,,,2021-05-17 11:11:44,2021-05-17 11:11:45,0.307s,PASSED
delay(7),Chrome 90.0.4430.212,,,2021-05-17 11:11:45,2021-05-17 11:11:52,7.009s,PASSED
scoutURL = getUrl(),Chrome 90.0.4430.212,,,2021-05-17 11:11:52,2021-05-17 11:11:52,0.027s,PASSED
"assert scoutURL.contains(""league=NCAAB-II"")",Chrome 90.0.4430.212,,,2021-05-17 11:11:52,2021-05-17 11:11:52,0.001s,PASSED
switchToWindowIndex(0),Chrome 90.0.4430.212,,,2021-05-17 11:11:52,2021-05-17 11:11:52,0.024s,PASSED
delay(1),Chrome 90.0.4430.212,,,2021-05-17 11:11:52,2021-05-17 11:11:53,1.004s,PASSED
"enhancedClick(findTestObject(""Recruit Profile (view)/CLOSE button - Copy2""))",Chrome 90.0.4430.212,,,2021-05-17 11:11:53,2021-05-17 11:11:53,0.119s,PASSED
delay(1),Chrome 90.0.4430.212,,,2021-05-17 11:11:53,2021-05-17 11:11:54,1.010s,PASSED
"click(findTestObject(""Prospects View/Archive Prospect button""))",Chrome 90.0.4430.212,,,2021-05-17 11:11:54,2021-05-17 11:11:54,0.068s,PASSED
delay(1),Chrome 90.0.4430.212,,,2021-05-17 11:11:54,2021-05-17 11:11:55,1.007s,PASSED
"click(findTestObject(""Prospects View/All Prospects List selection""))",Chrome 90.0.4430.212,,,2021-05-17 11:11:55,2021-05-17 11:11:55,0.078s,PASSED
delay(1),Chrome 90.0.4430.212,,,2021-05-17 11:11:55,2021-05-17 11:11:56,1.006s,PASSED
"click(findTestObject(""Recruits Page/Archived List selection""))",Chrome 90.0.4430.212,,,2021-05-17 11:11:56,2021-05-17 11:11:56,0.096s,PASSED
delay(1),Chrome 90.0.4430.212,,,2021-05-17 11:11:56,2021-05-17 11:11:57,1.007s,PASSED
"enhancedClick(findTestObject(""Prospects View/Archived List ellipsis (Prospects)""))",Chrome 90.0.4430.212,,,2021-05-17 11:11:57,2021-05-17 11:11:57,0.082s,PASSED
delay(1),Chrome 90.0.4430.212,,,2021-05-17 11:11:57,2021-05-17 11:11:58,1.010s,PASSED
"enhancedClick(findTestObject(""Prospects View/Delete1 (Prospects)""))",Chrome 90.0.4430.212,,,2021-05-17 11:11:58,2021-05-17 11:11:58,0.084s,PASSED
delay(1),Chrome 90.0.4430.212,,,2021-05-17 11:11:58,2021-05-17 11:11:59,1.003s,PASSED
"enhancedClick(findTestObject(""Prospects View/Delete2 (Prospects)""))",Chrome 90.0.4430.212,,,2021-05-17 11:11:59,2021-05-17 11:12:00,0.095s,PASSED
delay(2),Chrome 90.0.4430.212,,,2021-05-17 11:12:00,2021-05-17 11:12:02,2.004s,PASSED
closeBrowser(),Chrome 90.0.4430.212,,,2021-05-17 11:12:02,2021-05-17 11:12:02,0.120s,PASSED
