Suite/Test/Step Name,Browser,Description,Tag,Start time,End time,Duration,Status
Regression Tests,Chrome 89.0.4389.114,,,2021-04-05 14:42:58,2021-04-05 14:49:28,6m - 29.087s,FAILED
,,,,,,,
Test Cases/Draft Board,Chrome 89.0.4389.114,,,2021-04-05 14:42:59,2021-04-05 14:45:07,2m - 8.468s,FAILED
openBrowser(URL),Chrome 89.0.4389.114,,,2021-04-05 14:42:59,2021-04-05 14:43:02,2.969s,PASSED
"setViewPortSize(1440, 841)",Chrome 89.0.4389.114,,,2021-04-05 14:43:02,2021-04-05 14:43:02,0.123s,PASSED
"setText(findTestObject(""Login Page/Email""), email)",Chrome 89.0.4389.114,,,2021-04-05 14:43:02,2021-04-05 14:43:02,0.214s,PASSED
"setText(findTestObject(""Login Page/password""), password)",Chrome 89.0.4389.114,,,2021-04-05 14:43:02,2021-04-05 14:43:03,0.116s,PASSED
"click(findTestObject(""Login Page/Sign In""))",Chrome 89.0.4389.114,,,2021-04-05 14:43:03,2021-04-05 14:43:05,2.464s,PASSED
"waitForElementVisible(findTestObject(""Top Navigation Menu/Dashboard""), 60)",Chrome 89.0.4389.114,,,2021-04-05 14:43:05,2021-04-05 14:43:06,0.574s,PASSED
"enhancedClick(findTestObject(""Top Navigation Menu/Dashboard""))",Chrome 89.0.4389.114,,,2021-04-05 14:43:06,2021-04-05 14:43:06,0.191s,PASSED
delay(3),Chrome 89.0.4389.114,,,2021-04-05 14:43:06,2021-04-05 14:43:09,3.076s,PASSED
"mouseOver(findTestObject(""Dashboard Page/Draft Board (Dashboard)/blank 1-PG on Draft Board (Dashboard)""))",Chrome 89.0.4389.114,,,2021-04-05 14:43:09,2021-04-05 14:43:09,0.223s,PASSED
"enhancedClick(findTestObject(""Dashboard Page/Draft Board (Dashboard)/blank 1-PG on Draft Board (Dashboard)""))",Chrome 89.0.4389.114,,,2021-04-05 14:43:09,2021-04-05 14:43:09,0.084s,PASSED
"enhancedClick(findTestObject(""Dashboard Page/Draft Board (Dashboard)/Draft Board Dropdown Player1""))",Chrome 89.0.4389.114,,,2021-04-05 14:43:09,2021-04-05 14:43:09,0.188s,PASSED
"mouseOver(findTestObject(""Dashboard Page/Draft Board (Dashboard)/1-PG on Draft Board""))",Chrome 89.0.4389.114,,,2021-04-05 14:43:09,2021-04-05 14:43:10,0.302s,PASSED
"enhancedClick(findTestObject(""Dashboard Page/Draft Board (Dashboard)/1-PG on Draft Board""))",Chrome 89.0.4389.114,,,2021-04-05 14:43:10,2021-04-05 14:43:10,0.115s,PASSED
delay(1),Chrome 89.0.4389.114,,,2021-04-05 14:43:10,2021-04-05 14:43:11,1.007s,PASSED
"enhancedClick(findTestObject(""Recruit Profile (view)/Alerts button""))",Chrome 89.0.4389.114,,,2021-04-05 14:43:11,2021-04-05 14:43:11,0.086s,PASSED
"enhancedClick(findTestObject(""Recruit Profile (view)/CLOSE button""))",Chrome 89.0.4389.114,,,2021-04-05 14:43:11,2021-04-05 14:43:11,0.106s,PASSED
"verifyElementVisible(findTestObject(""Dashboard Page/Draft Board (Dashboard)/Alerts bell indicator""))",Chrome 89.0.4389.114,,,2021-04-05 14:43:11,2021-04-05 14:43:11,0.077s,PASSED
"mouseOver(findTestObject(""Dashboard Page/Draft Board (Dashboard)/1-PG on Draft Board""))",Chrome 89.0.4389.114,,,2021-04-05 14:43:11,2021-04-05 14:43:11,0.209s,PASSED
"enhancedClick(findTestObject(""Dashboard Page/Draft Board (Dashboard)/1-PG on Draft Board""))",Chrome 89.0.4389.114,,,2021-04-05 14:43:11,2021-04-05 14:43:11,0.126s,PASSED
"enhancedClick(findTestObject(""Recruit Profile (view)/Alerts button""))",Chrome 89.0.4389.114,,,2021-04-05 14:43:11,2021-04-05 14:43:12,0.100s,PASSED
"mouseOver(findTestObject(""Dashboard Page/Draft Board (Dashboard)/1-PG on Draft Board""))",Chrome 89.0.4389.114,,,2021-04-05 14:43:12,2021-04-05 14:43:12,0.229s,PASSED
"enhancedClick(findTestObject(""Recruit Profile (view)/CLOSE button""))",Chrome 89.0.4389.114,,,2021-04-05 14:43:12,2021-04-05 14:43:12,0.108s,PASSED
delay(1),Chrome 89.0.4389.114,,,2021-04-05 14:43:12,2021-04-05 14:43:13,1.007s,PASSED
"verifyElementNotPresent(findTestObject(""Dashboard Page/Draft Board (Dashboard)/Alerts bell indicator""), 0)",Chrome 89.0.4389.114,,,2021-04-05 14:43:13,2021-04-05 14:43:13,0.086s,PASSED
"mouseOver(findTestObject(""Dashboard Page/Draft Board (Dashboard)/1-PG on Draft Board""))",Chrome 89.0.4389.114,,,2021-04-05 14:43:13,2021-04-05 14:43:13,0.176s,PASSED
"enhancedClick(findTestObject(""Dashboard Page/Draft Board (Dashboard)/Delete 1-PG on Draft Board""))",Chrome 89.0.4389.114,,,2021-04-05 14:43:13,2021-04-05 14:43:13,0.088s,PASSED
"enhancedClick(findTestObject(""Dashboard Page/Draft Board (Dashboard)/Draft Board Season Dropdown""))",Chrome 89.0.4389.114,,,2021-04-05 14:43:13,2021-04-05 14:43:13,0.086s,PASSED
"enhancedClick(findTestObject(""Dashboard Page/Draft Board (Dashboard)/Draft Board Season Dropdown - 2023""))",Chrome 89.0.4389.114,,,2021-04-05 14:43:13,2021-04-05 14:43:13,0.099s,PASSED
"mouseOver(findTestObject(""Dashboard Page/Draft Board (Dashboard)/blank 1-PG on Draft Board (Dashboard)""))",Chrome 89.0.4389.114,,,2021-04-05 14:43:13,2021-04-05 14:43:14,0.178s,PASSED
"enhancedClick(findTestObject(""Dashboard Page/Draft Board (Dashboard)/blank 1-PG on Draft Board (Dashboard)""))",Chrome 89.0.4389.114,,,2021-04-05 14:43:14,2021-04-05 14:43:14,0.071s,PASSED
"enhancedClick(findTestObject(""Dashboard Page/Draft Board (Dashboard)/Draft Board Dropdown Player1""))",Chrome 89.0.4389.114,,,2021-04-05 14:43:14,2021-04-05 14:43:14,0.208s,PASSED
delay(1),Chrome 89.0.4389.114,,,2021-04-05 14:43:14,2021-04-05 14:43:15,1.004s,PASSED
"mouseOver(findTestObject(""Dashboard Page/Draft Board (Dashboard)/blank 2-PG on Draft Board (Dashboard)""))",Chrome 89.0.4389.114,,,2021-04-05 14:43:15,2021-04-05 14:43:15,0.174s,PASSED
"enhancedClick(findTestObject(""Dashboard Page/Draft Board (Dashboard)/blank 2-PG on Draft Board (Dashboard)""))",Chrome 89.0.4389.114,,,2021-04-05 14:43:15,2021-04-05 14:43:15,0.071s,PASSED
"enhancedClick(findTestObject(""Dashboard Page/Draft Board (Dashboard)/Recruit Search field""))",Chrome 89.0.4389.114,,,2021-04-05 14:43:15,2021-04-05 14:43:15,0.088s,PASSED
"sendKeys(findTestObject(""Dashboard Page/Draft Board (Dashboard)/Recruit Search field""), ""Mikey Williams"")",Chrome 89.0.4389.114,,,2021-04-05 14:43:15,2021-04-05 14:43:15,0.078s,PASSED
delay(2),Chrome 89.0.4389.114,,,2021-04-05 14:43:15,2021-04-05 14:43:17,2.004s,PASSED
"enhancedClick(findTestObject(""Dashboard Page/Draft Board (Dashboard)/Draft Board Dropdown Player2""))",Chrome 89.0.4389.114,,,2021-04-05 14:43:17,2021-04-05 14:43:17,0.085s,PASSED
"mouseOver(findTestObject(""Dashboard Page/Draft Board (Dashboard)/2-PG on Draft Board""))",Chrome 89.0.4389.114,,,2021-04-05 14:43:17,2021-04-05 14:43:18,0.276s,PASSED
"enhancedClick(findTestObject(""Dashboard Page/Draft Board (Dashboard)/Delete 2-PG on Draft Board""))",Chrome 89.0.4389.114,,,2021-04-05 14:43:18,2021-04-05 14:43:18,0.087s,PASSED
"mouseOver(findTestObject(""Dashboard Page/Draft Board (Dashboard)/1-PG on Draft Board""))",Chrome 89.0.4389.114,,,2021-04-05 14:43:18,2021-04-05 14:43:18,0.186s,PASSED
"enhancedClick(findTestObject(""Dashboard Page/Draft Board (Dashboard)/Delete 1-PG on Draft Board""))",Chrome 89.0.4389.114,,,2021-04-05 14:43:18,2021-04-05 14:43:18,0.089s,PASSED
"enhancedClick(findTestObject(""Dashboard Page/Draft Board (Dashboard)/Draft Board Link""))",Chrome 89.0.4389.114,,,2021-04-05 14:43:18,2021-04-05 14:43:18,0.124s,PASSED
"mouseOver(findTestObject(""Recruits Page/Draft Board (Recruits)/blank PG1 Draft Board-Recruits""))",Chrome 89.0.4389.114,,,2021-04-05 14:43:18,2021-04-05 14:43:18,0.188s,PASSED
"enhancedClick(findTestObject(""Recruits Page/Draft Board (Recruits)/blank PG1 Draft Board-Recruits""))",Chrome 89.0.4389.114,,,2021-04-05 14:43:18,2021-04-05 14:43:18,0.079s,PASSED
"enhancedClick(findTestObject(""Recruits Page/Draft Board (Recruits)/Draft Board dropdown P1 (Recruits)""))",Chrome 89.0.4389.114,,,2021-04-05 14:43:18,2021-04-05 14:43:19,0.157s,PASSED
"mouseOver(findTestObject(""Dashboard Page/Draft Board (Dashboard)/1-PG on Draft Board""))",Chrome 89.0.4389.114,,,2021-04-05 14:43:19,2021-04-05 14:43:19,0.229s,PASSED
"enhancedClick(findTestObject(""Recruits Page/Draft Board (Recruits)/Draft Board Color Dropper icon""))",Chrome 89.0.4389.114,,,2021-04-05 14:43:19,2021-04-05 14:43:19,0.075s,PASSED
"enhancedClick(findTestObject(""Recruits Page/Draft Board (Recruits)/Yellow Color Draft Board""))",Chrome 89.0.4389.114,,,2021-04-05 14:43:19,2021-04-05 14:43:19,0.090s,PASSED
delay(1),Chrome 89.0.4389.114,,,2021-04-05 14:43:19,2021-04-05 14:43:20,1.004s,PASSED
"verifyElementAttributeValue(findTestObject(""Dashboard Page/Draft Board (Dashboard)/1-PG on Draft Board""), ""class"", ""draft-board-player dashboard-player css-1n2x8eh-DraftBoard"", 0)",Chrome 89.0.4389.114,,,2021-04-05 14:43:20,2021-04-05 14:43:20,0.069s,PASSED
"mouseOver(findTestObject(""Dashboard Page/Draft Board (Dashboard)/1-PG on Draft Board""))",Chrome 89.0.4389.114,,,2021-04-05 14:43:20,2021-04-05 14:43:20,0.169s,PASSED
"enhancedClick(findTestObject(""Recruits Page/Draft Board (Recruits)/Draft Board Color Dropper icon""))",Chrome 89.0.4389.114,,,2021-04-05 14:43:20,2021-04-05 14:43:20,0.068s,PASSED
"enhancedClick(findTestObject(""Recruits Page/Draft Board (Recruits)/Green Color Draft Board""))",Chrome 89.0.4389.114,,,2021-04-05 14:43:20,2021-04-05 14:43:52,31.671s,PASSED
delay(1),Chrome 89.0.4389.114,,,2021-04-05 14:43:52,2021-04-05 14:43:53,1.007s,PASSED
"verifyElementAttributeValue(findTestObject(""Dashboard Page/Draft Board (Dashboard)/1-PG on Draft Board""), ""class"", ""draft-board-player dashboard-player css-15mrb88-DraftBoard"", 0)",Chrome 89.0.4389.114,,,2021-04-05 14:43:53,2021-04-05 14:43:53,0.062s,PASSED
"mouseOver(findTestObject(""Dashboard Page/Draft Board (Dashboard)/1-PG on Draft Board""))",Chrome 89.0.4389.114,,,2021-04-05 14:43:53,2021-04-05 14:43:53,0.169s,PASSED
"enhancedClick(findTestObject(""Recruits Page/Draft Board (Recruits)/Draft Board Color Dropper icon""))",Chrome 89.0.4389.114,,,2021-04-05 14:43:53,2021-04-05 14:43:53,0.077s,PASSED
"enhancedClick(findTestObject(""Recruits Page/Draft Board (Recruits)/Draft Board Color pencil icon""))",Chrome 89.0.4389.114,,,2021-04-05 14:43:53,2021-04-05 14:43:54,0.656s,PASSED
"enhancedClick(findTestObject(""Recruits Page/Draft Board (Recruits)/Add Draft Board Color plus button""))",Chrome 89.0.4389.114,,,2021-04-05 14:43:54,2021-04-05 14:43:54,0.094s,PASSED
"doubleClick(findTestObject(""Recruits Page/Draft Board (Recruits)/Draft Board Color Hex field""))",Chrome 89.0.4389.114,,,2021-04-05 14:43:54,2021-04-05 14:43:54,0.191s,PASSED
"sendKeys(findTestObject(""Recruits Page/Draft Board (Recruits)/Draft Board Color Hex field""), ""4832a8"")",Chrome 89.0.4389.114,,,2021-04-05 14:43:54,2021-04-05 14:43:54,0.083s,PASSED
"enhancedClick(findTestObject(""Recruits Page/Draft Board (Recruits)/Manage Colors Close button""))",Chrome 89.0.4389.114,,,2021-04-05 14:43:54,2021-04-05 14:43:54,0.085s,PASSED
"mouseOver(findTestObject(""Dashboard Page/Draft Board (Dashboard)/1-PG on Draft Board""))",Chrome 89.0.4389.114,,,2021-04-05 14:43:54,2021-04-05 14:43:55,0.183s,PASSED
"enhancedClick(findTestObject(""Recruits Page/Draft Board (Recruits)/Draft Board Color Dropper icon""))",Chrome 89.0.4389.114,,,2021-04-05 14:43:55,2021-04-05 14:43:55,0.621s,PASSED
"enhancedClick(findTestObject(""Recruits Page/Draft Board (Recruits)/My Custom Color Draft Board""))",Chrome 89.0.4389.114,,,2021-04-05 14:43:55,2021-04-05 14:43:55,0.078s,PASSED
delay(1),Chrome 89.0.4389.114,,,2021-04-05 14:43:55,2021-04-05 14:43:56,1.005s,PASSED
"verifyElementAttributeValue(findTestObject(""Dashboard Page/Draft Board (Dashboard)/1-PG on Draft Board""), ""class"", ""draft-board-player dashboard-player css-ms4n7m-DraftBoard"", 0)",Chrome 89.0.4389.114,,,2021-04-05 14:43:56,2021-04-05 14:43:56,0.056s,PASSED
"mouseOver(findTestObject(""Dashboard Page/Draft Board (Dashboard)/1-PG on Draft Board""))",Chrome 89.0.4389.114,,,2021-04-05 14:43:56,2021-04-05 14:43:56,0.167s,PASSED
"enhancedClick(findTestObject(""Recruits Page/Draft Board (Recruits)/Draft Board Color Dropper icon""))",Chrome 89.0.4389.114,,,2021-04-05 14:43:56,2021-04-05 14:43:57,0.065s,PASSED
"enhancedClick(findTestObject(""Recruits Page/Draft Board (Recruits)/Reset Draft Board color""))",Chrome 89.0.4389.114,,,2021-04-05 14:43:57,2021-04-05 14:43:57,0.639s,PASSED
delay(1),Chrome 89.0.4389.114,,,2021-04-05 14:43:57,2021-04-05 14:43:58,1.002s,PASSED
"verifyElementAttributeValue(findTestObject(""Dashboard Page/Draft Board (Dashboard)/1-PG on Draft Board""), ""class"", ""draft-board-player dashboard-player css-g7hzzu-DraftBoard"", 0)",Chrome 89.0.4389.114,,,2021-04-05 14:43:58,2021-04-05 14:43:58,0.056s,PASSED
"mouseOver(findTestObject(""Dashboard Page/Draft Board (Dashboard)/1-PG on Draft Board""))",Chrome 89.0.4389.114,,,2021-04-05 14:43:58,2021-04-05 14:43:58,0.168s,PASSED
"enhancedClick(findTestObject(""Recruits Page/Draft Board (Recruits)/Draft Board Color Dropper icon""))",Chrome 89.0.4389.114,,,2021-04-05 14:43:58,2021-04-05 14:43:58,0.064s,PASSED
"enhancedClick(findTestObject(""Recruits Page/Draft Board (Recruits)/Draft Board Color pencil icon""))",Chrome 89.0.4389.114,,,2021-04-05 14:43:58,2021-04-05 14:43:59,0.088s,PASSED
"mouseOver(findTestObject(""Recruits Page/Draft Board (Recruits)/Manage Colors Custom1""))",Chrome 89.0.4389.114,,,2021-04-05 14:43:59,2021-04-05 14:43:59,0.192s,PASSED
"waitForElementPresent(findTestObject(""Recruits Page/Draft Board (Recruits)/Delete custom color1""), 0)",Chrome 89.0.4389.114,,,2021-04-05 14:43:59,2021-04-05 14:44:33,34.054s,PASSED
"enhancedClick(findTestObject(""Recruits Page/Draft Board (Recruits)/Delete custom color1""))",Chrome 89.0.4389.114,,,2021-04-05 14:44:33,2021-04-05 14:45:07,34.554s,FAILED
,,,,,,,
Test Cases/Depth Chart,Chrome 89.0.4389.114,,,2021-04-05 14:45:07,2021-04-05 14:45:20,12.250s,FAILED
openBrowser(URL),Chrome 89.0.4389.114,,,2021-04-05 14:45:07,2021-04-05 14:45:10,2.076s,PASSED
"setText(findTestObject(""Login Page/Email""), email)",Chrome 89.0.4389.114,,,2021-04-05 14:45:10,2021-04-05 14:45:10,0.151s,PASSED
"setText(findTestObject(""Login Page/password""), password)",Chrome 89.0.4389.114,,,2021-04-05 14:45:10,2021-04-05 14:45:10,0.105s,PASSED
"click(findTestObject(""Login Page/Sign In""))",Chrome 89.0.4389.114,,,2021-04-05 14:45:10,2021-04-05 14:45:12,2.548s,PASSED
"waitForElementVisible(findTestObject(""Top Navigation Menu/Dashboard""), 60)",Chrome 89.0.4389.114,,,2021-04-05 14:45:12,2021-04-05 14:45:13,0.542s,PASSED
"enhancedClick(findTestObject(""Top Navigation Menu/Dashboard""))",Chrome 89.0.4389.114,,,2021-04-05 14:45:13,2021-04-05 14:45:13,0.078s,PASSED
delay(3),Chrome 89.0.4389.114,,,2021-04-05 14:45:13,2021-04-05 14:45:16,3.006s,PASSED
"enhancedClick(findTestObject(""Dashboard Page/Depth Chart/Depth Chart season dropdown""))",Chrome 89.0.4389.114,,,2021-04-05 14:45:16,2021-04-05 14:45:16,0.098s,PASSED
"enhancedClick(findTestObject(""Dashboard Page/Depth Chart/Season Dropdown Index3""))",Chrome 89.0.4389.114,,,2021-04-05 14:45:16,2021-04-05 14:45:16,0.111s,PASSED
"enhancedClick(findTestObject(""Dashboard Page/Depth Chart/Depth Chart season dropdown""))",Chrome 89.0.4389.114,,,2021-04-05 14:45:16,2021-04-05 14:45:16,0.071s,PASSED
"enhancedClick(findTestObject(""Dashboard Page/Depth Chart/Season Dropdown Index2""))",Chrome 89.0.4389.114,,,2021-04-05 14:45:16,2021-04-05 14:45:16,0.098s,PASSED
"enhancedClick(findTestObject(""Dashboard Page/Depth Chart/EDIT Depth Chart""))",Chrome 89.0.4389.114,,,2021-04-05 14:45:16,2021-04-05 14:45:17,0.144s,PASSED
"enhancedClick(findTestObject(""Dashboard Page/Depth Chart/Depth Chart Edit (sr, pg, 1)""))",Chrome 89.0.4389.114,,,2021-04-05 14:45:17,2021-04-05 14:45:17,0.158s,PASSED
"enhancedClick(findTestObject(""Dashboard Page/Depth Chart/SAVE Depth Chart""))",Chrome 89.0.4389.114,,,2021-04-05 14:45:17,2021-04-05 14:45:17,0.107s,PASSED
delay(2),Chrome 89.0.4389.114,,,2021-04-05 14:45:17,2021-04-05 14:45:19,2.007s,PASSED
"verifyTextNotPresent(playerHidden, false)",Chrome 89.0.4389.114,,,2021-04-05 14:45:19,2021-04-05 14:45:20,0.825s,FAILED
,,,,,,,
Test Cases/Dashboard Calendar,Chrome 89.0.4389.114,,,2021-04-05 14:45:20,2021-04-05 14:45:48,27.892s,FAILED
openBrowser(URL),Chrome 89.0.4389.114,,,2021-04-05 14:45:20,2021-04-05 14:45:22,1.921s,PASSED
"setText(findTestObject(""Login Page/Email""), email)",Chrome 89.0.4389.114,,,2021-04-05 14:45:22,2021-04-05 14:45:22,0.155s,PASSED
"setText(findTestObject(""Login Page/password""), password)",Chrome 89.0.4389.114,,,2021-04-05 14:45:22,2021-04-05 14:45:22,0.104s,PASSED
"click(findTestObject(""Login Page/Sign In""))",Chrome 89.0.4389.114,,,2021-04-05 14:45:22,2021-04-05 14:45:24,2.504s,PASSED
"waitForElementVisible(findTestObject(""Top Navigation Menu/Dashboard""), 60)",Chrome 89.0.4389.114,,,2021-04-05 14:45:24,2021-04-05 14:45:25,0.577s,PASSED
"enhancedClick(findTestObject(""Top Navigation Menu/Recruits""))",Chrome 89.0.4389.114,,,2021-04-05 14:45:25,2021-04-05 14:45:25,0.123s,PASSED
delay(3),Chrome 89.0.4389.114,,,2021-04-05 14:45:25,2021-04-05 14:45:28,3.007s,PASSED
"enhancedClick(findTestObject(""Top Navigation Menu/Dashboard""))",Chrome 89.0.4389.114,,,2021-04-05 14:45:28,2021-04-05 14:45:28,0.168s,PASSED
delay(3),Chrome 89.0.4389.114,,,2021-04-05 14:45:28,2021-04-05 14:45:31,3.005s,PASSED
"enhancedClick(findTestObject(""Dashboard Page/Calendar (Dashboard)/Toggle Left (Calendar Dashboard)""))",Chrome 89.0.4389.114,,,2021-04-05 14:45:31,2021-04-05 14:45:31,0.135s,PASSED
delay(5),Chrome 89.0.4389.114,,,2021-04-05 14:45:31,2021-04-05 14:45:36,5.003s,PASSED
"enhancedClick(findTestObject(""Dashboard Page/Calendar (Dashboard)/Toggle Right (Calendar Dashboard)""))",Chrome 89.0.4389.114,,,2021-04-05 14:45:36,2021-04-05 14:45:37,0.118s,PASSED
delay(5),Chrome 89.0.4389.114,,,2021-04-05 14:45:37,2021-04-05 14:45:42,5.004s,PASSED
"enhancedClick(findTestObject(""Dashboard Page/Calendar (Dashboard)/Dashboard Calendar SHOW dropdown""))",Chrome 89.0.4389.114,,,2021-04-05 14:45:42,2021-04-05 14:45:42,0.099s,PASSED
"enhancedClick(findTestObject(""Dashboard Page/Calendar (Dashboard)/My Calendar option""))",Chrome 89.0.4389.114,,,2021-04-05 14:45:42,2021-04-05 14:45:42,0.082s,PASSED
"enhancedClick(findTestObject(""Dashboard Page/Calendar (Dashboard)/My Calendar option""))",Chrome 89.0.4389.114,,,2021-04-05 14:45:42,2021-04-05 14:45:42,0.060s,PASSED
"enhancedClick(findTestObject(""Dashboard Page/Calendar (Dashboard)/Team calendar option""))",Chrome 89.0.4389.114,,,2021-04-05 14:45:42,2021-04-05 14:45:42,0.068s,PASSED
"enhancedClick(findTestObject(""Dashboard Page/Calendar (Dashboard)/Team calendar option""))",Chrome 89.0.4389.114,,,2021-04-05 14:45:42,2021-04-05 14:45:42,0.055s,PASSED
"enhancedClick(findTestObject(""Dashboard Page/Calendar (Dashboard)/Tasks calendar option""))",Chrome 89.0.4389.114,,,2021-04-05 14:45:42,2021-04-05 14:45:42,0.066s,PASSED
"enhancedClick(findTestObject(""Dashboard Page/Calendar (Dashboard)/Tasks calendar option""))",Chrome 89.0.4389.114,,,2021-04-05 14:45:42,2021-04-05 14:45:42,0.056s,PASSED
"enhancedClick(findTestObject(""Dashboard Page/Calendar (Dashboard)/NCAA Calendar option""))",Chrome 89.0.4389.114,,,2021-04-05 14:45:42,2021-04-05 14:45:42,0.067s,PASSED
"enhancedClick(findTestObject(""Dashboard Page/Calendar (Dashboard)/NCAA Calendar option""))",Chrome 89.0.4389.114,,,2021-04-05 14:45:42,2021-04-05 14:45:42,0.057s,PASSED
"enhancedClick(findTestObject(""Dashboard Page/Calendar (Dashboard)/My Live Period calendar option""))",Chrome 89.0.4389.114,,,2021-04-05 14:45:42,2021-04-05 14:45:42,0.070s,PASSED
"enhancedClick(findTestObject(""Dashboard Page/Calendar (Dashboard)/My Live Period calendar option""))",Chrome 89.0.4389.114,,,2021-04-05 14:45:42,2021-04-05 14:45:42,0.056s,PASSED
"enhancedClick(findTestObject(""Dashboard Page/Calendar (Dashboard)/Dashboard Calendar SHOW dropdown""))",Chrome 89.0.4389.114,,,2021-04-05 14:45:42,2021-04-05 14:45:42,0.066s,PASSED
"enhancedClick(findTestObject(""Dashboard Page/Calendar (Dashboard)/Dashboard Calendar Add New""))",Chrome 89.0.4389.114,,,2021-04-05 14:45:42,2021-04-05 14:45:43,0.148s,PASSED
"enhancedClick(findTestObject(""Dashboard Page/Calendar (Dashboard)/Add Event modal/Event Name field""))",Chrome 89.0.4389.114,,,2021-04-05 14:45:43,2021-04-05 14:45:43,0.097s,PASSED
"sendKeys(findTestObject(""Dashboard Page/Calendar (Dashboard)/Add Event modal/Event Name field""), ""Test Event1"")",Chrome 89.0.4389.114,,,2021-04-05 14:45:43,2021-04-05 14:45:43,0.084s,PASSED
"enhancedClick(findTestObject(""Dashboard Page/Calendar (Dashboard)/Add Event modal/Event Location field""))",Chrome 89.0.4389.114,,,2021-04-05 14:45:43,2021-04-05 14:45:43,0.091s,PASSED
"sendKeys(findTestObject(""Dashboard Page/Calendar (Dashboard)/Add Event modal/Event Location field""), ""444 N. Michigan Ave"")",Chrome 89.0.4389.114,,,2021-04-05 14:45:43,2021-04-05 14:45:43,0.093s,PASSED
delay(1),Chrome 89.0.4389.114,,,2021-04-05 14:45:43,2021-04-05 14:45:44,1.007s,PASSED
"enhancedClick(findTestObject(""Dashboard Page/Calendar (Dashboard)/Add Event modal/Select searched location""))",Chrome 89.0.4389.114,,,2021-04-05 14:45:44,2021-04-05 14:45:44,0.074s,PASSED
"enhancedClick(findTestObject(""Dashboard Page/Calendar (Dashboard)/Add Event modal/Select Recruits dropdown""))",Chrome 89.0.4389.114,,,2021-04-05 14:45:44,2021-04-05 14:45:44,0.080s,PASSED
"enhancedClick(findTestObject(""Dashboard Page/Calendar (Dashboard)/Add Event modal/Recruit1 in dropdown (Add Event modal)""))",Chrome 89.0.4389.114,,,2021-04-05 14:45:44,2021-04-05 14:45:44,0.077s,PASSED
"enhancedClick(findTestObject(""Dashboard Page/Calendar (Dashboard)/Add Event modal/Add Event Attendees""))",Chrome 89.0.4389.114,,,2021-04-05 14:45:44,2021-04-05 14:45:44,0.077s,PASSED
"enhancedClick(findTestObject(""Dashboard Page/Calendar (Dashboard)/Add Event modal/Recruiters checkbox""))",Chrome 89.0.4389.114,,,2021-04-05 14:45:44,2021-04-05 14:45:44,0.092s,PASSED
"enhancedClick(findTestObject(""Dashboard Page/Calendar (Dashboard)/Add Event modal/Game Note field""))",Chrome 89.0.4389.114,,,2021-04-05 14:45:44,2021-04-05 14:45:44,0.088s,PASSED
"sendKeys(findTestObject(""Dashboard Page/Calendar (Dashboard)/Add Event modal/Game Note field""), ""arrive early"")",Chrome 89.0.4389.114,,,2021-04-05 14:45:44,2021-04-05 14:45:45,0.148s,PASSED
"enhancedClick(findTestObject(""Dashboard Page/Calendar (Dashboard)/Add Event modal/Add Event Save button""))",Chrome 89.0.4389.114,,,2021-04-05 14:45:45,2021-04-05 14:45:45,0.073s,PASSED
delay(2),Chrome 89.0.4389.114,,,2021-04-05 14:45:45,2021-04-05 14:45:47,2.006s,PASSED
"verifyTextPresent(""Test Event1"", false)",Chrome 89.0.4389.114,,,2021-04-05 14:45:47,2021-04-05 14:45:48,0.878s,FAILED
,,,,,,,
Test Cases/Add_Archive_Delete New Recruit,Chrome 89.0.4389.114,,,2021-04-05 14:45:48,2021-04-05 14:46:05,17.233s,PASSED
openBrowser(URL),Chrome 89.0.4389.114,,,2021-04-05 14:45:48,2021-04-05 14:45:50,1.856s,PASSED
"setText(findTestObject(""Login Page/Email""), email)",Chrome 89.0.4389.114,,,2021-04-05 14:45:50,2021-04-05 14:45:50,0.154s,PASSED
"setText(findTestObject(""Login Page/password""), password)",Chrome 89.0.4389.114,,,2021-04-05 14:45:50,2021-04-05 14:45:50,0.103s,PASSED
"click(findTestObject(""Login Page/Sign In""))",Chrome 89.0.4389.114,,,2021-04-05 14:45:50,2021-04-05 14:45:52,2.314s,PASSED
"waitForElementVisible(findTestObject(""Top Navigation Menu/Dashboard""), 60)",Chrome 89.0.4389.114,,,2021-04-05 14:45:52,2021-04-05 14:45:53,0.533s,PASSED
"click(findTestObject(""Top Navigation Menu/Recruits""))",Chrome 89.0.4389.114,,,2021-04-05 14:45:53,2021-04-05 14:45:53,0.121s,PASSED
"click(findTestObject(""Recruits Page/ADD RECRUIT button""))",Chrome 89.0.4389.114,,,2021-04-05 14:45:53,2021-04-05 14:45:53,0.181s,PASSED
"setText(findTestObject(""Recruits Page/Add New Recruit modal/First Name field""), ""Josh"")",Chrome 89.0.4389.114,,,2021-04-05 14:45:53,2021-04-05 14:45:54,1.158s,PASSED
"setText(findTestObject(""Recruits Page/Add New Recruit modal/Last Name field""), ""Allen"")",Chrome 89.0.4389.114,,,2021-04-05 14:45:54,2021-04-05 14:45:54,0.132s,PASSED
"setText(findTestObject(""Recruits Page/Add New Recruit modal/Class field""), ""2023"")",Chrome 89.0.4389.114,,,2021-04-05 14:45:54,2021-04-05 14:45:54,0.122s,PASSED
"click(findTestObject(""Recruits Page/Add New Recruit modal/Height field input""))",Chrome 89.0.4389.114,,,2021-04-05 14:45:54,2021-04-05 14:45:54,0.089s,PASSED
"setText(findTestObject(""Recruits Page/Add New Recruit modal/Height field input""), ""69"")",Chrome 89.0.4389.114,,,2021-04-05 14:45:54,2021-04-05 14:45:55,0.096s,PASSED
"setText(findTestObject(""Recruits Page/Add New Recruit modal/Birthdate field input""), ""1/1/2005"")",Chrome 89.0.4389.114,,,2021-04-05 14:45:55,2021-04-05 14:45:55,0.242s,PASSED
"enhancedClick(findTestObject(""Recruits Page/Add New Recruit modal/Birthdate field Label""))",Chrome 89.0.4389.114,,,2021-04-05 14:45:55,2021-04-05 14:45:55,0.120s,PASSED
"setText(findTestObject(""Recruits Page/Add New Recruit modal/High School field input""), ""highland park"")",Chrome 89.0.4389.114,,,2021-04-05 14:45:55,2021-04-05 14:45:55,0.161s,PASSED
"sendKeys(findTestObject(""Recruits Page/Add New Recruit modal/High School field input""), Keys.chord(DOWN))",Chrome 89.0.4389.114,,,2021-04-05 14:45:55,2021-04-05 14:45:55,0.063s,PASSED
"sendKeys(findTestObject(""Recruits Page/Add New Recruit modal/High School field input""), Keys.chord(ENTER))",Chrome 89.0.4389.114,,,2021-04-05 14:45:55,2021-04-05 14:45:55,0.053s,PASSED
"setText(findTestObject(""Recruits Page/Add New Recruit modal/High School Coach Name field""), ""Coach Miller"")",Chrome 89.0.4389.114,,,2021-04-05 14:45:55,2021-04-05 14:45:55,0.161s,PASSED
"setText(findTestObject(""Recruits Page/Add New Recruit modal/High School Coach Phone field""), ""8474713163"")",Chrome 89.0.4389.114,,,2021-04-05 14:45:55,2021-04-05 14:45:55,0.153s,PASSED
"setText(findTestObject(""Recruits Page/Add New Recruit modal/Club Team field""), ""Mac Irvin Fire"")",Chrome 89.0.4389.114,,,2021-04-05 14:45:55,2021-04-05 14:45:56,0.162s,PASSED
"setText(findTestObject(""Recruits Page/Add New Recruit modal/Club Team Number field""), ""10"")",Chrome 89.0.4389.114,,,2021-04-05 14:45:56,2021-04-05 14:45:56,0.107s,PASSED
"click(findTestObject(""Recruits Page/Add New Recruit modal/SAVE button""))",Chrome 89.0.4389.114,,,2021-04-05 14:45:56,2021-04-05 14:45:56,0.139s,PASSED
"setText(findTestObject(""Recruits Page/Recruit Search Field on Recruits page""), ""josh allen"")",Chrome 89.0.4389.114,,,2021-04-05 14:45:56,2021-04-05 14:45:56,0.220s,PASSED
delay(1),Chrome 89.0.4389.114,,,2021-04-05 14:45:56,2021-04-05 14:45:57,1.006s,PASSED
"enhancedClick(findTestObject(""Recruits Page/Archive recruit""))",Chrome 89.0.4389.114,,,2021-04-05 14:45:57,2021-04-05 14:45:57,0.081s,PASSED
delay(1),Chrome 89.0.4389.114,,,2021-04-05 14:45:57,2021-04-05 14:45:58,1.005s,PASSED
"click(findTestObject(""Recruits Page/All Recruits List selection""))",Chrome 89.0.4389.114,,,2021-04-05 14:45:58,2021-04-05 14:45:58,0.079s,PASSED
delay(1),Chrome 89.0.4389.114,,,2021-04-05 14:45:58,2021-04-05 14:45:59,1.003s,PASSED
"click(findTestObject(""Recruits Page/Archived List selection""))",Chrome 89.0.4389.114,,,2021-04-05 14:45:59,2021-04-05 14:45:59,0.109s,PASSED
delay(1),Chrome 89.0.4389.114,,,2021-04-05 14:45:59,2021-04-05 14:46:00,1.007s,PASSED
"enhancedClick(findTestObject(""Recruits Page/Archived list ellipsis button""))",Chrome 89.0.4389.114,,,2021-04-05 14:46:00,2021-04-05 14:46:00,0.081s,PASSED
delay(1),Chrome 89.0.4389.114,,,2021-04-05 14:46:00,2021-04-05 14:46:01,1.005s,PASSED
"enhancedClick(findTestObject(""Recruits Page/Delete1""))",Chrome 89.0.4389.114,,,2021-04-05 14:46:01,2021-04-05 14:46:02,0.098s,PASSED
delay(1),Chrome 89.0.4389.114,,,2021-04-05 14:46:02,2021-04-05 14:46:03,1.002s,PASSED
"enhancedClick(findTestObject(""Recruits Page/Delete2""))",Chrome 89.0.4389.114,,,2021-04-05 14:46:03,2021-04-05 14:46:03,0.085s,PASSED
delay(2),Chrome 89.0.4389.114,,,2021-04-05 14:46:03,2021-04-05 14:46:05,2.005s,PASSED
closeBrowser(),Chrome 89.0.4389.114,,,2021-04-05 14:46:05,2021-04-05 14:46:05,0.088s,PASSED
,,,,,,,
Test Cases/Tasks,Chrome 89.0.4389.114,,,2021-04-05 14:46:05,2021-04-05 14:46:13,8.203s,PASSED
openBrowser(URL),Chrome 89.0.4389.114,,,2021-04-05 14:46:05,2021-04-05 14:46:07,1.777s,PASSED
"setText(findTestObject(""Login Page/Email""), email)",Chrome 89.0.4389.114,,,2021-04-05 14:46:07,2021-04-05 14:46:07,0.152s,PASSED
"setText(findTestObject(""Login Page/password""), password)",Chrome 89.0.4389.114,,,2021-04-05 14:46:07,2021-04-05 14:46:07,0.103s,PASSED
"click(findTestObject(""Login Page/Sign In""))",Chrome 89.0.4389.114,,,2021-04-05 14:46:07,2021-04-05 14:46:09,2.538s,PASSED
"waitForElementVisible(findTestObject(""Top Navigation Menu/Dashboard""), 60)",Chrome 89.0.4389.114,,,2021-04-05 14:46:09,2021-04-05 14:46:10,0.529s,PASSED
"enhancedClick(findTestObject(""Top Navigation Menu/Recruits""))",Chrome 89.0.4389.114,,,2021-04-05 14:46:10,2021-04-05 14:46:10,0.115s,PASSED
"enhancedClick(findTestObject(""Recruits Page/Tasks tab""))",Chrome 89.0.4389.114,,,2021-04-05 14:46:10,2021-04-05 14:46:10,0.099s,PASSED
"enhancedClick(findTestObject(""Recruits Page/Tasks/Add Task button""))",Chrome 89.0.4389.114,,,2021-04-05 14:46:10,2021-04-05 14:46:10,0.196s,PASSED
"enhancedClick(findTestObject(""Recruits Page/Tasks/Add Task Recruit field""))",Chrome 89.0.4389.114,,,2021-04-05 14:46:10,2021-04-05 14:46:11,0.790s,PASSED
"enhancedClick(findTestObject(""Recruits Page/Tasks/Add Task recruit dropdown1""))",Chrome 89.0.4389.114,,,2021-04-05 14:46:11,2021-04-05 14:46:11,0.074s,PASSED
"enhancedClick(findTestObject(""Recruits Page/Tasks/Add Task Assigned To field""))",Chrome 89.0.4389.114,,,2021-04-05 14:46:11,2021-04-05 14:46:11,0.074s,PASSED
"enhancedClick(findTestObject(""Recruits Page/Tasks/Add Task Assigned To dropdown1""))",Chrome 89.0.4389.114,,,2021-04-05 14:46:11,2021-04-05 14:46:11,0.071s,PASSED
"enhancedClick(findTestObject(""Recruits Page/Tasks/Add Task Instruction field""))",Chrome 89.0.4389.114,,,2021-04-05 14:46:11,2021-04-05 14:46:11,0.072s,PASSED
"setText(findTestObject(""Recruits Page/Tasks/Add Task Instruction field""), ""test task"")",Chrome 89.0.4389.114,,,2021-04-05 14:46:11,2021-04-05 14:46:12,0.126s,PASSED
"enhancedClick(findTestObject(""Recruits Page/Tasks/Save new task""))",Chrome 89.0.4389.114,,,2021-04-05 14:46:12,2021-04-05 14:46:12,0.076s,PASSED
"verifyElementVisible(findTestObject(""Recruits Page/Tasks/Due task1 row""))",Chrome 89.0.4389.114,,,2021-04-05 14:46:12,2021-04-05 14:46:12,0.264s,PASSED
"mouseOver(findTestObject(""Recruits Page/Tasks/Due task1 ellipsis""))",Chrome 89.0.4389.114,,,2021-04-05 14:46:12,2021-04-05 14:46:12,0.218s,PASSED
"enhancedClick(findTestObject(""Recruits Page/Tasks/Due task1 ellipsis""))",Chrome 89.0.4389.114,,,2021-04-05 14:46:12,2021-04-05 14:46:12,0.075s,PASSED
"enhancedClick(findTestObject(""Recruits Page/Tasks/Mark Tasks Completed button""))",Chrome 89.0.4389.114,,,2021-04-05 14:46:12,2021-04-05 14:46:12,0.080s,PASSED
"verifyElementNotPresent(findTestObject(""Recruits Page/Tasks/Due task1 row""), 0)",Chrome 89.0.4389.114,,,2021-04-05 14:46:12,2021-04-05 14:46:13,0.565s,PASSED
closeBrowser(),Chrome 89.0.4389.114,,,2021-04-05 14:46:13,2021-04-05 14:46:13,0.080s,PASSED
,,,,,,,
Test Cases/Features/Link To FastScout,Chrome 89.0.4389.114,,,2021-04-05 14:46:13,2021-04-05 14:46:29,16.242s,PASSED
openBrowser(URL),Chrome 89.0.4389.114,,,2021-04-05 14:46:13,2021-04-05 14:46:15,1.818s,PASSED
"setText(findTestObject(""Login Page/Email""), email)",Chrome 89.0.4389.114,,,2021-04-05 14:46:15,2021-04-05 14:46:15,0.152s,PASSED
"setText(findTestObject(""Login Page/password""), password)",Chrome 89.0.4389.114,,,2021-04-05 14:46:15,2021-04-05 14:46:15,0.103s,PASSED
"click(findTestObject(""Login Page/Sign In""))",Chrome 89.0.4389.114,,,2021-04-05 14:46:15,2021-04-05 14:46:18,2.422s,PASSED
"waitForElementVisible(findTestObject(""Top Navigation Menu/Dashboard""), 60)",Chrome 89.0.4389.114,,,2021-04-05 14:46:18,2021-04-05 14:46:18,0.530s,PASSED
"click(findTestObject(""Top Navigation Menu/Recruits""))",Chrome 89.0.4389.114,,,2021-04-05 14:46:18,2021-04-05 14:46:18,0.119s,PASSED
"click(findTestObject(""Recruits Page/ADD RECRUIT button""))",Chrome 89.0.4389.114,,,2021-04-05 14:46:18,2021-04-05 14:46:18,0.180s,PASSED
"enhancedClick(findTestObject(""Recruits Page/Add New Recruit modal/LinkToFastScout Folder/Link To FastScout button""))",Chrome 89.0.4389.114,,,2021-04-05 14:46:18,2021-04-05 14:46:20,1.123s,PASSED
"enhancedClick(findTestObject(""Recruits Page/Add New Recruit modal/LinkToFastScout Folder/League_Division dropdown""))",Chrome 89.0.4389.114,,,2021-04-05 14:46:20,2021-04-05 14:46:20,0.117s,PASSED
"enhancedClick(findTestObject(""Recruits Page/Add New Recruit modal/LinkToFastScout Folder/D-II League""))",Chrome 89.0.4389.114,,,2021-04-05 14:46:20,2021-04-05 14:46:20,0.088s,PASSED
"enhancedClick(findTestObject(""Recruits Page/Add New Recruit modal/LinkToFastScout Folder/Team dropdown (LFS)""))",Chrome 89.0.4389.114,,,2021-04-05 14:46:20,2021-04-05 14:46:20,0.104s,PASSED
"enhancedClick(findTestObject(""Recruits Page/Add New Recruit modal/LinkToFastScout Folder/Florida Southern (LFS)""))",Chrome 89.0.4389.114,,,2021-04-05 14:46:20,2021-04-05 14:46:20,0.101s,PASSED
"enhancedClick(findTestObject(""Recruits Page/Add New Recruit modal/LinkToFastScout Folder/Player dropdown (LFS)""))",Chrome 89.0.4389.114,,,2021-04-05 14:46:20,2021-04-05 14:46:20,0.088s,PASSED
"enhancedClick(findTestObject(""Recruits Page/Add New Recruit modal/LinkToFastScout Folder/Player10 (LFS)""))",Chrome 89.0.4389.114,,,2021-04-05 14:46:20,2021-04-05 14:46:20,0.179s,PASSED
"click(findTestObject(""Recruits Page/Add New Recruit modal/SAVE button""))",Chrome 89.0.4389.114,,,2021-04-05 14:46:20,2021-04-05 14:46:20,0.168s,PASSED
"setText(findTestObject(""Recruits Page/Recruit Search Field on Recruits page""), ""Wes Bongiorni"")",Chrome 89.0.4389.114,,,2021-04-05 14:46:20,2021-04-05 14:46:21,0.169s,PASSED
delay(1),Chrome 89.0.4389.114,,,2021-04-05 14:46:21,2021-04-05 14:46:22,1.004s,PASSED
"enhancedClick(findTestObject(""Recruits Page/Archive recruit""))",Chrome 89.0.4389.114,,,2021-04-05 14:46:22,2021-04-05 14:46:22,0.082s,PASSED
delay(1),Chrome 89.0.4389.114,,,2021-04-05 14:46:22,2021-04-05 14:46:23,1.007s,PASSED
"click(findTestObject(""Recruits Page/All Recruits List selection""))",Chrome 89.0.4389.114,,,2021-04-05 14:46:23,2021-04-05 14:46:23,0.075s,PASSED
delay(1),Chrome 89.0.4389.114,,,2021-04-05 14:46:23,2021-04-05 14:46:24,1.001s,PASSED
"click(findTestObject(""Recruits Page/Archived List selection""))",Chrome 89.0.4389.114,,,2021-04-05 14:46:24,2021-04-05 14:46:24,0.108s,PASSED
delay(1),Chrome 89.0.4389.114,,,2021-04-05 14:46:24,2021-04-05 14:46:25,1.006s,PASSED
"click(findTestObject(""Recruits Page/Archived list ellipsis button""))",Chrome 89.0.4389.114,,,2021-04-05 14:46:25,2021-04-05 14:46:25,0.079s,PASSED
delay(1),Chrome 89.0.4389.114,,,2021-04-05 14:46:25,2021-04-05 14:46:26,1.002s,PASSED
"click(findTestObject(""Recruits Page/Delete1""))",Chrome 89.0.4389.114,,,2021-04-05 14:46:26,2021-04-05 14:46:26,0.094s,PASSED
delay(1),Chrome 89.0.4389.114,,,2021-04-05 14:46:26,2021-04-05 14:46:27,1.006s,PASSED
"enhancedClick(findTestObject(""Recruits Page/Delete2""))",Chrome 89.0.4389.114,,,2021-04-05 14:46:27,2021-04-05 14:46:27,0.087s,PASSED
delay(2),Chrome 89.0.4389.114,,,2021-04-05 14:46:27,2021-04-05 14:46:29,2.003s,PASSED
closeBrowser(),Chrome 89.0.4389.114,,,2021-04-05 14:46:29,2021-04-05 14:46:29,0.081s,PASSED
,,,,,,,
Test Cases/Features/Video,Chrome 89.0.4389.114,,,2021-04-05 14:46:29,2021-04-05 14:47:12,43.073s,FAILED
openBrowser(URL),Chrome 89.0.4389.114,,,2021-04-05 14:46:29,2021-04-05 14:46:32,3.086s,PASSED
"setText(findTestObject(""Login Page/Email""), email)",Chrome 89.0.4389.114,,,2021-04-05 14:46:32,2021-04-05 14:46:33,0.152s,PASSED
"setText(findTestObject(""Login Page/password""), password)",Chrome 89.0.4389.114,,,2021-04-05 14:46:33,2021-04-05 14:46:33,0.102s,PASSED
"click(findTestObject(""Login Page/Sign In""))",Chrome 89.0.4389.114,,,2021-04-05 14:46:33,2021-04-05 14:46:35,2.243s,PASSED
"waitForElementVisible(findTestObject(""Top Navigation Menu/Dashboard""), 60)",Chrome 89.0.4389.114,,,2021-04-05 14:46:35,2021-04-05 14:46:35,0.535s,PASSED
"enhancedClick(findTestObject(""Top Navigation Menu/Recruits""))",Chrome 89.0.4389.114,,,2021-04-05 14:46:35,2021-04-05 14:46:36,0.117s,PASSED
"enhancedClick(findTestObject(""Recruits Page/Recruit Row1 Name""))",Chrome 89.0.4389.114,,,2021-04-05 14:46:36,2021-04-05 14:46:37,1.490s,PASSED
"enhancedClick(findTestObject(""Recruits Page/Recruit Profile (View)/VIDEOS tab""))",Chrome 89.0.4389.114,,,2021-04-05 14:46:37,2021-04-05 14:46:37,0.098s,PASSED
"uploadFile(findTestObject(""Recruit Profile (view)/Video Upload object""), ""/Users/jefffeldman/Desktop/Vids/NBA Playoffs 2019.mp4"")",Chrome 89.0.4389.114,,,2021-04-05 14:46:37,2021-04-05 14:46:37,0.104s,PASSED
"verifyElementPresent(findTestObject(""Recruit Profile (view)/Recruit Video row1""), 0)",Chrome 89.0.4389.114,,,2021-04-05 14:46:37,2021-04-05 14:46:38,0.628s,PASSED
delay(2),Chrome 89.0.4389.114,,,2021-04-05 14:46:38,2021-04-05 14:46:40,2.003s,PASSED
"mouseOver(findTestObject(""Recruit Profile (view)/Recruit Video row1""))",Chrome 89.0.4389.114,,,2021-04-05 14:46:40,2021-04-05 14:46:40,0.175s,PASSED
"enhancedClick(findTestObject(""Recruit Profile (view)/Delete Video Row1""))",Chrome 89.0.4389.114,,,2021-04-05 14:46:40,2021-04-05 14:46:40,0.111s,PASSED
"enhancedClick(findTestObject(""Recruit Profile (view)/Confirm Delete Video""))",Chrome 89.0.4389.114,,,2021-04-05 14:46:40,2021-04-05 14:46:40,0.134s,PASSED
"verifyElementNotPresent(findTestObject(""Recruit Profile (view)/Recruit Video row1""), 0)",Chrome 89.0.4389.114,,,2021-04-05 14:46:40,2021-04-05 14:47:12,31.967s,FAILED
,,,,,,,
Test Cases/Features/FastConnect,Chrome 89.0.4389.114,,,2021-04-05 14:47:12,2021-04-05 14:48:02,49.613s,FAILED
openBrowser(URL),Chrome 89.0.4389.114,,,2021-04-05 14:47:12,2021-04-05 14:47:15,2.764s,PASSED
"setText(findTestObject(""Login Page/Email""), email)",Chrome 89.0.4389.114,,,2021-04-05 14:47:15,2021-04-05 14:47:15,0.166s,PASSED
"setText(findTestObject(""Login Page/password""), password)",Chrome 89.0.4389.114,,,2021-04-05 14:47:15,2021-04-05 14:47:15,0.112s,PASSED
"click(findTestObject(""Login Page/Sign In""))",Chrome 89.0.4389.114,,,2021-04-05 14:47:15,2021-04-05 14:47:18,2.407s,PASSED
"waitForElementVisible(findTestObject(""Top Navigation Menu/Dashboard""), 60)",Chrome 89.0.4389.114,,,2021-04-05 14:47:18,2021-04-05 14:47:19,0.632s,PASSED
"enhancedClick(findTestObject(""Top Navigation Menu/Recruits""))",Chrome 89.0.4389.114,,,2021-04-05 14:47:19,2021-04-05 14:47:19,0.157s,PASSED
"enhancedClick(findTestObject(""Recruits Page/FastConnect tab""))",Chrome 89.0.4389.114,,,2021-04-05 14:47:19,2021-04-05 14:47:19,0.157s,PASSED
"enhancedClick(findTestObject(""Recruits Page/FastConnect/List dropdown""))",Chrome 89.0.4389.114,,,2021-04-05 14:47:19,2021-04-05 14:47:19,0.087s,PASSED
"enhancedClick(findTestObject(""Recruits Page/FastConnect/All Recruits list dropdown""))",Chrome 89.0.4389.114,,,2021-04-05 14:47:19,2021-04-05 14:47:20,0.606s,PASSED
delay(10),Chrome 89.0.4389.114,,,2021-04-05 14:47:20,2021-04-05 14:47:30,10.002s,PASSED
"verifyElementVisible(findTestObject(""Recruits Page/FastConnect/Fastconnect post1""), STOP_ON_FAILURE)",Chrome 89.0.4389.114,,,2021-04-05 14:47:30,2021-04-05 14:48:02,32.360s,FAILED
,,,,,,,
Test Cases/Tourney Workflow,Chrome 89.0.4389.114,,,2021-04-05 14:48:02,2021-04-05 14:48:49,47.194s,FAILED
openBrowser(URL),Chrome 89.0.4389.114,,,2021-04-05 14:48:02,2021-04-05 14:48:04,2.186s,PASSED
"setText(findTestObject(""Login Page/Email""), email)",Chrome 89.0.4389.114,,,2021-04-05 14:48:04,2021-04-05 14:48:04,0.156s,PASSED
"setText(findTestObject(""Login Page/password""), password)",Chrome 89.0.4389.114,,,2021-04-05 14:48:04,2021-04-05 14:48:04,0.094s,PASSED
"click(findTestObject(""Login Page/Sign In""))",Chrome 89.0.4389.114,,,2021-04-05 14:48:04,2021-04-05 14:48:07,2.389s,PASSED
"waitForElementVisible(findTestObject(""Top Navigation Menu/Dashboard""), 60)",Chrome 89.0.4389.114,,,2021-04-05 14:48:07,2021-04-05 14:48:07,0.517s,PASSED
"enhancedClick(findTestObject(""Top Navigation Menu/Tourneys""))",Chrome 89.0.4389.114,,,2021-04-05 14:48:07,2021-04-05 14:48:07,0.091s,PASSED
"enhancedClick(findTestObject(""Tourneys page/Tourney list dropdown""))",Chrome 89.0.4389.114,,,2021-04-05 14:48:07,2021-04-05 14:48:08,0.935s,PASSED
enhancedClick(tourneySession),Chrome 89.0.4389.114,,,2021-04-05 14:48:08,2021-04-05 14:48:08,0.075s,PASSED
"enhancedClick(findTestObject(""Tourneys page/Tourneys header""))",Chrome 89.0.4389.114,,,2021-04-05 14:48:08,2021-04-05 14:48:09,0.069s,PASSED
"enhancedClick(findTestObject(""Tourneys page/Tourney1 listed""))",Chrome 89.0.4389.114,,,2021-04-05 14:48:09,2021-04-05 14:48:09,0.214s,PASSED
"enhancedClick(findTestObject(""Tourneys page/Assign Staff button""))",Chrome 89.0.4389.114,,,2021-04-05 14:48:09,2021-04-05 14:48:09,0.333s,PASSED
"enhancedClick(findTestObject(""Tourneys page/Assign Staff User1 checkbox""))",Chrome 89.0.4389.114,,,2021-04-05 14:48:09,2021-04-05 14:48:09,0.113s,PASSED
"enhancedClick(findTestObject(""Tourneys page/Assign Staff SAVE button""))",Chrome 89.0.4389.114,,,2021-04-05 14:48:09,2021-04-05 14:48:09,0.081s,PASSED
delay(1),Chrome 89.0.4389.114,,,2021-04-05 14:48:09,2021-04-05 14:48:10,1.004s,PASSED
"enhancedClick(findTestObject(""Tourneys page/Assign Recruits button""))",Chrome 89.0.4389.114,,,2021-04-05 14:48:10,2021-04-05 14:48:10,0.108s,PASSED
"enhancedClick(findTestObject(""Tourneys page/Select Recruits dropdown""))",Chrome 89.0.4389.114,,,2021-04-05 14:48:10,2021-04-05 14:48:11,0.576s,PASSED
"enhancedClick(findTestObject(""Tourneys page/Assign Recruits dropdown list1""))",Chrome 89.0.4389.114,,,2021-04-05 14:48:11,2021-04-05 14:48:11,0.084s,PASSED
"enhancedClick(findTestObject(""Tourneys page/Assign Recruits SAVE button""))",Chrome 89.0.4389.114,,,2021-04-05 14:48:11,2021-04-05 14:48:11,0.084s,PASSED
"enhancedClick(findTestObject(""Tourneys page/Select Tourney Team dropdown""))",Chrome 89.0.4389.114,,,2021-04-05 14:48:11,2021-04-05 14:48:12,0.356s,PASSED
"enhancedClick(findTestObject(""Tourneys page/Select Tourney Team dropdown1""))",Chrome 89.0.4389.114,,,2021-04-05 14:48:12,2021-04-05 14:48:12,0.082s,PASSED
delay(2),Chrome 89.0.4389.114,,,2021-04-05 14:48:12,2021-04-05 14:48:14,2.006s,PASSED
"enhancedClick(findTestObject(""Tourneys page/Tourney GAMES tab""))",Chrome 89.0.4389.114,,,2021-04-05 14:48:14,2021-04-05 14:48:14,0.108s,PASSED
delay(3),Chrome 89.0.4389.114,,,2021-04-05 14:48:14,2021-04-05 14:48:17,3.010s,PASSED
"verifyElementPresent(findTestObject(""Tourneys page/GAMES tab row1""), 0)",Chrome 89.0.4389.114,,,2021-04-05 14:48:17,2021-04-05 14:48:49,32.368s,FAILED
,,,,,,,
Test Cases/Features/Prospects View,Chrome 89.0.4389.114,,,2021-04-05 14:48:49,2021-04-05 14:49:28,38.459s,FAILED
openBrowser(URL),Chrome 89.0.4389.114,,,2021-04-05 14:48:49,2021-04-05 14:48:51,1.805s,PASSED
"setText(findTestObject(""Login Page/Email""), email2)",Chrome 89.0.4389.114,,,2021-04-05 14:48:51,2021-04-05 14:48:51,0.146s,PASSED
"setText(findTestObject(""Login Page/password""), password)",Chrome 89.0.4389.114,,,2021-04-05 14:48:51,2021-04-05 14:48:51,0.101s,PASSED
"click(findTestObject(""Login Page/Sign In""))",Chrome 89.0.4389.114,,,2021-04-05 14:48:51,2021-04-05 14:48:54,2.336s,PASSED
"waitForElementVisible(findTestObject(""Top Navigation Menu/Dashboard""), 60)",Chrome 89.0.4389.114,,,2021-04-05 14:48:54,2021-04-05 14:48:54,0.573s,PASSED
"enhancedClick(findTestObject(""Prospects View/Add Prospect button""))",Chrome 89.0.4389.114,,,2021-04-05 14:48:54,2021-04-05 14:48:54,0.091s,PASSED
"enhancedClick(findTestObject(""Prospects View/Link Player Stats button""))",Chrome 89.0.4389.114,,,2021-04-05 14:48:54,2021-04-05 14:48:56,1.262s,PASSED
"enhancedClick(findTestObject(""Recruits Page/Add New Recruit modal/LinkToFastScout Folder/League_Division dropdown""))",Chrome 89.0.4389.114,,,2021-04-05 14:48:56,2021-04-05 14:48:56,0.106s,PASSED
"enhancedClick(findTestObject(""Recruits Page/Add New Recruit modal/LinkToFastScout Folder/D-II League""))",Chrome 89.0.4389.114,,,2021-04-05 14:48:56,2021-04-05 14:48:56,0.120s,PASSED
"enhancedClick(findTestObject(""Prospects View/Link Player Stats Team dropdown (Prospects)""))",Chrome 89.0.4389.114,,,2021-04-05 14:48:56,2021-04-05 14:49:28,31.776s,FAILED
