Suite/Test/Step Name,Browser,Description,Tag,Start time,End time,Duration,Status
Regression Tests,Chrome 88.0.4324.192,,,2021-03-09 08:56:01,2021-03-09 09:00:27,4m - 25.240s,FAILED
,,,,,,,
Test Cases/Draft Board,Chrome 88.0.4324.192,,,2021-03-09 08:56:02,2021-03-09 08:57:06,1m - 4.247s,FAILED
openBrowser(URL),Chrome 88.0.4324.192,,,2021-03-09 08:56:02,2021-03-09 08:56:05,3.067s,PASSED
"setText(findTestObject(""Login Page/Email""), email)",Chrome 88.0.4324.192,,,2021-03-09 08:56:05,2021-03-09 08:56:06,0.508s,PASSED
"setText(findTestObject(""Login Page/password""), password)",Chrome 88.0.4324.192,,,2021-03-09 08:56:06,2021-03-09 08:56:06,0.120s,PASSED
"click(findTestObject(""Login Page/Sign In""))",Chrome 88.0.4324.192,,,2021-03-09 08:56:06,2021-03-09 08:56:08,2.421s,PASSED
"waitForElementVisible(findTestObject(""Top Navigation Menu/Dashboard""), 60)",Chrome 88.0.4324.192,,,2021-03-09 08:56:08,2021-03-09 08:56:09,0.681s,PASSED
"enhancedClick(findTestObject(""Top Navigation Menu/Dashboard""))",Chrome 88.0.4324.192,,,2021-03-09 08:56:09,2021-03-09 08:56:09,0.099s,PASSED
delay(3),Chrome 88.0.4324.192,,,2021-03-09 08:56:09,2021-03-09 08:56:12,3.078s,PASSED
"mouseOver(findTestObject(""Dashboard Page/Draft Board (Dashboard)/blank 1-PG on Draft Board (Dashboard)""))",Chrome 88.0.4324.192,,,2021-03-09 08:56:12,2021-03-09 08:56:12,0.227s,PASSED
"enhancedClick(findTestObject(""Dashboard Page/Draft Board (Dashboard)/blank 1-PG on Draft Board (Dashboard)""))",Chrome 88.0.4324.192,,,2021-03-09 08:56:12,2021-03-09 08:56:13,0.088s,PASSED
"enhancedClick(findTestObject(""Dashboard Page/Draft Board (Dashboard)/Draft Board Dropdown Player1""))",Chrome 88.0.4324.192,,,2021-03-09 08:56:13,2021-03-09 08:56:13,0.148s,PASSED
"mouseOver(findTestObject(""Dashboard Page/Draft Board (Dashboard)/1-PG on Draft Board""))",Chrome 88.0.4324.192,,,2021-03-09 08:56:13,2021-03-09 08:56:13,0.290s,PASSED
"enhancedClick(findTestObject(""Dashboard Page/Draft Board (Dashboard)/1-PG on Draft Board""))",Chrome 88.0.4324.192,,,2021-03-09 08:56:13,2021-03-09 08:56:13,0.110s,PASSED
delay(1),Chrome 88.0.4324.192,,,2021-03-09 08:56:13,2021-03-09 08:56:14,1.003s,PASSED
"enhancedClick(findTestObject(""Recruit Profile (view)/Alerts button""))",Chrome 88.0.4324.192,,,2021-03-09 08:56:14,2021-03-09 08:56:14,0.088s,PASSED
"enhancedClick(findTestObject(""Recruit Profile (view)/CLOSE button""))",Chrome 88.0.4324.192,,,2021-03-09 08:56:14,2021-03-09 08:56:14,0.100s,PASSED
"verifyElementVisible(findTestObject(""Dashboard Page/Draft Board (Dashboard)/Alerts bell indicator""))",Chrome 88.0.4324.192,,,2021-03-09 08:56:14,2021-03-09 08:56:14,0.080s,PASSED
"mouseOver(findTestObject(""Dashboard Page/Draft Board (Dashboard)/1-PG on Draft Board""))",Chrome 88.0.4324.192,,,2021-03-09 08:56:14,2021-03-09 08:56:15,0.184s,PASSED
"enhancedClick(findTestObject(""Dashboard Page/Draft Board (Dashboard)/1-PG on Draft Board""))",Chrome 88.0.4324.192,,,2021-03-09 08:56:15,2021-03-09 08:56:15,0.121s,PASSED
"enhancedClick(findTestObject(""Recruit Profile (view)/Alerts button""))",Chrome 88.0.4324.192,,,2021-03-09 08:56:15,2021-03-09 08:56:15,0.095s,PASSED
"mouseOver(findTestObject(""Dashboard Page/Draft Board (Dashboard)/1-PG on Draft Board""))",Chrome 88.0.4324.192,,,2021-03-09 08:56:15,2021-03-09 08:56:15,0.201s,PASSED
"enhancedClick(findTestObject(""Recruit Profile (view)/CLOSE button""))",Chrome 88.0.4324.192,,,2021-03-09 08:56:15,2021-03-09 08:56:15,0.116s,PASSED
delay(1),Chrome 88.0.4324.192,,,2021-03-09 08:56:15,2021-03-09 08:56:16,1.003s,PASSED
"verifyElementNotPresent(findTestObject(""Dashboard Page/Draft Board (Dashboard)/Alerts bell indicator""), 0)",Chrome 88.0.4324.192,,,2021-03-09 08:56:16,2021-03-09 08:56:16,0.099s,PASSED
"mouseOver(findTestObject(""Dashboard Page/Draft Board (Dashboard)/1-PG on Draft Board""))",Chrome 88.0.4324.192,,,2021-03-09 08:56:16,2021-03-09 08:56:16,0.181s,PASSED
"enhancedClick(findTestObject(""Dashboard Page/Draft Board (Dashboard)/Delete 1-PG on Draft Board""))",Chrome 88.0.4324.192,,,2021-03-09 08:56:16,2021-03-09 08:56:16,0.108s,PASSED
"enhancedClick(findTestObject(""Dashboard Page/Draft Board (Dashboard)/Draft Board Season Dropdown""))",Chrome 88.0.4324.192,,,2021-03-09 08:56:16,2021-03-09 08:56:17,0.100s,PASSED
"enhancedClick(findTestObject(""Dashboard Page/Draft Board (Dashboard)/Draft Board Season Dropdown - 2023""))",Chrome 88.0.4324.192,,,2021-03-09 08:56:17,2021-03-09 08:56:17,0.093s,PASSED
"mouseOver(findTestObject(""Dashboard Page/Draft Board (Dashboard)/blank 1-PG on Draft Board (Dashboard)""))",Chrome 88.0.4324.192,,,2021-03-09 08:56:17,2021-03-09 08:56:17,0.175s,PASSED
"enhancedClick(findTestObject(""Dashboard Page/Draft Board (Dashboard)/blank 1-PG on Draft Board (Dashboard)""))",Chrome 88.0.4324.192,,,2021-03-09 08:56:17,2021-03-09 08:56:17,0.075s,PASSED
"enhancedClick(findTestObject(""Dashboard Page/Draft Board (Dashboard)/Draft Board Dropdown Player1""))",Chrome 88.0.4324.192,,,2021-03-09 08:56:17,2021-03-09 08:56:17,0.155s,PASSED
delay(1),Chrome 88.0.4324.192,,,2021-03-09 08:56:17,2021-03-09 08:56:18,1.006s,PASSED
"mouseOver(findTestObject(""Dashboard Page/Draft Board (Dashboard)/blank 2-PG on Draft Board (Dashboard)""))",Chrome 88.0.4324.192,,,2021-03-09 08:56:18,2021-03-09 08:56:18,0.175s,PASSED
"enhancedClick(findTestObject(""Dashboard Page/Draft Board (Dashboard)/blank 2-PG on Draft Board (Dashboard)""))",Chrome 88.0.4324.192,,,2021-03-09 08:56:18,2021-03-09 08:56:18,0.077s,PASSED
"enhancedClick(findTestObject(""Dashboard Page/Draft Board (Dashboard)/Recruit Search field""))",Chrome 88.0.4324.192,,,2021-03-09 08:56:18,2021-03-09 08:56:18,0.086s,PASSED
"sendKeys(findTestObject(""Dashboard Page/Draft Board (Dashboard)/Recruit Search field""), ""Mikey Williams"")",Chrome 88.0.4324.192,,,2021-03-09 08:56:18,2021-03-09 08:56:18,0.085s,PASSED
delay(2),Chrome 88.0.4324.192,,,2021-03-09 08:56:18,2021-03-09 08:56:20,2.006s,PASSED
"enhancedClick(findTestObject(""Dashboard Page/Draft Board (Dashboard)/Draft Board Dropdown Player2""))",Chrome 88.0.4324.192,,,2021-03-09 08:56:20,2021-03-09 08:56:21,0.099s,PASSED
"mouseOver(findTestObject(""Dashboard Page/Draft Board (Dashboard)/2-PG on Draft Board""))",Chrome 88.0.4324.192,,,2021-03-09 08:56:21,2021-03-09 08:56:21,0.265s,PASSED
"enhancedClick(findTestObject(""Dashboard Page/Draft Board (Dashboard)/Delete 2-PG on Draft Board""))",Chrome 88.0.4324.192,,,2021-03-09 08:56:21,2021-03-09 08:56:21,0.094s,PASSED
"mouseOver(findTestObject(""Dashboard Page/Draft Board (Dashboard)/1-PG on Draft Board""))",Chrome 88.0.4324.192,,,2021-03-09 08:56:21,2021-03-09 08:56:21,0.193s,PASSED
"enhancedClick(findTestObject(""Dashboard Page/Draft Board (Dashboard)/Delete 1-PG on Draft Board""))",Chrome 88.0.4324.192,,,2021-03-09 08:56:21,2021-03-09 08:56:21,0.096s,PASSED
"enhancedClick(findTestObject(""Dashboard Page/Draft Board (Dashboard)/Draft Board Link""))",Chrome 88.0.4324.192,,,2021-03-09 08:56:21,2021-03-09 08:56:21,0.141s,PASSED
"mouseOver(findTestObject(""Recruits Page/Draft Board (Recruits)/blank PG1 Draft Board-Recruits""))",Chrome 88.0.4324.192,,,2021-03-09 08:56:21,2021-03-09 08:56:22,0.193s,PASSED
"enhancedClick(findTestObject(""Recruits Page/Draft Board (Recruits)/blank PG1 Draft Board-Recruits""))",Chrome 88.0.4324.192,,,2021-03-09 08:56:22,2021-03-09 08:56:22,0.085s,PASSED
"enhancedClick(findTestObject(""Recruits Page/Draft Board (Recruits)/Draft Board dropdown P1 (Recruits)""))",Chrome 88.0.4324.192,,,2021-03-09 08:56:22,2021-03-09 08:56:22,0.114s,PASSED
"mouseOver(findTestObject(""Dashboard Page/Draft Board (Dashboard)/1-PG on Draft Board""))",Chrome 88.0.4324.192,,,2021-03-09 08:56:22,2021-03-09 08:56:22,0.230s,PASSED
"enhancedClick(findTestObject(""Recruits Page/Draft Board (Recruits)/Draft Board Color Dropper icon""))",Chrome 88.0.4324.192,,,2021-03-09 08:56:22,2021-03-09 08:56:22,0.085s,PASSED
"enhancedClick(findTestObject(""Recruits Page/Draft Board (Recruits)/Yellow Color Draft Board""))",Chrome 88.0.4324.192,,,2021-03-09 08:56:22,2021-03-09 08:56:23,1.277s,PASSED
delay(1),Chrome 88.0.4324.192,,,2021-03-09 08:56:23,2021-03-09 08:56:24,1.007s,PASSED
"verifyElementAttributeValue(findTestObject(""Dashboard Page/Draft Board (Dashboard)/1-PG on Draft Board""), ""class"", ""draft-board-player dashboard-player css-1n2x8eh-DraftBoard"", 0)",Chrome 88.0.4324.192,,,2021-03-09 08:56:24,2021-03-09 08:56:24,0.069s,PASSED
"mouseOver(findTestObject(""Dashboard Page/Draft Board (Dashboard)/1-PG on Draft Board""))",Chrome 88.0.4324.192,,,2021-03-09 08:56:24,2021-03-09 08:56:25,0.169s,PASSED
"enhancedClick(findTestObject(""Recruits Page/Draft Board (Recruits)/Draft Board Color Dropper icon""))",Chrome 88.0.4324.192,,,2021-03-09 08:56:25,2021-03-09 08:56:25,0.067s,PASSED
"enhancedClick(findTestObject(""Recruits Page/Draft Board (Recruits)/Green Color Draft Board""))",Chrome 88.0.4324.192,,,2021-03-09 08:56:25,2021-03-09 08:56:25,0.083s,PASSED
delay(1),Chrome 88.0.4324.192,,,2021-03-09 08:56:25,2021-03-09 08:56:26,1.003s,PASSED
"verifyElementAttributeValue(findTestObject(""Dashboard Page/Draft Board (Dashboard)/1-PG on Draft Board""), ""class"", ""draft-board-player dashboard-player css-15mrb88-DraftBoard"", 0)",Chrome 88.0.4324.192,,,2021-03-09 08:56:26,2021-03-09 08:56:26,0.060s,PASSED
"mouseOver(findTestObject(""Dashboard Page/Draft Board (Dashboard)/1-PG on Draft Board""))",Chrome 88.0.4324.192,,,2021-03-09 08:56:26,2021-03-09 08:56:26,0.187s,PASSED
"enhancedClick(findTestObject(""Recruits Page/Draft Board (Recruits)/Draft Board Color Dropper icon""))",Chrome 88.0.4324.192,,,2021-03-09 08:56:26,2021-03-09 08:56:26,0.059s,PASSED
"enhancedClick(findTestObject(""Recruits Page/Draft Board (Recruits)/Draft Board Color pencil icon""))",Chrome 88.0.4324.192,,,2021-03-09 08:56:26,2021-03-09 08:56:27,0.693s,PASSED
"enhancedClick(findTestObject(""Recruits Page/Draft Board (Recruits)/Add Draft Board Color plus button""))",Chrome 88.0.4324.192,,,2021-03-09 08:56:27,2021-03-09 08:56:27,0.111s,PASSED
"doubleClick(findTestObject(""Recruits Page/Draft Board (Recruits)/Draft Board Color Hex field""))",Chrome 88.0.4324.192,,,2021-03-09 08:56:27,2021-03-09 08:56:27,0.229s,PASSED
"sendKeys(findTestObject(""Recruits Page/Draft Board (Recruits)/Draft Board Color Hex field""), ""4832a8"")",Chrome 88.0.4324.192,,,2021-03-09 08:56:27,2021-03-09 08:56:27,0.086s,PASSED
"enhancedClick(findTestObject(""Recruits Page/Draft Board (Recruits)/Manage Colors Close button""))",Chrome 88.0.4324.192,,,2021-03-09 08:56:27,2021-03-09 08:56:27,0.087s,PASSED
"mouseOver(findTestObject(""Dashboard Page/Draft Board (Dashboard)/1-PG on Draft Board""))",Chrome 88.0.4324.192,,,2021-03-09 08:56:27,2021-03-09 08:56:27,0.228s,PASSED
"enhancedClick(findTestObject(""Recruits Page/Draft Board (Recruits)/Draft Board Color Dropper icon""))",Chrome 88.0.4324.192,,,2021-03-09 08:56:27,2021-03-09 08:56:28,0.238s,PASSED
"enhancedClick(findTestObject(""Recruits Page/Draft Board (Recruits)/My Custom Color Draft Board""))",Chrome 88.0.4324.192,,,2021-03-09 08:56:28,2021-03-09 08:56:28,0.092s,PASSED
delay(1),Chrome 88.0.4324.192,,,2021-03-09 08:56:28,2021-03-09 08:56:29,1.005s,PASSED
"verifyElementAttributeValue(findTestObject(""Dashboard Page/Draft Board (Dashboard)/1-PG on Draft Board""), ""class"", ""draft-board-player dashboard-player css-ms4n7m-DraftBoard"", 0)",Chrome 88.0.4324.192,,,2021-03-09 08:56:29,2021-03-09 08:56:29,0.072s,PASSED
"mouseOver(findTestObject(""Dashboard Page/Draft Board (Dashboard)/1-PG on Draft Board""))",Chrome 88.0.4324.192,,,2021-03-09 08:56:29,2021-03-09 08:56:29,0.168s,PASSED
"enhancedClick(findTestObject(""Recruits Page/Draft Board (Recruits)/Draft Board Color Dropper icon""))",Chrome 88.0.4324.192,,,2021-03-09 08:56:29,2021-03-09 08:56:29,0.065s,PASSED
"enhancedClick(findTestObject(""Recruits Page/Draft Board (Recruits)/Reset Draft Board color""))",Chrome 88.0.4324.192,,,2021-03-09 08:56:29,2021-03-09 08:56:30,0.638s,PASSED
delay(1),Chrome 88.0.4324.192,,,2021-03-09 08:56:30,2021-03-09 08:56:31,1.005s,PASSED
"verifyElementAttributeValue(findTestObject(""Dashboard Page/Draft Board (Dashboard)/1-PG on Draft Board""), ""class"", ""draft-board-player dashboard-player css-g7hzzu-DraftBoard"", 0)",Chrome 88.0.4324.192,,,2021-03-09 08:56:31,2021-03-09 08:56:31,0.057s,PASSED
"mouseOver(findTestObject(""Dashboard Page/Draft Board (Dashboard)/1-PG on Draft Board""))",Chrome 88.0.4324.192,,,2021-03-09 08:56:31,2021-03-09 08:56:31,0.173s,PASSED
"enhancedClick(findTestObject(""Recruits Page/Draft Board (Recruits)/Draft Board Color Dropper icon""))",Chrome 88.0.4324.192,,,2021-03-09 08:56:31,2021-03-09 08:56:31,0.063s,PASSED
"enhancedClick(findTestObject(""Recruits Page/Draft Board (Recruits)/Draft Board Color pencil icon""))",Chrome 88.0.4324.192,,,2021-03-09 08:56:31,2021-03-09 08:56:31,0.090s,PASSED
"mouseOver(findTestObject(""Recruits Page/Draft Board (Recruits)/Manage Colors Custom1""))",Chrome 88.0.4324.192,,,2021-03-09 08:56:31,2021-03-09 08:56:31,0.185s,PASSED
"enhancedClick(findTestObject(""Recruits Page/Draft Board (Recruits)/Delete custom color1""))",Chrome 88.0.4324.192,,,2021-03-09 08:56:31,2021-03-09 08:57:06,34.797s,FAILED
,,,,,,,
Test Cases/Depth Chart,Chrome 88.0.4324.192,,,2021-03-09 08:57:06,2021-03-09 08:57:21,14.424s,PASSED
openBrowser(URL),Chrome 88.0.4324.192,,,2021-03-09 08:57:06,2021-03-09 08:57:08,1.613s,PASSED
"setText(findTestObject(""Login Page/Email""), email)",Chrome 88.0.4324.192,,,2021-03-09 08:57:08,2021-03-09 08:57:08,0.502s,PASSED
"setText(findTestObject(""Login Page/password""), password)",Chrome 88.0.4324.192,,,2021-03-09 08:57:08,2021-03-09 08:57:09,0.107s,PASSED
"click(findTestObject(""Login Page/Sign In""))",Chrome 88.0.4324.192,,,2021-03-09 08:57:09,2021-03-09 08:57:11,2.617s,PASSED
"waitForElementVisible(findTestObject(""Top Navigation Menu/Dashboard""), 60)",Chrome 88.0.4324.192,,,2021-03-09 08:57:11,2021-03-09 08:57:12,0.539s,PASSED
"enhancedClick(findTestObject(""Top Navigation Menu/Dashboard""))",Chrome 88.0.4324.192,,,2021-03-09 08:57:12,2021-03-09 08:57:12,0.084s,PASSED
delay(3),Chrome 88.0.4324.192,,,2021-03-09 08:57:12,2021-03-09 08:57:15,3.006s,PASSED
"enhancedClick(findTestObject(""Dashboard Page/Depth Chart/Depth Chart season dropdown""))",Chrome 88.0.4324.192,,,2021-03-09 08:57:15,2021-03-09 08:57:15,0.109s,PASSED
"enhancedClick(findTestObject(""Dashboard Page/Depth Chart/Season Dropdown Index3""))",Chrome 88.0.4324.192,,,2021-03-09 08:57:15,2021-03-09 08:57:16,1.294s,PASSED
"enhancedClick(findTestObject(""Dashboard Page/Depth Chart/Depth Chart season dropdown""))",Chrome 88.0.4324.192,,,2021-03-09 08:57:16,2021-03-09 08:57:16,0.069s,PASSED
"enhancedClick(findTestObject(""Dashboard Page/Depth Chart/Season Dropdown Index2""))",Chrome 88.0.4324.192,,,2021-03-09 08:57:16,2021-03-09 08:57:16,0.095s,PASSED
"enhancedClick(findTestObject(""Dashboard Page/Depth Chart/EDIT Depth Chart""))",Chrome 88.0.4324.192,,,2021-03-09 08:57:16,2021-03-09 08:57:16,0.153s,PASSED
"enhancedClick(findTestObject(""Dashboard Page/Depth Chart/Depth Chart Edit (sr, pg, 1)""))",Chrome 88.0.4324.192,,,2021-03-09 08:57:16,2021-03-09 08:57:17,0.163s,PASSED
"enhancedClick(findTestObject(""Dashboard Page/Depth Chart/SAVE Depth Chart""))",Chrome 88.0.4324.192,,,2021-03-09 08:57:17,2021-03-09 08:57:17,0.101s,PASSED
delay(2),Chrome 88.0.4324.192,,,2021-03-09 08:57:17,2021-03-09 08:57:19,2.003s,PASSED
"verifyTextNotPresent(playerHidden, false)",Chrome 88.0.4324.192,,,2021-03-09 08:57:19,2021-03-09 08:57:19,0.142s,PASSED
"enhancedClick(findTestObject(""Dashboard Page/Depth Chart/EDIT Depth Chart""))",Chrome 88.0.4324.192,,,2021-03-09 08:57:19,2021-03-09 08:57:19,0.132s,PASSED
"enhancedClick(findTestObject(""Dashboard Page/Depth Chart/Depth Chart Edit (sr, pg, 1)""))",Chrome 88.0.4324.192,,,2021-03-09 08:57:19,2021-03-09 08:57:19,0.125s,PASSED
"enhancedClick(findTestObject(""Dashboard Page/Depth Chart/SAVE Depth Chart""))",Chrome 88.0.4324.192,,,2021-03-09 08:57:19,2021-03-09 08:57:19,0.086s,PASSED
"verifyTextPresent(playerHidden, false)",Chrome 88.0.4324.192,,,2021-03-09 08:57:19,2021-03-09 08:57:19,0.255s,PASSED
delay(1),Chrome 88.0.4324.192,,,2021-03-09 08:57:19,2021-03-09 08:57:20,1.008s,PASSED
closeBrowser(),Chrome 88.0.4324.192,,,2021-03-09 08:57:20,2021-03-09 08:57:21,0.087s,PASSED
,,,,,,,
Test Cases/Dashboard Calendar,Chrome 88.0.4324.192,,,2021-03-09 08:57:21,2021-03-09 08:57:49,28.771s,PASSED
openBrowser(URL),Chrome 88.0.4324.192,,,2021-03-09 08:57:21,2021-03-09 08:57:22,1.608s,PASSED
"setText(findTestObject(""Login Page/Email""), email)",Chrome 88.0.4324.192,,,2021-03-09 08:57:22,2021-03-09 08:57:23,0.479s,PASSED
"setText(findTestObject(""Login Page/password""), password)",Chrome 88.0.4324.192,,,2021-03-09 08:57:23,2021-03-09 08:57:23,0.108s,PASSED
"click(findTestObject(""Login Page/Sign In""))",Chrome 88.0.4324.192,,,2021-03-09 08:57:23,2021-03-09 08:57:26,2.918s,PASSED
"waitForElementVisible(findTestObject(""Top Navigation Menu/Dashboard""), 60)",Chrome 88.0.4324.192,,,2021-03-09 08:57:26,2021-03-09 08:57:26,0.592s,PASSED
"enhancedClick(findTestObject(""Top Navigation Menu/Recruits""))",Chrome 88.0.4324.192,,,2021-03-09 08:57:26,2021-03-09 08:57:27,0.127s,PASSED
delay(3),Chrome 88.0.4324.192,,,2021-03-09 08:57:27,2021-03-09 08:57:30,3.006s,PASSED
"enhancedClick(findTestObject(""Top Navigation Menu/Dashboard""))",Chrome 88.0.4324.192,,,2021-03-09 08:57:30,2021-03-09 08:57:30,0.202s,PASSED
delay(3),Chrome 88.0.4324.192,,,2021-03-09 08:57:30,2021-03-09 08:57:33,3.005s,PASSED
"enhancedClick(findTestObject(""Dashboard Page/Calendar (Dashboard)/Toggle Left (Calendar Dashboard)""))",Chrome 88.0.4324.192,,,2021-03-09 08:57:33,2021-03-09 08:57:33,0.109s,PASSED
delay(5),Chrome 88.0.4324.192,,,2021-03-09 08:57:33,2021-03-09 08:57:38,5.006s,PASSED
"enhancedClick(findTestObject(""Dashboard Page/Calendar (Dashboard)/Toggle Right (Calendar Dashboard)""))",Chrome 88.0.4324.192,,,2021-03-09 08:57:38,2021-03-09 08:57:39,1.103s,PASSED
delay(5),Chrome 88.0.4324.192,,,2021-03-09 08:57:39,2021-03-09 08:57:44,5.008s,PASSED
"enhancedClick(findTestObject(""Dashboard Page/Calendar (Dashboard)/Dashboard Calendar SHOW dropdown""))",Chrome 88.0.4324.192,,,2021-03-09 08:57:44,2021-03-09 08:57:44,0.103s,PASSED
"enhancedClick(findTestObject(""Dashboard Page/Calendar (Dashboard)/My Calendar option""))",Chrome 88.0.4324.192,,,2021-03-09 08:57:44,2021-03-09 08:57:44,0.088s,PASSED
"enhancedClick(findTestObject(""Dashboard Page/Calendar (Dashboard)/My Calendar option""))",Chrome 88.0.4324.192,,,2021-03-09 08:57:44,2021-03-09 08:57:44,0.079s,PASSED
"enhancedClick(findTestObject(""Dashboard Page/Calendar (Dashboard)/Team calendar option""))",Chrome 88.0.4324.192,,,2021-03-09 08:57:44,2021-03-09 08:57:44,0.084s,PASSED
"enhancedClick(findTestObject(""Dashboard Page/Calendar (Dashboard)/Team calendar option""))",Chrome 88.0.4324.192,,,2021-03-09 08:57:44,2021-03-09 08:57:44,0.057s,PASSED
"enhancedClick(findTestObject(""Dashboard Page/Calendar (Dashboard)/Tasks calendar option""))",Chrome 88.0.4324.192,,,2021-03-09 08:57:44,2021-03-09 08:57:45,0.073s,PASSED
"enhancedClick(findTestObject(""Dashboard Page/Calendar (Dashboard)/Tasks calendar option""))",Chrome 88.0.4324.192,,,2021-03-09 08:57:45,2021-03-09 08:57:45,0.071s,PASSED
"enhancedClick(findTestObject(""Dashboard Page/Calendar (Dashboard)/NCAA Calendar option""))",Chrome 88.0.4324.192,,,2021-03-09 08:57:45,2021-03-09 08:57:45,0.079s,PASSED
"enhancedClick(findTestObject(""Dashboard Page/Calendar (Dashboard)/NCAA Calendar option""))",Chrome 88.0.4324.192,,,2021-03-09 08:57:45,2021-03-09 08:57:45,0.058s,PASSED
"enhancedClick(findTestObject(""Dashboard Page/Calendar (Dashboard)/My Live Period calendar option""))",Chrome 88.0.4324.192,,,2021-03-09 08:57:45,2021-03-09 08:57:45,0.071s,PASSED
"enhancedClick(findTestObject(""Dashboard Page/Calendar (Dashboard)/My Live Period calendar option""))",Chrome 88.0.4324.192,,,2021-03-09 08:57:45,2021-03-09 08:57:45,0.060s,PASSED
"enhancedClick(findTestObject(""Dashboard Page/Calendar (Dashboard)/Dashboard Calendar SHOW dropdown""))",Chrome 88.0.4324.192,,,2021-03-09 08:57:45,2021-03-09 08:57:45,0.065s,PASSED
"enhancedClick(findTestObject(""Dashboard Page/Calendar (Dashboard)/Dashboard Calendar Add New""))",Chrome 88.0.4324.192,,,2021-03-09 08:57:45,2021-03-09 08:57:45,0.142s,PASSED
"enhancedClick(findTestObject(""Dashboard Page/Calendar (Dashboard)/Add Event modal/Event Name field""))",Chrome 88.0.4324.192,,,2021-03-09 08:57:45,2021-03-09 08:57:45,0.097s,PASSED
"sendKeys(findTestObject(""Dashboard Page/Calendar (Dashboard)/Add Event modal/Event Name field""), ""Test Event1"")",Chrome 88.0.4324.192,,,2021-03-09 08:57:45,2021-03-09 08:57:45,0.084s,PASSED
"enhancedClick(findTestObject(""Dashboard Page/Calendar (Dashboard)/Add Event modal/Event Location field""))",Chrome 88.0.4324.192,,,2021-03-09 08:57:45,2021-03-09 08:57:45,0.092s,PASSED
"sendKeys(findTestObject(""Dashboard Page/Calendar (Dashboard)/Add Event modal/Event Location field""), ""444 N. Michigan Ave"")",Chrome 88.0.4324.192,,,2021-03-09 08:57:45,2021-03-09 08:57:45,0.114s,PASSED
delay(1),Chrome 88.0.4324.192,,,2021-03-09 08:57:45,2021-03-09 08:57:46,1.005s,PASSED
"enhancedClick(findTestObject(""Dashboard Page/Calendar (Dashboard)/Add Event modal/Select searched location""))",Chrome 88.0.4324.192,,,2021-03-09 08:57:46,2021-03-09 08:57:47,0.087s,PASSED
"enhancedClick(findTestObject(""Dashboard Page/Calendar (Dashboard)/Add Event modal/Select Recruits dropdown""))",Chrome 88.0.4324.192,,,2021-03-09 08:57:47,2021-03-09 08:57:47,0.083s,PASSED
"enhancedClick(findTestObject(""Dashboard Page/Calendar (Dashboard)/Add Event modal/Recruit1 in dropdown (Add Event modal)""))",Chrome 88.0.4324.192,,,2021-03-09 08:57:47,2021-03-09 08:57:47,0.083s,PASSED
"enhancedClick(findTestObject(""Dashboard Page/Calendar (Dashboard)/Add Event modal/Add Event Attendees""))",Chrome 88.0.4324.192,,,2021-03-09 08:57:47,2021-03-09 08:57:47,0.080s,PASSED
"enhancedClick(findTestObject(""Dashboard Page/Calendar (Dashboard)/Add Event modal/Recruiters checkbox""))",Chrome 88.0.4324.192,,,2021-03-09 08:57:47,2021-03-09 08:57:47,0.110s,PASSED
"enhancedClick(findTestObject(""Dashboard Page/Calendar (Dashboard)/Add Event modal/Game Note field""))",Chrome 88.0.4324.192,,,2021-03-09 08:57:47,2021-03-09 08:57:47,0.085s,PASSED
"sendKeys(findTestObject(""Dashboard Page/Calendar (Dashboard)/Add Event modal/Game Note field""), ""arrive early"")",Chrome 88.0.4324.192,,,2021-03-09 08:57:47,2021-03-09 08:57:47,0.147s,PASSED
"enhancedClick(findTestObject(""Dashboard Page/Calendar (Dashboard)/Add Event modal/Add Event Save button""))",Chrome 88.0.4324.192,,,2021-03-09 08:57:47,2021-03-09 08:57:47,0.086s,PASSED
delay(2),Chrome 88.0.4324.192,,,2021-03-09 08:57:47,2021-03-09 08:57:49,2.005s,PASSED
"verifyTextPresent(""Test Event1"", false)",Chrome 88.0.4324.192,,,2021-03-09 08:57:49,2021-03-09 08:57:49,0.141s,PASSED
,,,,,,,
Test Cases/Add_Archive_Delete New Recruit,Chrome 88.0.4324.192,,,2021-03-09 08:57:49,2021-03-09 08:58:07,18.001s,PASSED
openBrowser(URL),Chrome 88.0.4324.192,,,2021-03-09 08:57:50,2021-03-09 08:57:52,2.043s,PASSED
"setText(findTestObject(""Login Page/Email""), email)",Chrome 88.0.4324.192,,,2021-03-09 08:57:52,2021-03-09 08:57:52,0.463s,PASSED
"setText(findTestObject(""Login Page/password""), password)",Chrome 88.0.4324.192,,,2021-03-09 08:57:52,2021-03-09 08:57:52,0.116s,PASSED
"click(findTestObject(""Login Page/Sign In""))",Chrome 88.0.4324.192,,,2021-03-09 08:57:52,2021-03-09 08:57:54,2.304s,PASSED
"waitForElementVisible(findTestObject(""Top Navigation Menu/Dashboard""), 60)",Chrome 88.0.4324.192,,,2021-03-09 08:57:54,2021-03-09 08:57:55,0.666s,PASSED
"click(findTestObject(""Top Navigation Menu/Recruits""))",Chrome 88.0.4324.192,,,2021-03-09 08:57:55,2021-03-09 08:57:55,0.128s,PASSED
"click(findTestObject(""Recruits Page/ADD RECRUIT button""))",Chrome 88.0.4324.192,,,2021-03-09 08:57:55,2021-03-09 08:57:55,0.122s,PASSED
"setText(findTestObject(""Recruits Page/Add New Recruit modal/First Name field""), ""Josh"")",Chrome 88.0.4324.192,,,2021-03-09 08:57:55,2021-03-09 08:57:57,1.224s,PASSED
"setText(findTestObject(""Recruits Page/Add New Recruit modal/Last Name field""), ""Allen"")",Chrome 88.0.4324.192,,,2021-03-09 08:57:57,2021-03-09 08:57:57,0.137s,PASSED
"setText(findTestObject(""Recruits Page/Add New Recruit modal/Class field""), ""2023"")",Chrome 88.0.4324.192,,,2021-03-09 08:57:57,2021-03-09 08:57:57,0.132s,PASSED
"click(findTestObject(""Recruits Page/Add New Recruit modal/Height field input""))",Chrome 88.0.4324.192,,,2021-03-09 08:57:57,2021-03-09 08:57:57,0.090s,PASSED
"setText(findTestObject(""Recruits Page/Add New Recruit modal/Height field input""), ""69"")",Chrome 88.0.4324.192,,,2021-03-09 08:57:57,2021-03-09 08:57:57,0.100s,PASSED
"setText(findTestObject(""Recruits Page/Add New Recruit modal/Birthdate field input""), ""1/1/2005"")",Chrome 88.0.4324.192,,,2021-03-09 08:57:57,2021-03-09 08:57:57,0.244s,PASSED
"enhancedClick(findTestObject(""Recruits Page/Add New Recruit modal/Birthdate field Label""))",Chrome 88.0.4324.192,,,2021-03-09 08:57:57,2021-03-09 08:57:57,0.128s,PASSED
"setText(findTestObject(""Recruits Page/Add New Recruit modal/High School field input""), ""highland park"")",Chrome 88.0.4324.192,,,2021-03-09 08:57:57,2021-03-09 08:57:58,0.167s,PASSED
"sendKeys(findTestObject(""Recruits Page/Add New Recruit modal/High School field input""), Keys.chord(DOWN))",Chrome 88.0.4324.192,,,2021-03-09 08:57:58,2021-03-09 08:57:58,0.066s,PASSED
"sendKeys(findTestObject(""Recruits Page/Add New Recruit modal/High School field input""), Keys.chord(ENTER))",Chrome 88.0.4324.192,,,2021-03-09 08:57:58,2021-03-09 08:57:58,0.054s,PASSED
"setText(findTestObject(""Recruits Page/Add New Recruit modal/High School Coach Name field""), ""Coach Miller"")",Chrome 88.0.4324.192,,,2021-03-09 08:57:58,2021-03-09 08:57:58,0.164s,PASSED
"setText(findTestObject(""Recruits Page/Add New Recruit modal/High School Coach Phone field""), ""8474713163"")",Chrome 88.0.4324.192,,,2021-03-09 08:57:58,2021-03-09 08:57:58,0.162s,PASSED
"setText(findTestObject(""Recruits Page/Add New Recruit modal/Club Team field""), ""Mac Irvin Fire"")",Chrome 88.0.4324.192,,,2021-03-09 08:57:58,2021-03-09 08:57:58,0.175s,PASSED
"setText(findTestObject(""Recruits Page/Add New Recruit modal/Club Team Number field""), ""10"")",Chrome 88.0.4324.192,,,2021-03-09 08:57:58,2021-03-09 08:57:58,0.123s,PASSED
"click(findTestObject(""Recruits Page/Add New Recruit modal/SAVE button""))",Chrome 88.0.4324.192,,,2021-03-09 08:57:58,2021-03-09 08:57:58,0.147s,PASSED
"setText(findTestObject(""Recruits Page/Recruit Search Field on Recruits page""), ""josh allen"")",Chrome 88.0.4324.192,,,2021-03-09 08:57:58,2021-03-09 08:57:59,0.172s,PASSED
delay(1),Chrome 88.0.4324.192,,,2021-03-09 08:57:59,2021-03-09 08:58:00,1.006s,PASSED
"click(findTestObject(""Recruits Page/Archive recruit""))",Chrome 88.0.4324.192,,,2021-03-09 08:58:00,2021-03-09 08:58:00,0.090s,PASSED
delay(1),Chrome 88.0.4324.192,,,2021-03-09 08:58:00,2021-03-09 08:58:01,1.006s,PASSED
"click(findTestObject(""Recruits Page/All Recruits List selection""))",Chrome 88.0.4324.192,,,2021-03-09 08:58:01,2021-03-09 08:58:01,0.080s,PASSED
delay(1),Chrome 88.0.4324.192,,,2021-03-09 08:58:01,2021-03-09 08:58:02,1.003s,PASSED
"click(findTestObject(""Recruits Page/Archived List selection""))",Chrome 88.0.4324.192,,,2021-03-09 08:58:02,2021-03-09 08:58:02,0.118s,PASSED
delay(1),Chrome 88.0.4324.192,,,2021-03-09 08:58:02,2021-03-09 08:58:03,1.006s,PASSED
"click(findTestObject(""Recruits Page/Archived list ellipsis button""))",Chrome 88.0.4324.192,,,2021-03-09 08:58:03,2021-03-09 08:58:03,0.102s,PASSED
delay(1),Chrome 88.0.4324.192,,,2021-03-09 08:58:03,2021-03-09 08:58:04,1.007s,PASSED
"click(findTestObject(""Recruits Page/Delete1""))",Chrome 88.0.4324.192,,,2021-03-09 08:58:04,2021-03-09 08:58:04,0.113s,PASSED
delay(1),Chrome 88.0.4324.192,,,2021-03-09 08:58:04,2021-03-09 08:58:05,1.006s,PASSED
"enhancedClick(findTestObject(""Recruits Page/Delete2""))",Chrome 88.0.4324.192,,,2021-03-09 08:58:05,2021-03-09 08:58:05,0.088s,PASSED
delay(2),Chrome 88.0.4324.192,,,2021-03-09 08:58:05,2021-03-09 08:58:07,2.006s,PASSED
closeBrowser(),Chrome 88.0.4324.192,,,2021-03-09 08:58:07,2021-03-09 08:58:07,0.086s,PASSED
,,,,,,,
Test Cases/Tasks,Chrome 88.0.4324.192,,,2021-03-09 08:58:07,2021-03-09 08:58:17,9.876s,PASSED
openBrowser(URL),Chrome 88.0.4324.192,,,2021-03-09 08:58:07,2021-03-09 08:58:09,1.632s,PASSED
"setText(findTestObject(""Login Page/Email""), email)",Chrome 88.0.4324.192,,,2021-03-09 08:58:09,2021-03-09 08:58:10,0.458s,PASSED
"setText(findTestObject(""Login Page/password""), password)",Chrome 88.0.4324.192,,,2021-03-09 08:58:10,2021-03-09 08:58:10,0.106s,PASSED
"click(findTestObject(""Login Page/Sign In""))",Chrome 88.0.4324.192,,,2021-03-09 08:58:10,2021-03-09 08:58:12,2.616s,PASSED
"waitForElementVisible(findTestObject(""Top Navigation Menu/Dashboard""), 60)",Chrome 88.0.4324.192,,,2021-03-09 08:58:12,2021-03-09 08:58:13,0.674s,PASSED
"enhancedClick(findTestObject(""Top Navigation Menu/Recruits""))",Chrome 88.0.4324.192,,,2021-03-09 08:58:13,2021-03-09 08:58:13,0.118s,PASSED
"enhancedClick(findTestObject(""Recruits Page/Tasks tab""))",Chrome 88.0.4324.192,,,2021-03-09 08:58:13,2021-03-09 08:58:13,0.103s,PASSED
"enhancedClick(findTestObject(""Recruits Page/Tasks/Add Task button""))",Chrome 88.0.4324.192,,,2021-03-09 08:58:13,2021-03-09 08:58:13,0.138s,PASSED
"enhancedClick(findTestObject(""Recruits Page/Tasks/Add Task Recruit field""))",Chrome 88.0.4324.192,,,2021-03-09 08:58:13,2021-03-09 08:58:14,1.014s,PASSED
"enhancedClick(findTestObject(""Recruits Page/Tasks/Add Task recruit dropdown1""))",Chrome 88.0.4324.192,,,2021-03-09 08:58:14,2021-03-09 08:58:14,0.087s,PASSED
"enhancedClick(findTestObject(""Recruits Page/Tasks/Add Task Assigned To field""))",Chrome 88.0.4324.192,,,2021-03-09 08:58:14,2021-03-09 08:58:15,0.075s,PASSED
"enhancedClick(findTestObject(""Recruits Page/Tasks/Add Task Assigned To dropdown1""))",Chrome 88.0.4324.192,,,2021-03-09 08:58:15,2021-03-09 08:58:15,0.074s,PASSED
"enhancedClick(findTestObject(""Recruits Page/Tasks/Add Task Instruction field""))",Chrome 88.0.4324.192,,,2021-03-09 08:58:15,2021-03-09 08:58:15,0.074s,PASSED
"setText(findTestObject(""Recruits Page/Tasks/Add Task Instruction field""), ""test task"")",Chrome 88.0.4324.192,,,2021-03-09 08:58:15,2021-03-09 08:58:15,0.141s,PASSED
"enhancedClick(findTestObject(""Recruits Page/Tasks/Save new task""))",Chrome 88.0.4324.192,,,2021-03-09 08:58:15,2021-03-09 08:58:15,0.082s,PASSED
"verifyElementVisible(findTestObject(""Recruits Page/Tasks/Due task1 row""))",Chrome 88.0.4324.192,,,2021-03-09 08:58:15,2021-03-09 08:58:15,0.165s,PASSED
"mouseOver(findTestObject(""Recruits Page/Tasks/Due task1 ellipsis""))",Chrome 88.0.4324.192,,,2021-03-09 08:58:15,2021-03-09 08:58:15,0.186s,PASSED
"enhancedClick(findTestObject(""Recruits Page/Tasks/Due task1 ellipsis""))",Chrome 88.0.4324.192,,,2021-03-09 08:58:15,2021-03-09 08:58:15,0.074s,PASSED
"enhancedClick(findTestObject(""Recruits Page/Tasks/Mark Tasks Completed button""))",Chrome 88.0.4324.192,,,2021-03-09 08:58:15,2021-03-09 08:58:17,1.272s,PASSED
"verifyElementNotPresent(findTestObject(""Recruits Page/Tasks/Due task1 row""), 0)",Chrome 88.0.4324.192,,,2021-03-09 08:58:17,2021-03-09 08:58:17,0.566s,PASSED
closeBrowser(),Chrome 88.0.4324.192,,,2021-03-09 08:58:17,2021-03-09 08:58:17,0.081s,PASSED
,,,,,,,
Test Cases/Features/Link To FastScout,Chrome 88.0.4324.192,,,2021-03-09 08:58:17,2021-03-09 08:58:33,16.208s,PASSED
openBrowser(URL),Chrome 88.0.4324.192,,,2021-03-09 08:58:17,2021-03-09 08:58:19,1.526s,PASSED
"setText(findTestObject(""Login Page/Email""), email)",Chrome 88.0.4324.192,,,2021-03-09 08:58:19,2021-03-09 08:58:19,0.442s,PASSED
"setText(findTestObject(""Login Page/password""), password)",Chrome 88.0.4324.192,,,2021-03-09 08:58:19,2021-03-09 08:58:19,0.108s,PASSED
"click(findTestObject(""Login Page/Sign In""))",Chrome 88.0.4324.192,,,2021-03-09 08:58:19,2021-03-09 08:58:22,2.278s,PASSED
"waitForElementVisible(findTestObject(""Top Navigation Menu/Dashboard""), 60)",Chrome 88.0.4324.192,,,2021-03-09 08:58:22,2021-03-09 08:58:22,0.619s,PASSED
"click(findTestObject(""Top Navigation Menu/Recruits""))",Chrome 88.0.4324.192,,,2021-03-09 08:58:22,2021-03-09 08:58:22,0.127s,PASSED
"click(findTestObject(""Recruits Page/ADD RECRUIT button""))",Chrome 88.0.4324.192,,,2021-03-09 08:58:22,2021-03-09 08:58:23,0.128s,PASSED
"enhancedClick(findTestObject(""Recruits Page/Add New Recruit modal/LinkToFastScout Folder/Link To FastScout button""))",Chrome 88.0.4324.192,,,2021-03-09 08:58:23,2021-03-09 08:58:24,1.074s,PASSED
"enhancedClick(findTestObject(""Recruits Page/Add New Recruit modal/LinkToFastScout Folder/League_Division dropdown""))",Chrome 88.0.4324.192,,,2021-03-09 08:58:24,2021-03-09 08:58:24,0.121s,PASSED
"enhancedClick(findTestObject(""Recruits Page/Add New Recruit modal/LinkToFastScout Folder/D-II League""))",Chrome 88.0.4324.192,,,2021-03-09 08:58:24,2021-03-09 08:58:24,0.088s,PASSED
"enhancedClick(findTestObject(""Recruits Page/Add New Recruit modal/LinkToFastScout Folder/Team dropdown (LFS)""))",Chrome 88.0.4324.192,,,2021-03-09 08:58:24,2021-03-09 08:58:24,0.110s,PASSED
"enhancedClick(findTestObject(""Recruits Page/Add New Recruit modal/LinkToFastScout Folder/Florida Southern (LFS)""))",Chrome 88.0.4324.192,,,2021-03-09 08:58:24,2021-03-09 08:58:24,0.106s,PASSED
"enhancedClick(findTestObject(""Recruits Page/Add New Recruit modal/LinkToFastScout Folder/Player dropdown (LFS)""))",Chrome 88.0.4324.192,,,2021-03-09 08:58:24,2021-03-09 08:58:24,0.092s,PASSED
"enhancedClick(findTestObject(""Recruits Page/Add New Recruit modal/LinkToFastScout Folder/Player10 (LFS)""))",Chrome 88.0.4324.192,,,2021-03-09 08:58:24,2021-03-09 08:58:24,0.098s,PASSED
"click(findTestObject(""Recruits Page/Add New Recruit modal/SAVE button""))",Chrome 88.0.4324.192,,,2021-03-09 08:58:24,2021-03-09 08:58:24,0.179s,PASSED
"setText(findTestObject(""Recruits Page/Recruit Search Field on Recruits page""), ""Wes Bongiorni"")",Chrome 88.0.4324.192,,,2021-03-09 08:58:24,2021-03-09 08:58:25,0.257s,PASSED
delay(1),Chrome 88.0.4324.192,,,2021-03-09 08:58:25,2021-03-09 08:58:26,1.007s,PASSED
"enhancedClick(findTestObject(""Recruits Page/Archive recruit""))",Chrome 88.0.4324.192,,,2021-03-09 08:58:26,2021-03-09 08:58:26,0.094s,PASSED
delay(1),Chrome 88.0.4324.192,,,2021-03-09 08:58:26,2021-03-09 08:58:27,1.006s,PASSED
"click(findTestObject(""Recruits Page/All Recruits List selection""))",Chrome 88.0.4324.192,,,2021-03-09 08:58:27,2021-03-09 08:58:27,0.081s,PASSED
delay(1),Chrome 88.0.4324.192,,,2021-03-09 08:58:27,2021-03-09 08:58:28,1.005s,PASSED
"click(findTestObject(""Recruits Page/Archived List selection""))",Chrome 88.0.4324.192,,,2021-03-09 08:58:28,2021-03-09 08:58:28,0.118s,PASSED
delay(1),Chrome 88.0.4324.192,,,2021-03-09 08:58:28,2021-03-09 08:58:29,1.004s,PASSED
"click(findTestObject(""Recruits Page/Archived list ellipsis button""))",Chrome 88.0.4324.192,,,2021-03-09 08:58:29,2021-03-09 08:58:29,0.087s,PASSED
delay(1),Chrome 88.0.4324.192,,,2021-03-09 08:58:29,2021-03-09 08:58:30,1.006s,PASSED
"click(findTestObject(""Recruits Page/Delete1""))",Chrome 88.0.4324.192,,,2021-03-09 08:58:30,2021-03-09 08:58:30,0.109s,PASSED
delay(1),Chrome 88.0.4324.192,,,2021-03-09 08:58:30,2021-03-09 08:58:31,1.006s,PASSED
"enhancedClick(findTestObject(""Recruits Page/Delete2""))",Chrome 88.0.4324.192,,,2021-03-09 08:58:31,2021-03-09 08:58:31,0.093s,PASSED
delay(2),Chrome 88.0.4324.192,,,2021-03-09 08:58:31,2021-03-09 08:58:33,2.007s,PASSED
closeBrowser(),Chrome 88.0.4324.192,,,2021-03-09 08:58:33,2021-03-09 08:58:33,0.084s,PASSED
,,,,,,,
Test Cases/Features/Video,Chrome 88.0.4324.192,,,2021-03-09 08:58:33,2021-03-09 08:58:44,10.953s,PASSED
openBrowser(URL),Chrome 88.0.4324.192,,,2021-03-09 08:58:34,2021-03-09 08:58:35,1.567s,PASSED
"setText(findTestObject(""Login Page/Email""), email)",Chrome 88.0.4324.192,,,2021-03-09 08:58:35,2021-03-09 08:58:36,0.501s,PASSED
"setText(findTestObject(""Login Page/password""), password)",Chrome 88.0.4324.192,,,2021-03-09 08:58:36,2021-03-09 08:58:36,0.107s,PASSED
"click(findTestObject(""Login Page/Sign In""))",Chrome 88.0.4324.192,,,2021-03-09 08:58:36,2021-03-09 08:58:38,2.519s,PASSED
"waitForElementVisible(findTestObject(""Top Navigation Menu/Dashboard""), 60)",Chrome 88.0.4324.192,,,2021-03-09 08:58:38,2021-03-09 08:58:39,0.624s,PASSED
"enhancedClick(findTestObject(""Top Navigation Menu/Recruits""))",Chrome 88.0.4324.192,,,2021-03-09 08:58:39,2021-03-09 08:58:39,0.127s,PASSED
"enhancedClick(findTestObject(""Recruits Page/Recruit Row1 Name""))",Chrome 88.0.4324.192,,,2021-03-09 08:58:39,2021-03-09 08:58:40,1.302s,PASSED
"enhancedClick(findTestObject(""Recruits Page/Recruit Profile (View)/VIDEOS tab""))",Chrome 88.0.4324.192,,,2021-03-09 08:58:40,2021-03-09 08:58:40,0.108s,PASSED
"uploadFile(findTestObject(""Recruit Profile (view)/Video Upload object""), ""/Users/jefffeldman/Desktop/Vids/NBA Playoffs 2019.mp4"")",Chrome 88.0.4324.192,,,2021-03-09 08:58:40,2021-03-09 08:58:41,0.113s,PASSED
"verifyElementPresent(findTestObject(""Recruit Profile (view)/Recruit Video row1""), 0)",Chrome 88.0.4324.192,,,2021-03-09 08:58:41,2021-03-09 08:58:41,0.498s,PASSED
delay(2),Chrome 88.0.4324.192,,,2021-03-09 08:58:41,2021-03-09 08:58:43,2.006s,PASSED
"mouseOver(findTestObject(""Recruit Profile (view)/Recruit Video row1""))",Chrome 88.0.4324.192,,,2021-03-09 08:58:43,2021-03-09 08:58:43,0.184s,PASSED
"enhancedClick(findTestObject(""Recruit Profile (view)/Delete Video Row1""))",Chrome 88.0.4324.192,,,2021-03-09 08:58:43,2021-03-09 08:58:43,0.107s,PASSED
"enhancedClick(findTestObject(""Recruit Profile (view)/Confirm Delete Video""))",Chrome 88.0.4324.192,,,2021-03-09 08:58:43,2021-03-09 08:58:43,0.139s,PASSED
"verifyElementNotPresent(findTestObject(""Recruit Profile (view)/Recruit Video row1""), 0)",Chrome 88.0.4324.192,,,2021-03-09 08:58:43,2021-03-09 08:58:44,0.568s,PASSED
"enhancedClick(findTestObject(""Recruit Profile (view)/CLOSE button""))",Chrome 88.0.4324.192,,,2021-03-09 08:58:44,2021-03-09 08:58:44,0.255s,PASSED
closeBrowser(),Chrome 88.0.4324.192,,,2021-03-09 08:58:44,2021-03-09 08:58:44,0.087s,PASSED
,,,,,,,
Test Cases/Features/FastConnect,Chrome 88.0.4324.192,,,2021-03-09 08:58:44,2021-03-09 08:59:13,29.033s,PASSED
openBrowser(URL),Chrome 88.0.4324.192,,,2021-03-09 08:58:45,2021-03-09 08:58:46,1.745s,PASSED
"setText(findTestObject(""Login Page/Email""), email)",Chrome 88.0.4324.192,,,2021-03-09 08:58:46,2021-03-09 08:58:47,0.476s,PASSED
"setText(findTestObject(""Login Page/password""), password)",Chrome 88.0.4324.192,,,2021-03-09 08:58:47,2021-03-09 08:58:47,0.105s,PASSED
"click(findTestObject(""Login Page/Sign In""))",Chrome 88.0.4324.192,,,2021-03-09 08:58:47,2021-03-09 08:58:49,2.353s,PASSED
"waitForElementVisible(findTestObject(""Top Navigation Menu/Dashboard""), 60)",Chrome 88.0.4324.192,,,2021-03-09 08:58:49,2021-03-09 08:58:50,0.566s,PASSED
"enhancedClick(findTestObject(""Top Navigation Menu/Recruits""))",Chrome 88.0.4324.192,,,2021-03-09 08:58:50,2021-03-09 08:58:50,0.131s,PASSED
"enhancedClick(findTestObject(""Recruits Page/FastConnect tab""))",Chrome 88.0.4324.192,,,2021-03-09 08:58:50,2021-03-09 08:58:50,0.124s,PASSED
"enhancedClick(findTestObject(""Recruits Page/FastConnect/List dropdown""))",Chrome 88.0.4324.192,,,2021-03-09 08:58:50,2021-03-09 08:58:50,0.089s,PASSED
"enhancedClick(findTestObject(""Recruits Page/FastConnect/All Recruits list dropdown""))",Chrome 88.0.4324.192,,,2021-03-09 08:58:50,2021-03-09 08:58:51,0.387s,PASSED
delay(10),Chrome 88.0.4324.192,,,2021-03-09 08:58:51,2021-03-09 08:59:01,10.005s,PASSED
"verifyElementVisible(findTestObject(""Recruits Page/FastConnect/Fastconnect post1""), STOP_ON_FAILURE)",Chrome 88.0.4324.192,,,2021-03-09 08:59:01,2021-03-09 08:59:13,12.911s,PASSED
,,,,,,,
Test Cases/Tourney Workflow,Chrome 88.0.4324.192,,,2021-03-09 08:59:13,2021-03-09 08:59:36,22.732s,PASSED
openBrowser(URL),Chrome 88.0.4324.192,,,2021-03-09 08:59:14,2021-03-09 08:59:15,1.687s,PASSED
"setText(findTestObject(""Login Page/Email""), email)",Chrome 88.0.4324.192,,,2021-03-09 08:59:15,2021-03-09 08:59:16,0.475s,PASSED
"setText(findTestObject(""Login Page/password""), password)",Chrome 88.0.4324.192,,,2021-03-09 08:59:16,2021-03-09 08:59:16,0.105s,PASSED
"click(findTestObject(""Login Page/Sign In""))",Chrome 88.0.4324.192,,,2021-03-09 08:59:16,2021-03-09 08:59:18,2.351s,PASSED
"waitForElementVisible(findTestObject(""Top Navigation Menu/Dashboard""), 60)",Chrome 88.0.4324.192,,,2021-03-09 08:59:18,2021-03-09 08:59:19,0.611s,PASSED
"enhancedClick(findTestObject(""Top Navigation Menu/Tourneys""))",Chrome 88.0.4324.192,,,2021-03-09 08:59:19,2021-03-09 08:59:19,0.099s,PASSED
"enhancedClick(findTestObject(""Tourneys page/Tourney list dropdown""))",Chrome 88.0.4324.192,,,2021-03-09 08:59:19,2021-03-09 08:59:20,0.628s,PASSED
enhancedClick(tourneySession),Chrome 88.0.4324.192,,,2021-03-09 08:59:20,2021-03-09 08:59:20,0.149s,PASSED
"enhancedClick(findTestObject(""Tourneys page/Tourneys header""))",Chrome 88.0.4324.192,,,2021-03-09 08:59:20,2021-03-09 08:59:20,0.096s,PASSED
"enhancedClick(findTestObject(""Tourneys page/Tourney1 listed""))",Chrome 88.0.4324.192,,,2021-03-09 08:59:20,2021-03-09 08:59:20,0.254s,PASSED
"enhancedClick(findTestObject(""Tourneys page/Assign Staff button""))",Chrome 88.0.4324.192,,,2021-03-09 08:59:20,2021-03-09 08:59:25,4.681s,PASSED
"enhancedClick(findTestObject(""Tourneys page/Assign Staff User1 checkbox""))",Chrome 88.0.4324.192,,,2021-03-09 08:59:25,2021-03-09 08:59:25,0.106s,PASSED
"enhancedClick(findTestObject(""Tourneys page/Assign Staff SAVE button""))",Chrome 88.0.4324.192,,,2021-03-09 08:59:25,2021-03-09 08:59:25,0.088s,PASSED
delay(1),Chrome 88.0.4324.192,,,2021-03-09 08:59:25,2021-03-09 08:59:26,1.006s,PASSED
"enhancedClick(findTestObject(""Tourneys page/Assign Recruits button""))",Chrome 88.0.4324.192,,,2021-03-09 08:59:26,2021-03-09 08:59:26,0.110s,PASSED
"enhancedClick(findTestObject(""Tourneys page/Select Recruits dropdown""))",Chrome 88.0.4324.192,,,2021-03-09 08:59:26,2021-03-09 08:59:27,0.522s,PASSED
"enhancedClick(findTestObject(""Tourneys page/Assign Recruits dropdown list1""))",Chrome 88.0.4324.192,,,2021-03-09 08:59:27,2021-03-09 08:59:27,0.082s,PASSED
"enhancedClick(findTestObject(""Tourneys page/Assign Recruits SAVE button""))",Chrome 88.0.4324.192,,,2021-03-09 08:59:27,2021-03-09 08:59:27,0.078s,PASSED
"enhancedClick(findTestObject(""Tourneys page/Select Tourney Team dropdown""))",Chrome 88.0.4324.192,,,2021-03-09 08:59:27,2021-03-09 08:59:27,0.428s,PASSED
"enhancedClick(findTestObject(""Tourneys page/Select Tourney Team dropdown1""))",Chrome 88.0.4324.192,,,2021-03-09 08:59:27,2021-03-09 08:59:27,0.078s,PASSED
delay(2),Chrome 88.0.4324.192,,,2021-03-09 08:59:27,2021-03-09 08:59:29,2.001s,PASSED
"enhancedClick(findTestObject(""Tourneys page/Tourney GAMES tab""))",Chrome 88.0.4324.192,,,2021-03-09 08:59:29,2021-03-09 08:59:29,0.098s,PASSED
delay(3),Chrome 88.0.4324.192,,,2021-03-09 08:59:29,2021-03-09 08:59:32,3.004s,PASSED
"verifyElementPresent(findTestObject(""Tourneys page/GAMES tab row1""), 0)",Chrome 88.0.4324.192,,,2021-03-09 08:59:32,2021-03-09 08:59:32,0.051s,PASSED
"gameDate = getText(findTestObject(""Tourneys page/GAMES tab row1 Date""))",Chrome 88.0.4324.192,,,2021-03-09 08:59:32,2021-03-09 08:59:33,0.058s,PASSED
"enhancedClick(findTestObject(""Top Navigation Menu/Schedule""))",Chrome 88.0.4324.192,,,2021-03-09 08:59:33,2021-03-09 08:59:33,0.134s,PASSED
"enhancedClick(findTestObject(""Schedule Page/Calendar from date filter""))",Chrome 88.0.4324.192,,,2021-03-09 08:59:33,2021-03-09 08:59:33,0.114s,PASSED
"sendKeys(findTestObject(""Schedule Page/Calendar from date filter""), Keys.chord(BACK_SPACE))",Chrome 88.0.4324.192,,,2021-03-09 08:59:33,2021-03-09 08:59:33,0.087s,PASSED
"sendKeys(findTestObject(""Schedule Page/Calendar from date filter""), Keys.chord(BACK_SPACE))",Chrome 88.0.4324.192,,,2021-03-09 08:59:33,2021-03-09 08:59:33,0.073s,PASSED
"sendKeys(findTestObject(""Schedule Page/Calendar from date filter""), Keys.chord(BACK_SPACE))",Chrome 88.0.4324.192,,,2021-03-09 08:59:33,2021-03-09 08:59:33,0.063s,PASSED
"sendKeys(findTestObject(""Schedule Page/Calendar from date filter""), Keys.chord(BACK_SPACE))",Chrome 88.0.4324.192,,,2021-03-09 08:59:33,2021-03-09 08:59:33,0.064s,PASSED
"sendKeys(findTestObject(""Schedule Page/Calendar from date filter""), Keys.chord(BACK_SPACE))",Chrome 88.0.4324.192,,,2021-03-09 08:59:33,2021-03-09 08:59:33,0.063s,PASSED
"sendKeys(findTestObject(""Schedule Page/Calendar from date filter""), Keys.chord(BACK_SPACE))",Chrome 88.0.4324.192,,,2021-03-09 08:59:33,2021-03-09 08:59:33,0.066s,PASSED
"sendKeys(findTestObject(""Schedule Page/Calendar from date filter""), Keys.chord(BACK_SPACE))",Chrome 88.0.4324.192,,,2021-03-09 08:59:33,2021-03-09 08:59:33,0.065s,PASSED
"sendKeys(findTestObject(""Schedule Page/Calendar from date filter""), Keys.chord(BACK_SPACE))",Chrome 88.0.4324.192,,,2021-03-09 08:59:33,2021-03-09 08:59:33,0.063s,PASSED
"sendKeys(findTestObject(""Schedule Page/Calendar from date filter""), Keys.chord(BACK_SPACE))",Chrome 88.0.4324.192,,,2021-03-09 08:59:33,2021-03-09 08:59:33,0.083s,PASSED
"setText(findTestObject(""Schedule Page/Calendar from date filter""), gameDate)",Chrome 88.0.4324.192,,,2021-03-09 08:59:33,2021-03-09 08:59:34,0.181s,PASSED
"sendKeys(findTestObject(""Schedule Page/Calendar from date filter""), Keys.chord(ENTER))",Chrome 88.0.4324.192,,,2021-03-09 08:59:34,2021-03-09 08:59:34,0.085s,PASSED
"verifyElementPresent(findTestObject(""Schedule Page/Row1 on Schedule List""), 0)",Chrome 88.0.4324.192,,,2021-03-09 08:59:34,2021-03-09 08:59:34,0.043s,PASSED
"enhancedClick(findTestObject(""Top Navigation Menu/Tourneys""))",Chrome 88.0.4324.192,,,2021-03-09 08:59:34,2021-03-09 08:59:34,0.099s,PASSED
"enhancedClick(findTestObject(""Tourneys page/Tourney list dropdown""))",Chrome 88.0.4324.192,,,2021-03-09 08:59:34,2021-03-09 08:59:34,0.526s,PASSED
enhancedClick(tourneySession),Chrome 88.0.4324.192,,,2021-03-09 08:59:34,2021-03-09 08:59:34,0.083s,PASSED
"enhancedClick(findTestObject(""Tourneys page/Tourneys header""))",Chrome 88.0.4324.192,,,2021-03-09 08:59:34,2021-03-09 08:59:34,0.092s,PASSED
"enhancedClick(findTestObject(""Tourneys page/Tourney1 listed""))",Chrome 88.0.4324.192,,,2021-03-09 08:59:34,2021-03-09 08:59:35,0.107s,PASSED
"enhancedClick(findTestObject(""Tourneys page/Edit Assign Staff Pencil""))",Chrome 88.0.4324.192,,,2021-03-09 08:59:35,2021-03-09 08:59:35,0.132s,PASSED
"enhancedClick(findTestObject(""Tourneys page/Assign Staff User1 checkbox""))",Chrome 88.0.4324.192,,,2021-03-09 08:59:35,2021-03-09 08:59:35,0.096s,PASSED
"enhancedClick(findTestObject(""Tourneys page/Assign Staff SAVE button""))",Chrome 88.0.4324.192,,,2021-03-09 08:59:35,2021-03-09 08:59:35,0.090s,PASSED
delay(1),Chrome 88.0.4324.192,,,2021-03-09 08:59:35,2021-03-09 08:59:36,1.006s,PASSED
"enhancedClick(findTestObject(""Tourneys page/Delete Attending Recruit1""))",Chrome 88.0.4324.192,,,2021-03-09 08:59:36,2021-03-09 08:59:36,0.082s,PASSED
"enhancedClick(findTestObject(""Tourneys page/Confirm Delete Attending Recruit1""))",Chrome 88.0.4324.192,,,2021-03-09 08:59:36,2021-03-09 08:59:36,0.088s,PASSED
closeBrowser(),Chrome 88.0.4324.192,,,2021-03-09 08:59:36,2021-03-09 08:59:36,0.081s,PASSED
,,,,,,,
Test Cases/Features/Prospects View,Chrome 88.0.4324.192,,,2021-03-09 08:59:36,2021-03-09 09:00:02,25.372s,PASSED
openBrowser(URL),Chrome 88.0.4324.192,,,2021-03-09 08:59:36,2021-03-09 08:59:38,1.838s,PASSED
"setText(findTestObject(""Login Page/Email""), email2)",Chrome 88.0.4324.192,,,2021-03-09 08:59:38,2021-03-09 08:59:39,0.465s,PASSED
"setText(findTestObject(""Login Page/password""), password)",Chrome 88.0.4324.192,,,2021-03-09 08:59:39,2021-03-09 08:59:39,0.107s,PASSED
"click(findTestObject(""Login Page/Sign In""))",Chrome 88.0.4324.192,,,2021-03-09 08:59:39,2021-03-09 08:59:41,2.410s,PASSED
"waitForElementVisible(findTestObject(""Top Navigation Menu/Dashboard""), 60)",Chrome 88.0.4324.192,,,2021-03-09 08:59:41,2021-03-09 08:59:42,0.627s,PASSED
"enhancedClick(findTestObject(""Prospects View/Add Prospect button""))",Chrome 88.0.4324.192,,,2021-03-09 08:59:42,2021-03-09 08:59:42,0.096s,PASSED
"enhancedClick(findTestObject(""Prospects View/Link Player Stats button""))",Chrome 88.0.4324.192,,,2021-03-09 08:59:42,2021-03-09 08:59:43,1.240s,PASSED
"enhancedClick(findTestObject(""Recruits Page/Add New Recruit modal/LinkToFastScout Folder/League_Division dropdown""))",Chrome 88.0.4324.192,,,2021-03-09 08:59:43,2021-03-09 08:59:43,0.103s,PASSED
"enhancedClick(findTestObject(""Recruits Page/Add New Recruit modal/LinkToFastScout Folder/D-II League""))",Chrome 88.0.4324.192,,,2021-03-09 08:59:43,2021-03-09 08:59:43,0.087s,PASSED
"enhancedClick(findTestObject(""Prospects View/Link Player Stats Team dropdown (Prospects)""))",Chrome 88.0.4324.192,,,2021-03-09 08:59:43,2021-03-09 08:59:43,0.099s,PASSED
"enhancedClick(findTestObject(""Recruits Page/Add New Recruit modal/LinkToFastScout Folder/Florida Southern (LFS)""))",Chrome 88.0.4324.192,,,2021-03-09 08:59:43,2021-03-09 08:59:43,0.093s,PASSED
"enhancedClick(findTestObject(""Prospects View/Link Player Stats Player dropdown (Prospects)""))",Chrome 88.0.4324.192,,,2021-03-09 08:59:43,2021-03-09 08:59:44,0.086s,PASSED
"enhancedClick(findTestObject(""Recruits Page/Add New Recruit modal/LinkToFastScout Folder/Player10 (LFS)""))",Chrome 88.0.4324.192,,,2021-03-09 08:59:44,2021-03-09 08:59:44,0.088s,PASSED
"click(findTestObject(""Recruits Page/Add New Recruit modal/SAVE button""))",Chrome 88.0.4324.192,,,2021-03-09 08:59:44,2021-03-09 08:59:44,0.126s,PASSED
"enhancedClick(findTestObject(""Prospects View/Select Existing Prospect""))",Chrome 88.0.4324.192,,,2021-03-09 08:59:44,2021-03-09 08:59:44,0.369s,PASSED
"enhancedClick(findTestObject(""Prospects View/FastScout Team Link (Prospect Profile)""))",Chrome 88.0.4324.192,,,2021-03-09 08:59:44,2021-03-09 08:59:45,0.356s,PASSED
switchToWindowIndex(1),Chrome 88.0.4324.192,,,2021-03-09 08:59:45,2021-03-09 08:59:45,0.159s,PASSED
delay(7),Chrome 88.0.4324.192,,,2021-03-09 08:59:45,2021-03-09 08:59:52,7.006s,PASSED
scoutURL = getUrl(),Chrome 88.0.4324.192,,,2021-03-09 08:59:52,2021-03-09 08:59:52,0.027s,PASSED
"assert scoutURL.contains(""league=NCAAB-II"")",Chrome 88.0.4324.192,,,2021-03-09 08:59:52,2021-03-09 08:59:52,0.001s,PASSED
switchToWindowIndex(0),Chrome 88.0.4324.192,,,2021-03-09 08:59:52,2021-03-09 08:59:52,0.008s,PASSED
delay(1),Chrome 88.0.4324.192,,,2021-03-09 08:59:52,2021-03-09 08:59:53,1.004s,PASSED
"enhancedClick(findTestObject(""Recruit Profile (view)/CLOSE button - Copy2""))",Chrome 88.0.4324.192,,,2021-03-09 08:59:53,2021-03-09 08:59:53,0.121s,PASSED
delay(1),Chrome 88.0.4324.192,,,2021-03-09 08:59:53,2021-03-09 08:59:54,1.005s,PASSED
"click(findTestObject(""Prospects View/Archive Prospect button""))",Chrome 88.0.4324.192,,,2021-03-09 08:59:54,2021-03-09 08:59:54,0.081s,PASSED
delay(1),Chrome 88.0.4324.192,,,2021-03-09 08:59:54,2021-03-09 08:59:55,1.005s,PASSED
"click(findTestObject(""Prospects View/All Prospects List selection""))",Chrome 88.0.4324.192,,,2021-03-09 08:59:55,2021-03-09 08:59:55,0.085s,PASSED
delay(1),Chrome 88.0.4324.192,,,2021-03-09 08:59:55,2021-03-09 08:59:56,1.003s,PASSED
"click(findTestObject(""Recruits Page/Archived List selection""))",Chrome 88.0.4324.192,,,2021-03-09 08:59:56,2021-03-09 08:59:56,0.123s,PASSED
delay(1),Chrome 88.0.4324.192,,,2021-03-09 08:59:56,2021-03-09 08:59:57,1.004s,PASSED
"enhancedClick(findTestObject(""Prospects View/Archived List ellipsis (Prospects)""))",Chrome 88.0.4324.192,,,2021-03-09 08:59:57,2021-03-09 08:59:57,0.088s,PASSED
delay(1),Chrome 88.0.4324.192,,,2021-03-09 08:59:57,2021-03-09 08:59:58,1.006s,PASSED
"enhancedClick(findTestObject(""Prospects View/Delete1 (Prospects)""))",Chrome 88.0.4324.192,,,2021-03-09 08:59:58,2021-03-09 08:59:58,0.078s,PASSED
delay(1),Chrome 88.0.4324.192,,,2021-03-09 08:59:58,2021-03-09 08:59:59,1.006s,PASSED
"enhancedClick(findTestObject(""Prospects View/Delete2 (Prospects)""))",Chrome 88.0.4324.192,,,2021-03-09 08:59:59,2021-03-09 08:59:59,0.089s,PASSED
delay(2),Chrome 88.0.4324.192,,,2021-03-09 08:59:59,2021-03-09 09:00:01,2.006s,PASSED
closeBrowser(),Chrome 88.0.4324.192,,,2021-03-09 09:00:01,2021-03-09 09:00:02,0.124s,PASSED
,,,,,,,
Test Cases/Features/Prospects View,Chrome 88.0.4324.192,,,2021-03-09 09:00:02,2021-03-09 09:00:27,25.110s,PASSED
openBrowser(URL),Chrome 88.0.4324.192,,,2021-03-09 09:00:02,2021-03-09 09:00:03,1.746s,PASSED
"setText(findTestObject(""Login Page/Email""), email2)",Chrome 88.0.4324.192,,,2021-03-09 09:00:03,2021-03-09 09:00:04,0.515s,PASSED
"setText(findTestObject(""Login Page/password""), password)",Chrome 88.0.4324.192,,,2021-03-09 09:00:04,2021-03-09 09:00:04,0.105s,PASSED
"click(findTestObject(""Login Page/Sign In""))",Chrome 88.0.4324.192,,,2021-03-09 09:00:04,2021-03-09 09:00:07,2.692s,PASSED
"waitForElementVisible(findTestObject(""Top Navigation Menu/Dashboard""), 60)",Chrome 88.0.4324.192,,,2021-03-09 09:00:07,2021-03-09 09:00:07,0.654s,PASSED
"enhancedClick(findTestObject(""Prospects View/Add Prospect button""))",Chrome 88.0.4324.192,,,2021-03-09 09:00:07,2021-03-09 09:00:07,0.099s,PASSED
"enhancedClick(findTestObject(""Prospects View/Link Player Stats button""))",Chrome 88.0.4324.192,,,2021-03-09 09:00:07,2021-03-09 09:00:08,0.981s,PASSED
"enhancedClick(findTestObject(""Recruits Page/Add New Recruit modal/LinkToFastScout Folder/League_Division dropdown""))",Chrome 88.0.4324.192,,,2021-03-09 09:00:08,2021-03-09 09:00:08,0.145s,PASSED
"enhancedClick(findTestObject(""Recruits Page/Add New Recruit modal/LinkToFastScout Folder/D-II League""))",Chrome 88.0.4324.192,,,2021-03-09 09:00:08,2021-03-09 09:00:09,0.087s,PASSED
"enhancedClick(findTestObject(""Prospects View/Link Player Stats Team dropdown (Prospects)""))",Chrome 88.0.4324.192,,,2021-03-09 09:00:09,2021-03-09 09:00:09,0.104s,PASSED
"enhancedClick(findTestObject(""Recruits Page/Add New Recruit modal/LinkToFastScout Folder/Florida Southern (LFS)""))",Chrome 88.0.4324.192,,,2021-03-09 09:00:09,2021-03-09 09:00:09,0.099s,PASSED
"enhancedClick(findTestObject(""Prospects View/Link Player Stats Player dropdown (Prospects)""))",Chrome 88.0.4324.192,,,2021-03-09 09:00:09,2021-03-09 09:00:09,0.085s,PASSED
"enhancedClick(findTestObject(""Recruits Page/Add New Recruit modal/LinkToFastScout Folder/Player10 (LFS)""))",Chrome 88.0.4324.192,,,2021-03-09 09:00:09,2021-03-09 09:00:09,0.159s,PASSED
"click(findTestObject(""Recruits Page/Add New Recruit modal/SAVE button""))",Chrome 88.0.4324.192,,,2021-03-09 09:00:09,2021-03-09 09:00:09,0.129s,PASSED
"enhancedClick(findTestObject(""Prospects View/Select Existing Prospect""))",Chrome 88.0.4324.192,,,2021-03-09 09:00:09,2021-03-09 09:00:10,0.350s,PASSED
"enhancedClick(findTestObject(""Prospects View/FastScout Team Link (Prospect Profile)""))",Chrome 88.0.4324.192,,,2021-03-09 09:00:10,2021-03-09 09:00:10,0.103s,PASSED
switchToWindowIndex(1),Chrome 88.0.4324.192,,,2021-03-09 09:00:10,2021-03-09 09:00:10,0.177s,PASSED
delay(7),Chrome 88.0.4324.192,,,2021-03-09 09:00:10,2021-03-09 09:00:17,7.006s,PASSED
scoutURL = getUrl(),Chrome 88.0.4324.192,,,2021-03-09 09:00:17,2021-03-09 09:00:17,0.021s,PASSED
"assert scoutURL.contains(""league=NCAAB-II"")",Chrome 88.0.4324.192,,,2021-03-09 09:00:17,2021-03-09 09:00:17,0.001s,PASSED
switchToWindowIndex(0),Chrome 88.0.4324.192,,,2021-03-09 09:00:17,2021-03-09 09:00:17,0.010s,PASSED
delay(1),Chrome 88.0.4324.192,,,2021-03-09 09:00:17,2021-03-09 09:00:18,1.006s,PASSED
"enhancedClick(findTestObject(""Recruit Profile (view)/CLOSE button - Copy2""))",Chrome 88.0.4324.192,,,2021-03-09 09:00:18,2021-03-09 09:00:18,0.127s,PASSED
delay(1),Chrome 88.0.4324.192,,,2021-03-09 09:00:18,2021-03-09 09:00:19,1.005s,PASSED
"click(findTestObject(""Prospects View/Archive Prospect button""))",Chrome 88.0.4324.192,,,2021-03-09 09:00:19,2021-03-09 09:00:19,0.096s,PASSED
delay(1),Chrome 88.0.4324.192,,,2021-03-09 09:00:19,2021-03-09 09:00:20,1.003s,PASSED
"click(findTestObject(""Prospects View/All Prospects List selection""))",Chrome 88.0.4324.192,,,2021-03-09 09:00:20,2021-03-09 09:00:20,0.081s,PASSED
delay(1),Chrome 88.0.4324.192,,,2021-03-09 09:00:20,2021-03-09 09:00:21,1.005s,PASSED
"click(findTestObject(""Recruits Page/Archived List selection""))",Chrome 88.0.4324.192,,,2021-03-09 09:00:21,2021-03-09 09:00:21,0.117s,PASSED
delay(1),Chrome 88.0.4324.192,,,2021-03-09 09:00:21,2021-03-09 09:00:22,1.006s,PASSED
"enhancedClick(findTestObject(""Prospects View/Archived List ellipsis (Prospects)""))",Chrome 88.0.4324.192,,,2021-03-09 09:00:22,2021-03-09 09:00:22,0.071s,PASSED
delay(1),Chrome 88.0.4324.192,,,2021-03-09 09:00:22,2021-03-09 09:00:23,1.002s,PASSED
"enhancedClick(findTestObject(""Prospects View/Delete1 (Prospects)""))",Chrome 88.0.4324.192,,,2021-03-09 09:00:23,2021-03-09 09:00:23,0.090s,PASSED
delay(1),Chrome 88.0.4324.192,,,2021-03-09 09:00:23,2021-03-09 09:00:24,1.007s,PASSED
"enhancedClick(findTestObject(""Prospects View/Delete2 (Prospects)""))",Chrome 88.0.4324.192,,,2021-03-09 09:00:24,2021-03-09 09:00:25,0.095s,PASSED
delay(2),Chrome 88.0.4324.192,,,2021-03-09 09:00:25,2021-03-09 09:00:27,2.007s,PASSED
closeBrowser(),Chrome 88.0.4324.192,,,2021-03-09 09:00:27,2021-03-09 09:00:27,0.117s,PASSED
