Suite/Test/Step Name,Browser,Description,Tag,Start time,End time,Duration,Status
Regression Tests,Chrome 88.0.4324.192,,,2021-03-08 15:02:02,2021-03-08 15:05:03,3m - 1.029s,FAILED
,,,,,,,
Test Cases/Draft Board,Chrome 88.0.4324.192,,,2021-03-08 15:02:02,2021-03-08 15:02:21,19.268s,PASSED
openBrowser(URL),Chrome 88.0.4324.192,,,2021-03-08 15:02:02,2021-03-08 15:02:05,2.825s,PASSED
"setText(findTestObject(""Login Page/Email""), email)",Chrome 88.0.4324.192,,,2021-03-08 15:02:05,2021-03-08 15:02:06,0.541s,PASSED
"setText(findTestObject(""Login Page/password""), password)",Chrome 88.0.4324.192,,,2021-03-08 15:02:06,2021-03-08 15:02:06,0.114s,PASSED
"click(findTestObject(""Login Page/Sign In""))",Chrome 88.0.4324.192,,,2021-03-08 15:02:06,2021-03-08 15:02:08,2.250s,PASSED
"waitForElementVisible(findTestObject(""Top Navigation Menu/Dashboard""), 60)",Chrome 88.0.4324.192,,,2021-03-08 15:02:08,2021-03-08 15:02:09,0.776s,PASSED
"enhancedClick(findTestObject(""Top Navigation Menu/Dashboard""))",Chrome 88.0.4324.192,,,2021-03-08 15:02:09,2021-03-08 15:02:09,0.087s,PASSED
delay(3),Chrome 88.0.4324.192,,,2021-03-08 15:02:09,2021-03-08 15:02:12,3.082s,PASSED
"mouseOver(findTestObject(""Dashboard Page/Draft Board (Dashboard)/blank 1-PG on Draft Board (Dashboard)""))",Chrome 88.0.4324.192,,,2021-03-08 15:02:12,2021-03-08 15:02:12,0.221s,PASSED
"enhancedClick(findTestObject(""Dashboard Page/Draft Board (Dashboard)/blank 1-PG on Draft Board (Dashboard)""))",Chrome 88.0.4324.192,,,2021-03-08 15:02:12,2021-03-08 15:02:12,0.087s,PASSED
"enhancedClick(findTestObject(""Dashboard Page/Draft Board (Dashboard)/Draft Board Dropdown Player1""))",Chrome 88.0.4324.192,,,2021-03-08 15:02:12,2021-03-08 15:02:13,0.187s,PASSED
"mouseOver(findTestObject(""Dashboard Page/Draft Board (Dashboard)/1-PG on Draft Board""))",Chrome 88.0.4324.192,,,2021-03-08 15:02:13,2021-03-08 15:02:13,0.269s,PASSED
"enhancedClick(findTestObject(""Dashboard Page/Draft Board (Dashboard)/1-PG on Draft Board""))",Chrome 88.0.4324.192,,,2021-03-08 15:02:13,2021-03-08 15:02:13,0.109s,PASSED
delay(1),Chrome 88.0.4324.192,,,2021-03-08 15:02:13,2021-03-08 15:02:14,1.008s,PASSED
"enhancedClick(findTestObject(""Recruit Profile (view)/Alerts button""))",Chrome 88.0.4324.192,,,2021-03-08 15:02:14,2021-03-08 15:02:14,0.081s,PASSED
"enhancedClick(findTestObject(""Recruit Profile (view)/CLOSE button""))",Chrome 88.0.4324.192,,,2021-03-08 15:02:14,2021-03-08 15:02:14,0.100s,PASSED
"verifyElementVisible(findTestObject(""Dashboard Page/Draft Board (Dashboard)/Alerts bell indicator""))",Chrome 88.0.4324.192,,,2021-03-08 15:02:14,2021-03-08 15:02:14,0.089s,PASSED
"mouseOver(findTestObject(""Dashboard Page/Draft Board (Dashboard)/1-PG on Draft Board""))",Chrome 88.0.4324.192,,,2021-03-08 15:02:14,2021-03-08 15:02:15,0.227s,PASSED
"enhancedClick(findTestObject(""Dashboard Page/Draft Board (Dashboard)/1-PG on Draft Board""))",Chrome 88.0.4324.192,,,2021-03-08 15:02:15,2021-03-08 15:02:15,0.113s,PASSED
"enhancedClick(findTestObject(""Recruit Profile (view)/Alerts button""))",Chrome 88.0.4324.192,,,2021-03-08 15:02:15,2021-03-08 15:02:15,0.108s,PASSED
"mouseOver(findTestObject(""Dashboard Page/Draft Board (Dashboard)/1-PG on Draft Board""))",Chrome 88.0.4324.192,,,2021-03-08 15:02:15,2021-03-08 15:02:15,0.188s,PASSED
"enhancedClick(findTestObject(""Recruit Profile (view)/CLOSE button""))",Chrome 88.0.4324.192,,,2021-03-08 15:02:15,2021-03-08 15:02:15,0.115s,PASSED
delay(1),Chrome 88.0.4324.192,,,2021-03-08 15:02:15,2021-03-08 15:02:16,1.007s,PASSED
"verifyElementNotPresent(findTestObject(""Dashboard Page/Draft Board (Dashboard)/Alerts bell indicator""), 0)",Chrome 88.0.4324.192,,,2021-03-08 15:02:16,2021-03-08 15:02:16,0.098s,PASSED
"mouseOver(findTestObject(""Dashboard Page/Draft Board (Dashboard)/1-PG on Draft Board""))",Chrome 88.0.4324.192,,,2021-03-08 15:02:16,2021-03-08 15:02:16,0.175s,PASSED
"enhancedClick(findTestObject(""Dashboard Page/Draft Board (Dashboard)/Delete 1-PG on Draft Board""))",Chrome 88.0.4324.192,,,2021-03-08 15:02:16,2021-03-08 15:02:16,0.090s,PASSED
"enhancedClick(findTestObject(""Dashboard Page/Draft Board (Dashboard)/Draft Board Season Dropdown""))",Chrome 88.0.4324.192,,,2021-03-08 15:02:16,2021-03-08 15:02:17,0.103s,PASSED
"enhancedClick(findTestObject(""Dashboard Page/Draft Board (Dashboard)/Draft Board Season Dropdown - 2023""))",Chrome 88.0.4324.192,,,2021-03-08 15:02:17,2021-03-08 15:02:17,0.092s,PASSED
"mouseOver(findTestObject(""Dashboard Page/Draft Board (Dashboard)/blank 1-PG on Draft Board (Dashboard)""))",Chrome 88.0.4324.192,,,2021-03-08 15:02:17,2021-03-08 15:02:17,0.182s,PASSED
"enhancedClick(findTestObject(""Dashboard Page/Draft Board (Dashboard)/blank 1-PG on Draft Board (Dashboard)""))",Chrome 88.0.4324.192,,,2021-03-08 15:02:17,2021-03-08 15:02:17,0.075s,PASSED
"enhancedClick(findTestObject(""Dashboard Page/Draft Board (Dashboard)/Draft Board Dropdown Player1""))",Chrome 88.0.4324.192,,,2021-03-08 15:02:17,2021-03-08 15:02:17,0.153s,PASSED
delay(1),Chrome 88.0.4324.192,,,2021-03-08 15:02:17,2021-03-08 15:02:18,1.007s,PASSED
"mouseOver(findTestObject(""Dashboard Page/Draft Board (Dashboard)/blank 2-PG on Draft Board (Dashboard)""))",Chrome 88.0.4324.192,,,2021-03-08 15:02:18,2021-03-08 15:02:18,0.196s,PASSED
"enhancedClick(findTestObject(""Dashboard Page/Draft Board (Dashboard)/blank 2-PG on Draft Board (Dashboard)""))",Chrome 88.0.4324.192,,,2021-03-08 15:02:18,2021-03-08 15:02:18,0.088s,PASSED
"enhancedClick(findTestObject(""Dashboard Page/Draft Board (Dashboard)/Recruit Search field""))",Chrome 88.0.4324.192,,,2021-03-08 15:02:18,2021-03-08 15:02:18,0.149s,PASSED
"sendKeys(findTestObject(""Dashboard Page/Draft Board (Dashboard)/Recruit Search field""), ""Mikey Williams"")",Chrome 88.0.4324.192,,,2021-03-08 15:02:18,2021-03-08 15:02:19,0.105s,PASSED
delay(2),Chrome 88.0.4324.192,,,2021-03-08 15:02:19,2021-03-08 15:02:21,2.007s,PASSED
"enhancedClick(findTestObject(""Dashboard Page/Draft Board (Dashboard)/Draft Board Dropdown Player2""))",Chrome 88.0.4324.192,,,2021-03-08 15:02:21,2021-03-08 15:02:21,0.085s,PASSED
"mouseOver(findTestObject(""Dashboard Page/Draft Board (Dashboard)/2-PG on Draft Board""))",Chrome 88.0.4324.192,,,2021-03-08 15:02:21,2021-03-08 15:02:21,0.230s,PASSED
"enhancedClick(findTestObject(""Dashboard Page/Draft Board (Dashboard)/Delete 2-PG on Draft Board""))",Chrome 88.0.4324.192,,,2021-03-08 15:02:21,2021-03-08 15:02:21,0.090s,PASSED
"mouseOver(findTestObject(""Dashboard Page/Draft Board (Dashboard)/1-PG on Draft Board""))",Chrome 88.0.4324.192,,,2021-03-08 15:02:21,2021-03-08 15:02:21,0.191s,PASSED
"enhancedClick(findTestObject(""Dashboard Page/Draft Board (Dashboard)/Delete 1-PG on Draft Board""))",Chrome 88.0.4324.192,,,2021-03-08 15:02:21,2021-03-08 15:02:21,0.078s,PASSED
"enhancedClick(findTestObject(""Dashboard Page/Draft Board (Dashboard)/Draft Board Link""))",Chrome 88.0.4324.192,,,2021-03-08 15:02:21,2021-03-08 15:02:21,0.124s,PASSED
closeBrowser(),Chrome 88.0.4324.192,,,2021-03-08 15:02:21,2021-03-08 15:02:21,0.097s,PASSED
,,,,,,,
Test Cases/Depth Chart,Chrome 88.0.4324.192,,,2021-03-08 15:02:21,2021-03-08 15:02:34,12.861s,PASSED
openBrowser(URL),Chrome 88.0.4324.192,,,2021-03-08 15:02:22,2021-03-08 15:02:23,1.535s,PASSED
"setText(findTestObject(""Login Page/Email""), email)",Chrome 88.0.4324.192,,,2021-03-08 15:02:23,2021-03-08 15:02:24,0.441s,PASSED
"setText(findTestObject(""Login Page/password""), password)",Chrome 88.0.4324.192,,,2021-03-08 15:02:24,2021-03-08 15:02:24,0.105s,PASSED
"click(findTestObject(""Login Page/Sign In""))",Chrome 88.0.4324.192,,,2021-03-08 15:02:24,2021-03-08 15:02:26,2.319s,PASSED
"waitForElementVisible(findTestObject(""Top Navigation Menu/Dashboard""), 60)",Chrome 88.0.4324.192,,,2021-03-08 15:02:26,2021-03-08 15:02:27,0.617s,PASSED
"enhancedClick(findTestObject(""Top Navigation Menu/Dashboard""))",Chrome 88.0.4324.192,,,2021-03-08 15:02:27,2021-03-08 15:02:27,0.076s,PASSED
delay(3),Chrome 88.0.4324.192,,,2021-03-08 15:02:27,2021-03-08 15:02:30,3.004s,PASSED
"enhancedClick(findTestObject(""Dashboard Page/Depth Chart/Depth Chart season dropdown""))",Chrome 88.0.4324.192,,,2021-03-08 15:02:30,2021-03-08 15:02:30,0.103s,PASSED
"enhancedClick(findTestObject(""Dashboard Page/Depth Chart/Season Dropdown Index3""))",Chrome 88.0.4324.192,,,2021-03-08 15:02:30,2021-03-08 15:02:30,0.104s,PASSED
"enhancedClick(findTestObject(""Dashboard Page/Depth Chart/Depth Chart season dropdown""))",Chrome 88.0.4324.192,,,2021-03-08 15:02:30,2021-03-08 15:02:30,0.074s,PASSED
"enhancedClick(findTestObject(""Dashboard Page/Depth Chart/Season Dropdown Index2""))",Chrome 88.0.4324.192,,,2021-03-08 15:02:30,2021-03-08 15:02:30,0.099s,PASSED
"enhancedClick(findTestObject(""Dashboard Page/Depth Chart/EDIT Depth Chart""))",Chrome 88.0.4324.192,,,2021-03-08 15:02:30,2021-03-08 15:02:30,0.151s,PASSED
"enhancedClick(findTestObject(""Dashboard Page/Depth Chart/Depth Chart Edit (sr, pg, 1)""))",Chrome 88.0.4324.192,,,2021-03-08 15:02:30,2021-03-08 15:02:30,0.163s,PASSED
"enhancedClick(findTestObject(""Dashboard Page/Depth Chart/SAVE Depth Chart""))",Chrome 88.0.4324.192,,,2021-03-08 15:02:30,2021-03-08 15:02:31,0.105s,PASSED
delay(2),Chrome 88.0.4324.192,,,2021-03-08 15:02:31,2021-03-08 15:02:33,2.005s,PASSED
"verifyTextNotPresent(playerHidden, false)",Chrome 88.0.4324.192,,,2021-03-08 15:02:33,2021-03-08 15:02:33,0.144s,PASSED
"enhancedClick(findTestObject(""Dashboard Page/Depth Chart/EDIT Depth Chart""))",Chrome 88.0.4324.192,,,2021-03-08 15:02:33,2021-03-08 15:02:33,0.111s,PASSED
"enhancedClick(findTestObject(""Dashboard Page/Depth Chart/Depth Chart Edit (sr, pg, 1)""))",Chrome 88.0.4324.192,,,2021-03-08 15:02:33,2021-03-08 15:02:33,0.117s,PASSED
"enhancedClick(findTestObject(""Dashboard Page/Depth Chart/SAVE Depth Chart""))",Chrome 88.0.4324.192,,,2021-03-08 15:02:33,2021-03-08 15:02:33,0.099s,PASSED
"verifyTextPresent(playerHidden, false)",Chrome 88.0.4324.192,,,2021-03-08 15:02:33,2021-03-08 15:02:33,0.245s,PASSED
delay(1),Chrome 88.0.4324.192,,,2021-03-08 15:02:33,2021-03-08 15:02:34,1.007s,PASSED
closeBrowser(),Chrome 88.0.4324.192,,,2021-03-08 15:02:34,2021-03-08 15:02:34,0.078s,PASSED
,,,,,,,
Test Cases/Dashboard Calendar,Chrome 88.0.4324.192,,,2021-03-08 15:02:34,2021-03-08 15:03:06,31.304s,FAILED
openBrowser(URL),Chrome 88.0.4324.192,,,2021-03-08 15:02:35,2021-03-08 15:02:36,1.748s,PASSED
"setText(findTestObject(""Login Page/Email""), email)",Chrome 88.0.4324.192,,,2021-03-08 15:02:36,2021-03-08 15:02:37,0.954s,PASSED
"setText(findTestObject(""Login Page/password""), password)",Chrome 88.0.4324.192,,,2021-03-08 15:02:37,2021-03-08 15:02:37,0.109s,PASSED
"click(findTestObject(""Login Page/Sign In""))",Chrome 88.0.4324.192,,,2021-03-08 15:02:37,2021-03-08 15:02:40,2.404s,PASSED
"waitForElementVisible(findTestObject(""Top Navigation Menu/Dashboard""), 60)",Chrome 88.0.4324.192,,,2021-03-08 15:02:40,2021-03-08 15:02:41,0.941s,PASSED
"enhancedClick(findTestObject(""Top Navigation Menu/Recruits""))",Chrome 88.0.4324.192,,,2021-03-08 15:02:41,2021-03-08 15:02:41,0.121s,PASSED
delay(3),Chrome 88.0.4324.192,,,2021-03-08 15:02:41,2021-03-08 15:02:44,3.005s,PASSED
"enhancedClick(findTestObject(""Top Navigation Menu/Dashboard""))",Chrome 88.0.4324.192,,,2021-03-08 15:02:44,2021-03-08 15:02:44,0.179s,PASSED
delay(3),Chrome 88.0.4324.192,,,2021-03-08 15:02:44,2021-03-08 15:02:47,3.003s,PASSED
"enhancedClick(findTestObject(""Dashboard Page/Calendar (Dashboard)/Toggle Left (Calendar Dashboard)""))",Chrome 88.0.4324.192,,,2021-03-08 15:02:47,2021-03-08 15:02:47,0.108s,PASSED
delay(5),Chrome 88.0.4324.192,,,2021-03-08 15:02:47,2021-03-08 15:02:52,5.007s,PASSED
"enhancedClick(findTestObject(""Dashboard Page/Calendar (Dashboard)/Toggle Right (Calendar Dashboard)""))",Chrome 88.0.4324.192,,,2021-03-08 15:02:52,2021-03-08 15:02:54,2.360s,PASSED
delay(5),Chrome 88.0.4324.192,,,2021-03-08 15:02:54,2021-03-08 15:02:59,5.008s,PASSED
"enhancedClick(findTestObject(""Dashboard Page/Calendar (Dashboard)/Dashboard Calendar SHOW dropdown""))",Chrome 88.0.4324.192,,,2021-03-08 15:02:59,2021-03-08 15:03:00,0.080s,PASSED
"enhancedClick(findTestObject(""Dashboard Page/Calendar (Dashboard)/My Calendar option""))",Chrome 88.0.4324.192,,,2021-03-08 15:03:00,2021-03-08 15:03:01,1.247s,PASSED
"enhancedClick(findTestObject(""Dashboard Page/Calendar (Dashboard)/My Calendar option""))",Chrome 88.0.4324.192,,,2021-03-08 15:03:01,2021-03-08 15:03:01,0.060s,PASSED
"enhancedClick(findTestObject(""Dashboard Page/Calendar (Dashboard)/Team calendar option""))",Chrome 88.0.4324.192,,,2021-03-08 15:03:01,2021-03-08 15:03:01,0.068s,PASSED
"enhancedClick(findTestObject(""Dashboard Page/Calendar (Dashboard)/Team calendar option""))",Chrome 88.0.4324.192,,,2021-03-08 15:03:01,2021-03-08 15:03:01,0.056s,PASSED
"enhancedClick(findTestObject(""Dashboard Page/Calendar (Dashboard)/Tasks calendar option""))",Chrome 88.0.4324.192,,,2021-03-08 15:03:01,2021-03-08 15:03:01,0.071s,PASSED
"enhancedClick(findTestObject(""Dashboard Page/Calendar (Dashboard)/Tasks calendar option""))",Chrome 88.0.4324.192,,,2021-03-08 15:03:01,2021-03-08 15:03:01,0.065s,PASSED
"enhancedClick(findTestObject(""Dashboard Page/Calendar (Dashboard)/NCAA Calendar option""))",Chrome 88.0.4324.192,,,2021-03-08 15:03:01,2021-03-08 15:03:01,0.072s,PASSED
"enhancedClick(findTestObject(""Dashboard Page/Calendar (Dashboard)/NCAA Calendar option""))",Chrome 88.0.4324.192,,,2021-03-08 15:03:01,2021-03-08 15:03:01,0.065s,PASSED
"enhancedClick(findTestObject(""Dashboard Page/Calendar (Dashboard)/My Live Period calendar option""))",Chrome 88.0.4324.192,,,2021-03-08 15:03:01,2021-03-08 15:03:01,0.072s,PASSED
"enhancedClick(findTestObject(""Dashboard Page/Calendar (Dashboard)/My Live Period calendar option""))",Chrome 88.0.4324.192,,,2021-03-08 15:03:01,2021-03-08 15:03:01,0.072s,PASSED
"enhancedClick(findTestObject(""Dashboard Page/Calendar (Dashboard)/Dashboard Calendar SHOW dropdown""))",Chrome 88.0.4324.192,,,2021-03-08 15:03:01,2021-03-08 15:03:01,0.060s,PASSED
"enhancedClick(findTestObject(""Dashboard Page/Calendar (Dashboard)/Dashboard Calendar Add New""))",Chrome 88.0.4324.192,,,2021-03-08 15:03:01,2021-03-08 15:03:02,0.138s,PASSED
"enhancedClick(findTestObject(""Dashboard Page/Calendar (Dashboard)/Add Event modal/Event Name field""))",Chrome 88.0.4324.192,,,2021-03-08 15:03:02,2021-03-08 15:03:02,0.095s,PASSED
"sendKeys(findTestObject(""Dashboard Page/Calendar (Dashboard)/Add Event modal/Event Name field""), ""Test Event1"")",Chrome 88.0.4324.192,,,2021-03-08 15:03:02,2021-03-08 15:03:02,0.080s,PASSED
"enhancedClick(findTestObject(""Dashboard Page/Calendar (Dashboard)/Add Event modal/Event Location field""))",Chrome 88.0.4324.192,,,2021-03-08 15:03:02,2021-03-08 15:03:02,0.093s,PASSED
"sendKeys(findTestObject(""Dashboard Page/Calendar (Dashboard)/Add Event modal/Event Location field""), ""444 N. Michigan Ave"")",Chrome 88.0.4324.192,,,2021-03-08 15:03:02,2021-03-08 15:03:02,0.100s,PASSED
"enhancedClick(findTestObject(""Dashboard Page/Calendar (Dashboard)/Add Event modal/Select searched location""))",Chrome 88.0.4324.192,,,2021-03-08 15:03:02,2021-03-08 15:03:02,0.085s,PASSED
"enhancedClick(findTestObject(""Dashboard Page/Calendar (Dashboard)/Add Event modal/Select Recruits dropdown""))",Chrome 88.0.4324.192,,,2021-03-08 15:03:02,2021-03-08 15:03:02,0.079s,PASSED
"enhancedClick(findTestObject(""Dashboard Page/Calendar (Dashboard)/Add Event modal/Recruit1 in dropdown (Add Event modal)""))",Chrome 88.0.4324.192,,,2021-03-08 15:03:02,2021-03-08 15:03:02,0.093s,PASSED
"enhancedClick(findTestObject(""Dashboard Page/Calendar (Dashboard)/Add Event modal/Add Event Attendees""))",Chrome 88.0.4324.192,,,2021-03-08 15:03:02,2021-03-08 15:03:02,0.082s,PASSED
"enhancedClick(findTestObject(""Dashboard Page/Calendar (Dashboard)/Add Event modal/Recruiters checkbox""))",Chrome 88.0.4324.192,,,2021-03-08 15:03:02,2021-03-08 15:03:02,0.110s,PASSED
"enhancedClick(findTestObject(""Dashboard Page/Calendar (Dashboard)/Add Event modal/Game Note field""))",Chrome 88.0.4324.192,,,2021-03-08 15:03:02,2021-03-08 15:03:02,0.091s,PASSED
"sendKeys(findTestObject(""Dashboard Page/Calendar (Dashboard)/Add Event modal/Game Note field""), ""arrive early"")",Chrome 88.0.4324.192,,,2021-03-08 15:03:02,2021-03-08 15:03:03,0.140s,PASSED
"enhancedClick(findTestObject(""Dashboard Page/Calendar (Dashboard)/Add Event modal/Add Event Save button""))",Chrome 88.0.4324.192,,,2021-03-08 15:03:03,2021-03-08 15:03:03,0.069s,PASSED
delay(2),Chrome 88.0.4324.192,,,2021-03-08 15:03:03,2021-03-08 15:03:05,2.005s,PASSED
"verifyTextPresent(""Test Event1"", false)",Chrome 88.0.4324.192,,,2021-03-08 15:03:05,2021-03-08 15:03:06,0.924s,FAILED
,,,,,,,
Test Cases/Add_Archive_Delete New Recruit,Chrome 88.0.4324.192,,,2021-03-08 15:03:06,2021-03-08 15:03:23,17.472s,PASSED
openBrowser(URL),Chrome 88.0.4324.192,,,2021-03-08 15:03:06,2021-03-08 15:03:07,1.587s,PASSED
"setText(findTestObject(""Login Page/Email""), email)",Chrome 88.0.4324.192,,,2021-03-08 15:03:07,2021-03-08 15:03:08,0.457s,PASSED
"setText(findTestObject(""Login Page/password""), password)",Chrome 88.0.4324.192,,,2021-03-08 15:03:08,2021-03-08 15:03:08,0.118s,PASSED
"click(findTestObject(""Login Page/Sign In""))",Chrome 88.0.4324.192,,,2021-03-08 15:03:08,2021-03-08 15:03:10,2.215s,PASSED
"waitForElementVisible(findTestObject(""Top Navigation Menu/Dashboard""), 60)",Chrome 88.0.4324.192,,,2021-03-08 15:03:10,2021-03-08 15:03:11,0.642s,PASSED
"click(findTestObject(""Top Navigation Menu/Recruits""))",Chrome 88.0.4324.192,,,2021-03-08 15:03:11,2021-03-08 15:03:11,0.149s,PASSED
"click(findTestObject(""Recruits Page/ADD RECRUIT button""))",Chrome 88.0.4324.192,,,2021-03-08 15:03:11,2021-03-08 15:03:11,0.141s,PASSED
"setText(findTestObject(""Recruits Page/Add New Recruit modal/First Name field""), ""Josh"")",Chrome 88.0.4324.192,,,2021-03-08 15:03:11,2021-03-08 15:03:12,1.224s,PASSED
"setText(findTestObject(""Recruits Page/Add New Recruit modal/Last Name field""), ""Allen"")",Chrome 88.0.4324.192,,,2021-03-08 15:03:12,2021-03-08 15:03:12,0.142s,PASSED
"setText(findTestObject(""Recruits Page/Add New Recruit modal/Class field""), ""2023"")",Chrome 88.0.4324.192,,,2021-03-08 15:03:12,2021-03-08 15:03:13,0.122s,PASSED
"click(findTestObject(""Recruits Page/Add New Recruit modal/Height field input""))",Chrome 88.0.4324.192,,,2021-03-08 15:03:13,2021-03-08 15:03:13,0.088s,PASSED
"setText(findTestObject(""Recruits Page/Add New Recruit modal/Height field input""), ""69"")",Chrome 88.0.4324.192,,,2021-03-08 15:03:13,2021-03-08 15:03:13,0.093s,PASSED
"setText(findTestObject(""Recruits Page/Add New Recruit modal/Birthdate field input""), ""1/1/2005"")",Chrome 88.0.4324.192,,,2021-03-08 15:03:13,2021-03-08 15:03:13,0.236s,PASSED
"enhancedClick(findTestObject(""Recruits Page/Add New Recruit modal/Birthdate field Label""))",Chrome 88.0.4324.192,,,2021-03-08 15:03:13,2021-03-08 15:03:13,0.125s,PASSED
"setText(findTestObject(""Recruits Page/Add New Recruit modal/High School field input""), ""highland park"")",Chrome 88.0.4324.192,,,2021-03-08 15:03:13,2021-03-08 15:03:13,0.173s,PASSED
"sendKeys(findTestObject(""Recruits Page/Add New Recruit modal/High School field input""), Keys.chord(DOWN))",Chrome 88.0.4324.192,,,2021-03-08 15:03:13,2021-03-08 15:03:13,0.084s,PASSED
"sendKeys(findTestObject(""Recruits Page/Add New Recruit modal/High School field input""), Keys.chord(ENTER))",Chrome 88.0.4324.192,,,2021-03-08 15:03:13,2021-03-08 15:03:13,0.060s,PASSED
"setText(findTestObject(""Recruits Page/Add New Recruit modal/High School Coach Name field""), ""Coach Miller"")",Chrome 88.0.4324.192,,,2021-03-08 15:03:13,2021-03-08 15:03:14,0.154s,PASSED
"setText(findTestObject(""Recruits Page/Add New Recruit modal/High School Coach Phone field""), ""8474713163"")",Chrome 88.0.4324.192,,,2021-03-08 15:03:14,2021-03-08 15:03:14,0.150s,PASSED
"setText(findTestObject(""Recruits Page/Add New Recruit modal/Club Team field""), ""Mac Irvin Fire"")",Chrome 88.0.4324.192,,,2021-03-08 15:03:14,2021-03-08 15:03:14,0.160s,PASSED
"setText(findTestObject(""Recruits Page/Add New Recruit modal/Club Team Number field""), ""10"")",Chrome 88.0.4324.192,,,2021-03-08 15:03:14,2021-03-08 15:03:14,0.107s,PASSED
"click(findTestObject(""Recruits Page/Add New Recruit modal/SAVE button""))",Chrome 88.0.4324.192,,,2021-03-08 15:03:14,2021-03-08 15:03:14,0.143s,PASSED
"setText(findTestObject(""Recruits Page/Recruit Search Field on Recruits page""), ""josh allen"")",Chrome 88.0.4324.192,,,2021-03-08 15:03:14,2021-03-08 15:03:14,0.230s,PASSED
delay(1),Chrome 88.0.4324.192,,,2021-03-08 15:03:14,2021-03-08 15:03:15,1.005s,PASSED
"click(findTestObject(""Recruits Page/Archive recruit""))",Chrome 88.0.4324.192,,,2021-03-08 15:03:15,2021-03-08 15:03:15,0.089s,PASSED
delay(1),Chrome 88.0.4324.192,,,2021-03-08 15:03:15,2021-03-08 15:03:17,1.005s,PASSED
"click(findTestObject(""Recruits Page/All Recruits List selection""))",Chrome 88.0.4324.192,,,2021-03-08 15:03:17,2021-03-08 15:03:17,0.084s,PASSED
delay(1),Chrome 88.0.4324.192,,,2021-03-08 15:03:17,2021-03-08 15:03:18,1.006s,PASSED
"click(findTestObject(""Recruits Page/Archived List selection""))",Chrome 88.0.4324.192,,,2021-03-08 15:03:18,2021-03-08 15:03:18,0.119s,PASSED
delay(1),Chrome 88.0.4324.192,,,2021-03-08 15:03:18,2021-03-08 15:03:19,1.007s,PASSED
"click(findTestObject(""Recruits Page/Archived list ellipsis button""))",Chrome 88.0.4324.192,,,2021-03-08 15:03:19,2021-03-08 15:03:19,0.086s,PASSED
delay(1),Chrome 88.0.4324.192,,,2021-03-08 15:03:19,2021-03-08 15:03:20,1.001s,PASSED
"click(findTestObject(""Recruits Page/Delete1""))",Chrome 88.0.4324.192,,,2021-03-08 15:03:20,2021-03-08 15:03:20,0.115s,PASSED
delay(1),Chrome 88.0.4324.192,,,2021-03-08 15:03:20,2021-03-08 15:03:21,1.004s,PASSED
"enhancedClick(findTestObject(""Recruits Page/Delete2""))",Chrome 88.0.4324.192,,,2021-03-08 15:03:21,2021-03-08 15:03:21,0.091s,PASSED
delay(2),Chrome 88.0.4324.192,,,2021-03-08 15:03:21,2021-03-08 15:03:23,2.004s,PASSED
closeBrowser(),Chrome 88.0.4324.192,,,2021-03-08 15:03:23,2021-03-08 15:03:23,0.081s,PASSED
,,,,,,,
Test Cases/Tasks,Chrome 88.0.4324.192,,,2021-03-08 15:03:23,2021-03-08 15:03:31,8.365s,PASSED
openBrowser(URL),Chrome 88.0.4324.192,,,2021-03-08 15:03:23,2021-03-08 15:03:25,1.750s,PASSED
"setText(findTestObject(""Login Page/Email""), email)",Chrome 88.0.4324.192,,,2021-03-08 15:03:25,2021-03-08 15:03:25,0.498s,PASSED
"setText(findTestObject(""Login Page/password""), password)",Chrome 88.0.4324.192,,,2021-03-08 15:03:25,2021-03-08 15:03:26,0.107s,PASSED
"click(findTestObject(""Login Page/Sign In""))",Chrome 88.0.4324.192,,,2021-03-08 15:03:26,2021-03-08 15:03:28,2.467s,PASSED
"waitForElementVisible(findTestObject(""Top Navigation Menu/Dashboard""), 60)",Chrome 88.0.4324.192,,,2021-03-08 15:03:28,2021-03-08 15:03:29,0.624s,PASSED
"enhancedClick(findTestObject(""Top Navigation Menu/Recruits""))",Chrome 88.0.4324.192,,,2021-03-08 15:03:29,2021-03-08 15:03:29,0.124s,PASSED
"enhancedClick(findTestObject(""Recruits Page/Tasks tab""))",Chrome 88.0.4324.192,,,2021-03-08 15:03:29,2021-03-08 15:03:29,0.107s,PASSED
"enhancedClick(findTestObject(""Recruits Page/Tasks/Add Task button""))",Chrome 88.0.4324.192,,,2021-03-08 15:03:29,2021-03-08 15:03:29,0.139s,PASSED
"enhancedClick(findTestObject(""Recruits Page/Tasks/Add Task Recruit field""))",Chrome 88.0.4324.192,,,2021-03-08 15:03:29,2021-03-08 15:03:30,0.653s,PASSED
"enhancedClick(findTestObject(""Recruits Page/Tasks/Add Task recruit dropdown1""))",Chrome 88.0.4324.192,,,2021-03-08 15:03:30,2021-03-08 15:03:30,0.086s,PASSED
"enhancedClick(findTestObject(""Recruits Page/Tasks/Add Task Assigned To field""))",Chrome 88.0.4324.192,,,2021-03-08 15:03:30,2021-03-08 15:03:30,0.122s,PASSED
"enhancedClick(findTestObject(""Recruits Page/Tasks/Add Task Assigned To dropdown1""))",Chrome 88.0.4324.192,,,2021-03-08 15:03:30,2021-03-08 15:03:30,0.079s,PASSED
"enhancedClick(findTestObject(""Recruits Page/Tasks/Add Task Instruction field""))",Chrome 88.0.4324.192,,,2021-03-08 15:03:30,2021-03-08 15:03:30,0.080s,PASSED
"setText(findTestObject(""Recruits Page/Tasks/Add Task Instruction field""), ""test task"")",Chrome 88.0.4324.192,,,2021-03-08 15:03:30,2021-03-08 15:03:30,0.131s,PASSED
"enhancedClick(findTestObject(""Recruits Page/Tasks/Save new task""))",Chrome 88.0.4324.192,,,2021-03-08 15:03:30,2021-03-08 15:03:30,0.079s,PASSED
"verifyElementVisible(findTestObject(""Recruits Page/Tasks/Due task1 row""))",Chrome 88.0.4324.192,,,2021-03-08 15:03:30,2021-03-08 15:03:30,0.192s,PASSED
"mouseOver(findTestObject(""Recruits Page/Tasks/Due task1 ellipsis""))",Chrome 88.0.4324.192,,,2021-03-08 15:03:30,2021-03-08 15:03:31,0.192s,PASSED
"enhancedClick(findTestObject(""Recruits Page/Tasks/Due task1 ellipsis""))",Chrome 88.0.4324.192,,,2021-03-08 15:03:31,2021-03-08 15:03:31,0.068s,PASSED
"enhancedClick(findTestObject(""Recruits Page/Tasks/Mark Tasks Completed button""))",Chrome 88.0.4324.192,,,2021-03-08 15:03:31,2021-03-08 15:03:31,0.086s,PASSED
"verifyElementNotPresent(findTestObject(""Recruits Page/Tasks/Due task1 row""), 0)",Chrome 88.0.4324.192,,,2021-03-08 15:03:31,2021-03-08 15:03:31,0.563s,PASSED
closeBrowser(),Chrome 88.0.4324.192,,,2021-03-08 15:03:31,2021-03-08 15:03:31,0.081s,PASSED
,,,,,,,
Test Cases/Features/Link To FastScout,Chrome 88.0.4324.192,,,2021-03-08 15:03:31,2021-03-08 15:03:48,16.217s,PASSED
openBrowser(URL),Chrome 88.0.4324.192,,,2021-03-08 15:03:32,2021-03-08 15:03:33,1.599s,PASSED
"setText(findTestObject(""Login Page/Email""), email)",Chrome 88.0.4324.192,,,2021-03-08 15:03:33,2021-03-08 15:03:34,0.483s,PASSED
"setText(findTestObject(""Login Page/password""), password)",Chrome 88.0.4324.192,,,2021-03-08 15:03:34,2021-03-08 15:03:34,0.108s,PASSED
"click(findTestObject(""Login Page/Sign In""))",Chrome 88.0.4324.192,,,2021-03-08 15:03:34,2021-03-08 15:03:36,2.167s,PASSED
"waitForElementVisible(findTestObject(""Top Navigation Menu/Dashboard""), 60)",Chrome 88.0.4324.192,,,2021-03-08 15:03:36,2021-03-08 15:03:37,0.605s,PASSED
"click(findTestObject(""Top Navigation Menu/Recruits""))",Chrome 88.0.4324.192,,,2021-03-08 15:03:37,2021-03-08 15:03:37,0.117s,PASSED
"click(findTestObject(""Recruits Page/ADD RECRUIT button""))",Chrome 88.0.4324.192,,,2021-03-08 15:03:37,2021-03-08 15:03:37,0.122s,PASSED
"enhancedClick(findTestObject(""Recruits Page/Add New Recruit modal/LinkToFastScout Folder/Link To FastScout button""))",Chrome 88.0.4324.192,,,2021-03-08 15:03:37,2021-03-08 15:03:38,1.194s,PASSED
"enhancedClick(findTestObject(""Recruits Page/Add New Recruit modal/LinkToFastScout Folder/League_Division dropdown""))",Chrome 88.0.4324.192,,,2021-03-08 15:03:38,2021-03-08 15:03:38,0.122s,PASSED
"enhancedClick(findTestObject(""Recruits Page/Add New Recruit modal/LinkToFastScout Folder/D-II League""))",Chrome 88.0.4324.192,,,2021-03-08 15:03:38,2021-03-08 15:03:38,0.085s,PASSED
"enhancedClick(findTestObject(""Recruits Page/Add New Recruit modal/LinkToFastScout Folder/Team dropdown (LFS)""))",Chrome 88.0.4324.192,,,2021-03-08 15:03:38,2021-03-08 15:03:38,0.100s,PASSED
"enhancedClick(findTestObject(""Recruits Page/Add New Recruit modal/LinkToFastScout Folder/Florida Southern (LFS)""))",Chrome 88.0.4324.192,,,2021-03-08 15:03:38,2021-03-08 15:03:38,0.096s,PASSED
"enhancedClick(findTestObject(""Recruits Page/Add New Recruit modal/LinkToFastScout Folder/Player dropdown (LFS)""))",Chrome 88.0.4324.192,,,2021-03-08 15:03:38,2021-03-08 15:03:39,0.089s,PASSED
"enhancedClick(findTestObject(""Recruits Page/Add New Recruit modal/LinkToFastScout Folder/Player10 (LFS)""))",Chrome 88.0.4324.192,,,2021-03-08 15:03:39,2021-03-08 15:03:39,0.095s,PASSED
"click(findTestObject(""Recruits Page/Add New Recruit modal/SAVE button""))",Chrome 88.0.4324.192,,,2021-03-08 15:03:39,2021-03-08 15:03:39,0.172s,PASSED
"setText(findTestObject(""Recruits Page/Recruit Search Field on Recruits page""), ""Wes Bongiorni"")",Chrome 88.0.4324.192,,,2021-03-08 15:03:39,2021-03-08 15:03:39,0.193s,PASSED
delay(1),Chrome 88.0.4324.192,,,2021-03-08 15:03:39,2021-03-08 15:03:40,1.003s,PASSED
"enhancedClick(findTestObject(""Recruits Page/Archive recruit""))",Chrome 88.0.4324.192,,,2021-03-08 15:03:40,2021-03-08 15:03:40,0.109s,PASSED
delay(1),Chrome 88.0.4324.192,,,2021-03-08 15:03:40,2021-03-08 15:03:41,1.005s,PASSED
"click(findTestObject(""Recruits Page/All Recruits List selection""))",Chrome 88.0.4324.192,,,2021-03-08 15:03:41,2021-03-08 15:03:41,0.087s,PASSED
delay(1),Chrome 88.0.4324.192,,,2021-03-08 15:03:41,2021-03-08 15:03:42,1.005s,PASSED
"click(findTestObject(""Recruits Page/Archived List selection""))",Chrome 88.0.4324.192,,,2021-03-08 15:03:42,2021-03-08 15:03:42,0.120s,PASSED
delay(1),Chrome 88.0.4324.192,,,2021-03-08 15:03:42,2021-03-08 15:03:43,1.005s,PASSED
"click(findTestObject(""Recruits Page/Archived list ellipsis button""))",Chrome 88.0.4324.192,,,2021-03-08 15:03:43,2021-03-08 15:03:43,0.088s,PASSED
delay(1),Chrome 88.0.4324.192,,,2021-03-08 15:03:43,2021-03-08 15:03:44,1.005s,PASSED
"click(findTestObject(""Recruits Page/Delete1""))",Chrome 88.0.4324.192,,,2021-03-08 15:03:44,2021-03-08 15:03:45,0.103s,PASSED
delay(1),Chrome 88.0.4324.192,,,2021-03-08 15:03:45,2021-03-08 15:03:46,1.006s,PASSED
"enhancedClick(findTestObject(""Recruits Page/Delete2""))",Chrome 88.0.4324.192,,,2021-03-08 15:03:46,2021-03-08 15:03:46,0.088s,PASSED
delay(2),Chrome 88.0.4324.192,,,2021-03-08 15:03:46,2021-03-08 15:03:48,2.002s,PASSED
closeBrowser(),Chrome 88.0.4324.192,,,2021-03-08 15:03:48,2021-03-08 15:03:48,0.082s,PASSED
,,,,,,,
Test Cases/Features/Video,Chrome 88.0.4324.192,,,2021-03-08 15:03:48,2021-03-08 15:04:29,41.501s,FAILED
openBrowser(URL),Chrome 88.0.4324.192,,,2021-03-08 15:03:48,2021-03-08 15:03:50,1.786s,PASSED
"setText(findTestObject(""Login Page/Email""), email)",Chrome 88.0.4324.192,,,2021-03-08 15:03:50,2021-03-08 15:03:50,0.450s,PASSED
"setText(findTestObject(""Login Page/password""), password)",Chrome 88.0.4324.192,,,2021-03-08 15:03:50,2021-03-08 15:03:50,0.099s,PASSED
"click(findTestObject(""Login Page/Sign In""))",Chrome 88.0.4324.192,,,2021-03-08 15:03:50,2021-03-08 15:03:52,2.124s,PASSED
"waitForElementVisible(findTestObject(""Top Navigation Menu/Dashboard""), 60)",Chrome 88.0.4324.192,,,2021-03-08 15:03:52,2021-03-08 15:03:53,0.595s,PASSED
"enhancedClick(findTestObject(""Top Navigation Menu/Recruits""))",Chrome 88.0.4324.192,,,2021-03-08 15:03:53,2021-03-08 15:03:53,0.118s,PASSED
"enhancedClick(findTestObject(""Recruits Page/Recruit Row1 Name""))",Chrome 88.0.4324.192,,,2021-03-08 15:03:53,2021-03-08 15:03:54,1.346s,PASSED
"enhancedClick(findTestObject(""Recruits Page/Recruit Profile (View)/VIDEOS tab""))",Chrome 88.0.4324.192,,,2021-03-08 15:03:54,2021-03-08 15:03:54,0.101s,PASSED
"uploadFile(findTestObject(""Recruit Profile (view)/Video Upload object""), ""/Users/jefffeldman/Desktop/Vids/NBA Playoffs 2019.mp4"")",Chrome 88.0.4324.192,,,2021-03-08 15:03:54,2021-03-08 15:03:55,0.104s,PASSED
"verifyElementPresent(findTestObject(""Recruit Profile (view)/Recruit Video row1""), 0)",Chrome 88.0.4324.192,,,2021-03-08 15:03:55,2021-03-08 15:03:55,0.459s,PASSED
delay(2),Chrome 88.0.4324.192,,,2021-03-08 15:03:55,2021-03-08 15:03:57,2.002s,PASSED
"mouseOver(findTestObject(""Recruit Profile (view)/Recruit Video row1""))",Chrome 88.0.4324.192,,,2021-03-08 15:03:57,2021-03-08 15:03:57,0.182s,PASSED
"enhancedClick(findTestObject(""Recruit Profile (view)/Delete Video Row1""))",Chrome 88.0.4324.192,,,2021-03-08 15:03:57,2021-03-08 15:03:57,0.100s,PASSED
"enhancedClick(findTestObject(""Recruit Profile (view)/Confirm Delete Video""))",Chrome 88.0.4324.192,,,2021-03-08 15:03:57,2021-03-08 15:04:29,31.901s,FAILED
,,,,,,,
Test Cases/Features/FastConnect,Chrome 88.0.4324.192,,,2021-03-08 15:04:29,2021-03-08 15:04:46,16.465s,PASSED
openBrowser(URL),Chrome 88.0.4324.192,,,2021-03-08 15:04:29,2021-03-08 15:04:31,1.569s,PASSED
"setText(findTestObject(""Login Page/Email""), email)",Chrome 88.0.4324.192,,,2021-03-08 15:04:31,2021-03-08 15:04:31,0.471s,PASSED
"setText(findTestObject(""Login Page/password""), password)",Chrome 88.0.4324.192,,,2021-03-08 15:04:31,2021-03-08 15:04:31,0.101s,PASSED
"click(findTestObject(""Login Page/Sign In""))",Chrome 88.0.4324.192,,,2021-03-08 15:04:31,2021-03-08 15:04:34,2.354s,PASSED
"waitForElementVisible(findTestObject(""Top Navigation Menu/Dashboard""), 60)",Chrome 88.0.4324.192,,,2021-03-08 15:04:34,2021-03-08 15:04:34,0.616s,PASSED
"enhancedClick(findTestObject(""Top Navigation Menu/Recruits""))",Chrome 88.0.4324.192,,,2021-03-08 15:04:34,2021-03-08 15:04:35,0.126s,PASSED
"enhancedClick(findTestObject(""Recruits Page/FastConnect tab""))",Chrome 88.0.4324.192,,,2021-03-08 15:04:35,2021-03-08 15:04:35,0.125s,PASSED
"enhancedClick(findTestObject(""Recruits Page/FastConnect/List dropdown""))",Chrome 88.0.4324.192,,,2021-03-08 15:04:35,2021-03-08 15:04:35,0.087s,PASSED
"enhancedClick(findTestObject(""Recruits Page/FastConnect/All Recruits list dropdown""))",Chrome 88.0.4324.192,,,2021-03-08 15:04:35,2021-03-08 15:04:36,0.798s,PASSED
delay(10),Chrome 88.0.4324.192,,,2021-03-08 15:04:36,2021-03-08 15:04:46,10.002s,PASSED
"verifyElementVisible(findTestObject(""Recruits Page/FastConnect/Fastconnect post1""), STOP_ON_FAILURE)",Chrome 88.0.4324.192,,,2021-03-08 15:04:46,2021-03-08 15:04:46,0.091s,PASSED
,,,,,,,
Test Cases/Tourney Workflow,Chrome 88.0.4324.192,,,2021-03-08 15:04:46,2021-03-08 15:05:03,17.098s,FAILED
openBrowser(URL),Chrome 88.0.4324.192,,,2021-03-08 15:04:46,2021-03-08 15:04:47,1.591s,PASSED
"setText(findTestObject(""Login Page/Email""), email)",Chrome 88.0.4324.192,,,2021-03-08 15:04:47,2021-03-08 15:04:48,0.451s,PASSED
"setText(findTestObject(""Login Page/password""), password)",Chrome 88.0.4324.192,,,2021-03-08 15:04:48,2021-03-08 15:04:48,0.100s,PASSED
"click(findTestObject(""Login Page/Sign In""))",Chrome 88.0.4324.192,,,2021-03-08 15:04:48,2021-03-08 15:04:50,2.233s,PASSED
"waitForElementVisible(findTestObject(""Top Navigation Menu/Dashboard""), 60)",Chrome 88.0.4324.192,,,2021-03-08 15:04:50,2021-03-08 15:04:51,0.601s,PASSED
"enhancedClick(findTestObject(""Top Navigation Menu/Tourneys""))",Chrome 88.0.4324.192,,,2021-03-08 15:04:51,2021-03-08 15:04:51,0.095s,PASSED
"enhancedClick(findTestObject(""Tourneys page/Tourney list dropdown""))",Chrome 88.0.4324.192,,,2021-03-08 15:04:51,2021-03-08 15:04:52,0.628s,PASSED
enhancedClick(tourneySession),Chrome 88.0.4324.192,,,2021-03-08 15:04:52,2021-03-08 15:04:52,0.083s,PASSED
"enhancedClick(findTestObject(""Tourneys page/Tourneys header""))",Chrome 88.0.4324.192,,,2021-03-08 15:04:52,2021-03-08 15:04:52,0.109s,PASSED
"enhancedClick(findTestObject(""Tourneys page/Tourney1 listed""))",Chrome 88.0.4324.192,,,2021-03-08 15:04:52,2021-03-08 15:04:52,0.213s,PASSED
"enhancedClick(findTestObject(""Tourneys page/Assign Staff button""))",Chrome 88.0.4324.192,,,2021-03-08 15:04:52,2021-03-08 15:04:52,0.163s,PASSED
"enhancedClick(findTestObject(""Tourneys page/Assign Staff User1 checkbox""))",Chrome 88.0.4324.192,,,2021-03-08 15:04:52,2021-03-08 15:04:52,0.129s,PASSED
"enhancedClick(findTestObject(""Tourneys page/Assign Staff SAVE button""))",Chrome 88.0.4324.192,,,2021-03-08 15:04:52,2021-03-08 15:04:52,0.082s,PASSED
delay(1),Chrome 88.0.4324.192,,,2021-03-08 15:04:52,2021-03-08 15:04:53,1.005s,PASSED
"enhancedClick(findTestObject(""Tourneys page/Assign Recruits button""))",Chrome 88.0.4324.192,,,2021-03-08 15:04:53,2021-03-08 15:04:53,0.109s,PASSED
"enhancedClick(findTestObject(""Tourneys page/Select Recruits dropdown""))",Chrome 88.0.4324.192,,,2021-03-08 15:04:53,2021-03-08 15:04:54,0.520s,PASSED
"enhancedClick(findTestObject(""Tourneys page/Assign Recruits dropdown list1""))",Chrome 88.0.4324.192,,,2021-03-08 15:04:54,2021-03-08 15:04:54,0.084s,PASSED
"enhancedClick(findTestObject(""Tourneys page/Assign Recruits SAVE button""))",Chrome 88.0.4324.192,,,2021-03-08 15:04:54,2021-03-08 15:04:54,0.073s,PASSED
"enhancedClick(findTestObject(""Tourneys page/Select Tourney Team dropdown""))",Chrome 88.0.4324.192,,,2021-03-08 15:04:54,2021-03-08 15:04:54,0.331s,PASSED
"enhancedClick(findTestObject(""Tourneys page/Select Tourney Team dropdown1""))",Chrome 88.0.4324.192,,,2021-03-08 15:04:54,2021-03-08 15:04:54,0.079s,PASSED
delay(2),Chrome 88.0.4324.192,,,2021-03-08 15:04:54,2021-03-08 15:04:56,2.006s,PASSED
"enhancedClick(findTestObject(""Tourneys page/Tourney GAMES tab""))",Chrome 88.0.4324.192,,,2021-03-08 15:04:56,2021-03-08 15:04:57,0.092s,PASSED
delay(3),Chrome 88.0.4324.192,,,2021-03-08 15:04:57,2021-03-08 15:05:00,3.006s,PASSED
"verifyElementPresent(findTestObject(""Tourneys page/GAMES tab row1""), 0)",Chrome 88.0.4324.192,,,2021-03-08 15:05:00,2021-03-08 15:05:00,0.051s,PASSED
"gameDate = getText(findTestObject(""Tourneys page/GAMES tab row1 Date""))",Chrome 88.0.4324.192,,,2021-03-08 15:05:00,2021-03-08 15:05:00,0.061s,PASSED
"enhancedClick(findTestObject(""Top Navigation Menu/Schedule""))",Chrome 88.0.4324.192,,,2021-03-08 15:05:00,2021-03-08 15:05:00,0.144s,PASSED
"enhancedClick(findTestObject(""Schedule Page/Calendar from date filter""))",Chrome 88.0.4324.192,,,2021-03-08 15:05:00,2021-03-08 15:05:00,0.104s,PASSED
"sendKeys(findTestObject(""Schedule Page/Calendar from date filter""), Keys.chord(BACK_SPACE))",Chrome 88.0.4324.192,,,2021-03-08 15:05:00,2021-03-08 15:05:00,0.074s,PASSED
"sendKeys(findTestObject(""Schedule Page/Calendar from date filter""), Keys.chord(BACK_SPACE))",Chrome 88.0.4324.192,,,2021-03-08 15:05:00,2021-03-08 15:05:00,0.073s,PASSED
"sendKeys(findTestObject(""Schedule Page/Calendar from date filter""), Keys.chord(BACK_SPACE))",Chrome 88.0.4324.192,,,2021-03-08 15:05:00,2021-03-08 15:05:00,0.067s,PASSED
"sendKeys(findTestObject(""Schedule Page/Calendar from date filter""), Keys.chord(BACK_SPACE))",Chrome 88.0.4324.192,,,2021-03-08 15:05:00,2021-03-08 15:05:00,0.065s,PASSED
"sendKeys(findTestObject(""Schedule Page/Calendar from date filter""), Keys.chord(BACK_SPACE))",Chrome 88.0.4324.192,,,2021-03-08 15:05:00,2021-03-08 15:05:00,0.068s,PASSED
"sendKeys(findTestObject(""Schedule Page/Calendar from date filter""), Keys.chord(BACK_SPACE))",Chrome 88.0.4324.192,,,2021-03-08 15:05:00,2021-03-08 15:05:00,0.072s,PASSED
"sendKeys(findTestObject(""Schedule Page/Calendar from date filter""), Keys.chord(BACK_SPACE))",Chrome 88.0.4324.192,,,2021-03-08 15:05:00,2021-03-08 15:05:00,0.072s,PASSED
"sendKeys(findTestObject(""Schedule Page/Calendar from date filter""), Keys.chord(BACK_SPACE))",Chrome 88.0.4324.192,,,2021-03-08 15:05:00,2021-03-08 15:05:01,0.074s,PASSED
"sendKeys(findTestObject(""Schedule Page/Calendar from date filter""), Keys.chord(BACK_SPACE))",Chrome 88.0.4324.192,,,2021-03-08 15:05:01,2021-03-08 15:05:01,0.095s,PASSED
"setText(findTestObject(""Schedule Page/Calendar from date filter""), gameDate)",Chrome 88.0.4324.192,,,2021-03-08 15:05:01,2021-03-08 15:05:01,0.175s,PASSED
"sendKeys(findTestObject(""Schedule Page/Calendar from date filter""), Keys.chord(ENTER))",Chrome 88.0.4324.192,,,2021-03-08 15:05:01,2021-03-08 15:05:01,0.087s,PASSED
"verifyElementPresent(findTestObject(""Schedule Page/Row1 on Schedule List""), 0)",Chrome 88.0.4324.192,,,2021-03-08 15:05:01,2021-03-08 15:05:01,0.042s,PASSED
"enhancedClick(findTestObject(""Top Navigation Menu/Tourneys""))",Chrome 88.0.4324.192,,,2021-03-08 15:05:01,2021-03-08 15:05:01,0.089s,PASSED
"enhancedClick(findTestObject(""Tourneys page/Tourney list dropdown""))",Chrome 88.0.4324.192,,,2021-03-08 15:05:01,2021-03-08 15:05:02,0.729s,PASSED
enhancedClick(tourneySession),Chrome 88.0.4324.192,,,2021-03-08 15:05:02,2021-03-08 15:05:02,0.081s,PASSED
"enhancedClick(findTestObject(""Tourneys page/Tourneys header""))",Chrome 88.0.4324.192,,,2021-03-08 15:05:02,2021-03-08 15:05:02,0.062s,PASSED
"enhancedClick(findTestObject(""Tourneys page/Tourney1 listed""))",Chrome 88.0.4324.192,,,2021-03-08 15:05:02,2021-03-08 15:05:03,0.875s,FAILED
